13:07:11		x: -2.8981812	y: 7.606379	z: 5.9477954
13:07:11		x: -3.727772	y: 6.045958	z: 8.026561
13:07:11		x: -3.731962	y: 3.3871968	z: 7.131728
13:07:11		x: -2.3307555	y: 3.9630024	z: 3.5793316
13:07:12		x: -5.5551467	y: 4.372411	z: 9.706094
13:07:12		x: 6.782175	y: 7.41604	z: 12.73416
13:07:12		x: 1.8273745	y: 5.5192337	z: 17.327436
13:07:12		x: -0.007182605	y: 7.731476	z: 2.7820623
13:07:12		x: -1.0450691	y: 5.7383027	z: 5.0020857
13:07:12		x: -0.06344634	y: 8.1079645	z: 4.782418
13:07:13		x: -0.64463884	y: 8.432977	z: 4.5142674
13:07:13		x: -0.31364042	y: 9.080608	z: 3.8504748
13:07:13		x: -0.5093664	y: 8.244433	z: 6.861782
13:07:13		x: -0.62368953	y: 8.4587145	z: 4.960786
13:07:13		x: -0.97264445	y: 9.035717	z: 4.4939165
13:07:13		x: 0.9343372	y: 7.7985134	z: 5.4743423
