13:22:46		x: 8.0
13:22:47		x: 8.0
13:22:47		x: 7.0
13:22:47		x: 4.0
13:22:47		x: 0.0
13:22:47		x: 0.0
13:22:47		x: 1.0
13:22:48		x: 1.0
13:22:48		x: 0.0
13:22:48		x: 0.0
13:22:48		x: 1.0
13:22:48		x: 2.0
13:22:49		x: 0.0
13:22:49		x: 0.0
13:22:49		x: 0.0
13:22:49		x: 0.0
13:22:49		x: 0.0
13:22:49		x: 0.0
13:22:50		x: 0.0
13:22:50		x: 0.0
13:22:50		x: 0.0
13:22:50		x: 1.0
13:22:50		x: 1.0
13:22:51		x: 1.0
13:22:51		x: 1.0
13:22:51		x: 0.0
13:22:51		x: 0.0
13:22:51		x: 0.0
13:22:51		x: 0.0
13:22:52		x: 0.0
13:22:52		x: 0.0
13:22:52		x: 0.0
13:22:52		x: 0.0
13:22:52		x: 0.0
13:22:53		x: 0.0
13:22:53		x: 0.0
13:22:53		x: 0.0
13:22:53		x: 0.0
13:22:53		x: 0.0
13:22:53		x: 0.0
13:22:54		x: 0.0
13:22:54		x: 0.0
13:22:54		x: 0.0
13:22:54		x: 0.0
13:22:54		x: 0.0
13:22:55		x: 3.0
13:22:55		x: 6.0
13:22:55		x: 7.0
13:22:55		x: 8.0
13:22:55		x: 5.0
13:22:55		x: 8.0
13:22:56		x: 8.0
13:22:56		x: 9.0
