18:30:44		x: -44.685	y: 12.886	z: -32.397
18:30:44		x: -44.685	y: 11.859	z: -32.09
18:30:44		x: -44.685	y: -6.573	z: -14.965
18:30:44		x: -44.685	y: -15.757	z: -6.97
18:30:44		x: -44.685	y: -14.611	z: -2.861
18:30:45		x: -44.685	y: -30.981	z: 9.211
18:30:45		x: -41.859	y: -42.558	z: 23.353
18:30:45		x: -32.159	y: -44.903	z: 26.754
18:30:45		x: -36.466	y: -43.843	z: 24.557
18:30:45		x: -43.603	y: -40.286	z: 25.424
18:30:45		x: -44.171	y: -39.469	z: 26.821
18:30:46		x: -46.173	y: -40.074	z: 22.213
18:30:46		x: -41.743	y: -44.168	z: 25.964
18:30:46		x: -39.802	y: -44.511	z: 27.639
18:30:46		x: -31.956	y: -45.683	z: 40.325
18:30:46		x: 8.079	y: -20.513	z: 58.113
18:30:47		x: -37.956	y: -59.55	z: 37.178
18:30:47		x: -33.2	y: -53.424	z: 34.889
18:30:47		x: -51.908	y: -69.14	z: 35.534
18:30:47		x: -46.043	y: -63.403	z: 35.534
18:30:47		x: -52.339	y: -68.719	z: 38.51
18:30:47		x: -49.952	y: -65.031	z: 41.725
18:30:48		x: -68.0	y: -84.321	z: 52.374
18:30:48		x: -58.041	y: -71.612	z: 43.933
18:30:48		x: -29.438	y: -51.773	z: 46.142
18:30:48		x: -44.361	y: -72.86	z: 47.511
18:30:48		x: -45.167	y: -83.926	z: 60.726
18:30:49		x: -38.504	y: -58.786	z: 33.37
18:30:49		x: -29.85	y: -51.203	z: 34.068
18:30:49		x: -47.045	y: -67.811	z: 36.293
18:30:49		x: -54.643	y: -77.258	z: 48.252
18:30:49		x: -14.926	y: -13.604	z: 30.796
18:30:49		x: -6.356	y: -14.108	z: 37.286
18:30:50		x: -34.202	y: -53.405	z: 37.742
18:30:50		x: -44.845	y: -64.88	z: 40.933
18:30:50		x: 8.998	y: -1.722	z: 45.004
18:30:50		x: -18.93	y: -31.639	z: 30.702
18:30:50		x: -48.553	y: -73.919	z: 48.506
18:30:50		x: -34.373	y: -57.833	z: 38.491
18:30:51		x: 9.967	y: 5.342	z: 60.375
18:30:51		x: -47.789	y: -62.596	z: 32.504
18:30:51		x: -41.22	y: -61.181	z: 50.239
18:30:51		x: -18.844	y: -31.967	z: 39.247
18:30:51		x: -1.254	y: -23.309	z: 46.188
18:30:52		x: -37.921	y: -72.602	z: 54.731
18:30:52		x: -39.855	y: -70.787	z: 63.482
18:30:52		x: 3.376	y: -16.696	z: 54.699
18:30:52		x: -7.945	y: -30.801	z: 49.208
18:30:52		x: -37.561	y: -60.337	z: 56.251
18:30:52		x: -56.861	y: -78.578	z: 48.875
18:30:53		x: 7.875	y: 0.923	z: 57.493
18:30:53		x: -45.594	y: -66.041	z: 44.16
18:30:53		x: -53.43	y: -70.501	z: 54.876
18:30:53		x: -25.543	y: -29.612	z: 40.875
18:30:53		x: 3.793	y: -2.923	z: 54.942
18:30:54		x: -42.204	y: -57.312	z: 41.474
18:30:54		x: -48.556	y: -61.286	z: 50.685
18:30:54		x: -33.132	y: -28.474	z: 36.587
18:30:54		x: -7.211	y: -8.256	z: 52.87
18:30:54		x: -42.21	y: -51.562	z: 49.066
18:30:54		x: -48.811	y: -69.004	z: 53.948
18:30:55		x: -25.378	y: -36.137	z: 33.384
18:30:55		x: -18.003	y: -30.195	z: 36.396
18:30:55		x: -35.635	y: -46.389	z: 38.998
18:30:55		x: -43.389	y: -60.536	z: 43.82
18:30:55		x: -22.604	y: -34.576	z: 40.016
18:30:55		x: -29.536	y: -50.871	z: 45.916
18:30:56		x: -44.885	y: -71.334	z: 56.455
18:30:56		x: -50.019	y: -81.634	z: 54.881
18:30:56		x: -48.753	y: -73.266	z: 35.525
18:30:56		x: -57.701	y: -90.62	z: 46.044
18:30:56		x: -50.469	y: -84.988	z: 49.082
18:30:57		x: -54.94	y: -98.289	z: 56.858
18:30:57		x: -51.103	y: -103.651	z: 57.333
18:30:57		x: -38.087	y: -92.999	z: 47.088
18:30:57		x: -1.809	y: -35.459	z: 95.59
18:30:57		x: -12.203	y: -62.142	z: 61.038
18:30:57		x: -7.971	y: -63.442	z: 45.77
18:30:58		x: -22.755	y: -68.309	z: 46.479
18:30:58		x: -28.848	y: -59.941	z: 30.786
18:30:58		x: -36.349	y: -44.038	z: 7.844
18:30:58		x: -43.93	y: -40.437	z: 7.844
18:30:58		x: -44.927	y: -41.098	z: 9.159
18:30:59		x: -45.883	y: -40.051	z: 9.159
18:30:59		x: -46.458	y: -40.051	z: 9.159
18:30:59		x: -49.205	y: -39.122	z: 9.658
18:30:59		x: -49.205	y: -39.122	z: 9.121
18:30:59		x: -48.2	y: -38.574	z: 9.576
18:30:59		x: -48.2	y: -38.183	z: 9.576
