18:30:44		x: -0.010079277	y: -0.14782938	z: -0.5488624
18:30:44		x: -0.02443461	y: -0.33475417	z: -0.50732356
18:30:44		x: 0.4905248	y: -0.38728857	z: -1.1450669
18:30:44		x: 0.49205196	y: -0.17806722	z: -1.078788
18:30:44		x: 0.6569856	y: 0.33322698	z: -1.4407257
18:30:45		x: 0.96974856	y: -1.2116512	z: -3.1468723
18:30:45		x: -1.7421877	y: -2.8066204	z: -1.153619
18:30:45		x: -0.47861293	y: -5.3123894	z: 1.2333369
18:30:45		x: -0.5479461	y: -2.6087	z: 0.14752395
18:30:45		x: -0.40011674	y: -1.1096367	z: 1.2751812
18:30:45		x: -0.9987647	y: -0.7852673	z: -2.1502457
18:30:46		x: 1.207986	y: 0.49663344	z: -0.68783426
18:30:46		x: 0.41508293	y: 0.08124508	z: -0.5204572
18:30:46		x: 1.0079277	y: 0.1459968	z: -2.2531765
18:30:46		x: -0.50732356	y: 0.73456544	z: -1.9361374
18:30:46		x: 0.6258314	y: -0.043066	z: -0.5564982
18:30:47		x: -1.2006557	y: -0.90224797	z: 0.26297748
18:30:47		x: -0.4990769	y: -0.13500121	z: -0.1423316
18:30:47		x: 0.047036625	y: 0.3417791	z: 0.1994475
18:30:47		x: 1.4489723	y: 0.17440203	z: -0.12308934
18:30:47		x: 2.1707096	y: -1.0027353	z: -0.75869465
18:30:47		x: -0.5549711	y: 0.1685988	z: -0.97097033
18:30:48		x: -2.4339926	y: 0.3857614	z: 1.8909334
18:30:48		x: 0.5742133	y: 3.2372804	z: 0.27366763
18:30:48		x: -1.5305228	y: -0.4792238	z: -1.847562
18:30:48		x: 0.4089743	y: 0.15760323	z: -1.6966782
18:30:48		x: -2.5616634	y: 0.59681535	z: 2.3585508
18:30:49		x: 1.5100589	y: 1.0360274	z: 0.89888823
18:30:49		x: 1.8191566	y: 0.977079	z: -2.218968
18:30:49		x: -0.32925636	y: -0.68416905	z: -0.82344633
18:30:49		x: -2.0186043	y: 2.0638082	z: -0.79229224
18:30:49		x: 0.87598073	y: -2.1630738	z: 0.47952923
18:30:49		x: 4.021937	y: 0.3717115	z: -1.9425515
18:30:50		x: -2.4654522	y: 0.46853364	z: 0.6951646
18:30:50		x: 0.17654006	y: 0.9285152	z: -0.21288654
18:30:50		x: -3.0903673	y: -0.51343226	z: -0.082161374
18:30:50		x: 1.8432859	y: -1.8212948	z: -0.312763
18:30:50		x: -4.0289617	y: -0.3484986	z: 0.6927212
18:30:50		x: 1.4312572	y: 1.1255192	z: -0.09468412
18:30:51		x: 0.61422503	y: 0.077579886	z: 0.84849185
18:30:51		x: 0.042760566	y: -1.4312572	z: -0.7831292
18:30:51		x: -2.7907379	y: 1.1917981	z: 1.8930714
18:30:51		x: 1.5519031	y: -0.7125743	z: 0.7678576
18:30:51		x: 3.0320296	y: 0.5494733	z: -1.2030991
18:30:52		x: -0.829555	y: 1.2183707	z: 0.074830994
18:30:52		x: 0.40133846	y: 1.8041905	z: -0.18753563
18:30:52		x: 1.3078625	y: -2.4474316	z: 0.3491095
18:30:52		x: 3.3060026	y: -3.5827246	z: -1.3710871
18:30:52		x: -3.4504724	y: 2.2879958	z: 0.84574294
18:30:52		x: 0.73761976	y: 0.017104227	z: 0.4166101
18:30:53		x: 2.6682594	y: -1.8558086	z: -1.7910569
18:30:53		x: -0.2657264	y: -2.9706378	z: -0.3662137
18:30:53		x: -1.5439619	y: -0.48075095	z: 0.22296582
18:30:53		x: 1.5971072	y: 1.078788	z: 0.6407976
18:30:53		x: 3.0720413	y: 2.0818288	z: -0.72173727
18:30:54		x: -0.8164214	y: 0.14538592	z: -0.31764993
18:30:54		x: -3.4324517	y: 0.9569204	z: 0.7098254
18:30:54		x: 0.56505036	y: -2.346639	z: 0.62980205
18:30:54		x: 3.004846	y: 0.41050145	z: -1.7733418
18:30:54		x: -1.0045679	y: 1.0622946	z: 0.44226643
18:30:54		x: -1.0784826	y: 1.2428054	z: -0.012217305
18:30:55		x: 1.4431691	y: -2.9345965	z: 0.17012598
18:30:55		x: 3.6377025	y: -0.8912524	z: -0.8155051
18:30:55		x: -1.5855007	y: 0.5137377	z: 1.0247264
18:30:55		x: -0.8054258	y: 0.083383106	z: 0.12889257
18:30:55		x: 1.3585643	y: -2.410169	z: 1.0360274
18:30:55		x: 3.1499267	y: -1.7519615	z: -1.7363845
18:30:56		x: -1.0775663	y: 1.2513574	z: 1.1087204
18:30:56		x: -1.5622878	y: 0.5149594	z: -0.43401974
18:30:56		x: 0.6151413	y: -0.70432764	z: 1.0009027
18:30:56		x: 0.8414669	y: 0.3454443	z: -0.076052725
18:30:56		x: 0.43768495	y: 1.8017471	z: 0.06505715
18:30:57		x: -0.20525073	y: -0.95294976	z: -0.85154617
18:30:57		x: -0.23915374	y: -0.05589417	z: -0.16401732
18:30:57		x: 0.29901853	y: -1.2513574	z: 0.6301075
18:30:57		x: 2.2382102	y: -1.0213667	z: -0.4578435
18:30:57		x: -1.178359	y: -1.8188512	z: -0.7965683
18:30:58		x: 1.7446312	y: -4.2021422	z: -0.3622431
18:30:58		x: -1.3863586	y: -1.2211196	z: -0.5439755
18:30:58		x: -2.510656	y: -2.0540345	z: -1.4431691
18:30:58		x: -0.5338962	y: -4.099822	z: -0.1591304
18:30:58		x: 0.37110063	y: -0.58276546	z: 0.15149458
18:30:58		x: 0.028405234	y: -0.20097467	z: 0.099265605
18:30:59		x: 0.20280726	y: 0.03176499	z: 0.39645153
18:30:59		x: -0.16554448	y: 0.40500367	z: -0.12736541
18:30:59		x: -0.17287487	y: -0.2669481	z: -0.09315695
18:30:59		x: -0.032375857	y: -0.07513642	z: 0.0015271631
18:30:59		x: 0.016798794	y: 0.020158553	z: 0.009773844
18:30:59		x: 0.003970624	y: 0.12064589	z: 0.0018325958
