20:18:31		x: 1005.74
20:18:31		x: 1005.75
20:18:31		x: 1005.69
20:18:31		x: 1005.78
20:18:31		x: 1005.68
20:18:32		x: 1005.74
20:18:32		x: 1005.74
20:18:32		x: 1005.75
20:18:32		x: 1005.74
20:18:32		x: 1005.75
20:18:32		x: 1005.74
20:18:33		x: 1005.81
20:18:33		x: 1005.78
20:18:33		x: 1005.75
20:18:33		x: 1005.77
20:18:33		x: 1005.74
20:18:33		x: 1005.79
20:18:34		x: 1005.81
20:18:34		x: 1005.73
20:18:34		x: 1005.8
20:18:34		x: 1005.74
20:18:34		x: 1005.67
20:18:35		x: 1005.74
20:18:35		x: 1005.85
20:18:35		x: 1005.79
20:18:35		x: 1005.81
20:18:35		x: 1005.8
20:18:35		x: 1005.76
20:18:36		x: 1005.73
20:18:36		x: 1005.77
20:18:36		x: 1005.8
20:18:36		x: 1005.67
20:18:36		x: 1005.74
20:18:37		x: 1005.67
20:18:37		x: 1005.69
20:18:37		x: 1005.65
20:18:37		x: 1005.74
20:18:37		x: 1005.73
20:18:37		x: 1005.74
20:18:38		x: 1005.73
20:18:38		x: 1005.63
20:18:38		x: 1005.65
20:18:38		x: 1005.63
20:18:38		x: 1005.65
20:18:39		x: 1005.62
20:18:39		x: 1005.74
