8 1:45.1971754108 2:16.3218790394 3:25.8554025451 4:9.87623793749 5:97.5400757979 6:9.09680480474 7:-11.857060668 8:2.22044604925e-16 9:6.14763351896 10:37.7933978834 11:4.79708986578 12:-4.5015081563 13:0.24730765507 14:2.69604478379 15:7.26865747618 16:3.81448370553 17:-3.66188983018 18:0.24344870749 19:2.12116790587 20:4.49935328488 21:2.03437265635 22:-8.85260723056 23:-1.38049086659 24:3.03339832118 25:9.20150537492 26:6.81859907483 27:-7.77898698828 28:0.0424259036637 29:4.92414273061 30:24.2471816314 
8 1:46.268464202 2:22.7291978234 3:30.3944246541 4:8.07089304351 5:65.1393145197 6:9.42009083324 7:-12.6116153334 8:-9.04038748623e-16 9:6.24969776558 10:39.0587221611 11:4.82606715186 12:-5.10827731072 13:0.309410151347 14:2.84575628289 15:8.09832882162 16:3.61666742353 17:-3.84961303084 18:-0.105011668718 19:2.04805423912 20:4.19452616636 21:2.12759921694 22:-10.9422120994 23:-1.77598825267 24:3.68635757696 25:13.5892321852 26:6.21511317091 27:-6.38634784454 28:0.244804281627 29:4.23960483359 30:17.974249145 
8 1:35.638837949 2:25.4539285444 3:28.7501883874 4:3.50701927809 5:12.2991842169 6:3.9400436578 7:-5.19752484585 8:-1.33226762955e-15 9:2.64506052673 10:6.99634519008 11:2.08428210209 12:-2.1448855127 13:0.274784208616 14:1.34713704094 15:1.81477820706 16:1.6550854713 17:-1.04227848011 18:-0.136647728246 19:0.762485898293 20:0.581384745095 21:1.99690301068 22:-10.8005269825 23:-1.73819671241 24:3.49776809459 25:12.2343816435 26:5.72941504923 27:-7.53574315541 28:0.33110587117 29:4.62700875144 30:21.4092099859 
8 1:32.99959517 2:22.6856247339 3:26.1018380433 4:3.53085670428 5:12.4669490661 6:2.68223252664 7:-3.35137776016 8:-3.25136742926e-16 9:1.89520522989 10:3.59180286339 11:1.51207319113 12:-1.28960169655 13:0.164655404371 14:0.88848469595 15:0.789405054938 16:0.936091001227 17:-0.942849920137 18:-0.0140730829172 19:0.55723188211 20:0.31050737044 21:2.14206519995 22:-6.3008386872 23:-1.00579330761 24:2.28394720255 25:5.21641482404 26:9.60575975097 27:-9.47474444046 28:0.0238346447419 29:4.88106099531 30:23.82475644 
8 1:36.7265036628 2:15.4958483424 3:22.5751024061 4:7.25751076299 5:52.671462475 6:4.85064244907 7:-5.94601636088 8:-7.93016446161e-18 9:3.53102482544 10:12.4681363179 11:2.69198959758 12:-2.01078050157 13:0.242903945546 14:1.6433096081 15:2.70046646808 16:1.790841079 17:-0.805579865411 18:0.213581760876 19:0.77653484585 20:0.603006366819 21:3.50949860367 22:-9.49661682698 23:-1.48328511844 24:3.37767619236 25:11.4086964604 26:6.22199978585 27:-5.35569127363 28:0.108152680676 29:3.86902446974 30:14.9693503475 
8 1:26.7972493243 2:25.6327729646 3:25.9862809272 4:0.416600610697 5:0.173556068833 6:0.583776752185 7:-0.751482045119 8:-7.05784637083e-16 9:0.459378159302 10:0.211028293244 11:0.986663967683 12:-0.463698752935 13:0.13633357782 14:0.46161214386 15:0.213085771359 16:1.80085403172 17:-2.49497806768 18:-0.0791926632923 19:1.29276511098 20:1.67124163216 21:2.63433616225 22:-5.76609289241 23:-0.90256630859 24:2.36462188306 25:5.59143664984 26:8.69843497839 27:-8.42749401568 28:-0.0958982477417 29:4.86395774786 30:23.658084973 
8 1:30.7092466852 2:16.7098833199 3:21.4277964504 4:4.77589892048 5:22.8092104986 6:3.05831088944 7:-2.42989485912 8:-7.13714801545e-17 9:1.87754866234 10:3.52518897947 11:1.67081563936 12:-1.58538447668 13:0.143734823357 14:1.0257633389 15:1.05219042742 16:1.57747761531 17:-1.17130879822 18:0.202560129146 19:0.935540980792 20:0.87523692674 21:2.03667765347 22:-5.14170456798 23:-0.844211356513 24:1.87211919819 25:3.50483029224 26:5.42347954603 27:-6.18866605935 28:0.189995939975 29:3.93068835035 30:15.4503109076 
8 1:31.1474480229 2:18.9442694776 3:23.0790813989 4:4.1651318856 5:17.3483236244 6:2.80092255889 7:-2.23700075941 8:-9.43689570931e-16 9:1.50010946136 10:2.25032839605 11:1.57151599105 12:-1.78178773612 13:0.168168269759 14:0.989755463209 15:0.979615876953 16:1.45058095731 17:-0.610243374439 18:0.184032039377 19:0.610708856751 20:0.372965307714 21:2.39134849097 22:-6.1820680725 23:-0.982542339265 24:2.25580139457 25:5.08863993173 26:9.02458446651 27:-9.84581616411 28:0.0721184576913 29:5.01628975662 30:25.1631629224 
8 1:30.1386354578 2:16.4222026655 3:21.0626087926 4:4.67954514105 5:21.8981427271 6:3.10223430278 7:-2.44226343508 8:-3.25136742926e-16 9:1.70062082934 10:2.89211120518 11:1.68000189371 12:-1.92643006918 13:0.198025760716 14:1.07167825103 15:1.14849427374 16:0.943978410873 17:-0.614089168758 18:0.115234433375 19:0.559157006667 20:0.312656558105 21:4.76978050339 22:-7.62781828518 23:-1.27368886247 24:3.19257144673 25:10.1925124425 26:6.34295899578 27:-6.7711345743 28:0.0173421785665 29:4.20408335801 30:17.6743168811 
8 1:30.4313484802 2:18.7398183168 3:22.6747742119 4:3.99053987343 5:15.9244084814 6:2.58538525616 7:-2.0365180073 8:-1.86358864848e-16 9:1.58306557057 10:2.50609660071 11:1.43652498555 12:-1.50709744382 13:0.15503712042 14:0.884872452758 15:0.78299925765 16:3.53439601469 17:-2.88767363861 18:0.157763002094 19:1.78878632498 20:3.19975651642 21:5.05650873025 22:-6.28931722451 23:-1.06760656961 24:2.98050786298 25:8.88342712128 26:6.54060223123 27:-6.81590462503 28:-0.0514557127882 29:4.3420670787 30:18.8535465159 
8 1:26.258147933 2:18.4339234994 3:21.1272886766 4:2.67020432116 5:7.12999111672 6:1.9237171379 7:-2.06029489753 8:-2.9341608508e-16 9:1.16337143991 10:1.3534331072 11:1.45818948675 12:-2.12816048043 13:0.165103991541 14:1.0960821297 15:1.20139603505 16:1.87233514749 17:-0.913367822039 18:0.2318131545 19:0.952318744173 20:0.906910990504 21:3.12910435071 22:-7.15047105249 23:-1.17319173235 24:2.70496619089 25:7.31684209386 26:6.09696105477 27:-6.16476624245 28:0.132208693309 29:3.70948675022 30:13.7602919501 
8 1:28.0919539921 2:19.2394674654 3:22.2675279089 4:3.02527368536 5:9.15228087134 6:2.07922576166 7:-1.80437658869 8:-4.67879703235e-16 9:1.09184038448 10:1.19211542519 11:1.86402191598 12:-2.14974262776 13:0.0856625491308 14:1.10886723232 15:1.2295865389 16:4.04897738865 17:-1.89706106477 18:0.49975380522 19:1.89585531262 20:3.59426736638 21:4.04612235366 22:-5.48437658167 23:-0.815267803803 24:2.64082553287 25:6.97395949505 26:7.13339348244 27:-7.72909857038 28:-0.0735336515544 29:4.72894043502 30:22.362877638 
8 1:28.6157838609 2:16.9831059034 3:20.9082375402 4:3.97211322306 5:15.7776834568 6:2.61792413775 7:-1.85745415888 8:-8.24737104007e-16 9:1.5152624155 10:2.29602018783 11:1.59587430049 12:-1.68129970033 13:0.141716399848 14:0.951482468775 15:0.905318888385 16:2.39029588783 17:-1.89796141722 18:0.25642173392 19:1.39511824031 20:1.94635490446 21:5.22018667762 22:-6.63676929941 23:-1.06870199578 24:3.21531779215 25:10.3382685045 26:5.0371099203 27:-6.75971381 28:-0.043260065001 29:4.21551767427 30:17.7705892621 
8 1:33.9282030711 2:16.6660572722 3:22.4203836749 4:5.3963357332 5:29.1204393455 6:4.47658773369 7:-5.4228849489 8:-2.96059473233e-16 9:2.988127938 10:8.92890857385 11:3.29377419029 12:-4.5426846439 13:-5.92118946467e-16 14:2.49535981871 15:6.22682062481 16:1.88489361551 17:-2.52216756282 18:-1.48029736617e-16 19:1.71282653198 20:2.93377472866 21:5.43400265677 22:-5.99847215092 23:-2.96059473233e-16 24:3.898284963 25:15.1966256528 26:4.31730371691 27:-4.9144827163 28:-1.2952601954e-16 29:2.80905349285 30:7.89078152569 
