18:15:23		x: 144.262	y: 29.858	z: -73.849
18:15:23		x: 143.055	y: 29.473	z: -73.849
18:15:23		x: 142.424	y: 25.587	z: -73.849
18:15:24		x: 124.848	y: -0.741	z: -49.363
18:15:24		x: 113.244	y: -16.159	z: -29.956
18:15:24		x: 131.587	y: -33.43	z: -19.7
18:15:24		x: 137.088	y: -36.299	z: -11.012
18:15:24		x: 137.088	y: -37.077	z: -4.031
18:15:25		x: 144.598	y: -36.251	z: -5.485
18:15:25		x: 150.86	y: -30.555	z: -2.696
18:15:25		x: 147.132	y: -34.294	z: -6.115
18:15:25		x: 112.928	y: -63.179	z: -5.107
18:15:25		x: 124.316	y: -45.783	z: -11.988
18:15:25		x: 86.691	y: -83.949	z: 10.746
18:15:26		x: 94.926	y: -74.861	z: 10.38
18:15:26		x: 106.053	y: -63.043	z: -3.367
18:15:26		x: 106.925	y: -60.339	z: -9.588
18:15:26		x: 107.513	y: -57.344	z: -11.007
18:15:26		x: 101.689	y: -60.82	z: -6.259
18:15:27		x: 106.062	y: -54.588	z: 1.228
18:15:27		x: 97.813	y: -67.446	z: 8.746
18:15:27		x: 62.767	y: -83.502	z: -14.169
18:15:27		x: 54.876	y: -91.11	z: -12.362
18:15:27		x: 42.134	y: -94.155	z: -14.131
18:15:27		x: 22.064	y: -103.099	z: -11.256
18:15:28		x: 55.154	y: -91.473	z: 6.446
18:15:28		x: 93.116	y: -70.919	z: 19.612
18:15:28		x: 103.633	y: -64.402	z: 14.091
18:15:28		x: 106.491	y: -62.626	z: 9.01
18:15:28		x: 107.788	y: -61.68	z: 2.406
18:15:29		x: 105.085	y: -60.081	z: -6.507
18:15:29		x: 102.42	y: -60.081	z: -10.536
18:15:29		x: 103.503	y: -59.361	z: -7.286
18:15:29		x: 102.774	y: -59.962	z: -7.751
18:15:29		x: 102.774	y: -59.962	z: -7.369
18:15:29		x: 104.306	y: -59.962	z: -5.868
18:15:30		x: 107.177	y: -59.175	z: -3.053
18:15:30		x: 103.648	y: -62.136	z: -4.136
18:15:30		x: 101.206	y: -63.412	z: -4.136
18:15:30		x: 105.72	y: -60.099	z: -4.136
18:15:30		x: 110.095	y: -55.412	z: 0.584
18:15:30		x: 114.717	y: -52.084	z: 0.584
18:15:31		x: 136.473	y: -36.201	z: -10.011
18:15:31		x: 36.857	y: -94.43	z: -49.316
18:15:31		x: 9.895	y: -117.942	z: -69.187
18:15:31		x: -21.208	y: -119.689	z: -54.197
18:15:31		x: -69.216	y: -138.786	z: -9.564
18:15:32		x: -10.461	y: -126.763	z: -56.437
18:15:32		x: -4.959	y: -126.057	z: -51.368
18:15:32		x: -16.65	y: -129.211	z: -51.368
18:15:32		x: -32.943	y: -130.285	z: -41.166
18:15:32		x: -23.721	y: -214.01	z: 36.79
18:15:32		x: 108.799	y: -39.505	z: -40.289
18:15:33		x: 94.963	y: -20.217	z: -45.883
18:15:33		x: 96.937	y: -14.878	z: -48.187
18:15:33		x: 100.579	y: -10.772	z: -49.108
18:15:33		x: 104.048	y: -8.549	z: -54.92
18:15:33		x: 104.656	y: -5.351	z: -56.141
18:15:34		x: 104.656	y: -5.923	z: -57.26
18:15:34		x: 105.825	y: -5.575	z: -57.26
18:15:34		x: 108.247	y: -5.575	z: -61.189
18:15:34		x: 108.247	y: -4.406	z: -60.789
18:15:34		x: 108.807	y: -3.793	z: -61.212
