19:36:40		x: 0.0
19:36:40		x: 3.0
19:36:40		x: 1.0
19:36:40		x: 0.0
19:36:41		x: 1.0
19:36:41		x: 13.0
19:36:41		x: 4.0
19:36:41		x: 15.0
19:36:41		x: 16.0
19:36:42		x: 16.0
19:36:42		x: 16.0
19:36:42		x: 10.0
19:36:42		x: 1.0
19:36:42		x: 0.0
19:36:42		x: 1.0
19:36:43		x: 2.0
19:36:43		x: 0.0
19:36:43		x: 0.0
19:36:43		x: 0.0
19:36:43		x: 0.0
19:36:44		x: 0.0
19:36:44		x: 0.0
19:36:44		x: 0.0
19:36:44		x: 0.0
19:36:44		x: 0.0
19:36:44		x: 0.0
19:36:45		x: 0.0
19:36:45		x: 0.0
19:36:45		x: 0.0
19:36:45		x: 0.0
19:36:45		x: 0.0
19:36:46		x: 0.0
19:36:46		x: 0.0
19:36:46		x: 0.0
19:36:46		x: 0.0
19:36:46		x: 0.0
19:36:46		x: 0.0
19:36:47		x: 0.0
19:36:47		x: 0.0
19:36:47		x: 0.0
19:36:47		x: 0.0
19:36:47		x: 0.0
19:36:47		x: 0.0
19:36:48		x: 0.0
19:36:48		x: 0.0
19:36:48		x: 0.0
19:36:48		x: 0.0
19:36:48		x: 0.0
19:36:49		x: 0.0
19:36:49		x: 0.0
19:36:49		x: 0.0
19:36:49		x: 0.0
19:36:49		x: 0.0
19:36:49		x: 0.0
19:36:50		x: 0.0
19:36:50		x: 0.0
19:36:50		x: 0.0
19:36:50		x: 0.0
19:36:50		x: 0.0
19:36:51		x: 0.0
19:36:51		x: 0.0
19:36:51		x: 0.0
19:36:51		x: 0.0
19:36:51		x: 0.0
19:36:51		x: 0.0
19:36:52		x: 0.0
19:36:52		x: 0.0
19:36:52		x: 0.0
19:36:52		x: 0.0
19:36:52		x: 0.0
19:36:53		x: 0.0
19:36:53		x: 0.0
19:36:53		x: 0.0
19:36:53		x: 0.0
19:36:53		x: 0.0
19:36:53		x: 0.0
19:36:54		x: 0.0
19:36:54		x: 0.0
19:36:54		x: 0.0
19:36:54		x: 0.0
19:36:54		x: 0.0
19:36:55		x: 0.0
19:36:55		x: 0.0
19:36:55		x: 0.0
19:36:55		x: 0.0
19:36:55		x: 0.0
19:36:55		x: 0.0
19:36:56		x: 0.0
19:36:56		x: 0.0
19:36:56		x: 0.0
19:36:56		x: 0.0
19:36:56		x: 0.0
19:36:56		x: 0.0
19:36:57		x: 0.0
19:36:57		x: 0.0
19:36:57		x: 0.0
19:36:57		x: 0.0
19:36:57		x: 0.0
19:36:58		x: 0.0
19:36:58		x: 0.0
19:36:58		x: 0.0
19:36:58		x: 0.0
19:36:58		x: 0.0
19:36:58		x: 0.0
19:36:59		x: 0.0
19:36:59		x: 0.0
19:36:59		x: 0.0
19:36:59		x: 0.0
19:36:59		x: 0.0
19:37:00		x: 0.0
19:37:00		x: 0.0
19:37:00		x: 0.0
19:37:00		x: 0.0
19:37:00		x: 0.0
19:37:00		x: 0.0
19:37:01		x: 0.0
19:37:01		x: 0.0
19:37:01		x: 0.0
19:37:01		x: 0.0
19:37:01		x: 0.0
19:37:02		x: 0.0
19:37:02		x: 0.0
19:37:02		x: 0.0
19:37:02		x: 0.0
19:37:02		x: 0.0
19:37:02		x: 0.0
19:37:03		x: 0.0
19:37:03		x: 0.0
19:37:03		x: 0.0
19:37:03		x: 0.0
19:37:03		x: 0.0
19:37:04		x: 0.0
19:37:04		x: 0.0
19:37:04		x: 0.0
19:37:04		x: 0.0
19:37:04		x: 0.0
19:37:04		x: 0.0
19:37:05		x: 0.0
19:37:05		x: 0.0
19:37:05		x: 0.0
19:37:05		x: 0.0
19:37:05		x: 0.0
19:37:06		x: 0.0
19:37:06		x: 0.0
19:37:06		x: 0.0
19:37:06		x: 0.0
19:37:06		x: 0.0
19:37:06		x: 0.0
19:37:07		x: 0.0
19:37:07		x: 0.0
19:37:07		x: 0.0
19:37:07		x: 0.0
19:37:07		x: 0.0
19:37:08		x: 0.0
19:37:08		x: 0.0
19:37:08		x: 0.0
19:37:08		x: 0.0
19:37:08		x: 0.0
19:37:08		x: 0.0
19:37:09		x: 0.0
19:37:09		x: 0.0
19:37:09		x: 0.0
19:37:09		x: 0.0
19:37:09		x: 0.0
19:37:09		x: 0.0
19:37:10		x: 0.0
19:37:10		x: 0.0
19:37:10		x: 0.0
19:37:10		x: 0.0
19:37:10		x: 0.0
19:37:11		x: 0.0
19:37:11		x: 0.0
19:37:15		x: 0.0
19:37:15		x: 0.0
19:37:15		x: 0.0
19:37:15		x: 0.0
19:37:16		x: 0.0
19:37:16		x: 0.0
19:37:16		x: 0.0
19:37:16		x: 0.0
19:37:16		x: 0.0
19:37:16		x: 0.0
19:37:17		x: 0.0
19:37:17		x: 0.0
19:37:17		x: 0.0
19:37:17		x: 0.0
19:37:17		x: 0.0
19:37:18		x: 0.0
19:37:18		x: 0.0
19:37:18		x: 0.0
19:37:18		x: 0.0
19:37:18		x: 0.0
19:37:19		x: 0.0
19:37:19		x: 0.0
19:37:19		x: 0.0
19:37:19		x: 0.0
19:37:19		x: 0.0
19:37:19		x: 0.0
19:37:20		x: 0.0
19:37:20		x: 0.0
19:37:20		x: 0.0
19:37:20		x: 0.0
19:37:20		x: 0.0
19:37:20		x: 0.0
19:37:21		x: 0.0
19:37:21		x: 0.0
19:37:21		x: 0.0
19:37:21		x: 0.0
19:37:21		x: 0.0
19:37:22		x: 0.0
19:37:22		x: 0.0
19:37:22		x: 0.0
19:37:22		x: 0.0
19:37:22		x: 0.0
19:37:22		x: 0.0
19:37:23		x: 0.0
19:37:23		x: 0.0
19:37:23		x: 0.0
19:37:23		x: 0.0
19:37:23		x: 0.0
19:37:24		x: 0.0
19:37:24		x: 0.0
19:37:24		x: 0.0
19:37:24		x: 0.0
19:37:24		x: 0.0
19:37:24		x: 0.0
19:37:25		x: 0.0
19:37:25		x: 0.0
19:37:25		x: 0.0
19:37:25		x: 0.0
19:37:25		x: 0.0
