19:36:41		x: 0.0
19:36:43		x: 1.0
19:36:43		x: 0.0
19:36:43		x: 1.0
19:37:15		x: 0.0
19:37:15		x: 0.0
19:37:15		x: 1.0
19:37:16		x: 0.0
19:37:16		x: 1.0
19:37:16		x: 0.0
19:37:17		x: 1.0
19:37:17		x: 0.0
19:37:17		x: 1.0
19:37:18		x: 0.0
19:37:18		x: 1.0
19:37:18		x: 0.0
19:37:18		x: 1.0
19:37:19		x: 0.0
19:37:19		x: 1.0
19:37:19		x: 0.0
19:37:20		x: 1.0
19:37:21		x: 0.0
19:37:22		x: 1.0
19:37:22		x: 0.0
19:37:22		x: 1.0
19:37:23		x: 0.0
