10 1:326.70341021 2:-79.1527004462 3:192.438382905 4:138.932866536 5:19302.3414039 6:144.40930402 7:-113.486550551 8:5.70971841236e-16 9:78.6480337145 10:6185.51320715 11:48.72712986 12:-57.6888208004 13:-5.71327657924 14:33.9708707242 15:1154.02005776 16:67.3465707268 17:-71.3888284289 18:-3.7511213971 19:38.6005663557 20:1490.00372298 21:221.465785587 22:-64.0544320953 23:35.7889829879 24:74.3644928424 25:5530.07779571 26:199.298812772 27:-205.422135796 28:-3.25964875855 29:133.046983643 30:17701.4998565 
10 1:332.603741998 2:-11.5116976436 3:218.345074473 4:117.821684355 5:13881.9493042 6:102.095259241 7:-82.8422910346 8:-8.43769498715e-15 9:59.972241579 10:3596.66976001 11:31.5371759496 12:-42.7058619884 13:-5.84544709586 14:27.4257446678 15:752.171470582 16:42.7746877142 17:-44.175849085 18:-3.84879438442 19:26.5273309223 20:703.699285862 21:226.095742133 22:-38.293905505 23:36.2101690562 24:72.5594589079 25:5264.87507701 26:164.012750119 27:-125.991477718 28:-4.21207088746 29:94.2144755761 30:8876.36740808 
10 1:258.26011333 2:-43.5195491867 3:158.535812789 4:103.286157824 5:10668.0303981 6:114.066403529 7:-88.7457221783 8:-7.61295788314e-15 9:60.8111827208 10:3697.9999439 11:40.5201601938 12:-45.8014227846 13:-3.72085212363 14:26.2797508094 15:690.625302606 16:45.1637894356 17:-47.2787757593 18:-2.5608205347 19:25.8576534245 20:668.618240622 21:143.451738564 22:-44.9927157036 23:23.0031148257 24:48.8333417572 25:2384.69526718 26:136.494622261 27:-136.702574842 28:-1.16936925804 29:88.7301813192 30:7873.04507694 
10 1:259.176487572 2:-96.7621822914 3:141.26307841 4:121.760806902 5:14825.6940975 6:125.937598688 7:-98.8883470021 8:-4.06024420434e-15 9:68.3902415438 10:4677.22513842 11:44.3923520996 12:-51.7214140319 13:-4.19277475887 14:29.8353359569 15:890.147271662 16:44.3132297877 17:-46.5313905935 18:-2.94363320195 19:25.6090200068 20:655.821905709 21:157.09271386 22:-45.2992836112 23:25.2270807697 24:52.7394737261 25:2781.4520889 26:142.951127434 27:-149.400059171 28:-1.68394986039 29:94.0972210102 30:8854.28700184 
10 1:220.046784395 2:-134.283323643 3:102.670805743 4:121.211938163 5:14692.3339533 6:124.387069489 7:-97.8546232078 8:-3.5527136788e-15 9:67.7644181385 10:4592.01636565 11:43.3412889399 12:-50.7176669002 13:-4.40273342769 14:29.4151064111 15:865.248485174 16:46.765695494 17:-49.4230079912 18:-2.4456164117 19:26.356890471 20:694.6856753 21:163.081831651 22:-48.5740924877 23:26.4978363905 24:54.9671636749 25:3021.38908247 26:151.28881905 27:-161.451362099 28:-2.70051633756 29:101.239608116 30:10249.4582514 
10 1:196.555788522 2:-137.136560212 3:86.1142287299 4:114.202715276 5:13042.2601763 6:118.037480127 7:-92.8248772969 8:-3.80647894157e-15 9:64.3221139548 10:4137.33434361 11:40.2118501283 12:-47.4332829966 13:-4.54683926501 14:27.8064439512 15:773.198325212 16:52.1142370436 17:-55.199402831 18:-2.69493393267 19:29.4994127205 20:870.215350856 21:172.762135601 22:-50.0933854159 23:28.0465541644 24:58.016370755 25:3365.89927558 26:151.863933076 27:-162.969438064 28:-3.23537549563 29:104.546395358 30:10929.9487824 
10 1:187.32899286 2:-135.428891306 3:80.5052952104 4:110.480709088 5:12205.9870806 6:113.626892269 7:-89.4082751802 8:-1.33226762955e-15 9:62.080496962 10:3853.98810305 11:38.3551756091 12:-45.7176835863 13:-4.45246418353 14:26.926084745 15:725.014039694 16:51.6223805696 17:-54.6331496442 18:-3.25451800871 19:29.9385146552 20:896.314659762 21:172.93975147 22:-48.5057732606 23:27.8325024281 24:57.8521709944 25:3346.87368877 26:151.174436189 27:-161.160278712 28:-3.27969358414 29:103.358779087 30:10683.0372144 
10 1:193.368966042 2:-134.803115276 3:84.6926032346 4:112.309661138 5:12613.459985 6:113.794152828 7:-89.7596692443 8:-1.45915026094e-15 9:62.4305603337 10:3897.57486357 11:38.269305552 12:-45.8185495808 13:-4.5080091053 14:27.0410656691 15:731.219232518 16:51.354398246 17:-54.6535410811 18:-2.84793180287 19:29.3298460784 20:860.239870983 21:172.148876064 22:-50.1754410265 23:27.9251867934 24:57.8453248153 25:3346.08160299 26:152.386148218 27:-161.091471225 28:-3.07828298756 29:104.019305039 30:10820.0158209 
10 1:193.536308912 2:-134.918337217 3:84.8259666921 4:112.417150994 5:12637.6158375 6:115.8731662 7:-91.1582751274 8:3.23550710034e-15 9:63.2222351128 10:3997.05101266 11:39.3175619023 12:-46.5741890839 13:-4.50798848954 14:27.360441255 15:748.593745666 16:51.7729829223 17:-54.8401197102 18:-2.88132942755 19:29.5530085292 20:873.380313128 21:172.19524468 22:-48.3992967304 23:27.8682849924 24:57.594718183 25:3317.15156258 26:150.590843491 27:-160.549875725 28:-3.08514949503 29:103.143407327 30:10638.562475 
10 1:193.385577486 2:-136.29731947 3:84.2344385109 4:112.830417484 5:12730.7031097 6:115.265661851 7:-90.8008902673 8:-3.80647894157e-15 9:63.0639803666 10:3977.06561968 11:38.9653798429 12:-46.3985425322 13:-4.50912908522 14:27.3076368262 15:745.707029029 16:51.5377190243 17:-54.7210285451 18:-2.87916276255 19:29.4358829222 20:866.471203411 21:172.212299534 22:-49.3403422086 23:27.8970882935 24:57.740654873 25:3333.98322517 26:151.2147288 27:-161.467217079 28:-3.10687007821 29:103.640727191 30:10741.4003328 
10 1:192.667848691 2:-137.23570412 3:83.4400199274 4:112.905932891 5:12747.7496821 6:115.163045058 7:-90.7439328847 8:0.0 9:63.0432724296 10:3974.45419864 11:38.8987770834 12:-46.3659429608 13:-4.52294524767 14:27.3049508412 15:745.56034044 16:51.5348146494 17:-54.7187923385 18:-2.88221466008 19:29.4350433201 20:866.421775258 21:172.581428319 22:-48.9361950902 23:27.9592855114 24:57.7863296555 25:3339.25989506 26:151.03225433 27:-161.174117276 28:-3.1297765502 29:103.576850877 30:10728.1640376 
10 1:190.96671537 2:-136.473461703 3:82.5727714965 4:112.067471386 5:12559.1181429 6:114.804909126 7:-90.4046897015 8:-2.28388736494e-15 9:62.7668725815 10:3939.68029367 11:38.7833602595 12:-46.1420653859 13:-4.507018577 14:27.1644462364 15:737.907139329 16:51.8812069253 17:-55.0744389188 18:-2.87703348244 19:29.6182011299 20:877.237838169 21:172.373724693 22:-49.2455890226 23:27.9215661773 24:57.774881421 25:3337.93692321 26:151.292632618 27:-161.493414507 28:-3.0967240076 29:103.676504291 30:10748.8175421 
10 1:192.496912731 2:-135.730046255 3:83.8364014844 4:112.335645765 5:12619.2973095 6:114.885184748 7:-90.4910490418 8:-2.15700473356e-15 9:62.8446002046 10:3949.44377487 11:38.7986260003 12:-46.2009505259 13:-4.51601459445 14:27.206798845 15:740.209903393 16:51.7815072668 17:-54.9684828018 18:-2.88139952828 19:29.5680879096 20:874.271822628 21:172.648578558 22:-49.273226219 23:27.9672746469 24:57.8589844077 25:3347.66207669 26:151.278964338 27:-161.584574065 28:-3.11288569693 29:103.741191587 30:10762.2348318 
10 1:193.375282643 2:-136.589312976 3:84.1388827471 4:112.928359064 5:12752.8142809 6:115.593957992 7:-91.033700359 8:-1.90323947079e-15 9:63.2050729581 10:3994.88124764 11:39.0934608188 12:-46.4993385624 13:-4.52053871222 14:27.3596195609 15:748.54878252 16:51.8393728525 17:-55.0291674072 18:-2.87687695489 19:29.5861421224 20:875.339805689 21:172.561257401 22:-49.1332432761 23:27.9559908929 24:57.810958581 25:3342.10693206 26:151.18780478 27:-161.659959228 28:-3.13416200231 29:103.784993293 30:10771.3248328 
10 1:194.163571854 2:-141.736181442 3:82.9317264146 4:114.949072283 5:13213.2892188 6:117.032807882 7:-92.2321317009 8:1.52259157663e-15 9:64.0764221984 10:4105.78788175 11:39.6236391434 12:-47.2020025527 13:-4.53637819373 14:27.7543725882 15:770.305197762 16:51.5462338765 17:-54.7852937142 18:-2.85133036571 19:29.3894392521 20:863.739139555 21:172.871890519 22:-50.9628019538 23:28.0341578837 24:58.2189911097 25:3389.45092583 26:155.52173549 27:-169.643816907 28:-3.23003797397 29:106.833546429 30:11413.4066426 
10 1:206.927774678 2:-104.100786592 3:104.207130004 4:106.500814239 5:11342.4234336 6:114.869910889 7:-89.8768491785 8:-6.09036630652e-15 9:61.9209865295 10:3834.20857279 11:39.1894057295 12:-45.2478025321 13:-4.66944969153 14:26.6054105256 15:707.847869234 16:55.7567884184 17:-58.5675778267 18:-1.93098099658 19:30.6544653273 20:939.696244505 21:179.041576185 22:-54.4524615717 23:29.3560719942 24:60.8497499338 25:3702.69206701 26:158.544337383 27:-184.307797385 28:-4.47856684863 29:114.515694749 30:13113.8443438 
10 1:253.184639355 2:-135.201662587 3:124.246445215 4:132.824548397 5:17642.3606569 6:126.144226602 7:-100.479860494 8:-3.80647894157e-16 9:70.5858840421 10:4982.36702601 11:42.0629429628 12:-51.8034969121 13:-5.01864316955 14:30.7944030438 15:948.295258822 16:52.8182738806 17:-56.9435997793 18:-2.78850332799 19:29.7154328748 20:883.006950939 21:180.227065425 22:-46.3652612673 23:29.5808202614 24:60.0281179931 25:3603.37494979 26:153.138379733 27:-175.707174213 28:-5.72977188807 29:111.215703171 30:12368.9326317 
10 1:190.079957842 2:-167.458059145 3:71.4057083992 4:122.299982661 5:14957.2857589 6:116.649905034 7:-92.8166231166 8:-1.7763568394e-15 9:65.2211355265 10:4253.79651937 11:38.4490787166 12:-47.7323312073 13:-4.6341604916 14:28.503888403 15:812.471654091 16:51.7557607773 17:-55.9751565183 18:-3.51334872232 19:30.2135272601 20:912.857229499 21:170.962807014 22:-45.1260966949 23:27.6943293318 24:56.7653725156 25:3222.30751683 26:152.007838834 27:-160.416970111 28:-4.10155237948 29:104.559107301 30:10932.6069195 
10 1:154.62166627 2:-158.708771835 3:50.7876807495 4:107.234364351 5:11499.2088977 6:105.254072992 7:-83.4600079216 8:3.80647894157e-16 9:58.4401593722 10:3415.25222745 11:34.5388723395 12:-42.4370200117 13:-4.47011854667 14:25.4300975196 15:646.689859858 16:49.5113622303 17:-52.9813363749 18:-3.00826255813 19:28.7128572168 20:824.428169551 21:171.727018198 22:-47.8294487359 23:27.8043695585 24:57.3991894787 25:3294.66695282 26:152.228877669 27:-153.907059074 28:-2.69237810256 29:101.226806112 30:10246.8662757 
10 1:166.348899286 2:-148.531619866 3:62.2719913722 4:107.800795359 5:11621.01148 6:115.195297187 7:-90.1609426888 8:3.17206578464e-15 9:62.1937700618 10:3868.0650345 11:39.6905552716 12:-46.0404165016 13:-4.39850580197 14:26.8726978098 15:722.141887578 16:50.0757420066 17:-52.4674880677 18:-2.66830797012 19:28.5873020075 20:817.233836068 21:171.218277617 22:-50.9940159574 23:27.6184295051 24:57.7355861884 25:3333.39791251 26:152.669370816 27:-150.71802553 28:-1.55247594017 29:100.415947911 30:10083.3625949 
10 1:171.058256226 2:-142.438822226 3:67.3152998396 4:107.314429801 5:11516.3868436 6:110.596592276 7:-87.0133976755 8:5.07530525543e-15 9:60.4021203048 10:3648.41613731 11:37.4647726499 12:-44.5390803575 13:-4.36759696426 14:26.218891802 15:687.430287327 16:48.4573488552 17:-51.0894924353 18:-3.04872067024 19:28.2131064372 20:795.979374834 21:170.675733359 22:-48.4290564584 23:27.4337883749 24:57.2206823221 25:3274.2064854 26:150.900129578 27:-149.338194752 28:-1.75869843557 29:98.8434116421 30:9770.02002505 
10 1:176.84961307 2:-141.999304967 3:71.4143851904 4:109.148658574 5:11913.4296685 6:115.718226086 7:-90.6440215799 8:-2.98174183756e-15 9:62.5943247887 10:3918.04949575 11:39.875917557 12:-46.4596212898 13:-4.34048372348 14:27.0904566473 15:733.892841361 16:49.2710287807 17:-51.7174879014 18:-2.90041374396 19:28.4370830652 20:808.667693258 21:169.347671239 22:-49.9286950123 23:27.2241681165 24:57.0784844205 25:3257.95338374 26:151.579119124 27:-148.975714095 28:-1.17568026532 29:99.4957881502 30:9899.41185963 
10 1:177.101849205 2:-137.72652385 3:72.9746617173 4:107.777638369 5:11616.0193323 6:113.1189896 7:-88.7459460278 8:-3.67959631019e-15 9:61.4122704901 10:3771.46696675 11:38.4860009005 12:-45.3020404631 13:-4.36248769102 14:26.5636515283 15:705.627582518 16:50.8007210749 17:-53.6276911972 18:-3.10652590021 19:29.500049091 20:870.252896371 21:171.094357947 22:-48.7803435018 23:27.4809428431 24:57.4332233372 25:3298.5751429 26:152.077319395 27:-149.26024071 28:-1.15923430708 29:99.5947013641 30:9919.10453981 
10 1:182.688628077 2:-124.797275242 3:81.050455045 4:105.275553883 5:11082.9422453 6:112.109518512 7:-87.7827141719 8:1.64947420801e-15 9:60.607321056 10:3673.24736558 11:37.8501241848 12:-44.3329840236 13:-4.35676291572 14:26.0349977448 15:677.82110757 16:53.7751438565 17:-57.2700478209 18:-3.10177311116 19:31.3236396013 20:981.170397872 21:172.20048907 22:-47.8103565626 23:27.7004683782 24:58.3942205221 25:3409.88499038 26:168.998445032 27:-164.862824481 28:-1.09845831977 29:104.917851808 30:11007.7556279 
10 1:255.509505164 2:-112.644139839 3:134.449988548 4:126.131298763 5:15909.1045277 6:157.039902986 7:-120.283818012 8:-5.07530525543e-15 9:81.3409072986 10:6616.34320015 11:58.0120871507 12:-61.906510657 13:-4.8038267925 14:35.304378382 15:1246.39913294 16:60.3645396994 17:-60.9348236338 18:-2.98122469824 19:34.4914033098 20:1189.65690228 21:196.324996234 22:-66.3301424844 23:31.3144033817 24:67.8987383086 25:4610.2386639 26:198.584588493 27:-198.331594327 28:-0.30372135138 29:130.182809215 30:16947.5638151 
10 1:319.971225013 2:-114.412646408 3:176.311242613 4:148.687707881 5:22108.0344748 6:157.417840638 7:-123.322768795 8:-1.7763568394e-15 9:85.1515042255 10:7250.77867186 11:54.2684906038 12:-63.2062147236 13:-5.8497515253 14:36.8255844775 15:1356.12367211 16:67.1024301336 17:-70.6015994486 18:-3.86416008767 19:38.5909883982 20:1489.26438555 21:226.945475558 22:-67.1966777279 23:36.5316781504 24:76.512770272 25:5854.2040147 26:203.214868834 27:-203.367567343 28:-2.13870215055 29:134.120803487 30:17988.389928 
10 1:321.005687136 2:-114.733254954 3:176.861819736 4:149.154536596 5:22247.0757871 6:156.302106125 7:-122.64049379 8:-2.6645352591e-15 9:84.8493583403 10:7199.41361076 11:53.4113030191 12:-62.7487201603 13:-5.9375563784 14:36.7121136801 15:1347.77929086 16:68.6063191504 17:-72.4001818787 18:-4.0889398683 19:39.6216086334 20:1569.8718707 21:231.129335665 22:-67.323677194 23:37.1991446458 24:77.7267173404 25:6041.44258851 26:205.703344772 27:-206.46339693 28:-2.19552554341 29:136.29879906 30:18577.3626252 
10 1:390.267689276 2:-338.835273541 3:147.018813517 4:227.882987862 5:51930.6561571 6:229.748227956 7:-187.084089508 8:1.30266168223e-14 9:125.91555059 10:15854.7258803 11:186.013327562 12:-133.209188245 13:0.0 14:102.520726102 15:10510.4992805 16:113.025405032 17:-77.9004552721 18:2.36847578587e-15 19:62.5320407385 20:3910.25611893 21:235.256697541 22:-205.220429866 23:0.0 24:162.383794849 25:26368.4968295 26:113.219089399 27:-92.5117689402 28:-2.36847578587e-15 29:67.2509382282 30:4522.68869257 
