19:09:31		x: -94.99	y: 17.221	z: -108.238
19:09:31		x: -94.613	y: 17.221	z: -108.238
19:09:31		x: -79.046	y: -8.271	z: -98.599
19:09:31		x: -68.415	y: 1.226	z: -101.164
19:09:32		x: -62.973	y: 11.192	z: -104.385
19:09:32		x: -70.542	y: 18.804	z: -105.917
19:09:32		x: -108.929	y: 27.874	z: -115.034
19:09:32		x: -129.188	y: 29.484	z: -98.641
19:09:32		x: -133.094	y: 31.352	z: -89.723
19:09:33		x: -131.628	y: 29.614	z: -94.404
19:09:33		x: -128.004	y: 17.898	z: -90.19
19:09:33		x: -169.473	y: -27.85	z: -104.667
19:09:33		x: -154.47	y: -28.457	z: -102.886
19:09:33		x: -151.014	y: -23.132	z: -104.92
19:09:33		x: -147.404	y: -26.01	z: -101.963
19:09:34		x: -158.627	y: -42.53	z: -95.178
19:09:34		x: -188.61	y: -74.839	z: -101.484
19:09:34		x: -194.624	y: -58.821	z: -116.767
19:09:34		x: -94.79	y: 6.951	z: -108.514
19:09:34		x: -100.164	y: -1.483	z: -110.342
19:09:35		x: -130.429	y: -31.407	z: -116.398
19:09:35		x: -169.088	y: -70.484	z: -109.519
19:09:35		x: -182.312	y: -82.789	z: -102.087
19:09:35		x: -176.26	y: -72.979	z: -104.071
19:09:35		x: -182.304	y: -72.979	z: -102.542
19:09:35		x: -193.125	y: -76.647	z: -98.719
19:09:36		x: -110.462	y: 6.581	z: -61.531
19:09:36		x: -121.369	y: -2.558	z: -80.471
19:09:36		x: -128.239	y: -4.495	z: -71.374
19:09:36		x: -114.845	y: -16.262	z: -53.015
19:09:36		x: -101.995	y: -13.774	z: -63.308
19:09:37		x: -94.563	y: -6.457	z: -96.777
19:09:37		x: -99.499	y: -4.048	z: -105.296
19:09:37		x: -99.499	y: -4.85	z: -104.489
19:09:37		x: -100.489	y: -4.85	z: -104.489
19:09:37		x: -99.742	y: -5.836	z: -104.489
19:09:37		x: -99.742	y: -6.358	z: -103.166
19:09:38		x: -101.637	y: -5.496	z: -105.462
19:09:38		x: -102.342	y: -6.034	z: -104.606
19:09:38		x: -102.342	y: -6.446	z: -103.497
