13:06:30		x: 11.108	y: 6.842	z: -7.136
13:06:31		x: 10.411	y: 6.842	z: -8.265
13:06:31		x: 9.95	y: 7.942	z: -8.265
13:06:31		x: 9.95	y: 8.676	z: -8.265
13:06:31		x: 9.567	y: 9.846	z: -9.324
13:06:31		x: 10.24	y: 10.974	z: -8.996
13:06:32		x: 11.16	y: 11.747	z: -8.996
13:06:32		x: 11.16	y: 13.427	z: -8.996
13:06:32		x: 11.16	y: 13.427	z: -8.059
13:06:32		x: 17.228	y: 13.427	z: -8.059
13:06:32		x: 19.54	y: 10.046	z: -8.436
13:06:32		x: 18.988	y: 12.631	z: -8.436
13:06:33		x: 17.835	y: 14.216	z: -9.208
13:06:33		x: 20.727	y: 11.392	z: -9.208
13:06:33		x: 22.879	y: 7.106	z: -9.208
13:06:33		x: 23.365	y: 6.314	z: -9.208
13:06:33		x: 22.663	y: 10.374	z: -9.208
13:06:33		x: 19.308	y: 12.142	z: -9.536
13:06:34		x: 17.704	y: 7.951	z: -9.536
13:06:34		x: 18.565	y: 11.546	z: -9.87
13:06:34		x: 18.034	y: 15.834	z: -9.87
13:06:34		x: 21.69	y: 13.713	z: -9.87
13:06:34		x: 21.69	y: 14.805	z: -8.734
13:06:35		x: 17.207	y: 15.594	z: -9.564
13:06:35		x: 8.514	y: 14.649	z: -12.228
13:06:35		x: -3.002	y: 26.751	z: -10.893
13:06:35		x: 4.049	y: 29.035	z: -9.66
13:06:35		x: 14.674	y: 26.499	z: -5.813
13:06:35		x: 12.435	y: 26.499	z: -6.23
13:06:36		x: -0.856	y: 24.356	z: -9.495
13:06:36		x: -13.648	y: 22.772	z: -8.143
13:06:36		x: -16.093	y: 23.336	z: -6.817
13:06:36		x: -14.167	y: 25.837	z: -6.817
13:06:36		x: -14.501	y: 21.629	z: -7.122
13:06:37		x: -12.916	y: 8.482	z: -7.122
13:06:37		x: -17.323	y: 4.512	z: -5.317
13:06:37		x: -18.769	y: 0.599	z: -4.115
13:06:37		x: -18.458	y: 4.57	z: -6.011
13:06:37		x: -15.925	y: 4.901	z: -8.05
13:06:37		x: -15.029	y: 1.155	z: -9.181
13:06:38		x: -15.66	y: -1.925	z: -9.181
13:06:38		x: -19.082	y: -6.127	z: -8.3
13:06:38		x: -22.329	y: -12.24	z: -5.422
13:06:38		x: -20.838	y: -13.659	z: -6.805
13:06:38		x: -20.838	y: -13.659	z: -7.695
13:06:39		x: -22.052	y: -15.791	z: -7.695
13:06:39		x: -22.052	y: -24.349	z: -2.94
13:06:39		x: -21.63	y: -30.833	z: 8.311
13:06:39		x: -19.805	y: -32.817	z: 12.875
13:06:39		x: -17.153	y: -32.817	z: 13.922
13:06:39		x: -16.433	y: -31.884	z: 12.399
13:06:40		x: -16.433	y: -30.084	z: 10.772
13:06:40		x: -12.071	y: -27.99	z: 8.993
13:06:40		x: -13.058	y: -26.963	z: 8.993
13:06:40		x: -11.241	y: -29.063	z: 10.371
13:06:40		x: -10.426	y: -30.859	z: 8.409
13:06:41		x: -14.042	y: -24.499	z: -1.696
13:06:41		x: -15.53	y: -21.881	z: -5.136
13:06:41		x: -15.53	y: -22.563	z: -6.222
13:06:41		x: -13.827	y: -27.336	z: -0.44
13:06:41		x: -14.237	y: -28.598	z: -0.91
13:06:41		x: -13.072	y: -31.365	z: 2.252
13:06:42		x: -13.072	y: -32.011	z: 1.361
13:06:42		x: -14.813	y: -31.381	z: -0.756
13:06:42		x: -18.624	y: -30.671	z: -1.603
13:06:42		x: -17.315	y: -34.165	z: 1.916
13:06:42		x: -16.838	y: -35.957	z: 7.865
13:06:43		x: -14.91	y: -37.348	z: 10.838
13:06:43		x: -11.901	y: -37.884	z: 11.729
13:06:43		x: -8.805	y: -37.884	z: 13.533
