3 1:6.66765409514 2:-2.56606499643 3:0.416857587456 4:3.16205438913 5:9.99858795979 6:4.50121700459 7:-6.16212547394 8:9.51619735393e-17 9:2.97019464406 10:8.82205622363 11:2.31100410249 12:-2.72061239305 13:0.0610395276606 14:1.46705110762 15:2.15223895237 16:1.46075567287 17:-2.15625177961 18:-0.26823613795 19:1.08010969983 20:1.16663696367 21:1.05436691352 22:-1.31947378116 23:-0.152250804312 24:0.773454275403 25:0.59823151614 26:0.71005849388 27:-1.4248001533 28:-0.0510024535446 29:0.561385699333 30:0.315153903415 
3 1:5.83583633524 2:-1.0904554207 3:3.44056917991 4:2.35261234294 5:5.53478483614 6:1.55674038738 7:-1.47491078249 8:-1.94289029309e-16 9:0.835928615157 10:0.698776649638 11:1.3999498194 12:-1.29049135791 13:-0.0128985484496 14:0.749849750649 15:0.562274648549 16:0.837968052136 17:-1.25097327614 18:-0.180084810593 19:0.638070878268 20:0.407134445694 21:0.903367260163 22:-1.00616874666 23:-0.102569044386 24:0.555283635254 25:0.308339915581 26:2.14780679676 27:-3.2522818296 28:0.114766119126 29:1.51877473478 30:2.306676695 
3 1:3.66167802036 2:-2.27207859847 3:-0.271994835657 4:2.02271034672 5:4.09135714672 6:1.26510820777 7:-1.10609064145 8:3.9650822308e-18 9:0.805355926068 10:0.648598167652 11:0.660723226306 12:-0.560253202154 13:0.0473406453852 14:0.418207202856 15:0.174897264521 16:0.440519957385 17:-0.320319717792 18:0.0632620265254 19:0.224802222053 20:0.05053603904 21:0.733965476851 22:-0.785543429335 23:-0.104275491571 24:0.438609859477 25:0.19237860883 26:3.65153021294 27:-3.72567180666 28:0.0924746179242 29:2.28180362728 30:5.20662779348 
3 1:5.77572080217 2:-2.25157215155 3:0.401636595355 4:2.74309580309 5:7.52457458495 6:2.31163672763 7:-2.93863978916 8:3.9650822308e-17 9:1.5822081658 10:2.50338267993 11:1.17041762232 12:-1.12225286528 13:0.130670978419 14:0.701938978608 15:0.492718329689 16:0.592156410409 17:-1.10147963141 18:-0.133257511653 19:0.496927584564 20:0.2469370243 21:3.0924782329 22:-3.32573885483 23:-0.452919780823 24:2.21863177252 25:4.92232694206 26:3.49588399051 27:-3.81002481134 28:0.136410140361 29:2.06403783597 30:4.26025218832 
3 1:11.920695265 2:-6.06767415058 3:-0.125967601441 4:6.14792082658 5:37.7969304899 6:5.53966116746 7:-7.1692734713 8:3.17206578464e-17 9:3.74689368371 10:14.039212277 11:2.94415343685 12:-2.84684666346 13:0.190529689021 14:1.66876829853 15:2.78478763417 16:0.718769838276 17:-0.799883778663 18:-0.0705323515809 19:0.49298507287 20:0.243034282073 21:5.75939598917 22:-4.65161096526 23:-0.767351308765 24:3.1125084421 25:9.68770880212 26:2.44836702303 27:-2.821380367 28:-0.00232926142392 29:1.86317167675 30:3.47140869705 
3 1:5.95461658872 2:-1.66233212476 3:0.787838585189 4:2.62306517944 5:6.88047093558 6:3.4029327581 7:-4.58329668503 8:-5.94762334621e-17 9:2.25811801085 10:5.09909695092 11:1.6568480603 12:-1.78703039571 13:0.186070615056 14:1.05736992035 15:1.11803114847 16:1.76040723287 17:-1.89534712356 18:-0.017914375508 19:1.1026755648 20:1.2158934012 21:3.64811966328 22:-7.2974738082 23:-1.14700513912 24:2.8768223753 25:8.27610697903 26:3.2235862234 27:-1.82037736762 28:0.41547975075 29:1.35536948787 30:1.83702644865 
3 1:10.7816013269 2:-4.19518808873 3:0.716724004739 4:5.1229592951 5:26.2447119393 6:5.43798843444 7:-7.20435335859 8:1.90323947079e-16 9:3.6183915085 10:13.0927571088 11:2.91240892396 12:-3.05732436664 13:0.142832144606 14:1.69297167895 15:2.86615310574 16:1.00816731092 17:-1.04379372795 18:-0.14430593559 19:0.548380634656 20:0.300721320466 21:5.77372053137 22:-5.06011143895 23:-0.660213925173 24:2.94947871653 25:8.69942469927 26:2.99209041264 27:-2.30191397959 28:0.321399524359 29:1.56643039496 30:2.45370418225 
3 1:4.20185743026 2:3.46677341479 3:3.81971774994 4:0.274253523799 5:0.0752149953163 6:2.62852278471 7:-3.9457378637 8:1.07057220232e-16 9:1.87413161344 10:3.51236930451 11:1.75320914143 12:-1.87974044506 13:0.0669661088268 14:1.19424526403 15:1.42622175066 16:1.81293432657 17:-2.08127818609 18:-0.174428512679 19:1.19303462153 20:1.42333160817 21:2.03243748575 22:-2.74555150272 23:-0.449815356387 24:1.35023337744 25:1.82313017356 26:4.9925860489 27:-5.21620448466 28:0.549614919935 29:2.49811445534 30:6.24057583198 
3 1:5.73804591319 2:0.869163322748 3:2.40813935709 4:1.66919893064 5:2.78622507004 6:3.26124222268 7:-4.56094522072 8:-1.42742960309e-16 9:2.18840474408 10:4.78911532393 11:1.51826853903 12:-2.04040886063 13:0.0309314181432 14:1.16479554997 15:1.35674867324 16:2.17269032009 17:-3.88716556917 18:-0.476639293838 19:1.77407138891 20:3.14732929296 21:2.44790004783 22:-2.4930035418 23:0.087740391646 24:1.57185841775 25:2.47073888546 26:5.53727770364 27:-6.56002667437 28:0.0988036568305 29:2.97966661309 30:8.87841312518 
3 1:7.12519087019 2:1.73275426195 3:3.44796035687 4:1.84777165882 5:3.41426010314 6:3.30059313014 7:-4.57191994097 8:-9.51619735393e-17 9:2.21685876652 10:4.91446279069 11:1.62506785262 12:-2.10876689261 13:0.0535956665959 14:1.23358147739 15:1.52172326135 16:1.58543997568 17:-5.28313783436 18:-0.64017023527 19:2.07388638262 20:4.30100472803 21:1.91069698502 22:-3.62660328323 23:0.0503904740485 24:1.49205207771 25:2.22621940259 26:1.4472510277 27:-4.30608166619 28:-0.325573116857 29:1.5694020928 30:2.46302292889 
3 1:6.55136886799 2:-10.0969323052 3:0.990399731795 4:5.67556977139 5:32.2120922299 6:5.55361509959 7:-4.35261454555 8:1.58603289232e-17 9:3.0012651765 10:9.00759265968 11:2.08696375446 12:-2.41603947293 13:0.00028262992268 14:1.42579905395 15:2.03290294224 16:0.961201973425 17:-1.69708178101 18:-0.221512201053 19:0.85518841745 20:0.731347229341 21:2.79560958819 22:-1.9721152937 23:-0.204943452543 24:1.62297016093 25:2.63403214327 26:2.68843889936 27:-3.09859667316 28:-0.156959926374 29:1.50323344435 30:2.25971078822 
3 1:-3.13826275138 2:-11.5769186385 3:-5.84619086637 4:2.90201340845 5:8.42168182282 6:5.84277661179 7:-4.2579946831 8:-8.72318090777e-17 9:2.81680955568 10:7.93441607297 11:2.58618159416 12:-2.2792225047 13:-0.103137185454 14:1.40536885822 15:1.97506162764 16:1.38624125882 17:-1.47371394359 18:-0.0121242709597 19:0.757305437963 20:0.573511526368 21:4.67263422279 22:-5.27969842164 23:0.605136602955 24:2.86412788737 25:8.20322855519 26:2.85702533975 27:-2.33285320103 28:-0.143351360104 29:1.5970768604 30:2.55065449803 
3 1:1.84259367227 2:-10.8544928555 3:-2.36104157348 4:4.34062593589 5:18.8410335153 6:4.33238877894 7:-3.44358508024 8:-7.13714801545e-17 9:2.38797731534 10:5.7024356586 11:1.47229262925 12:-1.67024734211 13:-0.213704019776 14:1.0137816193 15:1.02775317163 16:1.80419638971 17:-1.97430312799 18:0.123480847528 19:1.04189262935 20:1.08554025109 21:6.01142984502 22:-3.28256416218 23:1.02660937235 24:2.48193563499 25:6.16000449622 26:2.9323748034 27:-3.36326530052 28:-0.438437799907 29:1.62559415567 30:2.64255635896 
3 1:-1.89329281796 2:-3.92269504552 3:-3.21481548873 4:0.685731239504 5:0.470227332831 6:0.311632201463 7:-0.399445922646 8:6.34413156929e-17 9:0.233354611977 10:0.0544543749309 11:0.702823238008 12:-0.985600286749 13:-0.122070319371 14:0.475949826028 15:0.226528236896 16:1.91811702498 17:-1.42376043235 18:0.143689899634 19:1.03008947816 20:1.06108433302 21:4.33231030381 22:-3.79554651173 23:0.574649968089 24:2.63966518098 25:6.96783226769 26:3.596992135 27:-1.91349167348 28:-0.131168050408 29:1.50473998672 30:2.26424242763 
3 1:1.097554403 2:-0.297058790355 3:0.586876594752 4:0.468667429902 5:0.219649159851 6:0.80823569138 7:-1.30037952872 8:0.0 9:0.678739170844 10:0.460686862037 11:0.525135168589 12:-0.682898861629 13:-0.0678168089313 14:0.40741505064 15:0.165987023488 16:1.54543046156 17:-1.05887492863 18:0.172464531591 19:0.711892490434 20:0.506790917936 21:3.60312486543 22:-3.66521678939 23:0.127754661388 24:2.18153139064 25:4.75907920834 26:2.70661902151 27:-3.24936257693 28:0.169099867477 29:1.83284153326 30:3.35930808604 
3 1:-0.592488667567 2:-3.00563639616 3:-2.2243329788 4:0.828697202815 5:0.686739053954 6:1.06047446356 7:-1.43561995916 8:6.24500451352e-17 9:0.702830928384 10:0.493971313893 11:0.50363753075 12:-0.532968649091 13:0.0301803352155 14:0.294332067547 15:0.0866313659867 16:0.93998068715 17:-0.888802639641 18:-0.0053732718263 19:0.491151705126 20:0.241229997448 21:2.81369528233 22:-2.70123426481 23:-0.267951515998 24:1.48199726735 25:2.19631590044 26:3.27271172219 27:-3.43272156659 28:0.322650364391 29:1.83154479204 30:3.35455632525 
3 1:-3.47174563149 2:-4.35560391806 3:-3.73870527898 4:0.302418405106 5:0.0914568917469 6:1.6667646053 7:-1.14050025264 8:-1.58603289232e-17 9:0.817668427074 10:0.668581656633 11:0.670458779272 12:-0.636875664645 13:0.0472178436178 14:0.406275246615 15:0.165059576012 16:2.0577912664 17:-2.45505073187 18:0.131347587423 19:1.28474685268 20:1.65057447547 21:2.27043139099 22:-3.18155020361 23:-0.42400813304 24:1.49899519513 25:2.24698659502 26:4.10026888107 27:-3.17331734777 28:-0.0621697655394 29:2.00343697622 30:4.0137597177 
3 1:0.720574907607 2:-6.54015206874 3:-4.10752269351 4:2.47667136065 5:6.13390102866 6:1.5616952374 7:-1.90142875518 8:-3.56857400772e-17 9:1.14156631416 10:1.30317364963 11:0.876017615248 12:-0.649631879424 13:0.0496633019085 14:0.536848566743 15:0.288206383614 16:0.644439178191 17:-0.336020301175 18:0.0892945001826 19:0.318430421873 20:0.101397933574 21:1.85438579306 22:-1.75272208718 23:-0.0952501933779 24:0.931130439542 25:0.867003895442 26:4.40636513783 27:-3.61140935153 28:0.251540813965 29:2.14643929131 30:4.60720163128 
3 1:3.27859286145 2:-6.69655572726 3:-3.42003922332 4:3.4164350559 5:11.6720284912 6:3.35482180088 7:-4.39582163427 8:5.15460690005e-17 9:2.25537669948 10:5.08672405658 11:1.72489894377 12:-1.67720407437 13:0.13910771781 14:0.992782802903 15:0.985617693741 16:1.48701479506 17:-1.47850172266 18:0.0822926253007 19:0.858544720875 20:0.737099037742 21:4.03905585227 22:-3.96676303833 23:-0.608709153784 24:2.58970729849 25:6.70658389186 26:4.45884408842 27:-4.42309061638 28:-0.029481196565 29:2.36038679822 30:5.57142583722 
3 1:6.03382711875 2:-6.49546269732 3:-2.37916067009 4:4.29966388776 5:18.4871095477 6:4.21823385175 7:-5.5610821685 8:1.82393782617e-16 9:2.86847576148 10:8.2281531942 11:2.13470042 12:-1.89698730143 13:0.144363105985 14:1.22523263876 15:1.50119501908 16:4.03666103305 17:-3.73104190322 18:0.472963565749 19:2.55685030496 20:6.53748348197 21:1.7684937186 22:-7.18975691172 23:-1.00760308495 24:2.448357168 25:5.99445282208 26:2.18864413458 27:-1.07669647219 28:0.410193980881 29:1.04106360896 30:1.0838134379 
3 1:8.37749357183 2:-4.56110735071 3:-0.296364200898 4:4.42193766812 5:19.5535327408 6:4.05588295467 7:-5.23502937583 8:-1.58603289232e-16 9:2.7387988106 10:7.50101892492 11:1.96804526429 12:-1.9511065 13:0.190277916184 14:1.16658822827 15:1.36092809434 16:2.44857694497 17:-2.33006682485 18:-0.28314225379 19:1.47320472664 20:2.1703321666 21:1.01785863071 22:-4.39503797421 23:-0.838736574087 24:1.68730990786 25:2.84701472515 26:4.20788877848 27:-3.71651051391 28:0.067975761155 29:2.1974068529 30:4.82859687715 
3 1:4.43238659391 2:-5.94121289918 3:0.929898572366 4:3.55110088218 5:12.6103174754 6:2.3519989284 7:-2.23676161986 8:-6.34413156929e-17 9:1.53752629115 10:2.36398709598 11:1.57158431952 12:-2.11134950833 13:0.0490780523202 14:1.17389205201 15:1.37802254976 16:2.0447277009 17:-6.90640928531 18:-0.853424843786 19:2.73081932562 20:7.45737418916 21:0.840736114676 22:-3.78728307502 23:-0.205214939178 24:1.31769632362 25:1.73632360127 26:2.17066752325 27:-4.00979573733 28:-0.43317264897 29:1.99134739818 30:3.96546446022 
3 1:-0.863818982003 2:-7.91296292984 3:-3.15587082514 4:2.42051935939 5:5.8589139692 6:3.88279892054 7:-2.8864102236 8:7.73191035007e-17 9:1.92379405967 10:3.70098358401 11:1.8158982232 12:-1.71594281219 13:-0.0737813441952 14:0.999278042598 15:0.998556606418 16:1.90561470437 17:-1.54203062538 18:-0.0632708041779 19:1.09729354596 20:1.20405312601 21:3.106808352 22:-2.91855444614 23:0.386438312129 24:1.72926739852 25:2.99036573559 26:1.86865456861 27:-2.12265667363 28:-0.216050239829 29:1.38871759127 30:1.92853654831 
3 1:-0.869659925996 2:-8.71763364099 3:-3.4698084147 4:2.67645131118 5:7.16339162113 6:2.76136959407 7:-2.19063911605 8:1.26882631386e-16 9:1.51359670287 10:2.29097497893 11:0.926126221879 12:-0.945862918606 13:-0.127595319836 14:0.595652041556 15:0.35480135461 16:2.53750889283 17:-2.2119016726 18:0.301752635745 19:1.4435626232 20:2.08387304709 21:2.7043721235 22:-1.3596147559 23:0.444223581231 24:1.26615392181 25:1.60314575372 26:1.77640687413 27:-3.42203974132 28:-0.413130974175 29:1.60079299087 30:2.5625381996 
3 1:-1.75097309689 2:-4.20925995426 3:-3.33206108407 4:0.833448337934 5:0.694636132005 6:0.645762118888 7:-0.631615980835 8:-4.55984456542e-17 9:0.407772569813 10:0.166278468692 11:0.897456935185 12:-0.842321388827 13:-0.0753867596615 14:0.565216597236 15:0.319469801791 16:1.42633380114 17:-0.779395140571 18:0.189553633032 19:0.587819565588 20:0.345531841687 21:3.32087718065 22:-3.36886201655 23:0.295243716804 24:1.88631634286 25:3.55818934536 26:4.32629443338 27:-3.51974044005 28:0.105951508956 29:2.38680178633 30:5.69682276725 
3 1:1.38373705369 2:-5.62526279581 3:-3.31936722118 4:2.40117116598 5:5.76562296835 6:2.41235506866 7:-3.19634548408 8:6.44325862506e-17 9:1.62301787851 10:2.63418703397 11:1.18600580443 12:-1.08823447277 13:0.051056438584 14:0.677188962755 15:0.458584891278 16:2.73105636937 17:-2.47115917579 18:0.193930233938 19:1.49413124778 20:2.23242818559 21:2.46801878043 22:-2.57058392588 23:-0.3417894198 24:1.56044816288 25:2.43499846902 26:4.02095708476 27:-4.07250988193 28:0.506591455526 29:2.37659676583 30:5.64821218736 
3 1:3.51959911078 2:-4.80207883265 3:-2.06668904065 4:2.85405783727 5:8.14564613848 6:2.66999692936 7:-3.47480464908 8:-1.18952466924e-17 9:1.82118786204 10:3.31672522883 11:1.50634613279 12:-1.40627006632 13:0.117998140472 14:0.855735968829 15:0.732284048348 16:0.987372704994 17:-0.765933444531 18:0.11066594043 19:0.510832171664 20:0.260949507607 21:1.26510010796 22:-4.53899447921 23:-0.650234758752 24:1.59635774378 25:2.54835804613 26:3.25902613504 27:-2.95668004783 28:-0.0636228956178 29:1.90267543376 30:3.62017380625 
3 1:8.42535588672 2:-5.51422782841 3:-0.964791473059 4:4.77005809154 5:22.7534541966 6:5.53451667928 7:-7.40247319095 8:-3.48927236311e-16 9:3.66368148306 10:13.4225620093 11:2.78090403744 12:-3.04561831635 13:0.162098963529 14:1.67797241243 15:2.81559141689 16:2.30312640339 17:-2.28160609422 18:-0.214857355663 19:1.32023194401 20:1.74301238597 21:4.75694203615 22:-3.56214796836 23:-0.524199446609 24:2.82411902339 25:7.97564825828 26:3.06485849889 27:-2.54068043902 28:-0.0426531312109 29:2.01037060283 30:4.04158996071 
3 1:4.49476423865 2:-5.25882333425 3:-2.04915100396 4:3.34576296314 5:11.1941298055 6:2.83875221237 7:-3.60936187447 8:2.47817639425e-16 9:1.97057664311 10:3.88317230636 11:1.49239731022 12:-1.31562049931 13:0.208069770705 14:0.922029057092 15:0.850137582122 16:0.672852971346 17:-0.833226882331 18:0.0436762302075 19:0.520082696969 20:0.270486011686 21:1.87879684779 22:-7.39577020557 23:-1.15893192412 24:2.55294895834 25:6.51754838389 26:3.05670795074 27:-2.06988704216 28:0.220150452754 29:1.68438320316 30:2.83714677509 
3 1:2.15664337944 2:-1.12137199055 3:-0.0886476239701 4:1.12870884281 5:1.27398365184 6:2.09377783997 7:-2.89216054202 8:6.34413156929e-17 9:1.40422577196 10:1.97185001863 11:1.06844364239 12:-1.30634615419 13:0.0755138954846 14:0.81628454334 15:0.666320455696 16:1.06568533142 17:-3.63164639345 18:-0.446256552253 19:1.42114731606 20:2.01965969396 21:1.88118876293 22:-3.0180169572 23:-0.183051629245 24:1.43944605329 25:2.07200494032 26:2.81598537967 27:-2.99811638813 28:0.132899401751 29:1.81618748453 30:3.29853697898 
3 1:0.450986073891 2:-6.81420016121 3:-1.95109852291 4:2.48674269903 5:6.18388925119 6:3.16917708173 7:-2.39133474556 8:1.86358864848e-16 9:1.61668813571 10:2.61368052815 11:1.36452898621 12:-1.44895986252 13:0.00718275703385 14:0.826192725262 15:0.682594419275 16:0.851194928336 17:-2.00595168228 18:-0.241923144154 19:0.813600459292 20:0.66194570736 21:0.863174181718 22:-2.02674796069 23:-0.0296136991287 24:0.799013902547 25:0.638423216464 26:2.158374182 27:-4.17769439592 28:0.00804122958267 29:1.67899296677 30:2.81901738245 
3 1:-2.35423724298 2:-9.04875076143 3:-4.53616306229 4:2.28976955554 5:5.24304461749 6:3.60423862892 7:-2.69989002052 8:1.26882631386e-16 9:1.7879064949 10:3.19660963452 11:1.48970695499 12:-1.30660644553 13:-0.0926133869062 14:0.833484753772 15:0.694696834771 16:1.90288192604 17:-0.992858341546 18:0.240591779598 19:0.859763526918 20:0.739193322218 21:3.33838723883 22:-3.73885777812 23:0.311922912992 24:1.84377406419 25:3.39950279978 26:3.78406997358 27:-2.99306000442 28:-0.00407426356301 29:1.85488046084 30:3.44058152402 
3 1:-0.211859756677 2:-7.25078449433 3:-2.54894456152 4:2.40518313188 5:5.78490589789 6:2.00530583789 7:-1.65481556912 8:2.37904933848e-17 9:1.19489589662 10:1.42777620377 11:0.436949051846 12:-1.02099661533 13:-0.168422670719 14:0.511667394135 15:0.261803522221 16:2.758725346 17:-3.20461016214 18:0.101252157019 19:1.60908411762 20:2.58915169759 21:4.05675887814 22:-3.16330089983 23:0.743619509522 24:2.44835400209 25:5.99443731954 26:2.73094413157 27:-3.93214382551 28:-0.439123088003 29:1.78693864794 30:3.1931497315 
3 1:1.12476307263 2:-4.03952887314 3:-0.584410959987 4:1.77091109193 5:3.1361260955 6:1.37579872733 7:-1.23469726847 8:-6.44325862506e-17 9:0.870827455138 10:0.758340456623 11:0.46162801607 12:-0.966157177404 13:-0.151774669428 14:0.47886955139 15:0.229316047248 16:0.250125100416 17:-0.389832277488 18:0.0363533454284 19:0.199036977029 20:0.039615718225 21:4.48186092931 22:-3.09595231622 23:0.725015041991 24:2.2401898617 25:5.01845061645 26:3.18341110011 27:-1.88187740687 28:-0.0284149104746 29:1.48882456973 30:2.21659859943 
3 1:-1.65283453195 2:-4.68013230656 3:-3.69835547695 4:1.03765928157 5:1.07673678463 6:1.47321254987 7:-2.03583830858 8:1.14491749414e-16 9:0.976750966106 10:0.954042449789 11:0.802144642932 12:-0.881629378979 13:-0.0174880481375 14:0.480328198289 15:0.230715178072 16:0.412746044204 17:-0.444983073735 18:0.042698713262 19:0.311630002681 20:0.0971132585713 21:3.86118804536 22:-3.79804199747 23:0.0311520415528 24:2.03296419782 25:4.13294342963 26:2.69256926641 27:-3.57024860241 28:0.165956994914 29:1.96655692771 30:3.86734614991 
3 1:-1.2255626748 2:-2.80213663674 3:-2.34541444703 4:0.559185286027 5:0.312688184109 6:1.83803981745 7:-2.66730223858 8:1.11022302463e-16 9:1.2707044466 10:1.6146897906 11:0.947784487797 12:-1.13267869856 13:0.0166547731283 14:0.596421622504 15:0.355718751791 16:2.04203812884 17:-1.68454253185 18:0.229766709829 19:1.22087895601 20:1.49054542523 21:1.37104933721 22:-2.3864859411 23:-0.251197064948 24:1.1191614931 25:1.25252244763 26:3.45865161202 27:-2.62624972008 28:0.179691171597 29:1.96521261364 30:3.86206061681 
3 1:4.85404149871 2:-5.36915887552 3:-1.97041777565 4:3.49461172674 5:12.2123111207 6:2.64698273393 7:-3.33722125337 8:5.55111512313e-17 9:1.85398633306 10:3.43726532316 11:1.4844324897 12:-1.24927492678 13:0.0992248121436 14:0.849731967693 15:0.722044416919 16:1.21620337371 17:-0.603541328579 18:0.144668435084 19:0.488779733911 20:0.238905628282 21:3.43334816597 22:-3.23265474609 23:-0.447501022061 24:1.94557361586 25:3.78525669472 26:3.02018242759 27:-2.84739596075 28:0.11138727793 29:1.96254079079 30:3.85156635553 
3 1:12.817817238 2:-2.48624315875 3:2.48505489508 4:5.24915171357 5:27.5535937121 6:6.64100804335 7:-9.01230432117 8:-2.33939851617e-16 9:4.39993996783 10:19.3594717205 11:3.50166067799 12:-3.76448881035 13:0.128964801842 14:2.04525927959 15:4.18308552074 16:2.32507721242 17:-2.50067779034 18:0.190746358411 19:1.56149232751 20:2.43825828886 21:5.30615488543 22:-4.62262842088 23:-0.626766557581 24:3.05804590944 25:9.35164478423 26:1.1971342326 27:-2.16038822403 28:0.00515904513285 29:0.937240401442 30:0.878419570094 
3 1:11.0503403211 2:1.63347598804 3:4.68383074107 4:3.23398243618 5:10.4586423976 6:3.9958093429 7:-5.37401305496 8:-6.74063979237e-17 9:2.64803404142 10:7.01208428452 11:1.97226003503 12:-2.11329811838 13:0.163931687613 14:1.19647639792 15:1.43155577078 16:2.23759033992 17:-2.27996793395 18:-0.0142036214031 19:1.24551058245 20:1.551296611 21:3.20352062917 22:-5.92805025199 23:-0.935418368122 24:2.39023673957 25:5.71323167121 26:2.64822796681 27:-2.61531563796 28:0.474241721841 29:1.48822391139 30:2.21481041044 
3 1:7.8912108057 2:0.171857463927 3:5.17535706782 4:2.61527715882 5:6.83967461745 6:2.17054965076 7:-1.88867141927 8:-1.70498535925e-16 9:1.30692314784 10:1.70804811435 11:2.07487280381 12:-1.79389213764 13:0.0215075651264 14:1.1498824347 15:1.32222961362 16:1.23741719231 17:-1.57089305213 18:-0.21361029504 19:1.05747522874 20:1.1182538594 21:1.6136590515 22:-1.81014871702 23:-0.278244856101 24:0.947031365511 25:0.896868407261 26:3.28644512793 27:-4.09014684233 28:0.237533479051 29:1.92539218535 30:3.70713506741 
3 1:2.75600361394 2:-8.15299289201 3:-0.788178002695 4:3.7367294051 5:13.9631466469 6:6.70518022429 7:-4.91519423392 8:1.58603289232e-16 9:3.24884380044 10:10.5549860396 11:2.94570408354 12:-2.65816597003 13:-0.0312512437843 14:1.58207147994 15:2.50295016765 16:0.974975308611 17:-1.03964740205 18:0.0102505678977 19:0.58119567515 20:0.337788412813 21:5.05546072318 22:-3.67183472197 23:0.222752413945 24:2.66669855526 25:7.11128118463 26:3.92440860136 27:-4.61024986655 28:-0.0959277572626 29:2.81402275686 30:7.91872407615 
3 1:3.92651753447 2:-7.05511155448 3:0.344345727412 4:3.76910977305 5:14.2061884813 6:5.35078032667 7:-4.0483846451 8:-7.73191035007e-17 9:2.70980866076 10:7.34306297793 11:2.11392790969 12:-2.09640532433 13:-0.196448271006 14:1.24458507537 15:1.54899200984 16:1.42106697614 17:-1.21000863146 18:-0.0166282888521 19:0.820312481914 20:0.672912567984 21:7.31735014901 22:-2.51339592756 23:1.13016912672 24:2.63957860763 25:6.96737522588 26:1.38835512123 27:-2.95137730114 28:-0.420680200312 29:1.18445752772 30:1.40293963497 
3 1:0.766118855868 2:-4.05133359118 3:-0.729671523522 4:1.67068582162 5:2.79119111457 6:4.55372296214 7:-3.26772670684 8:-7.13714801545e-17 9:2.16458165374 10:4.68541373571 11:2.06985292605 12:-1.67867874103 13:-0.141982175934 14:1.20223072249 15:1.4453587101 16:1.08690441399 17:-0.948563703698 18:0.135916078185 19:0.692840501464 20:0.480027960469 21:4.27728829748 22:-4.51477765638 23:0.687577244972 24:2.52032354645 25:6.35203077879 26:1.9616401319 27:-1.0939457343 28:0.246279157557 29:1.03945213314 30:1.0804607371 
3 1:-1.52251957269 2:-2.08639419378 3:-1.85243976709 4:0.187852004487 5:0.0352883755897 6:1.11311364701 7:-0.729787320409 8:6.14587745775e-17 9:0.536160520747 10:0.287468104008 11:0.479515529952 12:-0.460710302414 13:-0.0414788436264 14:0.335215932606 15:0.112369721473 16:1.25337224696 17:-1.2180503064 18:-0.00656353673424 19:0.658045315615 20:0.433023637403 21:2.13881438624 22:-2.33730045067 23:0.231250464704 24:1.22729964198 25:1.5062644112 26:3.14279932866 27:-2.037247015 28:0.306189170839 29:1.64771205436 30:2.71495501409 
3 1:5.29996265374 2:-1.68243437082 3:0.579794273935 4:2.39723893939 5:5.74675453251 6:3.38425879054 7:-4.67805631094 8:-1.03092138001e-16 9:2.25179091979 10:5.07056234643 11:1.89143589526 12:-2.03983354755 13:-0.0254398695526 14:1.11333590486 15:1.23951683704 16:1.86653323679 17:-1.16422069101 18:0.216747991189 19:0.945917057908 20:0.894759080441 21:3.82852220775 22:-4.16270277989 23:0.0631400902006 24:2.6097216551 25:6.81064711711 26:4.19192539089 27:-4.46431716389 28:0.398935496299 29:2.53029285223 30:6.40238191805 
3 1:1.03757712391 2:-3.02154561682 3:-0.345153881799 4:1.38136259405 5:1.90816261623 6:0.887675692528 7:-0.733161380937 8:2.37904933848e-17 9:0.537910388826 10:0.289347586407 11:0.73574236261 12:-0.970723136133 13:0.0554706801013 14:0.525867134025 15:0.276536242648 16:3.29961688786 17:-4.1121242412 18:-0.353033649731 19:2.25097699839 20:5.06689744728 21:2.20222643993 22:-2.60984656313 23:-0.340741111106 24:1.45288039759 25:2.11086144971 26:2.58561827263 27:-3.0498777226 28:-0.100319459387 29:1.64757625173 30:2.71450750526 
3 1:-4.09331428199 2:-4.30023332165 3:-4.19905504396 4:0.070015925564 5:0.00490222983259 6:2.73687528131 7:-1.81462059595 8:-3.56857400772e-17 9:1.30151309284 10:1.69393633083 11:1.31197666149 12:-0.956780641697 13:0.0383640205755 14:0.722209966715 15:0.521587236022 16:1.31900446441 17:-1.52866214674 18:-0.166107858136 19:0.922011090793 20:0.850104451545 21:0.791014758783 22:-1.3893641601 23:-0.092331603031 24:0.632055936458 25:0.399494706811 26:2.41939054948 27:-3.69406210203 28:-0.021193042146 29:1.55318088288 30:2.41237085494 
3 1:5.17678681987 2:-3.51650978674 3:-0.584737749246 4:2.95494784121 5:8.73171674428 6:1.69006713516 7:-1.98953592779 8:7.93016446161e-17 9:1.25824596171 10:1.58318290015 11:0.929184153116 12:-0.687355938983 13:0.00925464939382 14:0.589647366572 15:0.347684016905 16:0.645464995281 17:-0.559539255425 18:-0.0204717999035 19:0.333378047849 20:0.111140922787 21:1.87416808984 22:-1.57530790979 23:0.267418954863 24:1.07075326965 25:1.14651256446 26:2.82844274902 27:-3.09829650751 28:0.147980434244 29:2.11595749057 30:4.4772761019 
3 1:11.2818812601 2:-1.78539759924 3:2.43607379002 4:4.48556615868 5:20.1203037639 6:6.16377963639 7:-8.42843186941 8:2.73590673925e-16 9:4.07698035976 10:16.6217688538 11:3.18010884104 12:-3.52489920415 13:0.124314502888 14:1.90216209228 15:3.6182206253 16:2.77984676443 17:-2.88537299123 18:0.141140433713 19:1.67322420461 20:2.79967923889 21:5.56629731871 22:-4.24849412308 23:-0.513086022836 24:3.13112556161 25:9.80394728255 26:2.86210115726 27:-4.18860055546 28:0.00898766585076 29:2.01130201236 30:4.04533578493 
3 1:13.9074125016 2:2.78684350932 3:6.35431740023 4:3.83568052357 5:14.7124450789 6:5.60307081296 7:-7.72567091066 8:-2.61695427233e-16 9:3.75220493194 10:14.0790418513 11:2.94115186335 12:-3.11394009558 13:0.124086588164 14:1.69838251301 15:2.88450316051 16:4.89392205356 17:-3.4387564083 18:0.550685767445 19:2.70928222768 20:7.34021018922 21:4.97328302958 22:-7.96403299337 23:-1.01051701398 24:3.52397286479 25:12.4183847518 26:1.95132945125 27:-2.20380868847 28:0.429515004061 29:1.22870773294 30:1.50972269298 
3 1:8.4136634525 2:3.93169223895 3:5.27532998058 4:1.56726668285 5:2.45632485516 6:4.09455798653 7:-5.82747994765 8:-2.53765262771e-16 9:2.74980188581 10:7.56141041118 11:2.04535886386 12:-2.56735037203 13:0.126505629292 14:1.43627001087 15:2.06287154414 16:1.87343286741 17:-2.2314562034 18:0.0682474808335 19:1.42336262925 20:2.02596117434 21:4.60077526061 22:-5.74582692396 23:-0.826710263726 24:2.85343105652 25:8.14206879428 26:3.03970940457 27:-0.533136527214 28:0.564157917684 29:1.06619891847 30:1.13678013376 
3 1:0.933763500169 2:-1.55007327638 3:-0.00359003468913 4:0.831480699552 5:0.691360153727 6:1.46492987305 7:-2.30940175497 8:3.9650822308e-17 9:1.1526918776 10:1.32869856467 11:1.39424170733 12:-1.31915269975 13:0.0589093020919 14:0.917473474031 15:0.841757575551 16:1.89291793885 17:-1.23458975083 18:-0.0997039816454 19:0.934511537557 20:0.873311813826 21:2.43019892038 22:-4.00305784 23:-0.588998282516 24:1.72653933816 25:2.9809380862 26:2.80505016025 27:-2.53073601747 28:0.21998916557 29:1.49507507191 30:2.23524947064 
3 1:3.97664905115 2:-4.58853601688 3:-1.83211561967 4:2.94208175027 5:8.65584502527 6:4.38587560141 7:-6.05814823439 8:2.79538297272e-16 9:2.90580249721 10:8.44368815279 11:2.30408643198 12:-2.58565034355 13:0.0387109936707 14:1.38091493403 15:1.90692605504 16:1.92087257614 17:-2.03584428777 18:0.123235271893 19:1.19361341208 20:1.42471297749 21:0.607439810994 22:-2.59346984023 23:-0.339757338168 24:0.969112082807 25:0.939178229043 26:3.38832548198 27:-3.36497002724 28:-0.204890166554 29:1.70860561148 30:2.91933313559 
3 1:3.7691145741 2:-9.3880193134 3:-0.646027290868 4:4.4901929843 5:20.1618330363 6:3.56437788569 7:-2.88343074403 8:-3.76682811926e-17 9:2.09365291394 10:4.38338252407 11:1.22187442236 12:-1.70112509712 13:-0.00925026387411 14:1.122938478 15:1.26099082537 16:0.71235461798 17:-3.04101913412 18:-0.382613359892 19:1.13400013279 20:1.28595630116 21:2.25002778558 22:-2.42245535506 23:0.00940268779115 24:1.30025022999 25:1.69065066059 26:3.39163170515 27:-3.15649620505 28:0.0975892961382 29:2.3015108476 30:5.2969521816 
3 1:0.600205245081 2:-8.7769108248 3:-2.42633591126 4:3.21847957041 5:10.3586107452 6:5.78657789557 7:-4.27829847616 8:6.34413156929e-17 9:2.8221018221 10:7.96425869428 11:2.65706109301 12:-2.31005828641 13:-0.145431263386 14:1.48562856423 15:2.20709223085 16:2.14222327144 17:-1.53791065871 18:0.285544918078 19:1.02533129014 20:1.05130425454 21:3.79810604325 22:-2.54687274473 23:0.618961834778 24:1.6710698633 25:2.79247448804 26:3.19244643524 27:-2.74799450641 28:-0.283794463545 29:1.72464839477 30:2.9744120856 
3 1:6.13567799951 2:0.0308240467124 3:1.94644624203 4:2.10659486281 5:4.43774191603 6:4.80064401167 7:-6.90684598191 8:-9.51619735393e-17 9:3.24602053726 10:10.5366493283 11:2.67350685447 12:-3.19013797114 13:-0.156453170541 14:1.74859626533 15:3.05758889914 16:3.66007777387 17:-2.16244796858 18:0.428806143243 19:1.79935297151 20:3.23767111609 21:3.77689010115 22:-1.81822590814 23:0.655297785814 24:1.62538183783 25:2.64186611874 26:3.90193953617 27:-3.08433890281 28:-0.390704493173 29:1.94375295703 30:3.77817555796 
3 1:4.57809978642 2:-2.44031399759 3:2.23534329749 4:2.39440581698 5:5.7331792164 6:2.50946075064 7:-1.93777158371 8:-1.30847713617e-16 9:1.32432138097 10:1.75382712009 11:0.972512846796 12:-1.11506414615 13:0.0249532423934 14:0.676253870508 15:0.457319297377 16:0.441912047434 17:-1.51416138715 18:-0.192273451183 19:0.605407243985 20:0.36651793107 21:0.487041280887 22:-1.1475748088 23:-0.199751729246 24:0.493573578821 25:0.243614877711 26:2.16271487691 27:-1.96369631364 28:0.0672234749577 29:1.17722845932 30:1.38586684544 
3 1:0.580501787288 2:0.1025054296 3:0.428429618561 4:0.161475133124 5:0.0260742186174 6:1.21379963071 7:-0.841262624018 8:1.9825411154e-17 9:0.574619457073 10:0.330187520447 11:0.567494140174 12:-0.422874473116 13:-0.05008564671 14:0.359175481212 15:0.129007026304 16:0.504585484022 17:-0.648979855042 18:0.0426853007378 19:0.306725855683 20:0.0940807505446 21:2.73611775225 22:-1.36961510963 23:0.41355171846 24:1.11436503415 25:1.24180942933 26:1.47597495213 27:-0.525024383821 28:0.338988094971 29:0.581824442446 30:0.338519681828 
3 1:1.30254962358 2:0.451004343145 3:0.723939176636 4:0.290272958309 5:0.0842583903256 6:0.547367998075 7:-0.771168669693 8:-4.75809867696e-17 9:0.367638917533 10:0.135158373685 11:0.3280118697 12:-0.427345653734 13:-0.017757426548 14:0.240423387156 15:0.0578034050913 16:0.390090778048 17:-0.559988901493 18:-0.0671593288326 19:0.316104958628 20:0.0999223448691 21:1.01781622222 22:-0.125408413964 23:0.146802660641 24:0.331664628729 25:0.11000142595 26:1.06147087497 27:-0.568295940604 28:0.0425768215309 29:0.509894342933 30:0.259992240955 
3 1:0.547403260073 2:-0.634520296902 3:0.151107869376 4:0.402765714587 5:0.162220220847 6:0.379828963394 7:-0.297261790572 8:8.92143501931e-18 9:0.205902947473 10:0.0423960237783 11:0.159081778329 12:-0.185672331727 13:0.00773120338431 14:0.115796141043 15:0.0134087462804 16:0.0880459845336 17:-0.214013235802 18:-0.0277918214316 19:0.089262792132 20:0.0079678460592 21:0.165525929195 22:-0.261223234637 23:-0.053335618322 24:0.129430725582 25:0.0167523127247 26:0.385572116167 27:-0.222626662158 28:0.0649161410997 29:0.200084350553 30:0.0400337473361 
3 1:-0.54021690416 2:-0.59581510145 3:-0.576332882157 4:0.019052727834 5:0.000363006437916 6:0.0240736672373 7:-0.0248439093445 8:1.13996114136e-17 9:0.0138836483168 10:0.000192755690584 11:0.0621703472768 12:-0.0988698744574 13:9.29316147845e-19 14:0.047853049087 15:0.00228991430692 16:0.0601111267776 17:-0.1516847673 18:-0.021402500781 19:0.0698889002801 20:0.00488445838237 21:0.279221800522 22:-0.200656715884 23:-0.00284026518016 24:0.124721022296 25:0.0155553334026 26:0.936540219094 27:-0.606103202616 28:0.0113497381758 29:0.436637119535 30:0.190651974156 
