3 1:226.360919782 2:200.541935824 3:216.93796959 4:8.68652821329 5:75.4557724003 6:13.1510513317 7:-20.891619984 8:-7.61295788314e-15 9:10.8147535932 10:116.958895283 11:11.3552359406 12:-11.6246571378 13:-0.671503258857 14:7.14649517038 15:51.0723932203 16:15.4818720213 17:-16.8170264519 18:1.5256706341 19:9.76370772825 20:95.3299886027 21:52.6482237964 22:-53.5676879157 23:1.39012140701 24:31.0212997492 25:962.321038128 26:151.77162749 27:-108.529532782 28:-12.2373345215 29:94.4682565794 30:8924.25150115 
3 1:240.330681131 2:187.118930895 3:203.209747325 4:18.4872986189 5:341.780210226 6:51.5095257793 7:-74.1345086035 8:2.41076999633e-15 9:34.8079109066 10:1211.59066168 11:27.0318733737 12:-34.1869849621 13:-0.241116213053 14:18.3740148964 15:337.604423414 16:17.3236538704 17:-24.8329380924 18:1.56054879108 19:15.033537622 20:226.007253431 21:65.4012672554 22:-67.4216876709 23:-1.54275692059 24:39.9690623379 25:1597.52594417 26:151.467022542 27:-109.116525098 28:-13.903509948 29:100.906380313 30:10182.0975879 
3 1:224.312998653 2:136.891085914 3:164.91613513 4:30.1673168222 5:910.067004253 6:44.1371219744 7:-60.8388237061 8:-7.61295788314e-16 9:29.5993565787 10:876.121909874 11:22.7030533907 12:-23.814066727 13:0.989181341418 14:13.048739304 15:170.269597423 16:38.8640165333 17:-30.6835039879 18:4.21509799925 19:22.8281733711 20:521.125499459 21:44.0603505734 22:-81.150452017 23:-10.9847697782 24:44.4106584128 25:1972.30658066 26:163.620783473 27:-117.536505236 28:-13.4454905133 29:98.7733897129 30:9756.18251537 
3 1:209.272923764 2:112.308548876 3:144.038507926 4:33.3723808282 5:1113.71580214 6:34.3446974513 7:-45.6375378092 8:-2.53765262771e-15 9:23.6436405641 10:559.021739125 11:17.5198882269 12:-15.0554250523 13:1.18378261196 14:10.2129446255 15:104.304237924 16:48.7836461993 17:-29.9481290204 18:5.52135359096 19:25.4036711969 20:645.346510281 21:45.1741236341 22:-88.4998100605 23:-12.1432454538 24:45.7389048309 25:2092.04741513 26:157.467742467 27:-121.875315416 28:-11.2122986459 29:93.2846614337 30:8702.02805881 
3 1:190.05987068 2:94.752852369 3:126.170895962 4:32.7561249549 5:1072.96372206 6:28.3871139735 7:-36.7530017296 8:-3.5527136788e-15 9:20.0380998036 10:401.52544374 11:14.8539757671 12:-11.4824222907 13:1.24793665396 14:9.12556159938 15:83.2758745041 16:42.9794211156 17:-25.3248105873 18:4.88054645757 19:20.5586160321 20:422.656693154 21:43.0057595959 22:-82.1409439055 23:-11.3887309673 24:42.1262417044 25:1774.62024014 26:146.386571999 27:-123.633288986 28:-10.271623846 29:90.5019184786 30:8190.59724831 
3 1:201.091933417 2:85.4329462416 3:123.507119957 4:39.6810011482 5:1574.58185212 6:37.420267442 7:-49.0692847629 8:-3.23550710034e-15 9:25.6150485644 10:656.130712957 11:20.5087672569 12:-18.2297643164 13:1.09690129391 14:11.6161069399 15:134.933940439 16:35.0881566581 17:-22.4532984704 18:3.93990977039 19:15.9867110311 20:255.574929593 21:41.2008177979 22:-68.7715140862 23:-9.28871798391 24:38.9719666585 25:1518.81418523 26:149.432348988 27:-130.617983399 28:-10.4823683485 29:92.1852323041 30:8498.11705497 
3 1:225.141975244 2:82.8033681581 3:129.873753356 4:48.7668511361 5:2378.20576973 6:41.4885330363 7:-53.4826984314 8:-3.0769038111e-15 9:28.6975582338 10:823.549848584 11:22.6336748833 12:-19.2342770148 13:1.40746885461 14:13.0089587379 15:169.233007445 16:33.3302851127 17:-20.5613646743 18:3.76863951279 19:15.2811996703 20:233.515063364 21:38.1830040429 22:-78.2239050116 23:-11.071481054 24:39.5507199763 25:1564.25945064 26:141.179958494 27:-129.809600036 28:-10.7187938186 29:89.4243610092 30:7996.7163419 
3 1:254.322658129 2:102.437637993 3:152.295045683 4:52.0945024936 5:2713.83719005 6:52.4364473368 7:-69.2747081015 8:-7.23230998899e-15 9:35.4426653639 10:1256.18252809 11:28.2848115058 12:-26.6074461002 13:1.5180756007 14:15.8906016512 15:252.511220839 16:33.4327313715 17:-23.7497028958 18:3.71704953844 19:17.1330391799 20:293.541031542 21:32.8876402059 22:-84.0811534734 23:-11.8337687381 24:37.5980282191 25:1413.61172596 26:128.896431914 27:-116.407614507 28:-10.9905243811 29:82.0220211104 30:6727.61194704 
3 1:286.405943105 2:138.455012927 3:187.261761975 4:50.6996094328 5:2570.45039664 6:45.8171708035 7:-59.6002876704 8:-1.96668078648e-15 9:31.3463588563 10:982.594213546 11:24.7112479163 12:-21.9111041677 13:1.48846032824 14:14.0170768003 15:196.478442027 16:32.0628653061 17:-20.9676444142 18:3.60427382628 19:15.7527928959 20:248.150484022 21:33.7030981333 22:-79.7162165744 23:-11.375268516 24:38.0328320799 25:1446.49631602 26:125.884713693 27:-124.147202071 28:-9.78258732395 29:81.0087622387 30:6562.41955944 
3 1:307.458004442 2:147.365526202 3:200.001300329 4:54.9075693514 5:3014.84117208 6:52.8647860907 7:-69.380724083 8:-7.48607525176e-15 9:35.9472893238 10:1292.20760973 11:28.1686530424 12:-25.6558543535 13:1.76174976883 14:15.9266896516 15:253.659443259 16:37.2171606709 17:-25.4512382971 18:4.16023277289 19:19.5732304239 20:383.111349228 21:35.4671945282 22:-95.7414889328 23:-13.7055639474 24:41.8304016473 25:1749.78250197 26:123.102085736 27:-121.888441869 28:-10.0608798479 29:82.4130569976 30:6791.91196368 
3 1:302.922226667 2:151.567323636 3:201.201982657 4:51.9253272622 5:2696.23961129 6:51.9461814549 7:-68.382207187 8:-5.70971841236e-16 9:35.1300528417 10:1234.12061266 11:27.0083064506 12:-25.2652724532 13:1.96182226611 14:15.3419402409 15:235.375130355 16:27.5912193823 17:-23.4825694384 18:2.95937093412 19:18.0103332801 20:324.372104862 21:42.0010419617 22:-100.30650184 23:-14.890488418 24:43.7569262823 25:1914.66859767 26:123.600504265 27:-124.310746364 28:-9.09412247967 29:82.4121805571 30:6791.76750417 
3 1:219.185934603 2:167.205427379 3:184.082633481 4:18.0105699516 5:324.38062998 6:16.8071732232 7:-21.6935089868 8:-4.4408920985e-15 9:12.4737705323 10:155.594951292 11:10.1847207437 12:-5.93027309347 13:1.76230993332 14:6.10334981536 15:37.2508789687 16:30.8859955854 17:-22.5621647932 18:3.35608026728 19:16.5111008405 20:272.616450966 21:31.0896588013 22:-103.436205276 23:-15.2798522906 24:39.7416232895 25:1579.39662168 26:102.758728973 27:-100.383204551 28:-7.7213362735 29:69.5866949274 30:4842.30811092 
3 1:173.091508634 2:139.749600539 3:150.636648359 4:11.58149996 5:134.131141323 6:9.60100269251 7:-12.2785627551 8:-4.31400946711e-15 9:7.74363664948 10:59.9639085592 11:5.7892094856 12:-6.80873233779 13:1.05429392881 14:4.22893954086 15:17.8839296403 16:34.1426916343 17:-20.4862876 18:3.85378426594 19:18.0995731028 20:327.594546502 21:34.2179612044 22:-73.8833990974 23:-10.495829404 24:33.829218761 25:1144.41604198 26:104.624320066 27:-88.2654165292 28:-7.10008819974 29:67.4760664857 30:4553.01954838 
3 1:184.07349539 2:98.8638527882 3:126.539764228 4:29.3041918964 5:858.735662699 6:35.3853876488 7:-47.8099427585 8:-3.5527136788e-15 9:23.7252357151 10:562.886809736 11:18.2813142551 12:-18.1899567549 13:0.983430792808 14:10.3610587109 15:107.351537611 16:27.9636980363 17:-21.1383807718 18:3.06806951953 19:16.4130191383 20:269.387197233 21:42.0446939841 22:-65.0105068052 23:-8.929457179 24:33.2307651105 25:1104.28374983 26:122.771189705 27:-95.5450530269 28:-8.42311325365 29:78.5371600805 30:6168.0855135 
3 1:212.225421783 2:86.8135822024 3:127.604959803 4:43.073743325 5:1855.34736403 6:52.0922448972 7:-70.4204246666 8:-1.96668078648e-15 9:34.7625444458 10:1208.43449635 11:27.599852019 12:-28.1699586503 13:1.13880725656 14:15.6862866669 15:246.059589396 16:30.8630361864 17:-24.921552669 18:3.35513152485 19:17.8467343135 20:318.505925656 21:49.5092888294 22:-72.019335107 23:-9.8244133019 24:38.0274923505 25:1446.09017447 26:143.698842342 27:-96.365368285 28:-9.450712458 29:87.9422459063 30:7733.83861504 
3 1:259.070693569 2:98.2915447611 3:150.720351931 4:55.1853709497 5:3045.42516686 6:64.3977706742 7:-86.7550512882 8:-1.01506105109e-15 9:43.0079335101 10:1849.68234481 11:34.3070308831 12:-34.6046025728 13:1.30964770932 14:19.4084473813 15:376.687829751 16:37.4132721325 17:-28.7133032315 18:4.12021113447 19:21.2813525876 20:452.895967956 21:44.5951030313 22:-82.4471351132 23:-11.2581293858 24:40.884679662 25:1671.55703106 26:151.68942264 27:-111.805751914 28:-10.2728631017 29:91.2122910181 30:8319.68203277 
3 1:301.150929633 2:119.089653944 3:178.860445192 4:62.4333762101 5:3897.92646499 6:63.2989034115 7:-83.7692286878 8:-1.90323947079e-16 9:42.714531602 10:1824.53120998 11:33.5382703849 12:-31.5129334196 13:1.69698118747 14:18.8647639498 15:355.879318881 16:42.0960624065 17:-28.9200580698 18:4.71546095142 19:23.3662992026 20:545.983938423 21:41.3326273865 22:-98.0743544304 23:-13.8370649674 24:46.0262847716 25:2118.41888988 26:148.923964444 27:-121.636079224 28:-10.1741304665 29:91.5482228231 30:8381.07710206 
3 1:331.763428523 2:146.907161309 3:207.534508504 4:63.4096692936 5:4020.78615992 6:64.8749359959 7:-85.8721792437 8:-1.83979815509e-15 9:43.7644857524 10:1915.33021317 11:34.3479668757 12:-32.4694265555 13:1.92915839082 14:19.3387746375 15:373.98820448 16:40.1331346419 17:-28.8231747677 18:4.46539045258 19:22.9113127626 20:524.928252508 21:37.7621918949 22:-105.551031348 23:-15.1347892731 24:44.5975580526 25:1988.94218426 26:137.231042183 27:-115.994038768 28:-9.67972896758 29:84.7857922863 30:7188.63057362 
3 1:299.174146934 2:169.53763479 3:211.874861785 4:44.5504513203 5:1984.74271285 6:46.6443676221 7:-61.6790474405 8:-8.62801893423e-15 9:31.5944371834 10:998.208460934 11:24.644157527 12:-23.335252036 13:2.05715345096 14:14.1257668394 15:199.5372888 16:27.2882895897 17:-23.4798314362 18:2.90526769859 19:16.0261580007 20:256.837740263 21:28.6906016893 22:-106.099763004 23:-15.7067626694 24:39.2278027127 25:1538.82050567 26:119.405935991 27:-90.8865357465 28:-7.15924350531 29:68.2217100233 30:4654.20171851 
3 1:191.958769747 2:181.226685135 3:184.694964116 4:3.57441225263 5:12.7764229517 6:26.5706835449 7:-38.7813590725 8:3.80647894157e-16 9:18.348633105 10:336.67233682 11:13.372748812 12:-18.2018620504 13:1.21898333132 14:11.0775197087 15:122.711442896 16:19.148255028 17:-18.0110556575 18:-0.48292941336 19:9.83396293245 20:96.7068269567 21:30.506909232 22:-69.3657956397 23:-10.3431079478 24:29.3305130689 25:860.278996887 26:99.4201600378 27:-87.9987510983 28:-7.21540269938 29:64.1355535645 30:4113.36923103 
3 1:149.107190208 2:112.572536193 3:123.95896236 4:12.6879635243 5:160.984418394 6:24.0422161209 7:-33.6064215782 8:-2.91830052187e-15 9:16.110702398 10:259.554731757 11:12.8610246064 12:-14.8258705333 13:0.800642548768 14:8.15765238962 15:66.5472925099 16:14.4957009766 17:-16.3928056652 18:0.996530041516 19:8.94809983093 20:80.0684905843 21:32.863632571 22:-47.3750997772 23:-6.4949302468 24:29.0820319347 25:845.764581453 26:137.76837001 27:-104.20906854 28:-10.6462415884 29:85.5022187057 30:7310.62940359 
3 1:16.6243632423 2:-45.2736720631 3:-6.38355353589 4:21.1712423259 5:448.221501622 6:29.9440790635 7:-47.2004527373 8:8.881784197e-16 9:24.0055968989 10:576.26868247 11:38.0024749294 12:-32.8382425214 13:1.74919796547 14:23.4310722238 15:549.015145558 16:30.0245832867 17:-81.7022416967 18:-10.6196532723 19:30.8459114474 20:951.470253022 21:21.0319149886 22:-69.189691908 23:-13.1508006013 24:25.6765057499 25:659.282947525 26:23.8684096691 27:-92.4984849497 28:-12.515801716 29:31.8216374423 30:1012.61660951 
3 1:-21.7038266439 2:-125.726673271 3:-91.677069184 4:35.6175604565 5:1268.61061287 6:38.6228117873 7:-51.3072341352 8:1.96668078648e-15 9:25.6996299621 10:660.470980186 11:20.4552348923 12:-21.2556041584 13:1.0996384122 14:11.8372174647 15:140.119717307 16:7.23884653968 17:-8.76217689012 18:-0.63438000452 19:4.90549227397 20:24.06385445 21:7.24427628746 22:-37.8798075108 23:-6.13205843926 24:12.6355884443 25:159.658095334 26:24.1800065893 27:-35.5252719364 28:-1.9386378688 29:19.0630340834 30:363.399268465 
3 1:7.45984028666 2:-110.460956428 3:-71.8577828419 4:40.3824432239 5:1630.74172073 6:43.5663449488 7:-57.8470733686 8:1.07850236678e-15 9:29.0118493241 10:841.687401206 11:23.0587485627 12:-23.7923714874 13:1.26354362865 14:13.2965797512 15:176.799033081 16:9.40683221925 17:-11.0378263058 18:-0.479972339754 19:5.93722551428 20:35.2506468075 21:6.47496569716 22:-44.8478867975 23:-7.24366649151 24:14.6042084023 25:213.282903058 26:32.2085307685 27:-37.4436548762 28:-0.563585683214 29:21.8046030632 30:475.440714743 
3 1:75.2704655236 2:-83.5122535216 3:-30.9171254671 4:54.2813211788 5:2946.46182891 6:46.1919057601 7:-59.4612238077 8:-1.90323947079e-16 9:31.5626905605 10:996.203435419 11:24.9650916485 12:-22.5719586946 13:1.33728871647 14:14.0484130877 15:197.357910283 16:13.6878150454 17:-13.5103377416 18:1.16526177946 19:7.86663136336 20:61.883889007 21:4.78948473163 22:-47.6556887172 23:-7.54092730986 24:15.2531137813 25:232.657480025 26:47.0610147464 27:-39.751058462 28:1.28934083463 29:28.2144815544 30:796.056969386 
3 1:20.8968883073 2:-23.5035167893 3:-8.80586347261 4:15.2385534981 5:232.213512715 6:10.975505031 7:-10.582300221 8:1.78428700386e-16 9:7.24353161884 10:52.4687503132 11:9.18014204178 12:-3.20152228555 13:1.43752822098 14:4.23932554759 15:17.9718810985 16:3.51430283334 17:-6.38619014045 18:-0.850081987766 19:2.74028820099 20:7.50917942448 21:11.1553428131 22:-52.0283798492 23:-8.85654980381 24:18.0112671806 25:324.405745451 26:45.369270778 27:-44.7576459181 28:2.83165287958 29:30.3647634734 30:922.018860797 
3 1:-40.1461077967 2:-59.3954266008 3:-46.70234532 4:6.54556836789 5:42.8444652587 6:6.77979460637 7:-5.03016698086 8:-9.51619735393e-17 9:3.39201893972 10:11.5057924875 11:6.40194186866 12:-5.01072511726 13:0.772465855126 14:3.41536297911 15:11.6647042791 16:7.72119374715 17:-14.4259564031 18:-1.83825749786 19:7.32434517946 20:53.6460323078 21:11.3809353984 22:-23.184660073 23:-4.28886480427 24:10.7814606619 25:116.239894004 26:39.3311102182 27:-41.9213813929 28:3.52185965383 29:28.0763116608 30:788.279276472 
3 1:-80.2809414392 2:-117.424705343 3:-93.0350406723 4:12.6945040459 5:161.150432971 6:6.88755404588 7:-8.35639991802 8:8.881784197e-16 9:4.3866984516 10:19.2431233052 11:8.78652170355 12:-8.92344902699 13:0.061189912458 14:4.94113496291 15:24.4148147216 16:5.70031449913 17:-24.1476821789 18:-3.00746061461 19:8.97904459131 20:80.6232417727 21:11.6401386639 22:-11.2161250135 23:0.971455970839 24:7.60828415638 25:57.8859878043 26:33.8584918427 27:-24.1718757856 28:2.20176058 29:16.9135391744 30:286.067807403 
3 1:-112.220860008 2:-126.417382992 3:-121.741674827 4:4.81927760549 5:23.2254366388 6:5.66140690939 7:-7.56642880523 8:6.34413156929e-15 9:3.90583335195 10:15.2555341732 11:2.89735617628 12:-3.7785556013 13:-0.0249550261047 14:2.13900033237 15:4.57532242188 16:5.12141096984 17:-12.5853514066 18:-1.4946301213 19:4.84544376355 20:23.4783252657 21:15.4233183596 22:-4.47082172193 23:1.87373563805 24:6.18193143843 25:38.2162763095 26:20.6580492045 27:-18.4419340065 28:0.387263108744 29:12.5942171207 30:158.614304883 
3 1:-63.9782553492 2:-140.764762551 3:-115.048549553 4:26.172159106 5:684.981912268 6:17.1092261933 7:-20.9713709063 8:3.80647894157e-15 9:12.3298700293 10:152.02569494 11:9.48075422766 12:-7.48811461315 13:0.426919902163 14:5.60315447225 15:31.3953400399 16:2.00496143677 17:-1.9581489902 18:0.0584604978924 19:1.27296371372 20:1.62043661644 21:9.51322198532 22:-8.23855083718 23:-1.23760098334 24:4.87583213143 25:23.7737389739 26:26.4504768211 27:-36.0057627753 28:-1.75036979287 29:21.2241319987 30:450.463779097 
3 1:-4.63481885768 2:-135.909151133 3:-92.3812133881 4:44.8537002639 5:2011.85442737 6:37.3631549242 7:-47.8881585402 8:6.34413156929e-16 9:25.5824325834 10:654.460856883 11:20.3847538601 12:-18.5302106837 13:1.08521354484 14:11.441376455 15:130.905095185 16:5.31297850112 17:-5.64532265269 18:0.365441218984 19:3.17912382298 20:10.1068282818 21:8.91914338684 22:-33.4717859568 23:-5.34945363949 24:11.5516375214 25:133.440329426 26:33.5322313543 27:-37.9533283467 28:-1.09192828428 29:23.0442153761 30:531.035862301 
3 1:18.2936378123 2:-101.918570156 3:-62.160678145 4:41.109509157 5:1689.99174313 6:34.9527052648 7:-44.783012111 8:-6.34413156929e-17 9:23.916817252 10:572.014147465 11:18.5546422612 12:-16.9622575769 13:1.41864888086 14:10.5410183441 15:111.113067731 16:8.3307599309 17:-8.79447094528 18:-0.222365874418 19:4.49459279001 20:20.201364348 21:13.7598648107 22:-48.5542942403 23:-8.05148287733 24:16.2573372355 25:264.301013989 26:46.4727468563 27:-42.5707829779 28:0.0226184092397 29:27.0726350187 30:732.927566855 
3 1:-47.5871626928 2:-68.1663515169 3:-61.4018016366 4:7.11589540846 5:50.6359674641 6:5.9836628749 7:-4.00145623371 8:1.39570894524e-15 9:3.46364656111 10:11.9968475003 11:7.5136582296 12:-3.67634080022 13:1.18342937031 14:3.13173091578 15:9.80773852888 16:11.0575703311 17:-10.5904887108 18:-0.0215244952617 19:5.68603457008 20:32.3309891321 21:12.5349047964 22:-49.5459580575 23:-8.30810503734 24:17.0946420651 25:292.226787334 26:44.434471069 27:-34.5759658964 28:1.94327162491 29:27.980657069 30:782.917170012 
3 1:-71.9841724783 2:-100.785010013 3:-90.3918688724 4:9.79450460166 5:95.932320392 6:21.5282586977 7:-14.0063035464 8:-1.58603289232e-17 9:11.3225833607 10:128.20089396 11:13.4906940864 12:-15.4477721387 13:0.974043467906 14:9.01489875619 15:81.2683995844 16:8.91557759816 17:-9.98808805965 18:0.850904501408 19:5.69586253492 20:32.4428500167 21:13.1576926838 22:-34.0395823997 23:-6.04476198947 24:13.450820002 25:180.924558727 26:41.1370297713 27:-33.6033777732 28:3.31871919083 29:25.9452005732 30:673.153432785 
3 1:-102.4918629 2:-132.352324535 3:-111.937227078 4:10.2522659392 5:105.108956887 6:30.2486687882 7:-21.2466520211 8:1.71291552371e-15 9:14.2234160911 10:202.305565299 11:14.274871014 12:-11.62644015 13:0.503789468986 14:7.73758135158 15:59.8701651723 16:5.15018447754 17:-4.15695522418 18:-0.43449885979 19:3.44073005581 20:11.838623317 21:11.251948344 22:-14.9946000878 23:-2.93721721657 24:8.17654774119 25:66.8559329639 26:28.1125974121 27:-35.19009237 28:4.59368207354 29:18.7363079559 30:351.049235817 
3 1:-127.438731266 2:-132.143495191 3:-130.434678486 4:1.56919614677 5:2.46237654705 6:2.22686120769 7:-1.65244778566 8:1.64947420801e-15 9:1.26436679268 10:1.59862338644 11:0.969603887284 12:-0.996613952627 13:-0.118510219931 14:0.73426279409 15:0.539141850784 16:3.76256290463 17:-3.67190925672 18:-0.288500751856 19:2.44142646471 20:5.96056318258 21:9.48171129219 22:-4.93264726842 23:1.32723187101 24:3.92554015358 25:15.4098654974 26:13.9857690647 27:-16.3856493887 28:1.21288985222 29:8.10090074193 30:65.6245928307 
3 1:-91.1807092945 2:-123.855121908 3:-112.884669852 4:11.1339881782 5:123.965692752 6:7.99927582833 7:-10.1992041216 8:3.04518315326e-15 9:5.56262634435 10:30.9428118468 11:4.71306384393 12:-3.18074531564 13:-0.200982362254 14:3.04062332029 15:9.24539017591 16:8.81300166563 17:-6.92030760364 18:1.10850463771 19:5.33028072603 20:28.4118926183 21:15.3408804912 22:-17.3058468881 23:1.38600190876 24:8.72391274412 25:76.106653567 26:20.4216157604 27:-18.531583994 28:-0.0889116792849 29:11.8377526022 30:140.13238667 
3 1:-78.8053898948 2:-120.966059293 3:-106.680159177 4:14.3785762959 5:206.743456296 6:9.23765527971 7:-6.82422149014 8:8.4059743293e-16 9:5.21682977437 10:27.2153128948 11:6.26413117953 12:-6.13400602873 13:0.312728323071 14:3.52330590174 15:12.4136844772 16:8.02315244735 17:-4.77150314391 18:1.0312208953 19:4.20301692269 20:17.6653512525 21:17.1553998121 22:-14.2309525819 23:-1.7833611759 24:9.76960122558 25:95.4451081068 26:21.2218112749 27:-30.203735108 28:0.270425900575 29:18.0784827749 30:326.831539442 
3 1:-87.5575474842 2:-109.118257394 3:-101.837171951 4:7.37123366657 5:54.3350857672 6:5.05688766189 7:-3.76347125757 8:8.08876775084e-16 9:2.77238278874 10:7.6861063273 11:2.96796332493 12:-3.43058032018 13:0.34242433083 14:1.88548493076 15:3.55505342411 16:4.65644600191 17:-2.04450800652 18:0.568698146759 19:2.05823616596 20:4.23633611485 21:9.05460565325 22:-11.819649655 23:-1.90016749427 24:6.16979501112 25:38.0663704793 26:22.5166448658 27:-25.1929466361 28:0.864535892249 29:16.2113873231 30:262.80907894 
3 1:-41.2838321447 2:-119.41262336 3:-93.1257256217 4:26.6234683133 5:708.809065028 6:16.3001674797 7:-17.092981951 8:2.60109394341e-15 9:11.2195621262 10:125.878574305 11:8.39021648334 12:-6.19423820345 13:0.458942054918 14:5.49215100741 15:30.1637226882 16:5.5710841694 17:-4.68825137092 18:0.438026284477 19:3.18640652941 20:10.1531865707 21:14.0245001741 22:-15.230309672 23:-1.83806003052 24:8.70217558506 25:75.7278599131 26:25.1359224734 27:-30.2827362338 28:0.11885676224 29:19.0252494208 30:361.960115524 
3 1:-49.447624163 2:-66.971323044 3:-55.5976186634 4:5.89979968521 5:34.8076363256 6:4.55120661852 7:-3.18597683207 8:9.51619735393e-16 9:2.61857315944 10:6.85692539136 11:2.4445180597 12:-2.50655503127 13:0.147240419418 14:1.50339021744 15:2.26018214589 16:10.3928140043 17:-10.376431565 18:0.647909334648 19:6.17257766066 20:38.1007149769 21:5.50868291557 22:-12.8673781284 23:-1.86088378965 24:4.85913724695 25:23.6112147847 26:30.118804756 27:-33.3512304114 28:0.0352510570525 29:20.7908852764 30:432.260910577 
3 1:-37.5281840655 2:-92.678103795 3:-73.8634323748 4:18.7755471811 5:352.521171949 6:11.9892411601 7:-10.5342961324 8:-6.34413156929e-17 9:6.33056266368 10:40.0760236388 11:8.83351007328 12:-9.99876113027 13:0.522957760447 14:5.19259887606 15:26.9630830876 16:18.5527664872 17:-14.2693440013 18:1.01374909452 19:9.57747148445 20:91.7279600354 21:13.3623237403 22:-18.3173018027 23:-3.3528202507 24:10.3418166876 25:106.953172399 26:49.6196272307 27:-37.8291550226 28:1.87788931023 29:29.243260163 30:855.16826496 
3 1:11.4070730179 2:-104.274820317 3:-65.424099302 4:39.4403351443 5:1555.5400363 6:24.4788853111 7:-25.5685577777 8:2.03012210217e-15 9:16.8355487003 10:283.43570004 11:11.3590546939 12:-9.15081867733 13:1.11277682542 14:7.81867911189 15:61.1317430547 16:14.9366800105 17:-11.9274842213 18:0.294039756468 19:7.57792049053 20:57.4248789608 21:13.6050359001 22:-26.6199165372 23:-4.94713399581 24:12.2000509663 25:148.841243581 26:49.6923289963 27:-43.5806339705 28:4.59473801462 29:31.6054519927 30:998.904595665 
3 1:-10.7363025295 2:-68.2357056502 3:-48.6240463775 4:19.5770302242 5:383.260112401 6:13.1413694243 7:-13.3019158659 8:3.17206578464e-16 9:7.17802794317 10:51.5240851529 11:7.33532857163 12:-9.7512712774 13:1.31401148928 14:5.29487423253 15:28.0356931383 16:8.01462360056 17:-8.93185705131 18:-0.956473532221 19:5.92952839136 20:35.159306944 21:12.5074100604 22:-33.6313257003 23:-6.51556594277 24:14.1761427606 25:200.963023568 26:54.9418986013 27:-43.3630087124 28:5.75797832174 29:33.9132944372 30:1150.11153959 
3 1:-77.9604547633 2:-84.02557035 3:-81.7492807056 4:2.12185342169 5:4.50226194314 6:12.3095849164 7:-7.71918531646 8:2.14114440463e-15 9:6.13646303147 10:37.6561785366 11:6.8521390443 12:-6.00477047273 13:1.04901669562 14:4.61375414365 15:21.2867272981 16:3.45483298547 17:-6.39203529457 18:-0.763464653097 19:2.77685183446 20:7.71090611055 21:11.4497097496 22:-33.3889373485 23:-5.98833514954 24:13.2948177712 25:176.75217957 26:40.0132942464 27:-36.804348121 28:4.77810321962 29:27.8835858839 30:777.494361746 
3 1:-29.3843466647 2:-123.820055721 3:-92.108475951 4:32.1744237177 5:1035.19354157 6:19.5155089167 7:-22.3815122686 8:2.98174183756e-15 9:14.1036229249 10:198.912179607 11:10.2409974015 12:-7.30338238283 13:0.665229740658 14:6.40903232186 15:41.0756953026 16:5.22664934171 17:-4.92150209727 18:-0.147828376711 19:3.41373827203 20:11.6536089899 21:4.09373089924 22:-11.2581308906 23:-2.34220082683 24:5.42732398552 25:29.4558456438 26:35.253783677 27:-45.8819405375 28:3.42709274706 29:27.7437806529 30:769.717364916 
3 1:-56.058555991 2:-57.8363904156 3:-56.9459294076 4:0.663693910601 5:0.440489606968 6:12.9985222884 7:-8.45970600646 8:2.61695427233e-16 9:6.23543717956 10:38.8806768202 11:6.75296051527 12:-5.34829462881 13:0.626234876148 14:4.02884245115 15:16.2315714962 16:4.5783628438 17:-4.55282161195 18:-0.472122474804 19:2.74255749503 20:7.52162161354 21:19.8585252519 22:-15.3789981129 23:-2.65645071119 24:11.5627639544 25:133.697510265 26:36.8559834724 27:-35.7989230637 28:4.15701089091 29:24.7891699962 30:614.502949102 
3 1:-20.4264501624 2:-48.7348277053 3:-39.3330646067 4:9.61505227707 5:92.4492302909 6:9.16280334129 7:-11.9865452623 8:1.58603289232e-15 9:6.23609610881 10:38.8888946783 11:5.10397966229 12:-5.81259469856 13:-0.0386346900531 14:3.1655146898 15:10.0204832513 16:6.89403796589 17:-13.3409246397 18:-1.52276254574 19:5.60355664789 20:31.3998471061 21:17.8944056991 22:-8.43208945539 23:2.29208747322 24:8.75350788997 25:76.6239003798 26:29.1506142109 27:-34.8186604064 28:3.09250362823 29:22.8800253267 30:523.495558951 
3 1:-13.193190754 2:-49.7408382237 3:-37.8442840214 4:12.4825673297 5:155.814487141 6:15.822885374 7:-21.299362132 8:5.70971841236e-16 9:10.5017092583 10:110.285897347 11:8.35122327257 12:-10.1291853811 13:0.299635801747 14:5.6293145081 15:31.6891818311 16:6.93920462591 17:-20.8786001595 18:-2.51121423721 19:7.85853530711 20:61.7565771732 21:12.5602717674 22:-14.0755132766 23:0.168226990749 24:8.47097226263 25:71.7573710742 26:29.3054848763 27:-35.2737270593 28:2.79249767604 29:21.7516400451 30:473.133844652 
3 1:31.1280970448 2:-57.0359961685 3:-28.1415329188 4:30.1103223917 5:906.631514534 6:34.0127822476 7:-45.4411275561 8:-1.26882631386e-16 9:22.5442713093 10:508.24416887 11:17.8995471295 12:-19.8176171738 13:0.514717719946 14:10.7325427173 15:115.187473178 16:5.90865853492 17:-20.4344391442 18:-2.44955872088 19:8.09234987282 20:65.4861264642 21:14.158641473 22:-16.93498775 23:-0.677428928124 24:9.33025721874 25:87.0536997679 26:32.0477373511 27:-41.606321505 28:3.11916683161 29:24.9505693215 30:622.530909466 
3 1:-0.608425284885 2:-9.40623429604 3:-6.61192602225 4:3.05164540283 5:9.3125396646 6:3.81266881334 7:-4.95609767701 8:4.75809867696e-17 9:2.52888194318 10:6.39524388253 11:3.81652419635 12:-1.89911032034 13:0.523196725441 14:1.85760917479 15:3.45071184625 16:3.72357223553 17:-9.33824183823 18:-1.13710883888 19:3.93780811215 20:15.5063327281 21:18.0417016049 22:-17.8806477031 23:-2.43395982012 24:10.9541066906 25:119.992453389 26:43.9671568818 27:-39.0571134054 28:3.57414238688 29:28.7144673297 30:824.520634027 
3 1:-31.3259149867 2:-97.5643088509 3:-53.57379295 4:22.5471624927 5:508.374536472 6:19.7966883124 7:-15.7100964086 8:2.53765262771e-15 9:11.0019047093 10:121.041907233 11:8.12217553846 12:-9.58598579159 13:0.344314191889 14:5.94875793807 15:35.3877210057 16:4.53886033899 17:-6.43775374951 18:-0.88641804205 19:3.38092314974 20:11.4306413444 21:11.5578698086 22:-14.177740763 23:-2.69754316381 24:8.83123811961 25:77.9907667253 26:33.2766628648 27:-25.3547692648 28:2.29213264762 29:18.5455572119 30:343.9376923 
3 1:-93.6650351901 2:-110.413493287 3:-99.3405341469 4:5.71137872368 5:32.6198469253 6:2.77509802551 7:-3.67236854231 8:4.12368552004e-15 9:2.05505266318 10:4.22324144844 11:2.5649543503 12:-2.46651092815 13:-0.160218548297 14:1.40987465835 15:1.98774655225 16:3.52631998323 17:-4.49493000795 18:-0.423972093898 19:2.48063734729 20:6.15356164878 21:7.51060562093 22:-2.76989288997 23:1.20706196649 24:2.70595298622 25:7.32218156363 26:11.7366141596 27:-10.3562850297 28:0.0142083492086 29:6.53058351643 30:42.6485210651 
3 1:-26.352443703 2:-118.819074121 3:-88.4315832348 4:31.5914508555 5:998.019767156 6:34.7481766648 7:-46.5388235042 8:2.79141789049e-15 9:23.0531911893 10:531.449624012 11:19.1598286193 12:-20.2513015959 13:0.130969358327 14:11.0814895053 15:122.799409656 16:3.23095795815 17:-2.64841917461 18:-0.161346667036 19:1.78498571264 20:3.18617399431 21:7.08780843457 22:-8.76550201049 23:0.378082544996 24:5.43982250491 25:29.5916688849 26:25.924192514 27:-36.9250342683 28:-3.15347231731 29:19.485623229 30:379.689512622 
3 1:-25.4338432637 2:-111.788286475 3:-83.5280394402 4:29.5908994384 5:875.621329575 6:30.7702185639 7:-40.5075148314 8:4.94842262404e-15 9:20.5719413749 10:423.204771934 11:16.1188130981 12:-16.4170414547 13:1.29158913946 14:9.46644561473 15:89.6135925766 16:5.33163046042 17:-6.99294756549 18:-0.86433292084 19:4.37099760479 20:19.105620061 21:7.0472614134 22:-47.0847658719 23:-7.75330313983 24:15.220004557 25:231.648538714 26:28.5914444074 27:-33.5180804408 28:-1.07628060973 29:18.8192134716 30:354.162795688 
3 1:-68.4522658002 2:-93.6654704988 3:-85.4456296674 4:8.69515485332 5:75.6057179232 6:7.28946388101 7:-9.07879887862 8:-1.58603289232e-16 9:5.24653620323 10:27.5261421319 11:6.29052578842 12:-3.21333577693 13:0.962073198696 14:3.03608055082 15:9.21778511104 16:4.34308494617 17:-2.6570219089 18:-0.356174769444 19:2.00418102431 20:4.01674157822 21:8.56722000015 22:-40.9820246429 23:-6.65348486256 24:13.5756290957 25:184.297705344 26:33.1232821258 27:-33.6770506037 28:0.325898610276 29:18.7990410114 30:353.403942948 
3 1:-79.235955539 2:-107.20467062 3:-97.8391616396 4:9.60035902336 5:92.1668933773 6:6.97409323041 7:-4.728675341 8:5.07530525543e-15 9:4.14414044635 10:17.1739000391 11:3.55001531175 12:-4.05940190743 13:0.563240187896 14:2.57214726173 15:6.61594153602 16:10.9425333247 17:-5.59183638757 18:1.25767561313 19:4.65124227562 20:21.6340547065 21:10.3364798245 22:-25.6949969936 23:-3.57040147649 24:10.2527893049 25:105.11968853 26:28.5547410388 27:-21.1066528839 28:-0.379664061765 29:16.3137262951 30:266.137665632 
3 1:-82.6633418728 2:-104.780930046 3:-89.9954810986 4:7.52526482755 5:56.6296107247 6:9.96180508121 7:-7.51453105657 8:-1.90323947079e-16 9:5.02497685854 10:25.2503924289 11:4.16395877969 12:-3.90092129042 13:0.0712455656506 14:2.30913364012 15:5.33209816794 16:3.60737541706 17:-3.88232093084 18:0.383843968651 19:2.45922679282 20:6.04779641852 21:3.80604520786 22:-10.3806632945 23:-1.41781849833 24:4.00262035619 25:16.0209697158 26:18.2671730711 27:-16.7867136671 28:-2.19449067117 29:13.0176410747 30:169.45897915 
3 1:-83.198500258 2:-111.617905525 3:-92.6558804406 4:9.70245076799 5:94.1375509053 6:9.24617410483 7:-7.34198280793 8:5.13874657112e-15 9:5.11421546284 10:26.1551998003 11:3.06303348627 12:-3.68439467334 13:-0.260277623491 14:2.1523638208 15:4.63267001711 16:5.14637895814 17:-5.9091116253 18:-0.0576614398428 19:2.88630261497 20:8.3307427852 21:6.45177090339 22:-4.96420283471 23:1.22207473559 24:3.82761992884 25:14.6506743196 26:27.0357333239 27:-23.1082395984 28:-1.6212871958 29:15.8250663416 30:250.432724716 
3 1:-71.1874924507 2:-107.754774609 3:-83.4403719133 4:12.4816445223 5:155.79144998 6:7.75767130905 7:-8.02152924635 8:4.06024420434e-15 9:5.32684149019 10:28.3752402616 11:3.21304051016 12:-3.19341898152 13:-0.573193542007 14:2.48998334187 15:6.20001704277 16:6.28187053348 17:-7.36154957639 18:0.129884095781 19:3.67752112217 20:13.524161604 21:16.438467212 22:-8.90533959085 23:3.04139698865 24:7.54679613036 25:56.9541318333 26:28.2196103977 27:-31.2666192142 28:-2.04025591585 29:21.1055773923 30:445.445397064 
3 1:-68.5765530529 2:-123.371144793 3:-87.2243717724 4:18.692444267 5:349.407472676 6:10.7781583245 7:-12.003174919 8:2.58523361448e-15 9:6.28790514674 10:39.5377511344 11:8.68164349239 12:-8.05805119453 13:1.39570894524e-15 14:6.1492546377 15:37.8133325993 16:2.12476719119 17:-2.59488314444 18:-0.371788381011 19:1.81880935818 20:3.30806748141 21:23.2614990685 22:-16.6710872537 23:1.82555208258 24:12.9565832629 25:167.873049847 26:23.1664089922 27:-27.0506599527 28:-0.25231954811 29:16.791820355 30:281.965230834 
