3 1:162.432983942 2:162.288880209 3:162.384979956 4:0.0450896643721 5:0.00203307783319 6:0.043263235753 7:-0.0378337236098 8:-2.10942374679e-15 9:0.0247445880407 10:0.000612294637305 11:0.044377132494 12:-0.0370800009676 13:-2.75705384449e-15 14:0.0245837413223 15:0.000604360337401 16:0.075367923802 17:-0.0749586797229 18:-3.23815048849e-15 19:0.0454527283184 20:0.00206595051159 21:0.0273471998231 22:-0.0329371206325 23:-2.23894976633e-15 24:0.0217974854116 25:0.000475130370269 26:0.0245964788053 27:-0.0223889782143 28:-0.00147567895931 29:0.0149066219616 30:0.000222207378305 
3 1:162.847953793 2:162.56360566 3:162.658503213 4:0.0889252628408 5:0.00790770237131 6:0.073063051432 7:-0.0846893785743 8:-3.84877315203e-15 9:0.0479261671209 10:0.00229691749491 11:0.0741534212145 12:-0.0863815095407 13:-1.18423789293e-15 14:0.0485877512718 15:0.00236076957365 16:0.137784463375 17:-0.140111251609 18:-1.73934940525e-15 19:0.0845202866654 20:0.007143678858 21:0.0404626362632 22:-0.0271463732293 23:-7.30896824545e-16 24:0.0275567930895 25:0.000759376845378 26:0.0458510910109 27:-0.0617374159834 28:-0.00133197670471 29:0.0343047359766 30:0.00117681491042 
3 1:162.928308539 2:162.525738375 3:162.793654391 4:0.125800797923 5:0.0158258407581 6:0.119223593961 7:-0.100559631555 8:-3.88578058619e-15 9:0.0664505640378 10:0.00441567746094 11:0.118422855521 12:-0.10374515732 13:-4.86647759127e-15 14:0.067618859546 15:0.0045723101663 16:0.174168883097 17:-0.168243715951 18:-3.03460960064e-15 19:0.105764017634 20:0.011186027426 21:0.0548428124369 22:-0.0579630405539 23:-2.12792746386e-16 24:0.034673541799 25:0.00120225450089 26:0.0243040372687 27:-0.0245099499286 28:0.000212455801949 29:0.0166494278062 30:0.000277203446273 
3 1:162.519272983 2:162.519272983 3:162.519272983 4:0.0 5:0.0 6:5.10702591328e-15 7:5.10702591328e-15 8:5.10702591328e-15 9:0.0 10:0.0 11:2.88657986403e-15 12:2.88657986403e-15 13:2.88657986403e-15 14:0.0 15:0.0 16:-3.33066907388e-15 17:-3.33066907388e-15 18:-3.33066907388e-15 19:0.0 20:0.0 21:-2.33146835171e-15 22:-2.33146835171e-15 23:-2.33146835171e-15 24:0.0 25:0.0 26:-1.66533453694e-16 27:-1.66533453694e-16 28:-1.66533453694e-16 29:0.0 30:0.0 
3 1:162.5173824 2:162.510588287 3:162.515109362 4:0.00212295772524 5:4.50694950314e-06 6:0.00201114197644 7:-0.00169231165354 8:-9.99200722163e-16 9:0.00111936631636 10:1.25298095019e-06 11:0.0019916782835 12:-0.00174805591193 13:-3.16413562018e-15 14:0.0011389737007 15:1.29726109089e-06 16:0.00289705466504 17:-0.00279219628206 18:5.55111512313e-17 19:0.00176145068539 20:3.10270851707e-06 21:0.000855805615558 22:-0.000818468606171 23:-1.09171930755e-15 24:0.000563744206195 25:3.17807530018e-07 26:0.00174401443036 27:-0.00128238880042 28:1.91821090677e-05 29:0.000916787531418 30:8.40499377764e-07 
3 1:162.50429929 2:162.50429929 3:162.50429929 4:0.0 5:0.0 6:3.5527136788e-15 7:3.5527136788e-15 8:3.5527136788e-15 9:0.0 10:0.0 11:-2.10942374679e-15 12:-2.10942374679e-15 13:-2.10942374679e-15 14:0.0 15:0.0 16:-5.88418203051e-15 17:-5.88418203051e-15 18:-5.88418203051e-15 19:0.0 20:0.0 21:-3.94129173742e-15 22:-3.94129173742e-15 23:-3.94129173742e-15 24:0.0 25:0.0 26:-3.88578058619e-16 27:-3.88578058619e-16 28:-3.88578058619e-16 29:0.0 30:0.0 
3 1:162.221638607 2:161.94640814 3:162.129953546 4:0.0861188610368 5:0.00741645822627 6:0.0826304795056 7:-0.072260400059 8:-5.92118946467e-16 9:0.0472608472156 10:0.00223358767953 11:0.0847579630427 12:-0.0708208298962 13:-3.60822483003e-15 14:0.0469536385373 15:0.00220464417189 16:0.143948726319 17:-0.143167091892 18:-8.14163551392e-16 19:0.086812293866 20:0.00753637436628 21:0.0522316973104 22:-0.0629081487787 23:-2.59052039079e-15 24:0.0416320379238 25:0.00173322658169 26:0.0469779664524 27:-0.0427617577208 28:-0.00281846833417 29:0.0284708551974 30:0.000810589595669 
3 1:161.896144583 2:161.681887463 3:161.824462726 4:0.06694895962 5:0.0044821631942 6:0.063422771622 7:-0.0533682339555 8:-4.66293670343e-15 9:0.0353000012309 10:0.00124609008691 11:0.0628089704253 12:-0.0551261682086 13:-3.68223969834e-15 14:0.0359183338369 15:0.00129012670562 16:0.0913606490986 17:-0.0880538665073 18:-2.46099437125e-15 19:0.0555485817767 20:0.0030856449374 21:0.0269884298294 22:-0.0258109810728 23:-2.38697950294e-15 24:0.0177780686105 25:0.00031605972352 26:0.054998717255 27:-0.0404410295109 28:0.000604921252151 29:0.0289115372819 30:0.000835876988002 
3 1:161.483559539 2:161.483559539 3:161.483559539 4:2.84217094304e-14 5:8.07793566946e-28 6:-3.10862446895e-15 7:-3.10862446895e-15 8:-3.10862446895e-15 9:0.0 10:0.0 11:-9.54791801178e-15 12:-9.54791801178e-15 13:-9.54791801178e-15 14:0.0 15:0.0 16:-5.66213742559e-15 17:-5.66213742559e-15 18:-5.66213742559e-15 19:0.0 20:0.0 21:-1.44328993201e-15 22:-1.44328993201e-15 23:-1.44328993201e-15 24:0.0 25:0.0 26:-4.82947015712e-15 27:-4.82947015712e-15 28:-4.82947015712e-15 29:0.0 30:0.0 
3 1:160.996788389 2:160.522812846 3:160.838897161 4:0.148305652232 5:0.0219945664841 6:0.142298295749 7:-0.124439938386 8:-1.07321559047e-15 9:0.0813881034535 10:0.00662402338376 11:0.145962044082 12:-0.121960848564 13:-3.68223969834e-15 14:0.0808590580986 15:0.0065381872766 16:0.247894706082 17:-0.246548650153 18:-1.85037170771e-17 19:0.14949981582 20:0.0223501949301 21:0.0899484252761 22:-0.108334387183 23:-1.83186799063e-15 24:0.071694707335 25:0.00514013105985 26:0.0809009533034 27:-0.0736402025414 28:-0.00485369615394 29:0.0490297792937 30:0.00240391925759 
3 1:160.917733644 2:160.564517522 3:160.798976366 4:0.110192293499 5:0.0121423415465 6:0.103258444175 7:-0.0823863306279 8:-1.07321559047e-15 9:0.0562301952096 10:0.00316183485331 11:0.0959752383817 12:-0.0883932389516 13:-3.10862446895e-15 14:0.0575763199583 15:0.00331503261994 16:0.103421516933 17:-0.09281198585 18:-1.44328993201e-15 19:0.068516805457 20:0.00469455263003 21:0.140706650569 22:-0.152185567196 23:-2.27595720048e-15 24:0.0926518182427 25:0.00858435942369 26:0.118822247378 27:-0.0862326075362 28:-0.00032661034255 29:0.0606219337394 30:0.0036750188503 
3 1:160.184134863 2:160.184134863 3:160.184134863 4:0.0 5:0.0 6:-2.22044604925e-16 7:-2.22044604925e-16 8:-2.22044604925e-16 9:0.0 10:0.0 11:7.32747196253e-15 12:7.32747196253e-15 13:7.32747196253e-15 14:0.0 15:0.0 16:1.22124532709e-15 17:1.22124532709e-15 18:1.22124532709e-15 19:0.0 20:0.0 21:0.0 22:0.0 23:0.0 24:0.0 25:0.0 26:-2.38697950294e-15 27:-2.38697950294e-15 28:-2.38697950294e-15 29:0.0 30:0.0 
