6 1:28.4508695466 2:18.5276181756 3:21.6075785654 4:3.43853628135 5:11.8235317582 6:7.23929922355 7:-10.2152939377 8:-4.67879703235e-16 9:4.83678040971 10:23.3944447317 11:4.01457380933 12:-4.84695979599 13:0.106847875181 14:2.62560033531 15:6.89377712079 16:2.57420771111 17:-2.17328817064 18:-0.0146712416279 19:1.27975244009 20:1.63776630791 21:6.40925413818 22:-7.04608894421 23:-0.938903073877 24:3.98517944118 25:15.8816551784 26:9.56544525357 27:-10.8024245654 28:0.1292110987 29:7.06665409406 30:49.9376000851 
6 1:35.8474434844 2:1.98909213829 3:24.5870281297 4:11.5237253124 5:132.796245077 6:12.913611552 7:-9.99556659591 8:-7.61295788314e-16 9:6.78465900499 10:46.031597814 11:5.29125901338 12:-5.23643034812 13:-0.058450275039 14:2.98299231394 15:8.89824314505 16:6.94687442047 17:-3.17843903503 18:0.807490232612 19:2.8310167672 20:8.01465593616 21:6.09797592677 22:-6.11885200751 23:-0.366295814592 24:4.05675905223 25:16.4572940078 26:8.97149209518 27:-10.2769337018 28:0.881803604069 29:6.92709179139 30:47.9846006863 
6 1:19.0301366593 2:-9.52773811071 3:9.48113560776 4:9.75256194317 5:95.1124644553 6:7.33249094665 7:-6.19921944879 8:-1.58603289232e-17 9:4.50603639587 10:20.3043640009 11:2.38324689529 12:-3.34567257147 13:-0.306296615347 14:2.09942544441 15:4.40758719666 16:0.773312056342 17:-2.05023591648 18:-0.247818055902 19:0.842596215851 20:0.709968382966 21:11.3097031033 22:-4.79403252589 23:1.78692334292 24:4.38877516089 25:19.2613474128 26:10.6319349694 27:-11.1894280779 28:1.21863130158 29:7.34364479397 30:53.92911886 
6 1:2.36833597961 2:-9.27338247371 3:-1.420630365 4:4.00352215139 5:16.0281896166 6:6.26032983365 7:-4.65200112225 8:-1.11022302463e-16 9:3.13192814824 10:9.80897392572 11:2.4221095429 12:-2.47747565238 13:-0.129549499042 14:1.39660596661 15:1.95050822598 16:2.80563442446 17:-3.85980591834 18:-0.426065346586 19:2.00812494319 20:4.03256578748 21:8.34941910245 22:-3.45958020603 23:1.14496452523 24:3.9611636135 25:15.6908171729 26:10.9023572999 27:-14.3826623122 28:0.695630811465 29:8.32706673236 30:69.3400403652 
6 1:4.73841729078 2:-7.53072439665 3:0.701057504102 4:4.20907318669 5:17.7162970909 6:4.95995250258 7:-3.82451173177 8:-7.53365623853e-17 9:2.62802574166 10:6.90651929882 11:1.79962549469 12:-2.03937125505 13:-0.174538840663 14:1.17241414432 15:1.37455492579 16:1.88363653209 17:-2.43428340983 18:-0.263694465746 19:1.28924093823 20:1.66214219681 21:9.0612997131 22:-3.07840294941 23:1.34435110741 24:3.76840890139 25:14.2009056481 26:10.2269340928 27:-12.1181967891 28:0.717028106457 29:7.22559282073 30:52.2091916109 
6 1:8.25479479694 2:-9.70963005213 3:2.31780822011 4:6.15007897672 5:37.8234714199 6:6.84489119515 7:-5.31186474761 8:-1.58603289232e-16 9:3.64325765587 10:13.273326347 11:2.50898516884 12:-2.83751619189 13:-0.196016498507 14:1.61331596858 15:2.60278841446 16:1.70372275144 17:-2.24200731644 18:-0.245661760077 19:1.30696009737 20:1.70814469611 21:9.00929436414 22:-4.13263300378 23:1.35293790024 24:3.97098905415 25:15.7687540682 26:10.5022267893 27:-10.5194918405 28:0.509777079359 29:6.96254453812 30:48.4770264453 
6 1:3.17106569625 2:-11.1592010215 3:-1.55276606857 4:4.9128168776 5:24.1357696729 6:5.74128740365 7:-4.42259146869 8:-6.34413156929e-17 9:3.03423362968 10:9.20657371948 11:2.10147119479 12:-2.38262100129 13:-0.168601498909 14:1.35719901127 15:1.84198915619 16:2.06245943593 17:-3.04528436046 18:-0.340287092327 19:1.51043038269 20:2.28139994096 21:8.65126623859 22:-3.04119776261 23:1.25225852702 24:3.64976433733 25:13.320779718 26:9.99833872628 27:-10.8622805621 28:0.721299341974 29:7.22291003987 30:52.170429444 
6 1:1.67747966481 2:-10.2951362712 3:-2.23507866316 4:4.11119411678 5:16.9019170658 6:5.767171661 7:-4.35180270317 8:-2.77555756156e-17 9:2.93327271871 10:8.60408884234 11:2.26514338176 12:-2.33823254488 13:-0.164347391162 14:1.32927673112 15:1.7669766279 16:1.97631588613 17:-2.11554476904 18:-0.22019846121 19:1.21819756621 20:1.48400531033 21:8.76395331154 22:-3.30868937414 23:1.28914446922 24:3.62119580497 25:13.113059058 26:8.64846576612 27:-9.5915064441 28:0.779330784579 29:5.94347291057 30:35.3248702387 
6 1:4.00002944486 2:-14.1670407418 3:-1.98173977435 4:6.22038845395 5:38.693232518 6:7.75458100548 7:-5.92789262607 8:-4.20298716465e-16 9:4.00253105486 10:16.0202548451 11:3.04707520395 12:-3.20098083009 13:-0.185293861811 14:1.80049813271 15:3.24179352591 16:1.55148361937 17:-1.62825083522 18:-0.17216147505 19:1.04019693779 20:1.08200966938 21:7.67866973983 22:-2.88338839039 23:1.1475120454 24:3.13262516261 25:9.8133404094 26:8.72812966084 27:-8.94420342896 28:0.454071781807 29:6.04472796591 30:36.5387361818 
6 1:-6.09840008035 2:-12.5120045799 3:-8.20275472815 4:2.20947155796 5:4.88176456542 6:2.66445543153 7:-2.03975519607 8:-8.72318090777e-17 9:1.4466410835 10:2.09277042448 11:0.809097217965 12:-1.04889261812 13:-0.10256887793 14:0.651668454182 15:0.424671774176 16:2.15235808426 17:-3.51799002294 18:-0.396708738195 19:1.71453299775 20:2.93962340039 21:6.98805987819 22:-3.65590690204 23:0.971219797462 24:3.47998020694 25:12.1102622407 26:10.3397380767 27:-11.6827789819 28:1.03766786935 29:7.05858653032 30:49.823643806 
6 1:-2.1931269395 2:-19.4798402435 3:-7.93109346319 4:5.91237236627 5:34.9561469974 6:6.07464991563 7:-4.75335008364 8:3.17206578464e-17 9:3.29350487551 10:10.847174365 11:2.22537614396 12:-2.62231953723 13:-0.132771345714 14:1.50373169955 15:2.26120902423 16:1.57760332937 17:-2.83722696765 18:-0.327598706552 19:1.24904072988 20:1.5601027449 21:6.06445615234 22:-3.77918268863 23:0.845010566294 24:3.41162979803 25:11.6392178788 26:10.809338108 27:-12.4535605585 28:1.03717840433 29:7.72314943204 30:59.6470371495 
6 1:-9.71272153068 2:-15.4453846224 3:-11.4998633389 4:1.99235032102 5:3.96945980166 6:5.34574809432 7:-3.8110841204 8:3.64787565234e-16 9:2.56756219436 10:6.59237562191 11:2.29313145112 12:-2.02653970826 13:-0.109317648581 14:1.24382599802 15:1.54710311336 16:2.57825570749 17:-2.65654382011 18:-0.275531022357 19:1.57111007449 20:2.46838686616 21:7.62398635767 22:-2.39857761336 23:1.04654036013 24:2.88841134391 25:8.34292009162 26:7.2058931196 27:-11.8691444536 28:0.730370528482 29:6.44110227473 30:41.4877985136 
6 1:-8.29019176107 2:-20.5107065307 3:-12.2873221663 4:4.19189662236 5:17.5719972926 6:6.31896446436 7:-4.70436398538 8:3.4496215408e-16 9:3.14749469716 10:9.90672286865 11:2.52823342487 12:-2.54722821366 13:-0.0775889467641 14:1.43450051668 15:2.05779173234 16:2.15611811151 17:-3.16539827615 18:-0.356272984365 19:1.5883932733 20:2.52299319065 21:5.01473323747 22:-3.65007419216 23:0.640200302735 24:2.90666323588 25:8.44869116684 26:9.90395382885 27:-11.302876282 28:0.681915899498 29:7.33278852865 30:53.769787606 
6 1:-10.4141662661 2:-19.4743688825 3:-13.3901164642 4:3.11037529163 5:9.67443445476 6:3.80010156866 7:-2.91609667766 8:2.69625591695e-16 9:2.00050196087 10:4.00200809544 11:1.35300756076 12:-1.53032476145 13:-0.135190686701 14:0.883116967997 15:0.779895579164 16:1.66792374428 17:-2.1474009899 18:-0.231776790464 19:1.17210641307 20:1.37383344356 21:7.35726703713 22:-3.03790335314 23:1.07549290915 24:3.36488094605 25:11.3224237811 26:9.08294470724 27:-10.9904411285 28:0.977811206296 29:7.15819461048 30:51.2397500816 
6 1:-10.8725416041 2:-16.8773122185 3:-12.7819007628 4:2.07546114609 5:4.30753896895 6:4.50158164274 7:-3.25852996471 8:1.58603289232e-16 9:2.18001287059 10:4.75245611593 11:1.89013349011 12:-1.72781947686 13:-0.0992864169879 14:1.03340781385 15:1.06793170972 16:2.00986475879 17:-1.96247228279 18:-0.199395491928 19:1.19985094057 20:1.43964227959 21:6.36997379008 22:-3.46518080974 23:0.885830407551 24:2.91313769371 25:8.48637122254 26:7.41236701413 27:-9.85314353706 28:0.720033580803 29:6.05888673973 30:36.7101085248 
6 1:-8.87525321172 2:-22.7789277144 3:-13.4588595617 4:4.76144718684 5:22.6713793131 6:5.86845234118 7:-4.48143984315 8:5.11495607774e-16 9:3.03649782162 10:9.22031902072 11:2.32511024811 12:-2.48932823588 13:-0.113210287179 14:1.3928779491 15:1.94010898108 16:1.77073880969 17:-2.50319942325 18:-0.277634400079 19:1.16622870405 20:1.36008939015 21:5.64395614584 22:-5.28146562481 23:0.758600322066 24:3.58320145876 25:12.839332694 26:12.9488994363 27:-14.6960581189 28:1.03622732035 29:8.63256311773 30:74.5211459816 
6 1:-12.7662938026 2:-14.1212894974 3:-13.1394216966 4:0.496951271436 5:0.246960566182 6:2.18790486798 7:-1.53312244132 8:4.75809867696e-16 9:1.11774103021 10:1.24934501063 11:0.758865752021 12:-0.822430295704 13:-0.127864716711 14:0.504511607614 15:0.254531962217 16:2.53424535937 17:-2.94899284574 18:-0.309437810007 19:1.67620560943 20:2.80966524509 21:9.33705118725 22:-3.48939354861 23:1.33494788262 24:3.87281265363 25:14.9986778501 26:9.49481618625 27:-11.3620363943 28:1.15312784229 29:7.28563233449 30:53.0804385134 
6 1:-3.35593107309 2:-16.2044777269 3:-7.5975544605 4:4.40152387865 5:19.3734124544 6:5.01599060006 7:-3.87722318218 8:2.65660509464e-16 9:2.65895119104 10:7.07002143633 11:1.84522903762 12:-2.08837056112 13:-0.143431483201 14:1.1873600226 15:1.40982382328 16:1.57691298724 17:-2.31828062632 18:-0.259415885324 19:1.16501679603 20:1.35726413504 21:6.89672520058 22:-3.36725099762 23:1.00133909083 24:3.021640436 25:9.13031092449 26:8.58277751115 27:-10.0871215507 28:0.860454656004 29:6.56523461548 30:43.1023055563 
6 1:-8.15467999326 2:-18.4766572347 3:-11.5441761672 4:3.54076578775 5:12.5370223637 6:4.6717989686 7:-3.53793145322 8:3.60822483003e-16 9:2.39618732953 10:5.7417137182 11:1.79704296385 12:-1.92520580816 13:-0.0998759468866 14:1.08087500712 15:1.16829078103 16:1.7780726306 17:-2.54956804339 18:-0.283217746834 19:1.22991586108 20:1.51269302533 21:5.97732310244 22:-3.05341968256 23:0.825691037343 24:3.00238051703 25:9.01428876904 26:8.50478619078 27:-10.5417169599 28:0.833649020775 29:6.77551345464 30:45.907582574 
6 1:-10.4682477803 2:-16.9217562822 3:-12.5443082208 4:2.22439135224 5:4.94791688794 6:4.15293952269 7:-3.0409647902 8:3.9650822308e-16 9:2.03421115399 10:4.13801501902 11:1.67646647847 12:-1.59960356195 13:-0.091250914235 14:0.927555819814 15:0.860359798871 16:1.84261764148 17:-1.96799536358 18:-0.204385570659 19:1.17328936255 20:1.37660792827 21:5.87454318054 22:-3.08933389371 23:0.821932369593 24:2.95405556314 25:8.72644427011 26:8.62296184544 27:-10.1550430867 28:0.820260585254 29:6.71433508904 30:45.0822956878 
6 1:-8.30837772088 2:-18.8357032442 3:-11.7565464714 4:3.6115954278 5:13.0436215341 6:5.05862681097 7:-3.80660999683 8:1.58603289232e-17 9:2.56084794811 10:6.55794221332 11:1.9864323831 12:-2.05542216901 13:-0.10337568183 14:1.15509242758 15:1.33423851625 16:1.75443329036 17:-2.26119559229 18:-0.246450186862 19:1.17591121959 20:1.38276719636 21:5.98731017097 22:-3.27606510031 23:0.834820663448 24:3.03941238989 25:9.23802767583 26:8.65881267553 27:-10.2696170682 28:0.813972652691 29:6.74884847057 30:45.5469556787 
6 1:-9.98027018665 2:-18.1746893008 3:-12.6376441761 4:2.81891345918 5:7.94627309033 6:4.66294854218 7:-3.45115116635 8:3.05311331772e-16 9:2.31190970264 10:5.34492647316 11:1.84208713174 12:-1.82153936939 13:-0.103575992483 14:1.0386613504 15:1.07881740081 16:1.94013721634 17:-2.25899919969 18:-0.240268095734 19:1.2976160238 20:1.68380734522 21:6.38798601579 22:-3.20986264207 23:0.897208314774 24:3.1208192537 25:9.73951281429 26:8.97781012892 27:-10.4685824459 28:0.798325327783 29:6.84578176934 30:46.8647280334 
6 1:-8.19787681473 2:-20.6804846722 3:-12.298988436 4:4.2795676429 5:18.3146992102 6:5.58953279246 7:-4.24167373673 8:-5.94762334621e-17 9:2.86683127805 10:8.21872157683 11:2.17365137028 12:-2.30466568157 13:-0.123221683409 14:1.29364131507 15:1.67350785205 16:1.79856716874 17:-2.40423698936 18:-0.264228036469 19:1.21429210848 20:1.47450532472 21:6.65408770657 22:-3.02996173835 23:0.939152945473 24:3.15394210752 25:9.94735081758 26:8.91988394188 27:-10.6670516707 28:0.845029925218 29:6.88233991079 30:47.3666026477 
6 1:-13.035666803 2:-18.8306072441 3:-14.9138404864 4:1.99808452416 5:3.99234176567 6:3.17925522113 7:-2.36234808692 8:5.55111512313e-16 9:1.60698032001 10:2.58238574891 11:1.20108302069 12:-1.25671929053 13:-0.0917368158415 14:0.714429703503 15:0.510409801248 16:1.8385118892 17:-2.45397795399 18:-0.267356666353 19:1.23555910626 20:1.52660630506 21:6.19651942573 22:-2.47115509872 23:0.862798794208 24:2.85264108236 25:8.13756114477 26:7.8420604426 27:-9.88524083356 28:0.777196722758 29:6.23978604322 30:38.9349298652 
6 1:-11.0308929392 2:-28.2368812122 3:-16.6903041617 4:5.88976520076 5:34.6893341201 6:7.95232542055 7:-6.00010831527 8:3.09276414003e-16 9:4.01908993276 10:16.1530838876 11:3.19225225078 12:-3.25847771492 13:-0.104582443854 14:1.8303989912 15:3.35036046699 16:1.76332969635 17:-2.41330439626 18:-0.270679979138 19:1.30358214909 20:1.69932641942 21:5.06182504565 22:-4.13513725928 23:0.674547185806 24:3.00771905632 25:9.04637392173 26:8.33077097724 27:-10.3945221308 28:0.798199931147 29:6.42022392589 30:41.2192752586 
6 1:-18.0917599987 2:-23.2774496717 3:-19.7760740703 4:1.78920284868 5:3.20124683372 6:2.49090789808 7:-1.88819550425 8:8.08876775084e-16 9:1.30766931581 10:1.70999903951 11:0.866719163952 12:-0.975133695432 13:-0.121880652832 14:0.588412518645 15:0.346229292098 16:1.54105366667 17:-1.83614995527 18:-0.193855092094 19:1.01813139183 20:1.03659153103 21:7.12507457179 22:-2.69878766377 23:1.06300406774 24:2.80670350714 25:7.87758457698 26:8.05678546884 27:-9.66921844444 28:0.739105009076 29:5.92284342383 30:35.0800742233 
6 1:-15.2137987723 2:-24.3276197553 3:-18.1669418786 4:3.13073238007 5:9.80148523563 6:5.39903766489 7:-3.98258178604 8:4.24263798696e-16 9:2.64572203057 10:6.99984506302 11:2.20141549378 12:-2.07936696907 13:-0.10257278062 14:1.20902547456 15:1.46174259815 16:1.53478564658 17:-1.39420506132 18:-0.124271533197 19:1.078063042 20:1.16221992253 21:5.37352568378 22:-2.50061717844 23:0.781595562248 24:2.38133978964 25:5.67077919373 26:7.09531400321 27:-7.17499235179 28:0.618307030989 29:4.71880515721 30:22.2671221117 
6 1:-13.8871454052 2:-23.931638065 3:-17.1529142255 4:3.45042729512 5:11.9054485189 6:5.52005942181 7:-4.10115024106 8:4.28228880927e-16 9:2.73714415559 10:7.4919581285 11:2.12554473957 12:-2.09743861577 13:-0.123663404263 14:1.19954595607 15:1.43891050072 16:2.31964485103 17:-2.30246017353 18:-0.202163195492 19:1.52990061624 20:2.34059589558 21:6.62603094484 22:-2.39960249019 23:0.979391598325 24:2.69754688766 25:7.27675921113 26:7.44808947773 27:-7.59986912135 28:0.423522550976 29:4.88109634565 30:23.8251015355 
6 1:-9.65108192589 2:-29.341808694 3:-16.2136579974 4:6.73085480648 5:45.3044064259 6:5.83620681047 7:-4.70127192778 8:6.66133814775e-16 9:3.369231784 10:11.3517228143 11:1.91381165896 12:-2.53338028144 13:-0.193278869031 14:1.54590990495 15:2.38983743421 16:1.73560202388 17:-2.61763422351 18:-0.312487589359 19:1.37363230796 20:1.88686571747 21:7.95356440975 22:-3.32907127844 23:1.22531992436 24:2.99941605083 25:8.99649664598 26:9.9726913537 27:-7.48951373978 28:0.415965958454 29:5.94226758929 30:35.3105441028 
6 1:-15.9007917706 2:-21.5183912549 3:-17.6560108369 4:1.95005034105 5:3.80269633263 6:4.81655152969 7:-3.47567435596 8:6.02692499082e-16 9:2.31674380111 10:5.36730183998 11:1.92640305931 12:-1.67813016494 13:-0.172961028933 14:1.11214313664 15:1.23686235637 16:2.34701672648 17:-2.13743467073 18:-0.042236516635 19:1.43359287037 20:2.05518851797 21:8.88670207305 22:-2.69040460632 23:1.36820529469 24:3.25281254543 25:10.5807894557 26:8.96970070894 27:-6.39835672674 28:0.163672160307 29:4.86008682818 30:23.6204439774 
6 1:-5.18680461833 2:-26.4607339532 3:-12.3224551547 4:7.26699678989 5:52.8092423443 6:4.62860252655 7:-4.7086682216 8:3.9650822308e-17 9:3.12350689148 10:9.7562953011 11:2.07133802143 12:-2.34766607574 13:-0.23735668947 14:1.58493695314 15:2.51202514544 16:1.20409360941 17:-2.91459251222 18:-0.353905870501 19:1.28560996581 20:1.65279298418 21:9.84514371389 22:-3.27689474901 23:1.52688885175 24:3.6394932606 25:13.245911194 26:8.37956381912 27:-6.1851759963 28:0.15296211462 29:4.9751904011 30:24.7525195272 
6 1:-13.426760353 2:-29.5229635245 3:-18.7585604474 4:5.50811946352 5:30.3393800244 6:5.72714328607 7:-4.488847935 8:4.28228880927e-16 9:3.10863020403 10:9.66358174538 11:2.02399969122 12:-2.38036867186 13:-0.178533054531 14:1.37247462518 15:1.88368659676 16:1.6902459784 17:-1.82127693204 18:-0.205781653163 19:1.17927780285 20:1.39069613629 21:7.97572247739 22:-3.12994932637 23:1.23371515399 24:3.00244320321 25:9.01466518851 26:7.44953802392 27:-5.88317429496 28:0.274937891542 29:4.77926942378 30:22.841416225 
6 1:-14.7454082231 2:-28.7366275077 3:-19.3717882156 4:4.79144090727 5:22.9579059679 6:5.07963992041 7:-3.97518755694 8:3.76682811926e-16 9:2.75312415307 10:7.5796926022 11:1.73074788344 12:-2.05305136353 13:-0.183591882471 14:1.20032134717 15:1.44077133648 16:2.08243921286 17:-2.17952119974 18:-0.1939176422 19:1.34297123656 20:1.80357174222 21:8.11104038028 22:-4.0659485 23:1.27389005096 24:3.17626876186 25:10.0886832476 26:9.74716143023 27:-7.19578135838 28:0.249040929089 29:6.06464366703 30:36.779902808 
6 1:-9.60045137159 2:-30.0762922023 3:-16.3687819595 4:7.00578291897 5:49.0809943078 6:7.6483378936 7:-5.96635784308 8:6.18552828005e-16 9:4.08900516215 10:16.7199632161 11:2.75638044249 12:-3.08516924154 13:-0.260526408637 14:1.77020144493 15:3.13361315562 16:2.57403122212 17:-2.66362974975 18:-0.0793515783038 19:1.41322074481 20:1.99719287355 21:9.54647586732 22:-2.48057366336 23:1.55318937142 24:3.20787835123 25:10.2904835163 26:7.5520635645 27:-6.47522827525 28:-0.00672240453379 29:4.86184392795 30:23.6375263798 
6 1:-14.2779764844 2:-27.9692096695 3:-18.7940397742 4:4.69203301119 5:22.0151737781 6:5.19142309583 7:-4.04341543773 8:-4.75809867696e-17 9:2.78759775011 10:7.7707012164 11:1.76986351957 12:-2.05970878303 13:-0.206077887626 14:1.20937096876 15:1.46257814009 16:2.36639758216 17:-2.44065167031 18:-0.183093531028 19:1.46069004281 20:2.13361540115 21:8.97478031676 22:-3.3987529673 23:1.4132622616 24:3.20714365501 25:10.2857704239 26:7.81160367191 27:-6.07468262394 28:-0.0043102262704 29:4.76822306298 30:22.7359511783 
6 1:-12.6971788009 2:-34.0869095952 3:-19.7762511608 4:7.31538051007 5:53.5147920072 6:8.0517484957 7:-6.25554054832 8:1.90323947079e-16 9:4.27737505243 10:18.2959373391 11:2.93859940067 12:-3.29000922639 13:-0.209299308741 14:1.86524672955 15:3.47914536208 16:2.65229766967 17:-2.80284233767 18:-0.189596472999 19:1.55536035008 20:2.4191458186 21:7.73890665498 22:-2.54418516674 23:1.2267947234 24:2.68155458631 25:7.19073499934 26:9.13387349735 27:-8.2110562607 28:0.0739661691652 29:5.52933487821 30:30.5735441953 
6 1:-13.6509653531 2:-28.5215071237 3:-18.5155001942 4:5.10110213893 5:26.0212430318 6:6.82852838048 7:-5.20143627301 8:2.37904933848e-16 9:3.49709702461 10:12.2296875996 11:2.50883267007 12:-2.58527163279 13:-0.257497320702 14:1.52168987713 15:2.31554008216 16:3.06912468467 17:-3.06599475906 18:-0.00795532405 19:1.65785682815 20:2.74848926264 21:10.4658126652 22:-3.96402086636 23:1.71501883994 24:3.68225666978 25:13.5590141821 26:9.93445679971 27:-10.3757562763 28:-0.0760551700822 29:6.61119173905 30:43.7078562105 
6 1:-5.80181519259 2:-27.6385995861 3:-13.0240203347 4:7.47364790798 5:55.8554130524 6:7.88675179744 7:-6.18477554924 8:1.26882631386e-16 9:4.26932511314 10:18.2271369217 11:2.71490132173 12:-3.15227201686 13:-0.298836269687 14:1.83892240519 15:3.38163561232 16:3.52902472958 17:-3.72164776511 18:-0.132503893058 19:1.93783083844 20:3.7551883584 21:11.3920108367 22:-3.7294085584 23:1.86751096344 24:3.93283136838 25:15.4671625721 26:9.75574211557 27:-10.9948176419 28:-0.309682678844 29:7.0119097111 30:49.1668777966 
6 1:-6.45175581069 2:-30.7677844833 3:-14.5062982194 4:8.31690577869 5:69.1709217316 6:8.62932379499 7:-6.7753869586 8:1.11022302463e-16 9:4.6788256442 10:21.8914094088 11:2.99328654233 12:-3.48065133144 13:-0.292096474231 14:2.01360678661 15:4.0546122911 16:3.64630902936 17:-3.91148353339 18:-0.151742353857 19:2.01753211887 20:4.07043585068 21:10.5671471982 22:-3.70694958257 23:1.74022371643 24:3.68273045351 25:13.5625035932 26:10.7892358208 27:-12.4131777548 28:-0.328370491409 29:7.68607472275 30:59.0757446437 
6 1:-7.46867634049 2:-28.0337216068 3:-14.2650074215 4:7.04192957924 5:49.588772199 6:7.40044242164 7:-5.8133458889 8:3.25136742926e-16 9:4.02467140944 10:16.197979954 11:2.47501357789 12:-2.91696568547 13:-0.316470747778 14:1.73297906653 15:3.00321644505 16:3.74328394221 17:-3.95247990455 18:-0.151431669711 19:2.08306797983 20:4.33917220858 21:12.1343282531 22:-3.55013181531 23:1.98565658528 24:4.09301939402 25:16.7528077598 26:10.8881325889 27:-12.2622357549 28:-0.322245797939 29:7.74945368906 30:60.0540324789 
6 1:-3.89953387585 2:-24.8153356149 3:-10.8270861484 4:7.15935424511 5:51.256353207 6:6.9893500946 7:-5.55574138137 8:6.30448074698e-16 9:3.89623692646 10:15.1806621871 11:2.27675243691 12:-2.79741199135 13:-0.327663412866 14:1.69598871623 15:2.87637772559 16:3.46465697762 17:-3.67190506171 18:-0.131099611494 19:1.90845740092 20:3.64220965111 21:12.172588805 22:-3.39051436045 23:2.00748938834 24:4.10905971135 25:16.8843717115 26:10.879062455 27:-11.3553360111 28:-0.37692525928 29:7.48058309655 30:55.9591234643 
6 1:-5.59370478596 2:-20.5617185969 3:-10.554128693 4:5.12816733309 5:26.2981001962 6:4.66759752632 7:-3.75643841233 8:9.51619735393e-17 9:2.69560419212 10:7.26628196057 11:1.36693045114 12:-1.85547881994 13:-0.271239556221 14:1.21409571697 15:1.47402840996 16:2.99750374673 17:-3.19771755449 18:-0.205999515258 19:1.76461250469 20:3.11385729171 21:10.8130721648 22:-2.36974656547 23:1.74381866268 24:3.55379444299 25:12.629454943 26:8.23119543859 27:-9.99783985633 28:-0.347294095967 29:6.18628567149 30:38.2701304093 
6 1:-1.87301543997 2:-20.4057924655 3:-8.02371110756 4:6.33890364604 5:40.1816994338 6:5.9873478943 7:-4.77784608273 8:-1.58603289232e-17 9:3.3618815674 10:11.3022476733 11:1.92843738652 12:-2.40601355663 13:-0.259338412603 14:1.45380630324 15:2.11355276734 16:3.05207604068 17:-3.33314001226 18:-0.122163162647 19:1.69994664344 20:2.88981859055 21:9.28588388901 22:-2.33191223741 23:1.53672759825 24:3.08858245077 25:9.53934155521 26:7.65020746724 27:-9.72423907304 28:-0.475123179324 29:5.85805846076 30:34.3168489297 
6 1:-0.284013755789 2:-19.492187555 3:-6.67256276794 4:6.56626379294 5:43.1158201984 6:5.70126558362 7:-4.62153286166 8:3.40997071849e-16 9:3.30768909907 10:10.9408071761 11:1.81167133758 12:-2.34287267336 13:-0.279498037741 14:1.44723207277 15:2.09448067246 16:2.47573841079 17:-2.70965024598 18:-0.0306533559612 19:1.33580401482 20:1.78437236601 21:9.32811042797 22:-2.53119369496 23:1.5862591922 24:3.15326757055 25:9.94309637146 26:8.45098895224 27:-9.04215890587 28:-0.424402699854 29:5.99378101065 30:35.9254108036 
6 1:-1.09006038576 2:-24.9108437599 3:-8.9721088173 4:8.14410489195 5:66.326444491 6:8.96054738578 7:-6.97204998371 8:-6.34413156929e-17 9:4.75932966491 10:22.6512188593 11:3.21969877222 12:-3.5675776054 13:-0.256503942777 14:2.02982807724 15:4.12020202313 16:3.64832428088 17:-3.95345709129 18:-0.0717295809999 19:1.975485928 20:3.90254465171 21:8.40435282526 22:-2.42776611324 23:1.41318803074 24:2.84270481443 25:8.080970662 26:10.3263215869 27:-12.2848940717 28:-0.358446724885 29:6.95746941081 30:48.4063806024 
6 1:-4.28602537068 2:-4.77174058765 3:-4.56843426721 4:0.151078684514 5:0.0228247689145 6:0.884582820094 7:-1.05474158491 8:7.93016446161e-17 9:0.705052400941 10:0.497098888073 11:1.12950209173 12:-1.68304232175 13:-0.262603656072 14:0.891045142517 15:0.793961446002 16:3.4551614299 17:-3.6720182511 18:-0.240944948348 19:2.09749513047 20:4.39948582234 21:12.6517207813 22:-2.88523023168 23:2.03550016099 24:4.2931111082 25:18.4308029874 26:9.81005921537 27:-10.2673977061 28:-0.491268759223 29:6.78112372557 30:45.9836389815 
6 1:14.8939768002 2:-2.94826686325 3:8.83972394826 4:6.07245104636 5:36.8746617105 6:3.30008591938 7:-3.86110039512 8:-9.51619735393e-17 9:2.13828591606 10:4.57226665881 11:2.31883769459 12:-2.00115565894 13:-0.229113643713 14:1.26246840488 15:1.59382647331 16:1.63070818012 17:-1.60501795033 18:0.190650723135 19:1.13634931108 20:1.29128975678 21:11.1254547311 22:-11.2524796685 23:1.5114281592 24:6.01808233671 25:36.2173150114 26:11.4525526994 27:-14.2928276418 28:-0.231328339137 29:8.91818100926 30:79.533952514 
6 1:22.2079739725 2:-6.30750594215 3:12.5853215228 4:9.738968387 5:94.847505243 6:4.63562973145 7:-6.46687532508 8:-4.26246339811e-16 9:3.69965120521 10:13.6874190402 11:3.91911960446 12:-3.69403904602 13:-0.372590563442 14:2.28331384207 15:5.21352210139 16:2.45851935391 17:-5.12148499467 18:-0.644476190271 19:2.35779048798 20:5.55917598522 21:13.8705656051 22:-1.92746749346 23:2.1810352245 24:4.52950036304 25:20.5163735387 26:9.58712263054 27:-11.1329992262 28:-1.04918240664 29:7.62565926196 30:58.1506791795 
6 1:8.33491723776 2:-5.45917904355 3:3.67307506746 4:4.70961432774 5:22.1804671161 6:2.45629449289 7:-3.16090793211 8:-7.73191035007e-17 9:1.72987974339 10:2.9924839266 11:2.11541181914 12:-1.75419831141 13:-0.231211915576 14:1.1499868374 15:1.32246972619 16:2.51340959827 17:-3.06349194152 18:-0.200256124927 19:1.59089852028 20:2.53095810182 21:8.06580395779 22:-2.94247962974 23:1.36878654524 24:3.14079062593 25:9.86456575596 26:7.0691010792 27:-10.4419768504 28:-0.899172869393 29:6.55422649343 30:42.9578849272 
6 1:7.87481679624 2:-13.0993819671 3:0.903171330305 4:7.16289350477 5:51.3070433606 6:7.06530931364 7:-5.57980582073 8:0.0 9:3.86532978929 10:14.94077438 11:2.43695843487 12:-2.85643583578 13:-0.193311771289 14:1.64579726283 15:2.70864863035 16:3.31688623273 17:-3.749625647 18:-0.0629720561704 19:1.83532454802 20:3.36841619658 21:5.7148418261 22:-2.00566242423 23:1.02528983595 24:2.24993790862 25:5.06222059266 26:8.19612217495 27:-13.9267746356 28:-0.779110209137 29:7.54913860317 30:56.9894936499 
6 1:4.93439370353 2:-12.7300303858 3:-0.930172144815 4:6.0415653647 5:36.500512056 6:5.54951848346 7:-4.45454307542 8:0.0 9:3.15281438583 10:9.94023855151 11:1.77130244997 12:-2.23588432226 13:-0.264350516003 14:1.36944298683 15:1.87537409418 16:2.89413420324 17:-3.14029022972 18:-0.064014974287 19:1.56204581968 20:2.43998714277 21:9.08101297819 22:-1.83040416518 23:1.53494161467 24:3.12866229076 25:9.78852772962 26:9.3282551981 27:-10.9999320359 28:-0.744008731867 29:7.26574527496 30:52.7910544006 
6 1:4.10544630147 2:-14.1458632555 3:-2.00862045958 4:6.23448484045 5:38.8688012258 6:4.06046530986 7:-4.04235167252 8:3.9650822308e-17 9:2.71114514999 10:7.3503080243 11:1.68896482374 12:-1.82912562388 13:-0.243870807213 14:1.32121873074 15:1.74561893446 16:2.22421152914 17:-2.56172924697 18:-0.175090546961 19:1.33538681686 20:1.78325795065 21:8.1624819813 22:-3.21699327825 23:1.37281468602 24:3.18692267679 25:10.1564761478 26:9.18729694378 27:-10.4455543793 28:-0.833006607872 29:7.05876382502 30:49.8261467374 
6 1:-0.207770395454 2:-9.84995321747 3:-3.46214561688 4:3.28972656945 5:10.8223009018 6:1.7995355729 7:-2.19928822883 8:7.93016446161e-17 9:1.21213174386 10:1.46926336447 11:1.24919147107 12:-1.13597643847 13:-0.203702631897 14:0.737217504962 15:0.543489649622 16:1.24736260095 17:-1.5335456367 18:0.0919478623494 19:0.852340487073 20:0.726484305905 21:5.82656708277 22:-2.4889542915 23:1.08235186976 24:2.44934543714 25:5.99929307046 26:10.5970472207 27:-9.65313733711 28:-0.920810580307 29:6.88872863874 30:47.4545822582 
6 1:4.69297930764 2:-4.50370491844 3:1.70425797553 4:3.15371585872 5:9.94592371756 6:4.80312443295 7:-3.62279558872 8:-1.9825411154e-16 9:2.4013053818 10:5.76626753666 11:1.83504195377 12:-1.6822580812 13:-0.194282029556 14:1.09349333606 15:1.195727676 16:3.00674719523 17:-3.08549679079 18:0.323742164022 19:1.80701410776 20:3.26529998564 21:5.43467803325 22:-4.41211695975 23:1.06222986801 24:3.20689237991 25:10.2841587363 26:11.9866419375 27:-14.0078408307 28:-1.06939889713 29:9.02161039024 30:81.3894540334 
6 1:6.00086199663 2:-8.16388665829 3:1.17095592533 4:4.82489725437 5:23.2796335152 6:2.88943887717 7:-3.18270900909 8:-1.58603289232e-17 9:1.67133515913 10:2.79336121415 11:2.17118888314 12:-1.82043825128 13:-0.183443334293 14:1.14764347093 15:1.31708553637 16:1.59626594349 17:-1.67231944152 18:-0.127158797681 19:0.9604515024 20:0.922467088462 21:4.35261725475 22:-2.61357345404 23:0.764578343445 24:1.98027470449 25:3.92148790525 26:8.79832720331 27:-11.2226764206 28:-0.836242468732 29:7.49716907099 30:56.207544079 
6 1:5.94358302241 2:1.6226686282 3:4.44469699542 4:1.48003546986 5:2.19050499203 6:1.5990967113 7:-1.60526462151 8:-2.9341608508e-16 9:1.04765464927 10:1.09758026414 11:1.72730481414 12:-1.28722427857 13:-0.207457594366 14:0.998832211996 15:0.997665787721 16:1.83683789843 17:-2.21382219572 18:-0.0730525487898 19:1.11623518428 20:1.24598098662 21:7.6698193465 22:-4.37310857001 23:1.33445995734 24:3.41654801536 25:11.6728003413 26:14.2739209529 27:-11.3017004362 28:-0.676523076705 29:8.06767478118 30:65.0873763748 
6 1:7.11931762179 2:-12.0515254592 3:0.618691005691 4:6.53539107686 5:42.7113365275 6:2.88063575457 7:-4.08276430095 8:-5.15460690005e-17 9:2.3872648123 10:5.69903328405 11:2.69906157325 12:-3.03199167681 13:-0.0621325847466 14:1.65846130769 15:2.7504939091 16:2.40977965566 17:-5.18408190901 18:-0.666292273312 19:2.43558578681 20:5.93207812492 21:2.14782488732 22:-2.16486001068 23:0.190134580443 24:1.43239970355 25:2.05176891074 26:7.83412142022 27:-11.6308142823 28:-0.866457023258 29:7.31578459443 30:53.5207042321 
6 1:2.08824840039 2:-19.1499567427 3:-5.05629692617 4:7.2499573266 5:52.5618812376 6:4.14194181034 7:-4.65205115899 8:1.54638207001e-16 9:2.9652735903 10:8.79284746536 11:2.34408330439 12:-2.57005008025 13:-0.211784201427 14:1.5926758767 15:2.53661644823 16:2.41768381094 17:-3.34911405607 18:-0.426227632748 19:1.8765797698 20:3.5215516324 21:7.57733861997 22:-0.953422098014 23:1.21214069602 24:2.44646838701 25:5.98520756864 26:7.9663976687 27:-9.54076138135 28:-0.90847376567 29:6.04744292787 30:36.5715659658 
6 1:-4.88608882175 2:-16.6377988893 3:-8.8530107274 4:4.01796571027 5:16.1440484489 6:2.10125548735 7:-2.77602080768 8:-1.07057220232e-16 9:1.51128250977 10:2.28397482435 11:1.78362473832 12:-1.48136994891 13:-0.209835424935 14:1.00251129691 15:1.00502890043 16:0.625297954573 17:-2.0400414392 18:-0.25825153302 19:0.822385069882 20:0.676317203165 21:7.3487156514 22:-3.66041383805 23:1.19114202986 24:3.00634978269 25:9.03813901588 26:11.4220477115 27:-12.9946921629 28:-0.556420187913 29:7.89877538911 30:62.3906526476 
6 1:5.78562561634 2:-14.0935861803 3:-0.809739698668 4:6.78790051554 5:46.0755934089 6:6.7088380512 7:-5.32856578192 8:7.93016446161e-17 9:3.69053305522 10:13.6200342317 11:1.9724331172 12:-2.32683445539 13:-0.282628624313 14:1.41788042968 15:2.01038491288 16:6.26530314686 17:-7.26106931402 18:0.238011268268 19:3.64150471343 20:13.260556578 21:7.73010237305 22:-4.70350202204 23:1.56270045496 24:3.59839002963 25:12.9484108053 26:19.5369740559 27:-26.8207561106 28:-0.679870455994 29:15.2178431003 30:231.582748624 
6 1:34.9609279428 2:8.18356704725 3:26.1024824369 4:9.17604245157 5:84.199755073 6:8.13980243676 7:-6.62784586992 8:-5.23390854466e-16 9:4.77749584196 10:22.8244665199 11:2.15827597219 12:-3.76154451306 13:-0.63637516403 14:2.1908502328 15:4.79982474256 16:6.89286930329 17:-7.43676622579 18:0.0279337216233 19:3.72343110225 20:13.8639391732 21:22.7418067236 22:-6.29119239897 23:3.8858412701 24:7.72145373495 25:59.620847781 26:21.4489978004 27:-22.2532399332 28:-1.06715540303 29:15.0297413287 30:225.893124407 
6 1:46.6034129329 2:-12.882367196 3:26.6634726682 4:20.309078184 5:412.458656685 6:13.9291471855 7:-12.9240827391 8:1.90323947079e-16 9:8.95415832439 10:80.1769512982 11:4.80571966041 12:-6.58153139337 13:-0.581041560181 14:4.36003427667 15:19.0098988938 16:1.78557563732 17:-5.65504399713 18:-0.717482862276 19:2.26718403818 20:5.14012346299 21:19.5023376551 22:-3.98068410728 23:3.07436575595 24:6.3238282647 25:39.9908039214 26:13.9531988001 27:-10.3434459517 28:-0.592395535998 29:8.72975140082 30:76.2085595201 
6 1:5.74225051795 2:-22.4464556856 3:-3.70355850837 4:9.63208984006 5:92.777154687 6:6.34403318242 7:-6.27018505325 8:-2.06184276002e-16 9:4.21138737445 10:17.7357836177 11:2.56242927984 12:-3.06213130297 13:-0.324572418571 14:2.12116865733 15:4.49935647285 16:1.0506674273 17:-3.62971472297 18:-0.448911910772 19:1.39504177062 20:1.94614154179 21:12.3381385076 22:-2.02123628511 23:1.89655053973 24:4.01405374884 25:16.1126274986 26:6.61294928607 27:-6.00382610798 28:-0.10856074302 29:3.41241623395 30:11.6445845537 
6 1:-23.5818367774 2:-27.0974035792 3:-24.8265243911 4:1.20568059468 5:1.45366569639 6:1.20756744137 7:-1.47220769432 8:7.77156117238e-16 9:0.900997028888 10:0.811795646064 11:1.57980412753 12:-1.19238215656 13:-0.0351202670341 14:0.83945914862 15:0.704691662203 16:0.730988775294 17:-2.93077010016 18:-0.374594146235 19:1.0737660923 20:1.15297362098 21:3.01870169507 22:-3.1976918113 23:0.323928025005 24:1.83042684572 25:3.35046243753 26:6.54924324993 27:-4.93056128979 28:-0.338514582423 29:3.74791532103 30:14.0468692536 
6 1:-25.0176599586 2:-33.4191843809 3:-27.7202815728 4:2.87739238524 5:8.27938693862 6:6.28022155886 7:-4.52948616705 8:2.53765262771e-16 9:2.99570047282 10:8.97422132284 11:2.683443894 12:-2.25235885803 13:-0.00771471104002 14:1.42958289007 15:2.04370723959 16:2.98016274029 17:-3.137829802 18:0.140184179499 19:1.61081368789 20:2.59472073709 21:2.6352260479 22:-2.2397704019 23:-0.0400973342471 24:1.3746720041 25:1.88972311887 26:12.1159589156 27:-11.5530303979 28:-0.490375932877 29:7.27348527854 30:52.9035880971 
6 1:-9.43605042501 2:-13.3239342612 3:-11.8569897056 4:1.31953633366 5:1.74117613585 6:3.2342876423 7:-2.07043853363 8:3.90560599734e-16 9:1.61208144838 10:2.5988065962 11:1.74990378877 12:-1.88566333471 13:-0.235249822297 14:1.191534473 15:1.41975440035 16:8.42165356762 17:-9.17816608728 18:0.354329087594 19:4.72929080798 20:22.3661915464 21:8.41999711206 22:-2.95095142961 23:1.59078947937 24:3.47234555797 25:12.0571836739 26:8.63441049946 27:-13.3800753607 28:-0.939647661351 29:7.04131344275 30:49.5800949991 
6 1:7.97815145131 2:-10.6098571358 3:1.63610629731 4:6.33305934231 5:40.1076406332 6:3.81714709206 7:-4.19081862731 8:0.0 9:2.19586785551 10:4.82183563885 11:3.32929564731 12:-2.73206001392 13:-0.246308633789 14:1.71079165186 15:2.92680807607 16:1.95788473967 17:-2.22559506466 18:-0.265467202137 19:1.35804343386 20:1.84428196825 21:8.19638279546 22:-2.29834077526 23:1.4356013164 24:3.03122155996 25:9.18830414558 26:10.4269053618 27:-15.7508483111 28:-0.851993470009 29:9.16446846586 30:83.9874822617 
6 1:16.4443213154 2:-6.60934221613 3:8.69808762881 4:7.86381686609 5:61.8396157034 6:4.03303893289 7:-5.07126064394 8:-5.70971841236e-16 9:3.15168559415 10:9.93312208435 11:2.0844388611 12:-2.12677073331 13:-0.38877870042 14:1.53345235895 15:2.35147613717 16:2.18833835794 17:-2.42040673469 18:0.243065863609 19:1.51228889972 20:2.28701771622 21:10.4005539828 22:-2.6702001395 23:1.93432557011 24:3.95851429986 25:15.6698354622 26:10.973625236 27:-11.339884605 28:-1.29757061032 29:7.83136717637 30:61.330311851 
6 1:9.24497230941 2:-4.52984808546 3:4.64444935502 4:4.70459636588 5:22.1332269659 6:3.30181067431 7:-3.02540069725 8:3.17206578464e-17 9:2.12314166856 10:4.50773054479 11:1.13759340621 12:-1.35705335137 13:-0.24794803972 14:0.950305533949 15:0.903080607855 16:3.65708677665 17:-4.24941068198 18:0.0466317341024 19:2.08999584103 20:4.36808261554 21:7.20480138737 22:-1.31066657216 23:1.32657884788 24:2.65769905278 25:7.06336425514 26:7.41253790511 27:-11.8305788106 28:-0.774234595994 29:7.35428346318 30:54.0854852568 
6 1:12.4920359606 2:-4.61647543294 3:6.78621403265 4:5.84288270089 5:34.1392782564 6:4.62596269018 7:-3.81662597856 8:4.75809867696e-17 9:2.78641292496 10:7.7640969884 11:1.35989571945 12:-1.87035171335 13:-0.247005827848 14:1.20560088707 15:1.45347349891 16:2.70596953966 17:-3.08763965492 18:0.0691069955182 19:1.53043249651 20:2.34222362638 21:7.55698677761 22:-2.45506077335 23:1.35491845624 24:2.93325501049 25:8.60398495655 26:9.70553955418 27:-11.2169119757 28:-0.887522621144 29:7.04054161553 30:49.56922624 
6 1:10.0641147572 2:-0.407798778487 3:6.54089747242 4:3.57962272695 5:12.8136988673 6:1.8248924866 7:-2.45379277339 8:1.54638207001e-16 9:1.38016998015 10:1.90486917411 11:1.44028525833 12:-1.18972878033 13:-0.220480356391 14:0.851967436005 15:0.725848512012 16:1.67556344565 17:-1.921277047 18:-0.0816857958903 19:0.968174393734 20:0.937361656682 21:7.44245552237 22:-3.29245436198 23:1.27750764809 24:3.00107207344 25:9.00643359 26:9.0115680796 27:-10.3886368659 28:-0.774252728805 29:6.83026288749 30:46.6524911123 
6 1:10.6908450925 2:-6.24855521146 3:5.03812188487 4:5.78000946855 5:33.4085094565 6:4.93453063373 7:-3.99617331413 8:1.58603289232e-17 9:2.84730095604 10:8.10712273429 11:1.64459955408 12:-2.0651682842 13:-0.164262556677 14:1.22391277564 15:1.49796248237 16:1.94176354882 17:-2.2609891595 18:0.0299953626587 19:1.12390639871 20:1.26316559305 21:3.88593488825 22:-2.15722977723 23:0.739107671965 24:1.85095838255 25:3.42604693395 26:8.22192823459 27:-9.74117798981 28:-0.63408744289 29:6.60400180457 30:43.6128398348 
6 1:8.62074992105 2:-5.76823507812 3:3.83553985228 4:4.91822693054 5:24.1889561403 6:4.29335446677 7:-3.47783624462 8:-1.26882631386e-16 9:2.48345212938 10:6.16753447894 11:1.31538217302 12:-1.71037530723 13:-0.213854378051 14:1.06906952461 15:1.14290964846 16:2.61430708546 17:-2.90297593485 18:-0.00270309280261 19:1.42160671054 20:2.02096563946 21:6.72687759572 22:-2.39772013041 23:1.18220155906 24:2.6051756431 25:6.78694013141 26:8.33876972444 27:-10.1742233377 28:-0.707191349767 29:6.66071764239 30:44.3651595116 
6 1:8.99377312669 2:-9.25616257597 3:2.90599656739 4:6.23263902054 5:38.8457891604 6:5.14443325106 7:-4.19500834611 8:-7.93016446161e-18 9:3.02662348079 10:9.16044969448 11:1.5807182517 12:-2.1260486012 13:-0.213891385051 14:1.32341823235 15:1.75143581772 16:2.71116830816 17:-3.10571258683 18:-0.0662177092031 19:1.52133663167 20:2.31446514685 21:6.7315626313 22:-2.19849865334 23:1.17966823072 24:2.58915015048 25:6.70369850175 26:8.90458793815 27:-11.714429997 28:-0.695334219155 29:7.44209612856 30:55.3847947867 
6 1:7.98176022315 2:-8.72608759718 3:2.41096008819 4:5.7101989099 5:32.6063715906 6:4.47794488904 7:-3.69742992116 8:-1.66533453694e-16 9:2.71830115395 10:7.38916116355 11:1.26540646762 12:-1.8273720834 13:-0.249570386059 14:1.21509357903 15:1.47645240579 16:2.85651533664 17:-3.21234960651 18:-0.0664504337714 19:1.57967101742 20:2.49536052327 21:8.23579985053 22:-2.54857637979 23:1.42140741736 24:3.06396005324 25:9.38785120786 26:8.57706637555 27:-11.4258586265 28:-0.768116977826 29:7.37130564541 30:54.3361469181 
6 1:7.96509386132 2:-11.2097357045 3:1.57049365178 4:6.55094073395 5:42.9148244997 6:5.36294484833 7:-4.38141652281 8:1.11022302463e-16 9:3.17545148569 10:10.083492138 11:1.68570278364 12:-2.27556247661 13:-0.234216603892 14:1.41537307178 15:2.00328093231 16:2.30101206611 17:-2.56875374278 18:-0.0878085423037 19:1.27417630039 20:1.62352524448 21:7.58718767825 22:-3.01342658074 23:1.29509640589 24:3.07452362841 25:9.45269554164 26:10.0722821749 27:-11.7293724106 28:-0.656521158255 29:7.54668739778 30:56.9524906798 
6 1:5.366725957 2:-8.09788687599 3:0.910123378444 4:4.60853503351 5:21.2385951551 6:4.48991868828 7:-3.57858939383 8:1.58603289232e-17 9:2.50685107127 10:6.2843022935 11:1.40365709773 12:-1.72107971389 13:-0.240420280803 14:1.07665105889 15:1.1591775026 16:3.00173987614 17:-3.23777359585 18:-0.0107803768762 19:1.60273240733 20:2.56875116951 21:7.77035901115 22:-2.0924951398 23:1.33563743263 24:2.79723757512 25:7.82453805168 26:9.11206532378 27:-9.6127495839 28:-0.757365618654 29:6.89296926291 30:47.5130252595 
6 1:7.53466147401 2:-9.41332780306 3:1.87262061668 4:5.7879942418 5:33.5008773431 6:4.38929106075 7:-3.68139119844 8:1.58603289232e-17 9:2.69131900772 10:7.24319800134 11:1.2625836005 12:-1.83817544931 13:-0.215166074046 14:1.20730746729 15:1.45759132058 16:2.48294246582 17:-2.85289439821 18:-0.062802050314 19:1.39915264724 20:1.95762813028 21:6.81046100097 22:-2.80925681934 23:1.19730189675 24:2.79804958411 25:7.82908147516 26:9.40009265417 27:-11.9303090452 28:-0.79498728378 29:7.76298654037 30:60.263960026 
6 1:7.20339934272 2:-9.15155627916 3:1.76682085003 4:5.59185077047 5:31.2687950393 6:4.94867645012 7:-3.9970666197 8:1.18952466924e-16 9:2.84938725215 10:8.11900771269 11:1.55283871422 12:-2.0040596909 13:-0.240927855638 14:1.2406380463 15:1.53918276193 16:2.71329184682 17:-2.96635742788 18:-0.0457179083072 19:1.46193986733 20:2.13726817568 21:7.77307955475 22:-2.64534898284 23:1.33222228636 24:2.9240366916 25:8.54999057384 26:9.73649968375 27:-10.1069536339 28:-0.811856776873 29:7.06979586405 30:49.9820135594 
6 1:5.97919084948 2:-10.6929777936 3:0.418118748285 4:5.69423526125 5:32.4243152105 6:4.59039926757 7:-3.76593886387 8:-7.93016446161e-18 9:2.73550344582 10:7.48297910211 11:1.35308614945 12:-1.8629295872 13:-0.221887612494 14:1.19013913408 15:1.41643115846 16:2.76027850527 17:-3.15903130295 18:-0.035478385022 19:1.54280262814 20:2.3802399494 21:6.39462679497 22:-1.77831911895 23:1.13647433089 24:2.38117842026 25:5.67001066912 26:7.61019506758 27:-9.86895343876 28:-0.701203312043 29:6.73580012978 30:45.3710033883 
6 1:4.64754675352 2:-11.5725173789 3:-0.769977260521 4:5.54159404056 5:30.7092645103 6:4.13194294492 7:-3.56310202307 8:-1.26882631386e-16 9:2.56400391077 10:6.57411605442 11:1.256800591 12:-1.72990644164 13:-0.223564902881 14:1.16825970034 15:1.36483072745 16:2.46665598013 17:-2.81084126832 18:-0.0915690067611 19:1.39152762835 20:1.93634914045 21:7.47342515817 22:-2.4034099952 23:1.28340468548 24:2.80697082791 25:7.87908522874 26:8.63309243332 27:-10.5309243964 28:-0.625600553933 29:6.91284263978 30:47.7873933624 
6 1:3.90894576926 2:-12.170959916 3:-1.44971518303 4:5.49436464359 5:30.1880428367 6:4.49761416895 7:-3.68163436954 8:2.77555756156e-16 9:2.6696974923 10:7.12728470039 11:1.34035545392 12:-1.83423705031 13:-0.224824255633 14:1.17029705498 15:1.36959519689 16:2.63564353726 17:-2.96426170086 18:-0.0366809210266 19:1.45063895677 20:2.10435338291 21:7.17369306284 22:-2.53187113662 23:1.25093266526 24:2.76580427159 25:7.64967326875 26:9.3558715928 27:-10.7864319802 28:-0.741468174537 29:7.17771333067 30:51.5195686573 
6 1:3.77401360791 2:-11.5872907386 3:-1.34070568545 4:5.24995956504 5:27.5620754345 6:4.36666520136 7:-3.56796050501 8:-7.93016446161e-17 9:2.57884770772 10:6.65045549964 11:1.30505199392 12:-1.762951437 13:-0.229405948654 14:1.12578863579 15:1.26740005247 16:2.62483981009 17:-2.92499884423 18:-0.0131088167235 19:1.43134702032 20:2.04875429259 21:7.18408044645 22:-2.62940561168 23:1.25928373365 24:2.79623966458 25:7.81895626179 26:9.38599840943 27:-10.7223213344 28:-0.753736660744 29:7.24982408075 30:52.5599492018 
6 1:3.50356580723 2:-10.0491218819 3:-1.01618516351 4:4.63182416028 5:21.4537950518 6:3.52004788915 7:-2.99902973656 8:-2.69625591695e-16 9:2.17368985905 10:4.72492760335 11:1.01178588153 12:-1.41803820352 13:-0.219018076457 14:0.976516659881 15:0.953584787026 16:2.50107542405 17:-2.81528417718 18:-0.0206082011196 19:1.37770736682 20:1.8980775886 21:6.96819149418 22:-2.55970062767 23:1.22330653419 24:2.712780486 25:7.35917796523 26:8.94758179933 27:-10.8800335471 28:-0.753063522107 29:7.10662855064 30:50.5041693568 
6 1:4.18690662219 2:-9.48029169797 3:-0.369609092064 4:4.67040490442 5:21.8126819713 6:3.68944512548 7:-3.04289040894 8:2.14114440463e-16 9:2.23021883066 10:4.97387603264 11:1.04195524421 12:-1.49011967732 13:-0.204220131564 14:0.987015888077 15:0.974200363317 16:2.48516888875 17:-2.80107799715 18:-0.0309145072093 19:1.37149898471 20:1.88100946507 21:6.49969016113 22:-2.63149750033 23:1.14022361315 24:2.60461897014 25:6.78403997962 26:8.98679421655 27:-10.5634554663 28:-0.745698996744 29:7.03760999992 30:49.5279545109 
6 1:5.44088759993 2:-10.1894114217 3:0.229130819251 4:5.33992670309 5:28.5148171943 6:4.29568696996 7:-3.5271802857 8:4.75809867696e-17 9:2.56801524743 10:6.59470231105 11:1.27104402194 12:-1.75935231508 13:-0.215522030978 14:1.12871036494 15:1.27398708792 16:2.50842126532 17:-2.83448772745 18:-0.0336158786431 19:1.3862502414 20:1.92168973178 21:6.72544144387 22:-2.48815654937 23:1.17901478982 24:2.63069804144 25:6.92057218525 26:9.255426034 27:-10.5843338806 28:-0.74579843865 29:7.10295042305 30:50.4519047123 
6 1:4.92142886697 2:-9.84149933937 3:0.00309375709401 4:5.04524826597 5:25.4545300653 6:4.10584827988 7:-3.36746360734 8:4.75809867696e-17 9:2.44812622464 10:5.99332201175 11:1.19937405549 12:-1.65986978956 13:-0.219943510278 14:1.07562015621 15:1.15695872044 16:2.56636948465 17:-2.87619589891 18:-0.0318825165134 19:1.40840519274 20:1.98360518694 21:6.90019490443 22:-2.34188104467 23:1.204822438 24:2.62832576573 25:6.90809633079 26:8.75589339515 27:-10.3505339522 28:-0.730605685782 29:6.89791679823 30:47.5812561553 
6 1:5.00942373251 2:-10.5833281254 3:-0.194399714749 4:5.32627387287 5:28.3691933688 6:4.12380681746 7:-3.41147543652 8:1.34812795847e-16 9:2.50938528482 10:6.29701450768 11:1.17950658784 12:-1.69057111374 13:-0.217841759624 14:1.1110429274 15:1.23441638653 16:2.55323098486 17:-2.90753457005 18:-0.0289062540003 19:1.42159786553 20:2.02094049129 21:6.71579050827 22:-2.59608074327 23:1.18546138001 24:2.66295686183 25:7.09133924796 26:9.27632066356 27:-10.5959199149 28:-0.708683288132 29:7.07948739207 30:50.1191417345 
6 1:4.29804586172 2:-10.7492339093 3:-0.716427224959 4:5.14168014096 5:26.4368746719 6:4.18172372556 7:-3.42862618207 8:-1.50673124771e-16 9:2.49107568118 10:6.20545804936 11:1.23595791651 12:-1.70124162654 13:-0.216151501398 14:1.09301724567 15:1.19468669933 16:2.53136859146 17:-2.84083845326 18:-0.0260830930431 19:1.39024773949 20:1.93278877717 21:6.75707250894 22:-2.73051062158 23:1.18492610172 24:2.7003265938 25:7.29176371318 26:9.437044389 27:-10.7024102316 28:-0.759549119606 29:7.23497143303 30:52.3448116367 
6 1:4.36530650381 2:-10.3527687884 3:-0.540199968042 4:5.02942779095 5:25.2951439044 6:4.02441486626 7:-3.31147588455 8:1.11022302463e-16 9:2.417772275 10:5.84562277376 11:1.17018641632 12:-1.63622958547 13:-0.218756926603 14:1.06617103974 15:1.13672068598 16:2.48453961158 17:-2.78708165041 18:-0.0210876441354 19:1.36354817068 20:1.85926361376 21:6.84389392044 22:-2.62933035782 23:1.20003539511 24:2.6964823169 25:7.27101688533 26:9.11818759494 27:-10.6718470027 28:-0.780076913347 29:7.12589818958 30:50.7784250082 
6 1:4.99988241484 2:-13.8334975442 3:-1.2578842294 4:6.43497272063 5:41.4088739152 6:6.12340400616 7:-4.8754697558 8:1.42742960309e-16 9:3.407785255 10:11.6130003442 11:2.05056987582 12:-2.46872627345 13:-0.223911927401 14:1.45050780986 15:2.10397290647 16:2.94792528273 17:-3.27675634349 18:-0.0283757737533 19:1.60329788772 20:2.57056411676 21:6.66504376665 22:-1.85157800269 23:1.16577794059 24:2.45410349583 25:6.02262396823 26:10.0695094225 27:-10.2380644643 28:-0.726174409092 29:7.051405256 30:49.7223160843 
6 1:2.21425882781 2:-11.9754793092 3:-2.49709059419 4:4.8529858283 5:23.5514714497 6:4.33332383687 7:-3.50198752769 8:1.11022302463e-16 9:2.49344533725 10:6.21726964987 11:1.28310601505 12:-1.67200979841 13:-0.240513629341 14:1.07283595868 15:1.15097699425 16:3.14048479318 17:-3.46707329676 18:-0.0120214135595 19:1.70309894664 20:2.90054602203 21:7.46921998711 22:-2.33631032201 23:1.30599641052 24:2.79911811554 25:7.83506222472 26:9.0870503221 27:-10.2726103688 28:-0.675407806012 29:7.12212289351 30:50.7246345102 
6 1:4.32051774441 2:-16.2494980932 3:-2.67206124305 4:7.02119049129 5:49.297115915 6:4.02210954305 7:-4.5067111522 8:1.18952466924e-17 9:2.3596029966 10:5.56772630155 11:4.19708918322 12:-3.48982040537 13:1.90323947079e-16 14:2.58816107595 15:6.69857775508 16:0.917392239704 17:-1.15264327825 18:-0.0492222825586 19:0.739298834479 20:0.546562766662 21:12.1557185186 22:-8.47080500854 23:0.755635367288 24:6.22785369381 25:38.7861616315 26:9.17175811665 27:-11.2842920995 28:0.0704520098153 29:6.47469919759 30:41.9217296993 
