6 1:7.05590753167 2:-2.75327856487 3:0.43360164099 4:3.35821822967 5:11.2776296781 6:4.42448648132 7:-6.0323967964 8:1.18952466924e-16 9:2.92193127006 10:8.53768234695 11:2.30443367027 12:-2.58430994881 13:0.0466499379602 14:1.38570258721 15:1.92017166019 16:1.66098662567 17:-1.68687006439 18:-0.023297107476 19:0.878040644774 20:0.770955373874 21:2.58125746104 22:-2.1407400281 23:-0.0632995847311 24:1.41382567009 25:1.99890302539 26:2.65871070372 27:-1.96388977751 28:-0.0456304729201 29:1.19842086298 30:1.43621256483 
6 1:0.67080877751 2:0.362659158459 3:0.553717925869 4:0.0902455943047 5:0.00814426729141 6:0.346687343107 7:-0.459720779866 8:-1.68515994809e-17 9:0.223519888123 10:0.0499611403863 11:1.01270434192 12:-0.496955617082 13:0.136487843994 14:0.429801177209 15:0.18472905193 16:1.15299117692 17:-1.5860062425 18:-0.203984411933 19:0.815941347799 20:0.665760283048 21:1.987894017 22:-4.61458968399 23:-0.818441285108 24:1.79681832504 25:3.22855609319 26:1.65707047387 27:-5.36619143281 28:-0.207254485863 29:2.02264325851 30:4.09108575119 
6 1:1.12298546603 2:-2.09869224932 3:0.0705515676272 4:1.1010151899 5:1.21223444838 6:1.78366083097 7:-1.32491104476 8:2.37904933848e-17 9:0.875883755424 10:0.767172353015 11:0.884516488637 12:-0.778493300101 13:-0.0107668377901 14:0.479276048208 15:0.229705530386 16:0.940152521808 17:-0.728012760091 18:0.10461132033 19:0.561155691653 20:0.314895710274 21:0.0790043000664 22:-0.137550448845 23:-0.00332934820941 24:0.0580815140289 25:0.00337346227189 26:1.50044761627 27:-1.33185666689 28:0.125527951456 29:0.789341697185 30:0.623060314914 
6 1:-0.43960765725 2:-0.675262179409 3:-0.569567955372 4:0.0849472492407 5:0.00721603515355 6:0.520777622445 7:-0.34756447883 8:2.37904933848e-17 9:0.253296022585 10:0.0641588750574 11:0.330327296006 12:-0.388239573061 13:-0.0125799530598 14:0.243404345179 15:0.0592456752519 16:1.00242556556 17:-0.46967988107 18:0.128801326601 19:0.476949765466 20:0.227481078778 21:0.830158859798 22:-0.812857412739 23:0.073992078081 24:0.415868216437 25:0.172946373442 26:0.408281622595 27:-0.744001140068 28:-0.0499423584219 29:0.365794805184 30:0.133805839499 
6 1:-0.00532485846278 2:-0.501931160426 3:-0.178602120919 4:0.168429757515 5:0.0283685832165 6:0.156104591737 7:-0.131595172527 8:7.93016446161e-18 9:0.0925009359085 10:0.00855642314394 11:0.0953199706016 12:-0.0601888388376 13:-0.00750285383683 14:0.0490162888552 15:0.00240259657314 16:0.394475154185 17:-0.351959107061 18:0.0215777955791 19:0.220297968643 20:0.0485311949884 21:0.546687853306 22:-0.468910490718 23:0.0247629634245 24:0.26956745882 25:0.0726666148546 26:0.961840795293 27:-1.15310202598 28:0.0324381148949 29:0.51265312537 30:0.262813226951 
6 1:-0.640599541936 2:-1.84447161994 3:-1.47218644406 4:0.419075696123 5:0.175624439081 6:0.886045315149 7:-1.2543062082 8:-3.9650822308e-18 9:0.598817249755 10:0.358582098604 11:0.440353546234 12:-0.502869682338 13:0.0189779677529 14:0.268026131586 15:0.071838007213 16:0.77751422448 17:-0.794527074043 18:0.0825467542349 19:0.537990407785 20:0.289433678868 21:0.445611238497 22:-1.53211220292 23:-0.205193746149 24:0.582451681146 25:0.33924996087 26:0.610115217574 27:-1.04027189125 28:-0.189229874701 29:0.470159168939 30:0.221049644137 
6 1:0.0935241245417 2:-3.8658753821 3:-2.53007732661 4:1.34860266589 5:1.81872915044 6:0.851261264808 7:-0.65238459207 8:-5.55111512313e-17 9:0.512545482919 10:0.262702872061 11:0.341014699576 12:-0.36147557412 13:0.054325987611 14:0.248107679029 15:0.0615574203933 16:0.325964287254 17:-0.50384337073 18:-0.0570589288297 19:0.221973320501 20:0.0492721550143 21:0.73589720968 22:-1.34320760297 23:-0.254538102593 24:0.534123324187 25:0.285287725441 26:0.495319778887 27:-0.812209273389 28:-0.0713992400858 29:0.375906387942 30:0.141305612496 
6 1:0.329657991676 2:-1.33675298046 3:-0.241029247194 4:0.565310737908 5:0.319576230394 6:0.317892276463 7:-0.336104725484 8:9.91270557701e-18 9:0.186532332203 10:0.0347943109571 11:0.22365890745 12:-0.226724303245 13:-0.0048993783051 14:0.124700046721 15:0.0155501016522 16:0.298415966653 17:-0.317515495142 18:0.0201786951608 19:0.189775880935 20:0.0360148849847 21:1.39951604502 22:-1.10591213801 23:-0.00996363330431 24:0.660251853755 25:0.435932510387 26:1.41025650006 27:-0.878781749787 28:-0.0240129493379 29:0.605858104998 30:0.367064043391 
6 1:0.768899679874 2:-1.23857116711 3:-0.571157857108 4:0.688173779708 5:0.473583151077 6:0.545151121098 7:-0.703099908418 8:2.9738116731e-17 9:0.384716057988 10:0.148006445274 11:0.327882928801 12:-0.247049819303 13:0.0107688970048 14:0.190499708873 15:0.0362901390807 16:1.3103245053 17:-1.12397208029 18:0.128355477323 19:0.759915434727 20:0.577471467936 21:0.694151573019 22:-1.22464999649 23:-0.166995451299 24:0.569985088411 25:0.32488300101 26:0.538495241594 27:-1.32096568688 28:-0.329983869181 29:0.570923626694 30:0.325953787517 
6 1:-0.971018981595 2:-1.0288464479 3:-0.996171214721 4:0.0187842236038 5:0.000352847056398 6:0.270097403309 7:-0.394137235541 8:4.16333634234e-17 9:0.190195399557 10:0.0361742900125 11:0.232472303531 12:-0.181366595043 13:0.030589558198 14:0.142889576173 15:0.0204174309788 16:0.227051836771 17:-0.219684950208 18:-0.00684190108875 19:0.125494995678 20:0.0157489939403 21:0.566883343413 22:-1.32933766529 23:-0.203333157115 24:0.502777022325 25:0.252784734178 26:0.557318572053 27:-0.96728779484 28:0.0676220776378 29:0.489552218558 30:0.239661374695 
6 1:-0.191986910589 2:-0.596328424032 3:-0.460321892443 4:0.136952485411 5:0.0187559832604 6:0.110956745238 7:-0.14413746658 8:1.9825411154e-17 9:0.0764626954087 10:0.00584654378916 11:0.0582641834681 12:-0.0582888211409 13:-0.00581185404844 14:0.0395367266762 15:0.00156315275627 16:0.079570949024 17:-0.0722718857051 18:-0.00664387501639 19:0.0553086746468 20:0.00305904949118 21:0.318651404154 22:-0.0641679691692 23:0.0466080982328 24:0.105812406024 25:0.0111962652686 26:0.555297591798 27:-0.104409653226 28:0.081308056936 29:0.205266391948 30:0.0421342916633 
6 1:0.623500564895 2:0.397907991357 3:0.547824776889 4:0.0771288180897 5:0.00594885457991 6:0.0609202020451 7:-0.0485663883233 8:-8.92143501931e-18 9:0.0414761232733 10:0.00172026880178 11:0.0341373146595 12:-0.0817757878064 13:-0.0110855983118 14:0.0332697058928 15:0.00110687333019 16:0.401564812011 17:-0.172718626603 18:0.0475268688217 19:0.165413398747 20:0.0273615924852 21:0.383965402103 22:-0.200920713018 23:0.0395303304779 24:0.167974541766 25:0.0282154466814 26:0.441711225451 27:-0.357848610753 28:-0.0594180951296 29:0.196638124529 30:0.0386665520182 
6 1:0.478675031122 2:-0.237190795568 3:0.231242973213 4:0.242586146634 5:0.0588480385387 6:0.170887641039 7:-0.149083849979 8:0.0 9:0.0906467359561 10:0.0082168307395 11:0.121109218822 12:-0.100964309501 13:-0.00459509906233 14:0.0626690881304 15:0.0039274146071 16:0.109710027988 17:-0.134988153795 18:0.0106998070352 19:0.0882371371318 20:0.00778579236921 21:0.096896240487 22:-0.147778613893 23:0.00761423779041 24:0.0697141376551 25:0.00486006098899 26:0.330252757702 27:-0.187577491872 28:0.0164934268652 29:0.154661031646 30:0.0239200347097 
6 1:-0.0486737466952 2:-1.39560118339 3:-0.497156857339 4:0.45950507804 5:0.211144916745 6:0.466133302609 7:-0.365139805539 8:-2.18079522694e-17 9:0.250953697451 10:0.0629777582645 11:0.198233625732 12:-0.215766103194 13:-0.00438569524665 14:0.120653005855 15:0.0145571478219 16:0.12050793429 17:-0.100124902577 18:-0.0015047289347 19:0.0639033211681 20:0.00408363445632 21:0.0783543609402 22:-0.0911244665568 23:0.0050028963947 24:0.0490369423798 25:0.00240462171796 26:0.622977969563 27:-0.496068612529 28:0.0078783951182 29:0.275730378407 30:0.0760272415766 
6 1:1.54088077285 2:-0.848225087769 3:-0.0679090664004 4:0.817369393051 5:0.668092724697 6:1.03453962972 7:-1.4125998988 8:3.56857400772e-17 9:0.684678845433 10:0.468785121383 11:0.605555622141 12:-0.662943656217 13:-0.00762847569453 14:0.359813733255 15:0.129465922639 16:0.21423001037 17:-0.210237193818 18:0.0264466342347 19:0.155700230138 20:0.0242425616651 21:0.561690381505 22:-0.548932788441 23:0.114355391507 24:0.334203923309 25:0.111692262355 26:0.301912044793 27:-0.849775011756 28:-0.0661786386085 29:0.303281355851 30:0.0919795808066 
6 1:8.52901478429 2:0.681569343195 3:3.18733392136 4:2.69832859922 5:7.28097722935 6:4.43812867038 7:-6.16992785804 8:2.77555756156e-17 9:2.94069982564 10:8.64771546451 11:2.66746176564 12:-3.14222672557 13:0.0305721389098 14:1.69900828064 15:2.88662913768 16:2.12131012916 17:-3.06375070645 18:0.00157779312997 19:1.62514835144 20:2.64110716419 21:4.76329647755 22:-5.92178209451 23:0.158927694197 24:2.79167664291 25:7.79345847858 26:2.84853460234 27:-5.22260804719 28:-0.455117749365 29:2.15168670725 30:4.62975568614 
6 1:6.12411089033 2:1.3866540999 3:4.48334508752 4:1.61063784286 5:2.59415426085 6:0.997339639593 7:-0.986381254046 8:-1.58603289232e-16 9:0.54302896397 10:0.294880455711 11:1.16282361342 12:-1.10827639873 13:0.0111568306928 14:0.646705937116 15:0.418228569102 16:1.23102263184 17:-2.08965319396 18:-0.27514681828 19:1.14211275138 20:1.30442153686 21:0.478425492793 22:-0.928200513816 23:-0.174200163056 24:0.365101650232 25:0.133299215002 26:2.06904419791 27:-1.79073311046 28:-0.000301163533492 29:0.949629605057 30:0.9017963868 
6 1:0.637653776767 2:0.00360857696044 3:0.407270581807 4:0.224904753959 5:0.0505821483532 6:0.285321589714 7:-0.452541436749 8:-1.9825411154e-17 9:0.269352377246 10:0.072550703128 11:0.514361006722 12:-0.411447612269 13:-7.87776724473e-05 14:0.282474999213 15:0.0797921251804 16:0.487772077062 17:-1.63308043095 18:-0.199885246072 19:0.618406884843 20:0.382427075221 21:0.91492865565 22:-0.692329553527 23:0.0859861458087 24:0.393722154499 25:0.155017134944 26:0.20791609198 27:-0.154500205406 28:0.0488055560503 29:0.113097783377 30:0.0127911086047 
6 1:0.137417372344 2:-0.456770935341 3:-0.0656895633398 4:0.201997423286 5:0.0408029590142 6:0.116450800275 7:-0.120608105966 8:5.94762334621e-18 9:0.0657259666407 10:0.00431990269085 11:0.0786989142553 12:-0.079541544687 13:1.9825411154e-18 14:0.0558509612116 15:0.00311932986826 16:0.0487733080746 17:-0.05788459724 18:-0.00032155952499 19:0.0321713915503 20:0.00103499843428 21:0.295722194045 22:-0.426562870078 23:0.00552796738495 24:0.190531783581 25:0.0363023605545 26:0.28630451887 27:-0.330688696945 28:-0.00971448099351 29:0.160969154444 30:0.0259110686825 
