9 1:171.424870451 2:-308.200261442 3:13.1084518701 4:164.236403797 5:26973.5963321 6:183.844319952 7:-142.850035408 8:-3.5527136788e-15 9:97.8744520835 10:9579.40837065 11:64.4036235664 12:-72.9872648297 13:-6.45747124963 14:42.1655783963 15:1777.9360015 16:79.7777036095 17:-83.3959727959 18:-4.76022635837 19:46.4335705132 20:2156.07647061 21:257.368084466 22:-77.785758259 23:41.0774637581 24:87.6571551022 25:7683.77684061 26:246.290995099 27:-227.31682623 28:-0.163298608877 29:155.848680272 30:24288.8111425 
9 1:196.352261928 2:-226.86599242 3:56.2671150035 4:144.966261219 5:21015.2168919 6:142.360734043 7:-112.989876768 8:-7.48607525176e-15 9:79.5233982085 10:6323.97086263 11:45.843782517 12:-57.4195853352 13:-6.76952932697 14:35.0906795213 15:1231.35578927 16:69.1401965715 17:-72.3359471285 18:-5.16807350738 19:41.6056079813 20:1731.0266155 21:278.995214141 22:-85.1957063787 23:44.5855431373 24:94.5522840091 25:8940.13441134 26:243.78038809 27:-223.28137899 28:-0.504070105813 29:152.092569643 30:23132.1497405 
9 1:184.961686136 2:-364.554475951 3:1.72230327262 4:187.862795434 5:35292.4299083 6:156.42655903 7:-127.008796312 8:2.47421131202e-15 9:92.0644584731 10:8475.86451395 11:48.6499191228 12:-67.3557602657 13:-6.05009649121 14:42.4360077392 15:1800.81475284 16:64.0254568726 17:-74.7253099837 18:-9.03888863038 19:44.7546522449 20:2002.97889756 21:240.420273589 22:-63.1247301656 23:37.5150938084 24:80.1438071236 25:6423.02982027 26:185.14326493 27:-201.066208273 28:-4.68019896027 29:124.519968584 30:15505.2225761 
9 1:41.9171604222 2:-400.133870258 3:-104.478484712 4:151.251289132 5:22876.952464 6:155.375016622 7:-122.222678801 8:-4.56777472989e-15 9:84.705037282 10:7174.94334095 11:52.7842642616 12:-62.4708746261 13:-5.68032195541 14:36.5284188989 15:1334.32538725 16:70.1510554818 17:-75.1323281378 18:-3.62451632146 19:39.7193854332 20:1577.62957919 21:216.389212128 22:-78.4710665546 23:35.1617295212 24:75.6606922836 25:5724.54035684 26:213.695264553 27:-230.261057791 28:-3.33996845884 29:143.054444092 30:20464.5739743 
9 1:41.7084156126 2:-479.593318129 3:-131.065756957 4:178.35224694 5:31809.5239884 6:181.693816552 7:-142.915416941 8:2.53765262771e-16 9:99.2060376951 10:9841.83791517 11:62.6238558368 12:-74.5219468385 13:-6.12167282574 14:43.3559806199 15:1879.74105551 16:73.0704323437 17:-77.6547526997 18:-5.98138398875 19:43.7493445288 20:1914.0051467 21:234.46026269 22:-68.2870939919 23:37.2604268645 24:79.0648333963 25:6251.24787999 26:213.418272305 27:-218.544631465 28:-4.45491916379 29:143.061797621 30:20466.6779387 
9 1:-15.4297005281 2:-524.634263694 3:-183.80127452 4:174.246981365 5:30362.0105148 6:187.743262397 7:-146.709231372 8:1.57334462918e-14 9:100.84366443 10:10169.4446557 11:67.8209254319 12:-76.6893669281 13:-6.49047644926 14:44.0341237884 15:1939.00405782 16:60.6264087308 17:-61.3564171215 18:-2.57276607537 19:33.2183745384 20:1103.46040697 21:238.103726748 22:-67.4090507119 23:38.6089316301 24:79.7814179646 25:6365.07465243 26:208.514530954 27:-182.556208683 28:-2.42567588934 29:129.490968739 30:16767.910985 
9 1:-105.418115338 2:-428.280755304 3:-210.710962782 4:110.75531542 5:12266.7398937 6:160.534544334 7:-121.168266647 8:3.80647894157e-16 9:80.8175182328 10:6531.4712533 11:61.4117972071 12:-60.2715100927 13:-5.4378539101 14:35.7587585345 15:1278.68881193 16:66.4197519917 17:-65.3335262576 18:1.72248581846 19:35.2521019156 20:1242.71068947 21:206.512593982 22:-74.8214101408 23:34.4456622879 24:71.9080389724 25:5170.76606886 26:212.367732097 27:-218.195581358 28:-0.809647128601 29:140.530330621 30:19748.7738244 
9 1:41.3386119597 2:-394.742951258 3:-102.802232438 4:149.30353482 5:22291.5455098 6:158.088292269 7:-123.960415472 8:-7.29575130468e-15 9:85.6625827589 10:7338.07808492 11:53.9948464378 12:-63.0231881567 13:-6.33849641466 14:37.0173006918 15:1370.28055051 16:72.0707414762 17:-75.5049803284 18:-3.42167550822 19:40.4690172352 20:1637.74135598 21:243.23157357 22:-68.144162071 23:39.3676903969 24:81.369339404 25:6620.96939505 26:202.087557486 27:-211.602993781 28:-3.99220003148 29:136.344455144 30:18589.8104484 
9 1:-19.0743200096 2:-303.308441031 3:-112.269814235 4:97.6087825006 5:9527.47442126 6:121.585389611 7:-93.2380691955 8:4.94842262404e-15 9:63.7622702664 10:4065.62710953 11:42.0730869419 12:-47.2090637267 13:-4.97302498059 14:27.7444153517 15:769.752583207 16:64.1810332867 17:-64.2930230813 18:-5.91222413663 19:40.9226249004 20:1674.66122874 21:226.146972169 22:-56.1806025973 23:34.9315336106 24:75.0273286418 25:5629.10004312 26:181.231707574 27:-176.468053178 28:-3.30625517866 29:118.568330691 30:14058.4490429 
9 1:101.819642118 2:-368.047938212 3:-53.9828306023 4:160.649145869 5:25808.1480685 6:162.73570782 7:-128.232768156 8:-3.5527136788e-15 9:88.7932167244 10:7884.23533627 11:56.1422292846 12:-65.7761295885 13:-5.47099126149 14:38.110617592 15:1452.41917324 16:68.2170777687 17:-74.1431702474 18:-2.15964201172 19:37.3795987875 20:1397.23440551 21:192.15938206 22:-72.9890515235 23:32.1266409741 24:68.0932748488 25:4636.69407964 26:214.903353945 27:-228.959953968 28:-1.62902114225 29:144.802367432 30:20967.7256139 
9 1:78.7698353999 2:-388.915756248 3:-76.9087976231 4:159.923738802 5:25575.6022325 6:136.113229385 7:-110.489625016 8:-8.881784197e-15 9:79.6988310492 10:6351.9036706 11:44.8270725855 12:-59.0176384568 13:-6.19693509738 14:36.151152438 15:1306.9058226 16:32.5336280573 17:-35.1976624133 18:-4.04854050807 19:22.2058547861 20:493.099986781 21:231.475329095 22:-58.3211933086 23:37.3080775274 24:77.4368507447 25:5996.46585326 26:210.382789257 27:-206.843748394 28:-3.79815310618 29:135.702419788 30:18415.1467365 
9 1:33.0097988087 2:-338.619616613 3:-90.0761230218 4:127.237399434 5:16189.3558149 6:124.640725384 7:-98.9288241279 8:-3.99680288865e-15 9:69.4608388538 10:4824.80813427 11:40.5510461497 12:-50.2805160627 13:-5.65370159919 14:30.4325300013 15:926.138882279 16:56.6587883898 17:-60.0186656605 18:-4.0117395215 19:34.1346503978 20:1165.17435778 21:225.534875299 22:-65.8254766737 23:36.3135695245 24:76.8761205232 25:5909.9379067 26:210.52126046 27:-212.144768996 28:-2.55277218232 29:141.164698153 30:19927.4720045 
9 1:91.1066796816 2:-256.725475347 3:-20.2161992014 4:119.83959949 5:14361.529606 6:248.427008606 7:-180.308957583 8:-6.85166209483e-15 9:119.846960074 10:14363.2938391 11:101.626374048 12:-92.2449920209 13:-4.34973050734 14:54.9900000784 15:3023.90010862 16:111.015668651 17:-105.127425995 18:-6.01442426941 19:64.6611429531 20:4181.063408 21:241.121302784 22:-116.278770875 23:36.1504063855 24:95.8598921121 25:9189.11891575 26:254.807301168 27:-279.9755946 28:-4.07126748551 29:180.057576863 30:32420.7309858 
9 1:200.782948519 2:-326.579497055 3:25.0147486008 4:180.380161045 5:32537.0024984 6:147.385174584 7:-120.245333926 8:5.20218788682e-15 9:87.9606599348 10:7737.07769616 11:45.0215036404 12:-63.8702050775 13:-6.66129794865 14:40.9835135641 15:1679.64838406 16:58.0744080199 17:-76.6381868732 18:-9.13270986742 19:42.7022300872 20:1823.48045442 21:267.382245277 22:-60.1324161198 23:41.8035605055 24:87.6895810196 25:7689.46261939 26:213.984169471 27:-204.994452247 28:-5.94967499503 29:139.335804978 30:19414.4665488 
9 1:71.8924396948 2:-343.558628807 3:-66.3206681295 4:142.103567864 5:20193.4239998 6:122.991285125 7:-99.4977757259 8:2.98174183756e-15 9:71.5734468846 10:5122.75829894 11:37.4645122155 12:-50.7905538679 13:-5.68939605069 14:32.0241392491 15:1025.54549464 16:62.6446824686 17:-69.0250721554 18:-4.99573375236 19:37.7788728263 20:1427.24323203 21:219.227386934 22:-66.5097956096 23:35.4516524324 24:74.1655992898 25:5500.53611801 26:191.059384598 27:-201.256133432 28:-4.11832471063 29:129.302229899 30:16719.0666567 
9 1:42.6165616845 2:-218.593609485 3:-43.2444788187 4:89.5949106914 5:8027.24802181 6:103.252113337 7:-80.2465795572 8:-4.12368552004e-15 9:55.0500429712 10:3030.50723114 11:32.85247878 12:-37.9183866233 13:-5.12255569646 14:23.3566068774 15:545.531084824 16:72.3948919302 17:-77.1135302821 18:-2.37761557807 19:40.802229546 20:1664.82193592 21:207.347150149 22:-61.7328539988 23:33.918859653 24:70.5248391174 25:4973.75293253 26:224.098065821 27:-219.959140849 28:-3.53183155427 29:137.912421987 30:19019.8361382 
9 1:244.920717582 2:-289.633378904 3:67.1155501898 4:182.79165057 5:33412.7875181 6:164.705408351 7:-132.118281843 8:-1.09119062992e-14 9:93.9327696254 10:8823.36520949 11:53.4001878744 12:-69.0316548822 13:-6.35732182943 14:41.850188185 15:1751.43825112 16:66.0334140172 17:-72.4764822554 18:-6.65799472591 19:41.8312429132 20:1749.85288367 21:244.961104726 22:-69.7663219478 23:39.0473941373 24:82.5767007066 25:6818.91149958 26:227.817404855 27:-198.116255828 28:0.287838370857 29:141.946085343 30:20148.6911441 
9 1:154.760282003 2:-289.105960042 3:8.21114509756 4:151.995268023 5:23102.5615013 6:168.505217221 7:-131.117640294 8:-7.23230998899e-15 9:89.9940901394 10:8098.93626001 11:59.0794394912 12:-67.3071114773 13:-6.01429375645 14:38.9309465882 15:1515.61860225 16:70.0111368312 17:-72.6831559736 18:-4.50122942315 19:41.1830501293 20:1696.04361795 21:241.148957314 22:-72.8421455732 23:38.4022774276 24:82.0903466095 25:6738.82500647 26:223.184377655 27:-201.216565148 28:0.612665891735 29:142.226634826 30:20228.415654 
9 1:166.694169797 2:-284.492907547 3:17.6555274006 4:154.500600643 5:23870.4355989 6:168.610714458 7:-131.48834188 8:1.33226762955e-15 9:90.4923049235 10:8188.85725036 11:58.6378730463 12:-67.5547416875 13:-6.14239986049 14:39.2121436064 15:1537.59220621 16:70.4982708595 17:-73.3465550782 18:-4.91398270461 19:42.0124182121 20:1765.04328403 21:248.30199576 22:-73.917796762 23:39.4149013541 24:84.4786335372 25:7136.63952431 26:221.829636126 27:-199.005124611 28:0.805378767172 29:142.412396514 30:20281.290681 
