19:38:11		x: -96.832	y: -19.503	z: -151.406
19:38:11		x: -96.832	y: -20.013	z: -150.799
19:38:11		x: -96.832	y: -20.605	z: -150.21
19:38:11		x: -97.169	y: -20.605	z: -149.765
19:38:11		x: -96.524	y: -20.994	z: -149.765
19:38:11		x: -96.524	y: -20.994	z: -149.765
19:38:12		x: -95.41	y: -19.818	z: -152.32
19:38:12		x: -94.155	y: -12.829	z: -158.653
19:38:12		x: -94.934	y: -6.732	z: -158.653
19:38:12		x: -91.799	y: -1.034	z: -161.32
19:38:12		x: -92.64	y: -0.259	z: -163.218
19:38:13		x: -94.197	y: -0.259	z: -161.535
19:38:13		x: -97.811	y: -0.592	z: -155.366
19:38:13		x: -102.78	y: 8.03	z: -153.416
19:38:13		x: -104.42	y: 8.802	z: -151.496
19:38:13		x: -106.594	y: 8.161	z: -150.018
19:38:13		x: -109.394	y: 8.161	z: -148.46
19:38:14		x: -109.394	y: 10.04	z: -148.46
19:38:14		x: -109.394	y: 10.67	z: -148.46
19:38:14		x: -110.113	y: 12.223	z: -149.38
19:38:14		x: -113.514	y: 10.891	z: -147.691
19:38:14		x: -102.064	y: 21.58	z: -154.156
19:38:14		x: -97.415	y: 20.683	z: -157.127
19:38:15		x: -92.315	y: 32.722	z: -150.762
19:38:15		x: -81.655	y: 44.644	z: -134.013
19:38:15		x: -42.16	y: 60.99	z: -77.171
19:38:15		x: 2.633	y: 113.4	z: -37.478
19:38:15		x: 9.402	y: 164.34	z: -39.974
19:38:16		x: -17.655	y: 171.879	z: 30.541
19:38:16		x: -39.772	y: 162.141	z: 50.881
19:38:16		x: -41.423	y: 161.222	z: 54.873
19:38:16		x: -38.476	y: 163.455	z: 52.867
19:38:16		x: -35.342	y: 164.376	z: 58.25
19:38:16		x: -33.085	y: 164.006	z: 62.255
19:38:17		x: -31.584	y: 163.352	z: 63.97
19:38:17		x: -29.963	y: 162.989	z: 66.084
19:38:17		x: -28.723	y: 163.31	z: 67.63
19:38:17		x: -28.048	y: 162.751	z: 67.63
19:38:17		x: -27.651	y: 162.751	z: 66.937
19:38:18		x: -26.828	y: 163.09	z: 67.997
19:38:18		x: -25.563	y: 163.688	z: 65.167
19:38:18		x: -24.691	y: 165.08	z: 55.662
19:38:18		x: -25.17	y: 164.52	z: 47.549
19:38:18		x: -28.497	y: 162.48	z: 44.104
19:38:18		x: -28.497	y: 158.007	z: 36.712
19:38:19		x: -16.831	y: 156.591	z: 25.576
19:38:19		x: -12.695	y: 156.591	z: 23.756
19:38:19		x: -11.805	y: 156.591	z: 22.674
19:38:19		x: -12.13	y: 157.209	z: 23.097
19:38:19		x: -11.029	y: 156.762	z: 23.097
19:38:20		x: -9.283	y: 156.762	z: 19.697
19:38:20		x: -14.521	y: 150.218	z: 16.616
19:38:20		x: -37.875	y: 78.543	z: -126.385
19:38:20		x: -65.881	y: 52.281	z: -145.425
19:38:20		x: -62.554	y: 43.139	z: -157.141
19:38:20		x: -62.554	y: 40.892	z: -165.02
19:38:21		x: -65.33	y: 36.509	z: -168.359
19:38:21		x: -66.235	y: 39.508	z: -168.864
19:38:21		x: -65.478	y: 40.786	z: -167.48
19:38:21		x: -64.428	y: 42.193	z: -167.031
19:38:21		x: -67.842	y: 40.112	z: -168.746
19:38:22		x: -69.847	y: 39.617	z: -167.999
19:38:22		x: -71.472	y: 39.263	z: -168.495
19:38:22		x: -71.472	y: 38.583	z: -168.495
19:38:22		x: -70.82	y: 38.583	z: -168.495
19:38:22		x: -70.417	y: 38.583	z: -168.18
