20:55:43		x: 24.38231
20:55:44		x: 24.38231
20:55:45		x: 24.38231
20:55:46		x: 24.585938
20:55:47		x: 24.585938
20:55:48		x: 24.585938
20:55:49		x: 24.784601
20:55:50		x: 24.784601
20:55:52		x: 24.784601
20:55:52		x: 24.784601
20:55:53		x: 24.784601
20:55:54		x: 24.784601
20:55:55		x: 25.21834
20:55:56		x: 25.21834
20:55:57		x: 25.21834
20:55:58		x: 25.448622
20:55:59		x: 25.448622
20:56:00		x: 25.448622
20:56:01		x: 26.205364
