18:50:19		x: 2.0
18:50:19		x: 2.0
18:50:19		x: 2.0
18:50:20		x: 3.0
18:50:20		x: 1.0
18:50:20		x: 0.0
18:50:20		x: 0.0
18:50:20		x: 0.0
18:50:20		x: 0.0
18:50:21		x: 0.0
18:50:21		x: 0.0
18:50:21		x: 0.0
18:50:21		x: 0.0
18:50:21		x: 0.0
18:50:21		x: 0.0
18:50:22		x: 0.0
18:50:22		x: 0.0
18:50:22		x: 0.0
18:50:22		x: 0.0
18:50:22		x: 0.0
18:50:23		x: 0.0
18:50:23		x: 0.0
18:50:23		x: 0.0
18:50:23		x: 0.0
18:50:23		x: 0.0
18:50:23		x: 0.0
18:50:24		x: 0.0
18:50:24		x: 0.0
18:50:24		x: 0.0
18:50:24		x: 0.0
18:50:24		x: 0.0
18:50:24		x: 0.0
18:50:25		x: 0.0
18:50:25		x: 0.0
18:50:25		x: 0.0
18:50:25		x: 2.0
18:50:25		x: 3.0
18:50:26		x: 3.0
18:50:26		x: 3.0
18:50:26		x: 3.0
18:50:26		x: 3.0
18:50:26		x: 3.0
18:50:27		x: 3.0
18:50:27		x: 2.0
18:50:27		x: 2.0
18:50:27		x: 2.0
18:50:27		x: 2.0
18:50:27		x: 3.0
18:50:28		x: 3.0
18:50:28		x: 3.0
18:50:28		x: 3.0
