18:50:19		x: -5.787384	y: 5.7484784	z: 8.3629465
18:50:19		x: -6.1129956	y: 7.1341224	z: 2.8461072
18:50:19		x: -2.9819782	y: 3.37762	z: 5.1780596
18:50:19		x: 1.2210429	y: 2.6635494	z: 11.171944
18:50:20		x: 16.411654	y: 2.9029696	z: 3.8115692
18:50:20		x: 10.251971	y: -2.1146786	z: -1.7663223
18:50:20		x: 10.366295	y: 0.61112	z: 0.6380547
18:50:20		x: 11.845313	y: -4.7135844	z: -0.48482585
18:50:20		x: 6.5577183	y: 0.14305355	z: -0.16938977
18:50:21		x: 11.240777	y: -5.1918263	z: 2.7042508
18:50:21		x: 10.490793	y: -3.4554317	z: 1.1139023
18:50:21		x: 5.954978	y: -4.5555673	z: 1.1617863
18:50:21		x: 5.6203885	y: -10.068216	z: -0.6619968
18:50:21		x: 7.2580223	y: -11.838729	z: -0.7374141
18:50:21		x: 5.98311	y: -8.409634	z: -0.64942724
18:50:22		x: 3.684078	y: -8.285135	z: -1.2623428
18:50:22		x: 2.4666264	y: -5.6784477	z: -2.6210523
18:50:22		x: 5.695207	y: -5.2642508	z: -2.682703
18:50:22		x: 5.7137623	y: -5.227141	z: -5.2923827
18:50:22		x: 6.7654157	y: -4.4167037	z: -7.838018
18:50:22		x: 5.498883	y: -2.1499932	z: -8.850765
18:50:23		x: 4.0785227	y: -2.1416135	z: -8.031948
18:50:23		x: 3.0262709	y: 0.56563014	z: -8.645462
18:50:23		x: 3.9947255	y: -1.7076644	z: -8.68796
18:50:23		x: 2.7407625	y: -0.3417723	z: -8.488044
18:50:23		x: 2.6928782	y: 0.8900445	z: -8.7125
18:50:24		x: 3.8480806	y: 0.107140526	z: -9.52174
18:50:24		x: 3.2956185	y: -4.1335893	z: -8.796896
18:50:24		x: 4.743512	y: -1.4095862	z: -8.25401
18:50:24		x: 4.7644615	y: -6.499659	z: -6.9862804
18:50:24		x: 5.7161565	y: -2.6928782	z: -6.564901
18:50:24		x: 3.6876693	y: -5.403115	z: -6.079477
18:50:25		x: 6.541558	y: -6.737882	z: -0.80086046
18:50:25		x: 6.83365	y: 2.4498668	z: -8.25401
18:50:25		x: 6.417658	y: 1.8429368	z: -8.366538
18:50:25		x: 9.767744	y: 2.7497406	z: -1.1127052
18:50:25		x: 2.8149827	y: 3.5577838	z: 4.1934443
18:50:26		x: 2.1589713	y: 3.9953241	z: 12.207436
18:50:26		x: 4.2179847	y: 6.2620344	z: 9.012374
18:50:26		x: 0.9271546	y: 4.4101195	z: 7.414244
18:50:26		x: 3.0819361	y: 4.4448357	z: 10.031107
18:50:26		x: 1.0307038	y: 3.7271736	z: 9.739613
18:50:26		x: 1.7998412	y: 3.6870706	z: 9.36073
18:50:27		x: 1.4191631	y: 4.6860514	z: 8.586804
18:50:27		x: 0.9504981	y: 5.0266266	z: 8.156446
18:50:27		x: 0.31543607	y: 5.5324016	z: 8.301894
18:50:27		x: 0.45429978	y: 5.137358	z: 8.429984
18:50:27		x: 0.53570265	y: 5.171476	z: 8.67958
18:50:28		x: 0.46208093	y: 5.197213	z: 8.522161
18:50:28		x: 0.4441244	y: 5.2660465	z: 8.727464
18:50:28		x: 0.31304187	y: 5.6096144	z: 7.536947
