18:50:19		x: -5.059	y: -29.032	z: -9.161
18:50:19		x: 6.005	y: -9.625	z: -24.786
18:50:19		x: 13.162	y: -9.942	z: -26.425
18:50:20		x: 11.599	y: -6.063	z: -33.959
18:50:20		x: -7.775	y: -6.063	z: -34.596
18:50:20		x: -33.464	y: -15.18	z: 20.878
18:50:20		x: -37.86	y: -6.382	z: 30.476
18:50:20		x: -36.213	y: 2.227	z: 30.05
18:50:20		x: -44.943	y: 4.182	z: 18.992
18:50:21		x: -36.828	y: 14.073	z: 23.931
18:50:21		x: -6.474	y: 43.531	z: 42.359
18:50:21		x: -30.503	y: 22.177	z: 26.469
18:50:21		x: 4.432	y: 59.512	z: 84.431
18:50:21		x: -15.153	y: 60.725	z: 130.812
18:50:21		x: -12.612	y: 61.72	z: 131.895
18:50:22		x: -7.284	y: 61.72	z: 130.398
18:50:22		x: -7.894	y: 57.893	z: 133.039
18:50:22		x: -5.911	y: 57.267	z: 134.518
18:50:22		x: -3.895	y: 51.794	z: 137.85
18:50:22		x: 1.232	y: 44.16	z: 142.849
18:50:23		x: 5.937	y: 37.565	z: 143.827
18:50:23		x: 7.257	y: 33.496	z: 143.827
18:50:23		x: 7.945	y: 30.05	z: 146.415
18:50:23		x: 11.183	y: 27.568	z: 144.917
18:50:23		x: 11.985	y: 28.021	z: 143.644
18:50:23		x: 15.339	y: 25.346	z: 142.744
18:50:24		x: 14.407	y: 22.909	z: 140.744
18:50:24		x: 12.417	y: 22.032	z: 142.201
18:50:24		x: 15.437	y: 28.244	z: 136.885
18:50:24		x: 33.288	y: 38.349	z: 85.807
18:50:24		x: 18.06	y: 28.591	z: 55.493
18:50:24		x: -67.651	y: -36.018	z: 49.597
18:50:25		x: -69.334	y: -33.924	z: 45.55
18:50:25		x: -116.716	y: -54.873	z: 54.498
18:50:25		x: -52.519	y: -30.868	z: 53.057
18:50:25		x: -31.248	y: -38.534	z: 47.595
18:50:25		x: -44.612	y: -46.917	z: 23.933
18:50:26		x: -48.272	y: -60.452	z: 13.812
18:50:26		x: -40.966	y: -58.341	z: 11.262
18:50:26		x: -42.607	y: -57.038	z: 11.262
18:50:26		x: -40.534	y: -56.221	z: 8.505
18:50:26		x: -41.925	y: -53.623	z: 8.505
18:50:26		x: -41.404	y: -52.299	z: 6.59
18:50:27		x: -36.843	y: -49.829	z: 5.474
18:50:27		x: -27.171	y: -38.36	z: -3.298
18:50:27		x: -24.395	y: -34.648	z: -6.703
18:50:27		x: -23.249	y: -33.528	z: -6.362
18:50:27		x: -24.261	y: -33.528	z: -7.196
18:50:28		x: -23.646	y: -33.158	z: -6.6
18:50:28		x: -23.286	y: -33.752	z: -6.6
18:50:28		x: -23.286	y: -33.355	z: -6.6
