10:43:31		x: 31.303785
10:43:32		x: 31.433567
10:43:33		x: 31.433567
10:43:34		x: 31.433567
10:43:35		x: 31.560148
10:43:36		x: 31.560148
10:43:37		x: 31.560148
10:43:38		x: 31.539299
10:43:39		x: 31.539299
10:43:40		x: 31.539299
10:43:41		x: 31.469109
10:43:42		x: 31.469109
10:43:43		x: 31.469109
10:43:43		x: 31.547493
10:43:45		x: 31.547493
10:43:45		x: 31.547493
10:43:46		x: 31.383549
10:43:47		x: 31.383549
10:43:48		x: 31.383549
10:43:49		x: 31.383549
10:43:50		x: 31.383549
10:43:51		x: 31.383549
10:43:52		x: 31.215973
10:43:53		x: 31.215973
10:43:54		x: 31.215973
10:43:55		x: 31.215973
10:43:56		x: 31.215973
10:43:57		x: 31.215973
10:43:58		x: 31.066015
10:43:59		x: 31.066015
10:44:00		x: 31.066015
10:44:01		x: 31.021473
10:44:02		x: 31.021473
10:44:03		x: 31.021473
10:44:04		x: 30.835657
10:44:05		x: 30.835657
