4 1:5690.74947235 2:5690.64130699 3:5690.67738208 4:0.0338263831977 5:0.00114422420024 6:0.0279524375454 7:-0.0325029451771 8:-2.39216054373e-13 9:0.0183485105851 10:0.000336667840693 11:0.0269099931084 12:-0.0322920159368 13:-1.59872115546e-14 14:0.0178669802741 15:0.000319228984115 16:0.0500501238967 17:-0.0507563674846 18:-4.97379915032e-14 19:0.0306225695029 20:0.00093774176296 21:0.0176572422228 22:-0.0129263017978 23:-2.87177689036e-14 24:0.0102075240778 25:0.0001041935478 26:0.0512801177991 27:-0.0477167038042 28:0.00275190722895 29:0.0320036990976 30:0.00102423675593 
4 1:5690.78374672 2:5690.58068555 3:5690.64890452 4:0.0633614731355 5:0.00401467627791 6:0.0478431288734 7:-0.0595947923216 8:-1.18423789293e-14 9:0.0325050210465 10:0.00105657639323 11:0.0503658720461 12:-0.0554451450334 13:-2.42768768051e-14 14:0.0327682592176 15:0.00107375881215 16:0.0559830908029 17:-0.0616117511076 18:-3.13823041627e-14 19:0.0400495872794 20:0.00160396944125 21:0.0783862571799 22:-0.0700041217261 23:-4.41128615118e-14 24:0.0486620596361 25:0.00236799604803 26:0.0247248711059 27:-0.0310449472424 28:0.00221399570368 29:0.0179263216207 30:0.00032135300685 
4 1:5690.64500297 2:5690.53008612 3:5690.60670719 4:0.0359558577039 5:0.00129282370322 6:0.034377758849 7:-0.0300575581753 8:-3.31586610021e-14 9:0.0196605625057 10:0.00038653771804 11:0.0355375984935 12:-0.0300470377665 13:-1.46253379777e-13 14:0.0198055321625 15:0.000392259104239 16:0.0606432351155 17:-0.0602039078471 18:-1.52766688188e-13 19:0.0365640573799 20:0.00133693029208 21:0.0237327425413 22:-0.0282943557856 23:-5.86197757002e-14 24:0.0183804236207 25:0.000337839972476 26:0.0157848606698 27:-0.0211145482648 28:-9.25131782547e-05 29:0.0110421083762 30:0.000121928157391 
4 1:5690.83599572 2:5690.73261018 3:5690.76701015 4:0.0323643179459 5:0.0010474490761 6:0.0275390265065 7:-0.0310781232017 8:-2.07241631263e-13 9:0.0179819300164 10:0.000323349807115 11:0.0270642020479 12:-0.0325367568669 13:-1.14871075615e-13 14:0.017987767211 15:0.000323559769238 16:0.0582868606796 17:-0.0582193134152 18:-7.51991062013e-14 19:0.0351473742192 20:0.0012353379145 21:0.0351717911537 22:-0.0310341614471 23:-6.30606677987e-14 24:0.0217202490488 25:0.00047176921874 26:0.0191191839501 27:-0.0160646983641 28:0.000404237864327 29:0.0106046623193 30:0.000112458862907 
4 1:5690.63739553 2:5690.47438401 3:5690.52937117 4:0.0508030371273 5:0.00258094858136 6:0.0362945559293 7:-0.0472804223749 8:-4.02640883597e-14 9:0.0256305746815 10:0.000656926358503 11:0.0398779770072 12:-0.0418715390511 13:-1.59872115546e-14 14:0.026198633088 15:0.000686368375682 16:0.0262581037383 17:-0.0412306731102 18:-4.02640883597e-14 19:0.0268459296727 20:0.000720703939994 21:0.106357593719 22:-0.0992747345971 23:-1.89478062869e-14 24:0.0640902512655 25:0.00410756030727 26:0.00907378234785 27:-0.0178532363443 28:0.00151229705792 29:0.0098485360356 30:9.69936620446e-05 
4 1:5690.66847651 2:5690.58969348 3:5690.61613751 4:0.0245909574384 5:0.000604715187737 6:0.0187986360794 7:-0.0231251844104 8:-2.28557913336e-13 9:0.0126632296596 10:0.000160357385412 11:0.0199238998403 12:-0.0219907846512 13:-1.26121335597e-13 14:0.0129561328983 15:0.000167861379679 16:0.0247205631782 17:-0.0266848564895 18:-4.26325641456e-14 19:0.016866977718 20:0.000284494937338 21:0.021475162791 22:-0.017545974054 23:-1.42108547152e-14 24:0.0144249398142 25:0.000208078888645 26:0.0382934757043 27:-0.0267401834207 28:0.000464430168215 29:0.0195969582713 30:0.000384040773487 
4 1:5690.77342702 2:5690.74672842 3:5690.75566543 4:0.00836211195525 5:6.99249163521e-05 6:0.00671446296138 7:-0.00751083801816 8:-2.14347058621e-13 9:0.00438928768495 10:1.92658463813e-05 11:0.00912387867498 12:-0.00918713080353 13:-1.11318361936e-13 14:0.00604076154861 15:3.64908000871e-05 16:0.0178435252247 17:-0.0182469165131 18:-8.40808903983e-14 19:0.0109902440603 20:0.000120785464504 21:0.0142854377415 22:-0.0146770539962 23:-4.08562073062e-14 24:0.00877190295567 25:7.69462814637e-05 26:0.099188140581 27:-0.0901018539797 28:-0.00539792800393 29:0.0580501987475 30:0.00336982557463 
4 1:5690.65745329 2:5690.63332596 3:5690.64174888 4:0.00746139943816 5:5.56724815758e-05 6:0.00630928896074 7:-0.0070747482196 8:-1.46845498724e-13 9:0.00492341998831 10:2.42400643813e-05 11:0.00846141386032 12:-0.00906628389657 13:-6.39488462184e-14 14:0.00578752438116 15:3.34954384625e-05 16:0.0182300432566 17:-0.0191836716897 18:-7.69754630407e-14 19:0.014180882025 20:0.000201097415008 21:0.0691439184761 22:-0.0677026721624 23:-3.90798504668e-14 24:0.0413677383461 25:0.00171128977587 26:0.0165763750102 27:-0.0233262528144 28:-0.000635724424331 29:0.0136876270765 30:0.000187351134986 
4 1:5690.64523594 2:5690.52781368 3:5690.56719586 4:0.0366583065633 5:0.00134383144009 6:0.0282913599318 7:-0.034634099376 8:-3.43428988951e-14 9:0.019000061889 10:0.000361002351786 11:0.0292548621965 12:-0.0328231738572 13:2.36847578587e-15 14:0.0190336332577 15:0.00036227919499 16:0.0378022597635 17:-0.0404957663081 18:-1.53950926081e-14 19:0.0253597653207 20:0.000643117697119 21:0.0367870962516 22:-0.0339914194447 23:-3.13823041627e-14 24:0.0226785955855 25:0.000514318697732 26:0.061607432914 27:-0.0927642388449 28:0.000688532965078 29:0.0476807619094 30:0.00227345505626 
4 1:5691.01138115 2:5690.83391614 3:5690.89343844 4:0.0554056051709 5:0.00306978108435 6:0.0427660361992 7:-0.0522258150718 8:-1.05397172471e-13 9:0.0286785647627 10:0.00082246007685 11:0.0448683776848 12:-0.0499909965219 13:-9.71075072205e-14 14:0.0291756342698 15:0.000851217635043 16:0.0590538030084 17:-0.0631033693777 18:-3.43428988951e-14 19:0.0393932340742 20:0.00155182689082 21:0.0443600602287 22:-0.0373352437329 23:-2.93098878501e-14 24:0.029293338126 25:0.000858099658565 26:0.00416222450674 27:-0.00560066167038 28:0.000693704084442 29:0.00370451892986 30:1.37234605017e-05 
4 1:5690.66842155 2:5690.61322988 3:5690.65042217 4:0.0174150879204 5:0.000303285287275 6:0.017433255191 7:-0.0181795744141 8:-2.56979622767e-13 9:0.0125017054713 10:0.000156292639691 11:0.0219657897611 12:-0.0158028451427 13:-1.18423789293e-13 14:0.0122504057302 15:0.000150072440555 16:0.0598887633841 17:-0.0631165795627 18:-9.11863177559e-14 19:0.0377925694147 20:0.00142827830296 21:0.0880335775296 22:-0.0879302717878 23:-6.63173220043e-14 24:0.0530010942418 25:0.00280911599082 26:0.0680029417206 27:-0.0456817561121 28:0.000970508245101 29:0.0345733338428 30:0.001195315413 
4 1:5690.77344094 2:5690.73135598 3:5690.74512362 4:0.0132739743799 5:0.000176198395838 6:0.0135021128848 7:-0.0130288395581 8:-5.09222293961e-14 9:0.0092569573527 10:8.56912594296e-05 11:0.0128742628917 12:-0.0168257392684 13:-9.11863177559e-14 14:0.00921420664302 15:8.49016040602e-05 16:0.0475398392841 17:-0.0454091560863 18:-5.74355378073e-14 19:0.0284024536935 20:0.000806699375812 21:0.073485149096 22:-0.0714274871677 23:1.2730557349e-14 24:0.0437403743824 25:0.00191322035112 26:0.0689348917549 27:-0.0488223926154 28:-0.00198984209624 29:0.0413964860126 30:0.00171366905419 
4 1:5690.82062652 2:5690.80760852 3:5690.81608361 4:0.00403437640316 5:1.62761929623e-05 6:0.00437276735364 7:-0.00393527538538 8:-1.62240591332e-13 9:0.00295930753123 10:8.75750106442e-06 11:0.00334740250424 12:-0.00320594390807 13:-1.48029736617e-13 14:0.00212595890215 15:4.51970125362e-06 16:0.0136300199857 17:-0.0117684712597 18:-4.32246830921e-14 19:0.00920988658211 20:8.48220108553e-05 21:0.0425575786907 22:-0.0443700791219 23:-1.14871075615e-13 24:0.02648723167 25:0.00070157344154 26:0.0404713889032 27:-0.026363354562 28:-0.00233857657925 29:0.025054077503 30:0.000627706799529 
4 1:5690.85275161 2:5690.7816248 3:5690.82900511 4:0.0222399046101 5:0.000494613357068 6:0.0211911273191 7:-0.0181835733756 8:-1.91846538655e-13 9:0.0119448099391 10:0.000142678484482 11:0.0213929409936 12:-0.0183508701372 13:4.38168020385e-14 14:0.0120279687731 15:0.000144672032806 16:0.0338176380074 17:-0.0331630059811 18:-1.0894988615e-13 19:0.0204153913678 20:0.000416788204701 21:0.00898248791543 22:-0.013102745425 23:-6.09882514861e-14 24:0.00812610374597 25:6.60335620903e-05 26:0.0206703808389 27:-0.0274912456027 28:-0.000444866542734 29:0.0144253366418 30:0.00020809033723 
4 1:5690.97086052 2:5690.8725798 3:5690.93787969 4:0.030674632323 5:0.000940933068154 6:0.0290417280439 7:-0.0234745265525 8:-1.10134124043e-13 9:0.0158730554254 10:0.000251953888539 11:0.0268771570096 12:-0.0238377832085 13:-6.27646083255e-14 14:0.0155217927423 15:0.000240926049934 16:0.030569916997 17:-0.0281644703058 18:-7.16463925225e-14 19:0.0195032140487 20:0.000380375358229 21:0.0279023114936 22:-0.033363451886 23:-1.21680443499e-13 24:0.0218572090332 25:0.00047773758672 26:0.05137809967 27:-0.0421007388973 28:-0.00302270045236 29:0.0352976752602 30:0.00124592587877 
4 1:5690.94317346 2:5690.9149727 3:5690.92446497 4:0.00879243655835 5:7.73069406327e-05 6:0.00643334876651 7:-0.0083675222583 8:-1.7763568394e-14 9:0.00453809050312 10:2.05942654145e-05 11:0.00613573645653 12:-0.00697675042394 13:-4.20404451991e-14 14:0.00400568562396 15:1.6045517318e-05 16:0.00365046361179 17:-0.00620132257085 18:-6.86857977901e-14 19:0.00393423627711 20:1.54782150841e-05 21:0.0214551155659 22:-0.0201440434747 23:-3.25665420557e-14 24:0.0129476890877 25:0.000167642652711 26:0.0372312257575 27:-0.0360950870307 28:0.00207127363592 29:0.0236437687504 30:0.000559027800723 
4 1:5690.82876227 2:5690.69383466 3:5690.78375991 4:0.042204447458 5:0.00178121538524 6:0.0402782611088 7:-0.0349287308562 8:6.75015598972e-14 9:0.0228833541817 10:0.000523647898607 11:0.0412409565377 12:-0.0351289860384 13:-4.14483262527e-15 14:0.0230834425372 15:0.00053284531937 16:0.0681803632058 17:-0.0673179806079 18:-1.53950926081e-14 19:0.0411103213036 20:0.00169005851769 21:0.0171701709842 22:-0.0212437782342 23:-7.22385114689e-14 24:0.0148970536427 25:0.000221922207233 26:0.0347266431463 27:-0.0239844327647 28:0.000330498101266 29:0.017721020491 30:0.000314034567241 
4 1:5690.80895999 2:5690.80543323 3:5690.80659823 4:0.00121974902709 5:1.48778768909e-06 6:0.00577246376623 7:-0.00622530602373 8:-1.24344978758e-13 9:0.00385880372361 10:1.48903661773e-05 11:0.00435200915 12:-0.00514953273128 13:-1.16647432454e-13 14:0.00354371375569 15:1.25579071823e-05 16:0.0258814443185 17:-0.0235569032671 18:-5.50670620214e-14 19:0.0160673430064 20:0.000258159511286 21:0.0592023623806 22:-0.0589932785764 23:-4.76655751906e-14 24:0.0355929654432 25:0.00126685918904 26:0.031415958365 27:-0.0204405349125 28:-0.000882578342127 29:0.0181659324489 30:0.000330001101737 
4 1:5691.08643338 2:5690.99433262 3:5691.02478996 4:0.0288930513195 5:0.000834808414554 6:0.0263009605863 7:-0.0281968605332 8:-1.59872115546e-13 9:0.0172252788316 10:0.000296710230826 11:0.0243442700221 12:-0.0310617925168 13:-1.33226762955e-13 14:0.0169473863984 15:0.000287213905738 16:0.0669147847895 17:-0.065212232833 18:-6.15803704325e-14 19:0.0398977120521 20:0.00159182742699 21:0.0669024764612 22:-0.0630690108398 23:-4.23365046724e-14 24:0.039863803476 25:0.00158912282757 26:0.0222578788466 27:-0.0238483892697 28:0.00125087122167 29:0.0182749820382 30:0.000333974968497 
4 1:5690.99835766 2:5690.79680845 3:5690.93105941 4:0.0630099981291 5:0.00397025986423 6:0.060249690779 7:-0.0513805653061 8:-1.01844458792e-13 9:0.0338144917821 10:0.00114341985448 11:0.0596911087865 12:-0.0506567796539 13:-1.53950926081e-14 14:0.0333419251078 15:0.00111168396989 16:0.0909876493222 17:-0.0889952723957 18:3.90798504668e-14 19:0.054979583716 20:0.00302275462559 21:0.0232849220827 22:-0.0272478411933 23:2.07241631263e-15 24:0.0153349339602 25:0.000235160199563 26:0.0880982754462 27:-0.0713294037017 28:-0.00297769086519 29:0.0548409806203 30:0.0030075331554 
4 1:5690.90842901 2:5690.90311826 3:5690.90621075 4:0.00176250627336 5:3.10642836364e-06 6:0.00916377672084 7:-0.00941055146855 8:-1.69346018689e-13 9:0.00562067226435 10:3.15919567033e-05 11:0.00881213360614 12:-0.00946241935744 13:-1.46845498724e-13 14:0.00567988805407 15:3.22611283068e-05 16:0.0362265977867 17:-0.0322535946145 18:-4.55931588779e-14 19:0.0231572163553 20:0.000536256669325 21:0.0938433183544 22:-0.0932935355341 23:-3.61192557345e-14 24:0.0563469540742 25:0.00317497923344 26:0.0591809262803 27:-0.0450307423071 28:0.000139326977039 29:0.0306702410658 30:0.000940663687035 
4 1:5690.87630521 2:5690.79563423 3:5690.84911663 4:0.0251481067592 5:0.000632427273571 6:0.023436871446 7:-0.0181891433928 8:-1.9776772812e-13 9:0.0127094995416 10:0.000161531378598 11:0.0210737703612 12:-0.0199135940154 13:-1.04212934578e-13 14:0.0130474676265 15:0.000170236411463 16:0.0197998532558 17:-0.0153422655499 18:-3.78956125739e-14 19:0.0138469277272 20:0.000191737407482 21:0.0451130755618 22:-0.0480652685589 23:2.84217094304e-14 24:0.02896684171 25:0.000839077918653 26:0.0177596637425 27:-0.0129882774172 28:-0.000321304897531 29:0.00919931626411 30:8.46274197272e-05 
4 1:5690.9922279 2:5690.95956268 3:5690.97032376 4:0.0102755633123 5:0.000105587201385 6:0.00977890581098 7:-0.00989100296023 8:-1.11318361936e-13 9:0.00653842742013 10:4.27510331283e-05 11:0.0100038618826 12:-0.0122957450006 13:-1.26713454544e-13 14:0.00675011760297 15:4.5564087654e-05 16:0.0312472867051 17:-0.0302483806987 18:-3.61192557345e-14 19:0.0186302743659 20:0.000347087122949 21:0.0431809191037 22:-0.041833126485 23:-5.38828241285e-14 24:0.0256824970685 25:0.000659590655674 26:0.0460920350153 27:-0.0476415030564 28:-0.00219695273553 29:0.0336826867908 30:0.00113452338944 
4 1:5690.95823205 2:5690.89941684 3:5690.9192262 4:0.018343318674 5:0.000336477339975 6:0.0134374625751 7:-0.0169401557822 8:-1.80004159726e-13 9:0.00921179385398 10:8.48571460082e-05 11:0.0156243722441 12:-0.016190673367 13:4.32246830921e-14 14:0.0102880325762 15:0.000105843614289 16:0.0157288925572 17:-0.0177760114818 18:-2.42768768051e-14 19:0.0120170306683 20:0.000144409026084 21:0.0240146303625 22:-0.0224283227013 23:-8.28966525053e-15 24:0.0145156340942 25:0.000210703633155 26:0.0443135820707 27:-0.0392793300773 28:-0.0022530387321 29:0.0260813279091 30:0.000680235665502 
4 1:5690.97440437 2:5690.95167654 3:5690.96702574 4:0.00716357026451 5:5.13167389346e-05 6:0.00797525178652 7:-0.00770470746671 8:-2.60532336445e-13 9:0.00507552904815 10:2.57609951186e-05 11:0.00867198547707 12:-0.00765128818073 13:-8.76336040771e-14 14:0.00589213916091 15:3.47173038915e-05 16:0.0113108058388 17:-0.0121047586771 18:-8.64493661841e-14 19:0.0073133621521 20:5.34852659678e-05 21:0.0193038117093 22:-0.0216542600621 23:0.00109957489705 24:0.0127456617925 25:0.00016245189453 26:0.0286787759252 27:-0.0192300441747 28:-0.00573575518509 29:0.0177545713109 30:0.000315224802433 
