17:29:38		x: 24.691715
17:29:39		x: 24.691715
17:29:40		x: 24.581926
17:29:41		x: 24.581926
17:29:42		x: 24.581926
17:29:43		x: 24.510561
17:29:43		x: 24.510561
17:29:44		x: 24.510561
17:29:45		x: 24.43957
17:29:46		x: 24.43957
17:29:47		x: 24.43957
17:29:48		x: 24.43957
17:29:49		x: 24.43957
17:29:50		x: 24.43957
17:29:51		x: 24.43957
17:29:52		x: 24.43957
17:29:53		x: 24.43957
17:29:54		x: 24.391668
17:29:55		x: 24.391668
17:29:56		x: 24.391668
