8 1:5325.76096023 2:5325.60920318 3:5325.65995646 4:0.0474264865797 5:0.00224927162929 6:0.0379865348862 7:-0.0449317818186 8:-1.82372635512e-13 9:0.025078986839 10:0.000628955580871 11:0.0393095130566 12:-0.0448429171861 13:-1.172395514e-13 14:0.025616578447 15:0.000656209091332 16:0.0646231191073 17:-0.0667915159578 18:-6.86857977901e-14 19:0.0405195271345 20:0.00164183207921 21:0.02072073509 22:-0.0189036450234 23:-9.44429719614e-14 24:0.0120587472938 25:0.000145413386295 26:0.0162162719508 27:-0.0132296503138 28:-0.000638732507469 29:0.00960394746482 30:9.22358069071e-05 
8 1:5325.76283401 2:5325.6688682 3:5325.7314406 4:0.0293744261184 5:0.000862856909788 6:0.0279402866026 7:-0.0238158194323 8:-5.68434188608e-14 9:0.0156770053191 10:0.000245768495775 11:0.0280067625991 12:-0.02419380104 13:-5.68434188608e-14 14:0.0158226797479 15:0.000250357194406 16:0.0430585380275 17:-0.0419943081008 18:-1.49806093456e-13 19:0.0260345450675 20:0.000677797536871 21:0.0110395884034 22:-0.0139768866817 23:-1.00364161426e-13 24:0.00786719141948 25:6.18927008307e-05 26:0.00372367278974 27:-0.00200013128696 28:-0.000197127225036 29:0.00201288787302 30:4.05171758936e-06 
8 1:5325.4987848 2:5325.45769333 3:5325.47174798 4:0.0127595760573 5:0.000162806781161 6:0.00732585348026 7:-0.0113909864938 8:7.81597009336e-14 9:0.0066271628813 10:4.39192878553e-05 11:0.00981134320359 12:-0.00926276518181 13:-1.01844458792e-13 14:0.00739302720297 15:5.46568512238e-05 16:0.0159159445332 17:-0.0160202512764 18:-1.05397172471e-13 19:0.0104460544968 20:0.000109120054551 21:0.0616088484317 22:-0.0591450023457 23:2.48689957516e-14 24:0.0367909857623 25:0.00135357663336 26:0.0326186383409 27:-0.0213261215274 28:-0.000221195131974 29:0.0178857406824 30:0.000319899719759 
8 1:5326.04360251 2:5325.78434356 3:5325.87063807 4:0.0811503696255 5:0.00658538249036 6:0.0687789169956 7:-0.0778487520992 8:-2.0605739337e-13 9:0.044923088102 10:0.00201808384462 11:0.0678625894777 12:-0.0812796750333 13:-6.86857977901e-14 14:0.0450103975021 15:0.0020259358833 16:0.143859778553 17:-0.14398626431 18:-9.59232693276e-14 19:0.0868825122843 20:0.00754857094082 21:0.0709384098287 22:-0.0644398988613 23:-7.43109277816e-14 24:0.043658698887 25:0.00190608198851 26:0.0823746285997 27:-0.122484612924 28:-0.000667976762764 29:0.0617079292282 30:0.00380786852963 
8 1:5325.60471049 2:5325.25372629 3:5325.4887026 4:0.110111577476 5:0.0121245594942 6:0.10797601928 7:-0.100703950239 8:-1.74082970261e-13 9:0.065942269445 10:0.00434838289955 11:0.117729212814 12:-0.0907382336636 13:-4.79616346638e-14 14:0.0642492471318 15:0.00412796575701 16:0.246151311379 17:-0.253109928862 18:-6.03961325396e-14 19:0.150859811933 20:0.0227586828565 21:0.231249707301 22:-0.245064212047 23:-4.64813372976e-14 24:0.146210743177 25:0.0213775814204 26:0.1722787476 27:-0.170081268857 28:-0.00924865735253 29:0.104908520524 30:0.0110057976786 
8 1:5325.43735091 2:5325.27594507 3:5325.38286112 4:0.0502978858962 5:0.00252987732563 6:0.0463696343587 7:-0.0356106024085 8:-1.69346018689e-13 9:0.0251318926807 10:0.000631612029714 11:0.0421662845473 12:-0.0413449500499 13:1.48029736617e-14 14:0.0274390111138 15:0.000752899330905 16:0.0427250580626 17:-0.0286255831652 18:-1.06581410364e-14 19:0.028295938577 20:0.000800660139956 21:0.0665432605911 22:-0.0810030748591 23:-6.80936788437e-14 24:0.0522585101529 25:0.0027309518834 26:0.260681952324 27:-0.391354010809 28:-5.05395308847e-05 29:0.199910976288 30:0.0399643984406 
8 1:5325.23987761 2:5324.58088072 3:5325.02023258 4:0.206209878386 5:0.0425225139439 6:0.196310592874 7:-0.172243218904 8:-5.80276567537e-14 9:0.112612143109 10:0.0126814947757 11:0.206142297855 12:-0.176655628844 13:-8.881784197e-14 14:0.115800850264 15:0.0134098369218 16:0.359285764227 17:-0.356443806253 18:-2.13162820728e-14 19:0.216568191993 20:0.0469017817829 21:0.138701224964 22:-0.150410216557 23:-5.03301104497e-14 24:0.0924095694946 25:0.00853952853418 26:0.388046473327 27:-0.315035718051 28:0.0145434360832 29:0.243885778587 30:0.059480272997 
8 1:5325.05002071 2:5324.61383876 3:5324.75853178 4:0.136744485041 5:0.0186990541891 6:0.12067054132 7:-0.131123880191 8:-1.03028696685e-13 9:0.0788885331924 10:0.00622340066924 11:0.12183838289 12:-0.146577420586 13:-4.4408920985e-14 14:0.0810145825531 15:0.00656336258625 16:0.303800938928 17:-0.299549944946 18:-1.02436577739e-13 19:0.181788098437 20:0.0330469127333 21:0.270126074139 22:-0.260498234881 23:-5.89158351734e-14 24:0.161131029442 25:0.025963208649 26:0.265899605765 27:-0.206736818221 28:-0.0145253068787 29:0.151812192453 30:0.0230469417774 
8 1:5325.35616402 2:5324.8613328 3:5325.0270234 4:0.154535552692 5:0.0238812370458 6:0.121495981891 7:-0.147642581197 8:2.60532336445e-14 9:0.081242439571 10:0.00660033398745 11:0.117930593225 12:-0.137756125695 13:-1.63424829225e-13 14:0.0773909954827 15:0.0059893661818 16:0.162659536489 17:-0.171748759969 18:-8.76336040771e-14 19:0.106085730161 20:0.0112541821438 21:0.143530838534 22:-0.126067223474 23:-3.37507799486e-14 24:0.0921007738006 25:0.00848255253466 26:0.374865928824 27:-0.316347335013 28:0.018441226997 29:0.251237004149 30:0.0631200322539 
8 1:5324.80528908 2:5324.35564837 3:5324.65705162 4:0.141184805339 5:0.0199331492586 6:0.139479533348 7:-0.132540956482 8:-7.69754630407e-14 9:0.0871797306206 10:0.00760030543108 11:0.154558682108 12:-0.11599815854 13:-1.04212934578e-13 14:0.0847135702885 15:0.00717638899102 16:0.340007834127 17:-0.352155826351 18:-1.0894988615e-13 19:0.20983887815 20:0.0440323547832 21:0.347616688652 22:-0.359049525274 23:-3.78956125739e-14 24:0.214433613419 25:0.0459817745641 26:0.317957147312 27:-0.332619606464 28:-0.0126711587206 29:0.223527692163 30:0.0499646291639 
8 1:5324.57684911 2:5323.70134027 3:5324.28235053 4:0.273094404087 5:0.0745805535434 6:0.255512291865 7:-0.202929261837 8:1.30266168223e-14 9:0.138997620068 10:0.0193203383847 11:0.236580262458 12:-0.219262939963 13:-9.88838640599e-14 14:0.14295988027 15:0.0204375273667 16:0.24761735353 17:-0.220153286876 18:-4.73695157173e-15 19:0.16664437026 20:0.0277703461395 21:0.362109506675 22:-0.393611653772 23:-3.61192557345e-14 24:0.239706434567 25:0.0574591747726 26:0.14868352985 27:-0.116692641513 28:-0.000644179249737 29:0.078414451574 30:0.00614882621565 
8 1:5325.19093733 2:5324.72024513 3:5324.87637187 4:0.147564399854 5:0.0217752521042 6:0.130329955266 7:-0.141611096554 8:-1.18423789293e-15 9:0.0852021213643 10:0.00725940148498 11:0.131049518271 12:-0.158052904536 13:-1.39740071366e-13 14:0.08726819694 15:0.00761573819716 16:0.327547525865 17:-0.322826245493 18:-1.2908193033e-13 19:0.195961877634 20:0.038401057486 21:0.297672817934 22:-0.284843294727 23:-5.00340509764e-14 24:0.177366048547 25:0.0314587151771 26:0.250382973908 27:-0.220785710263 28:-0.0137249047051 29:0.144518879535 30:0.0208857065421 
8 1:5325.28002651 2:5324.33736227 3:5324.6542449 4:0.294090304071 5:0.0864891069486 6:0.220328209667 7:-0.276016684443 8:-2.49874195409e-13 9:0.150325998917 10:0.0225979059505 11:0.23427149206 12:-0.25570596343 13:-1.68161780797e-13 14:0.152520000019 15:0.0232623504059 16:0.246802673644 17:-0.274625503354 18:-3.43428988951e-14 19:0.181613123729 20:0.0329833267105 21:0.401696070093 22:-0.366720101329 23:-7.28306304154e-14 24:0.245909406978 25:0.0604714364403 26:0.111731447514 27:-0.175839846351 28:0.00642708950602 29:0.100279883121 30:0.0100560549588 
8 1:5324.42920555 2:5324.19301962 3:5324.3516284 4:0.07433608399 5:0.00552585338297 6:0.0728125000445 7:-0.0726907378672 8:-2.25005199657e-13 9:0.0487988480699 10:0.00238132757295 11:0.0889808369428 12:-0.0686576226699 13:-3.13823041627e-14 14:0.048640425455 15:0.00236589098844 16:0.222538494263 17:-0.231644886848 18:-6.15803704325e-14 19:0.138181401634 20:0.0190940997577 21:0.303735478154 22:-0.310363367284 23:-4.61852778244e-14 24:0.185274391975 25:0.0343266003218 26:0.125454731117 27:-0.129653734278 28:0.00757545617331 29:0.085074636156 30:0.00723769371707 
8 1:5323.79444164 2:5323.50128946 3:5323.69752273 4:0.0919405376605 5:0.00845306246531 6:0.0905616930385 7:-0.0837420316878 8:-1.24344978758e-13 9:0.0547417164848 10:0.0029966555237 11:0.0963889672108 12:-0.073103382901 13:8.881784197e-15 14:0.0526809267988 15:0.00277528004838 16:0.195353005903 17:-0.200834701635 18:-1.18423789293e-15 19:0.119693360172 20:0.0143265004693 21:0.156614065781 22:-0.164297983182 23:-1.09542005096e-14 24:0.098464483941 25:0.00969525459776 26:0.259849294156 27:-0.285099886074 28:-0.0118079750499 29:0.19098461705 30:0.0364751239496 
8 1:5324.05056965 2:5323.45253581 3:5323.84882441 4:0.18637492026 5:0.0347356109018 6:0.173406030213 7:-0.133000305924 8:-1.65793305011e-14 9:0.0940028296234 10:0.00883653197721 11:0.153445691561 12:-0.146296137768 13:-9.11863177559e-14 14:0.0961464688675 15:0.0092441434757 16:0.151510144627 17:-0.0951256852528 18:-4.91458725567e-14 19:0.0982012028506 20:0.0096434762413 21:0.341176742205 22:-0.375573876152 23:-8.05281767195e-14 24:0.228192309267 25:0.0520717300085 26:0.28152671001 27:-0.390977421091 28:-0.00865292211689 29:0.205781311839 30:0.0423459483022 
8 1:5323.87109781 2:5323.00839177 3:5323.58260813 4:0.269641573529 5:0.0727065781751 6:0.254887460267 7:-0.216425151152 8:-8.40808903983e-14 9:0.1426608181 10:0.0203521090209 11:0.257613012205 12:-0.227249559334 13:-1.65793305011e-13 14:0.147903454793 15:0.0218754319396 16:0.39390844774 17:-0.38189309464 18:-5.62512999143e-14 19:0.238646106843 20:0.0569519643111 21:0.0813754348181 22:-0.0981756279422 23:-7.4903046728e-14 24:0.0547523225171 25:0.00299781682101 26:0.257459279473 27:-0.28955732613 28:0.0143671892697 29:0.20415309237 30:0.0416784851244 
8 1:5323.68392807 2:5323.17392796 3:5323.34353688 4:0.159719895972 5:0.0255104451693 6:0.136913313665 7:-0.152651090874 8:-4.61852778244e-14 9:0.0893606372445 10:0.00798532348874 11:0.138921232651 12:-0.164769426098 13:-4.85537536103e-14 14:0.0916797979289 15:0.00840518534829 16:0.311397349382 17:-0.310196883843 18:-3.13823041627e-14 19:0.187389175662 20:0.0351147031555 21:0.228070483485 22:-0.210569101501 23:-4.64813372976e-14 24:0.136832954304 25:0.0187232573837 26:0.187842254163 27:-0.198108943477 28:-0.0100825479451 29:0.128286497267 30:0.016457425381 
8 1:5323.616534 2:5323.25840023 3:5323.37912912 4:0.111650442805 5:0.0124658213787 6:0.080669073117 7:-0.103369880519 8:-1.61056353439e-13 9:0.0560749099805 10:0.00314439552932 11:0.0919663638372 12:-0.0955047113413 13:-8.82257230235e-14 14:0.0605676742438 15:0.00366844316331 16:0.0774894698565 17:-0.0909576964479 18:7.63833440942e-14 19:0.0660606408196 20:0.00436400826549 21:0.190195510492 22:-0.178983542557 23:-5.35867646552e-14 24:0.114529748801 25:0.0131170633604 26:0.150576293912 27:-0.127982565765 28:-0.00710308276276 29:0.0924916314511 30:0.00855470188849 
8 1:5323.36629847 2:5323.12479135 3:5323.28603 4:0.0756457104413 5:0.00572227350817 6:0.0725128314636 7:-0.0652661015363 8:-2.29742151229e-13 9:0.0425952145291 10:0.00181435230078 11:0.0782163119239 12:-0.0652897495931 13:-4.79616346638e-14 14:0.0433091806542 15:0.00187568512894 16:0.14858297237 17:-0.149563350227 18:-4.32246830921e-14 19:0.0898473374581 20:0.00807254404831 21:0.104152947226 22:-0.112588959753 23:-4.91458725567e-14 24:0.0675172331902 25:0.00455857677766 26:0.0660043324702 27:-0.0618921311056 28:0.00331221627991 29:0.0442069671411 30:0.00195425594381 
8 1:5323.44403777 2:5323.37001166 3:5323.39458904 4:0.0231967372466 5:0.000538088618888 6:0.0202608735085 7:-0.0222686234013 8:1.18423789293e-15 9:0.0132288694832 10:0.000175002987803 11:0.0202182719382 12:-0.0243735412095 13:-9.71075072205e-14 14:0.013459763319 15:0.000181165228603 16:0.0484994790224 17:-0.0479577001567 18:-5.56591809679e-14 19:0.0290595981146 20:0.000844460242584 21:0.0433569804883 22:-0.0399968128463 23:1.00660220899e-14 24:0.0258991595982 25:0.000670766467896 26:0.0537731447566 27:-0.0342628489823 28:-0.000972620470559 29:0.0300319729199 30:0.000901919397461 
8 1:5323.33491433 2:5323.20290891 3:5323.24727193 4:0.0411872284041 5:0.00169638778361 6:0.0309757822561 7:-0.0386325040602 8:-4.73695157173e-14 9:0.0210639222357 10:0.000443688819953 11:0.0331214210792 12:-0.0361223406936 13:-3.13823041627e-14 14:0.0215608500452 15:0.000464870254674 16:0.0364393285048 17:-0.0402304033195 18:-8.05281767195e-14 19:0.0262587060535 20:0.000689519643605 21:0.0521287814118 22:-0.047573147998 23:-1.56911520814e-14 24:0.0319654288024 25:0.00102178863852 26:0.022677652562 27:-0.0309369544895 28:0.000176370186005 29:0.0158092765033 30:0.000249933223558 
8 1:5323.30782717 2:5323.18085551 3:5323.22368994 4:0.0395698011718 5:0.00156576916478 6:0.0282275090604 7:-0.0368249479617 8:-9.94759830064e-14 9:0.0199628970282 10:0.000398517257757 11:0.0310014214099 12:-0.0325328774908 13:-1.37963714527e-13 14:0.0203720061639 15:0.000415018635144 16:0.0199361818138 17:-0.0322215440089 18:-5.62512999143e-14 19:0.0207924536521 20:0.000432326128876 21:0.0845319542202 22:-0.0792084088705 23:1.42108547152e-14 24:0.0508902944328 25:0.00258982206746 26:0.00990471036918 27:-0.014207106392 28:0.00120207379885 29:0.00862642572539 30:7.44152207956e-05 
8 1:5323.12825209 2:5323.06107966 3:5323.1064453 4:0.0211724808127 5:0.000448273943766 6:0.023586180682 7:-0.0227781538839 8:-1.65793305011e-14 9:0.0150031075455 10:0.000225093236021 11:0.025725957949 12:-0.0227189246847 13:-6.03961325396e-14 14:0.0174510064059 15:0.000304537624579 16:0.0332032444329 17:-0.0355394696671 18:2.01320441799e-14 19:0.0214750403597 20:0.000461177358449 21:0.0571314184066 22:-0.0642044411978 23:0.00326154028172 24:0.0377894017561 25:0.00142803888508 26:0.0282948380045 27:-0.0188683963435 28:-0.00565896760092 29:0.0174941513203 30:0.000306045330417 
