18:00:29		x: 41.822285
18:00:30		x: 41.822285
18:00:31		x: 41.822285
18:00:32		x: 43.34649
18:00:33		x: 43.34649
18:00:34		x: 43.34649
18:00:35		x: 42.91844
18:00:36		x: 42.91844
18:00:37		x: 42.91844
18:00:38		x: 42.014214
18:00:39		x: 42.014214
18:00:40		x: 42.014214
18:00:41		x: 40.94198
18:00:42		x: 40.94198
18:00:43		x: 40.94198
