18:14:54		x: 25.183846
18:14:55		x: 25.183846
18:14:56		x: 25.183846
18:14:57		x: 25.162352
18:14:58		x: 25.162352
18:14:59		x: 25.162352
18:15:00		x: 25.162352
18:15:01		x: 25.162352
18:15:02		x: 25.162352
18:15:03		x: 25.162352
18:15:04		x: 25.162352
18:15:05		x: 25.162352
18:15:06		x: 25.162352
18:15:07		x: 25.162352
18:15:08		x: 25.162352
18:15:09		x: 25.162352
