18:14:54		x: 940.81
18:14:55		x: 940.96
18:14:55		x: 940.85
18:14:55		x: 940.87
18:14:55		x: 940.9
18:14:55		x: 940.9
18:14:55		x: 940.87
18:14:56		x: 940.91
18:14:56		x: 940.93
18:14:56		x: 941.0
18:14:56		x: 940.91
18:14:56		x: 940.97
18:14:57		x: 941.02
18:14:57		x: 940.96
18:14:57		x: 940.9
18:14:57		x: 940.95
18:14:57		x: 940.96
18:14:57		x: 940.96
18:14:58		x: 941.01
18:14:58		x: 940.98
18:14:58		x: 940.97
18:14:58		x: 940.97
18:14:58		x: 940.97
18:14:58		x: 940.99
18:14:59		x: 940.99
18:14:59		x: 940.98
18:14:59		x: 940.97
18:14:59		x: 940.99
18:14:59		x: 940.96
18:15:00		x: 941.06
18:15:00		x: 940.96
18:15:00		x: 940.72
18:15:00		x: 940.86
18:15:00		x: 940.99
18:15:00		x: 940.97
18:15:01		x: 941.02
18:15:01		x: 941.0
18:15:01		x: 940.98
18:15:01		x: 940.98
18:15:01		x: 940.96
18:15:01		x: 940.93
18:15:02		x: 940.95
18:15:02		x: 940.93
18:15:02		x: 941.03
18:15:02		x: 940.95
18:15:02		x: 940.95
18:15:03		x: 940.97
18:15:03		x: 940.94
18:15:03		x: 941.0
18:15:03		x: 940.97
18:15:03		x: 940.97
18:15:03		x: 941.04
18:15:04		x: 940.93
18:15:04		x: 940.93
18:15:04		x: 940.92
18:15:04		x: 940.95
18:15:04		x: 940.98
18:15:05		x: 940.92
18:15:05		x: 940.95
18:15:05		x: 940.89
18:15:05		x: 940.91
18:15:05		x: 940.95
18:15:05		x: 940.92
18:15:06		x: 940.93
18:15:06		x: 940.9
18:15:06		x: 940.93
18:15:06		x: 940.95
18:15:06		x: 940.95
18:15:07		x: 940.86
18:15:07		x: 940.87
18:15:07		x: 940.89
18:15:07		x: 940.9
18:15:07		x: 940.86
18:15:07		x: 940.86
18:15:08		x: 940.86
18:15:08		x: 940.93
18:15:08		x: 940.86
18:15:08		x: 940.89
18:15:08		x: 940.94
18:15:09		x: 940.93
18:15:09		x: 940.94
18:15:09		x: 940.85
18:15:09		x: 940.89
18:15:09		x: 940.95
18:15:09		x: 940.89
18:15:10		x: 940.87
