18:44:41		x: -36.076	y: -0.181	z: -30.473
18:44:41		x: -39.648	y: 0.746	z: -28.259
18:44:42		x: -49.163	y: 3.494	z: -18.701
18:44:42		x: -46.824	y: 19.619	z: -5.201
18:44:42		x: -43.582	y: 21.414	z: -5.702
18:44:42		x: -43.215	y: 21.414	z: -3.778
18:44:42		x: 1.528	y: 61.181	z: 41.635
18:44:43		x: 11.102	y: 71.29	z: 39.797
18:44:43		x: 20.15	y: 75.062	z: 56.428
18:44:43		x: 25.186	y: 61.16	z: 40.531
18:44:43		x: 27.92	y: 73.605	z: 64.939
18:44:43		x: 26.589	y: 74.345	z: 65.274
18:44:43		x: 19.662	y: 73.019	z: 89.985
18:44:44		x: 80.126	y: 58.341	z: 112.263
18:44:44		x: 80.126	y: 56.91	z: 115.019
18:44:44		x: 81.169	y: 54.806	z: 115.019
18:44:44		x: 81.169	y: 54.806	z: 114.404
18:44:44		x: 80.531	y: 54.806	z: 112.419
18:44:45		x: 80.198	y: 53.947	z: 111.726
18:44:45		x: 79.09	y: 53.947	z: 111.398
18:44:45		x: 78.759	y: 53.021	z: 111.398
18:44:45		x: 79.948	y: 53.907	z: 113.984
18:44:45		x: 79.374	y: 54.281	z: 114.337
18:44:45		x: 79.846	y: 53.833	z: 113.99
18:44:46		x: 80.798	y: 53.334	z: 112.995
18:44:46		x: 80.798	y: 53.9	z: 112.995
18:44:46		x: 80.798	y: 53.9	z: 113.803
18:44:46		x: 80.798	y: 54.338	z: 114.144
18:44:46		x: 80.798	y: 54.338	z: 113.699
18:44:46		x: 81.549	y: 54.338	z: 114.462
18:44:47		x: 81.549	y: 54.338	z: 114.05
18:44:47		x: 80.94	y: 53.787	z: 114.05
18:44:47		x: 80.506	y: 54.359	z: 113.584
18:44:47		x: 80.506	y: 54.359	z: 113.584
18:44:47		x: 80.506	y: 54.023	z: 113.584
18:44:48		x: 80.506	y: 54.023	z: 113.584
18:44:48		x: 80.506	y: 54.023	z: 113.584
18:44:48		x: 80.506	y: 54.023	z: 113.584
18:44:48		x: 80.506	y: 54.023	z: 113.584
18:44:48		x: 80.506	y: 54.023	z: 113.888
18:44:48		x: 80.815	y: 54.023	z: 113.888
18:44:49		x: 80.815	y: 54.023	z: 113.888
18:44:49		x: 80.815	y: 54.023	z: 113.888
18:44:49		x: 80.815	y: 54.023	z: 113.888
18:44:49		x: 80.815	y: 54.023	z: 113.888
18:44:49		x: 80.815	y: 54.023	z: 113.888
18:44:50		x: 80.815	y: 54.023	z: 113.888
18:44:50		x: 80.815	y: 54.023	z: 113.888
18:44:50		x: 80.815	y: 54.023	z: 113.888
18:44:50		x: 80.815	y: 54.023	z: 113.888
18:44:50		x: 80.815	y: 54.023	z: 113.888
18:44:50		x: 80.815	y: 54.023	z: 113.888
18:44:51		x: 80.815	y: 54.023	z: 113.888
18:44:51		x: 80.815	y: 54.023	z: 113.888
18:44:51		x: 80.815	y: 54.023	z: 113.888
18:44:51		x: 80.815	y: 54.023	z: 113.888
18:44:51		x: 80.815	y: 54.023	z: 113.888
18:44:52		x: 80.815	y: 54.023	z: 113.888
18:44:52		x: 80.815	y: 54.023	z: 113.888
18:44:52		x: 80.815	y: 54.023	z: 114.242
18:44:52		x: 80.815	y: 54.023	z: 114.242
18:44:52		x: 80.815	y: 54.023	z: 114.242
18:44:52		x: 80.815	y: 54.023	z: 114.242
18:44:53		x: 80.815	y: 54.023	z: 114.242
18:44:53		x: 80.815	y: 54.023	z: 114.242
18:44:53		x: 80.815	y: 54.023	z: 114.663
18:44:53		x: 80.815	y: 54.023	z: 114.663
18:44:53		x: 80.815	y: 54.023	z: 115.01
18:44:53		x: 80.815	y: 54.023	z: 115.01
18:44:54		x: 93.949	y: 47.592	z: 79.286
18:44:54		x: -67.828	y: -33.189	z: -28.544
18:44:54		x: -10.159	y: -11.715	z: -15.579
18:44:54		x: -25.976	y: -18.643	z: -24.314
18:44:54		x: -11.636	y: -25.039	z: -35.359
18:44:55		x: -3.372	y: -28.396	z: -38.171
18:44:55		x: 3.973	y: -29.412	z: -47.183
18:44:55		x: 4.576	y: -29.917	z: -45.613
18:44:55		x: 10.13	y: -33.25	z: -44.552
18:44:55		x: 11.34	y: -34.353	z: -51.58
18:44:56		x: 5.999	y: -32.376	z: -48.716
18:44:56		x: 3.799	y: -32.875	z: -48.054
18:44:56		x: 4.524	y: -34.825	z: -47.428
18:44:56		x: 4.85	y: -36.076	z: -48.286
18:44:56		x: 4.85	y: -37.634	z: -48.831
18:44:56		x: 4.85	y: -38.371	z: -47.184
18:44:57		x: 4.255	y: -38.371	z: -47.976
18:44:57		x: 4.255	y: -38.371	z: -47.569
18:44:57		x: 3.408	y: -39.076	z: -48.736
18:44:57		x: 3.408	y: -39.076	z: -48.02
18:44:57		x: 3.993	y: -39.076	z: -47.402
