9 1:156.037033465 2:155.48979751 3:155.85469102 4:0.171235032612 5:0.0293214363936 6:0.163631399045 7:-0.143389123973 8:-6.03221176713e-15 9:0.0937581424604 10:0.00879058927763 11:0.170001168705 12:-0.143944273833 13:-4.51490696681e-15 14:0.0948182640321 15:0.00899050319406 16:0.293075237372 17:-0.291157857438 18:-1.2952601954e-15 19:0.176701661228 20:0.0312234770808 21:0.11391231783 22:-0.130440649838 23:-7.21644966006e-16 24:0.0824927220951 25:0.00680504919867 26:0.10483940705 27:-0.0785301835434 28:0.00322061927298 29:0.0620997135958 30:0.00385637442868 
9 1:154.720876259 2:153.89829709 3:154.445734912 4:0.257051130198 5:0.0660752835361 6:0.243611805965 7:-0.205475381479 8:-3.0716170348e-15 9:0.135779683994 10:0.0184361225855 11:0.24197564209 12:-0.211984426029 13:-2.84957242987e-15 14:0.138166884121 15:0.0190900878678 16:0.355882545935 17:-0.343775540759 18:-6.47630097698e-16 19:0.216109601178 20:0.0467033597211 21:0.112061347407 22:-0.118436968049 23:-2.34997206879e-15 24:0.0708490983726 25:0.00501959474021 26:0.0496608952522 27:-0.0500816404526 28:0.000434114925421 29:0.0340200881504 30:0.00115736639776 
9 1:153.737270042 2:153.593339449 3:153.689323732 4:0.045035489278 5:0.00202819529451 6:0.0432112551073 7:-0.0377882665064 8:-1.44328993201e-15 9:0.0247148574937 10:0.000610824180936 11:0.0443238135048 12:-0.0370354494597 13:-1.86887542479e-15 14:0.0245542040321 15:0.000602908935652 16:0.0752773694717 17:-0.0748686170981 18:-5.7361522939e-16 19:0.0453981170041 20:0.00206098902752 21:0.027314342246 22:-0.0328975467826 23:-1.2952601954e-15 24:0.0217712957994 25:0.000473989320786 26:0.0245669262111 27:-0.0223620779253 28:-0.00147390593554 29:0.0148887117008 30:0.00022167373611 
9 1:152.66503367 2:152.141351398 3:152.490796616 4:0.163951581281 5:0.0268801210044 6:0.157158760865 7:-0.139675474871 8:-6.29126380621e-16 9:0.0911865457989 10:0.00831498613473 11:0.166009718536 12:-0.138840835855 13:4.4408920985e-16 14:0.0920034705022 15:0.00846463858446 16:0.301195168437 17:-0.301626563073 18:-2.27595720048e-15 19:0.181834434365 20:0.0330637615209 21:0.163588949725 22:-0.179209864287 23:-6.19874522082e-16 24:0.108886922837 25:0.0118563619648 26:0.0879575596458 27:-0.0737749978064 28:0.00366364813272 29:0.0568892244703 30:0.00323638386083 
9 1:151.744787145 2:151.744787145 3:151.744787145 4:2.84217094304e-14 5:8.07793566946e-28 6:-1.08801856413e-14 7:-1.08801856413e-14 8:-1.08801856413e-14 9:0.0 10:0.0 11:-3.21964677141e-15 12:-3.21964677141e-15 13:-3.21964677141e-15 14:0.0 15:0.0 16:-1.99840144433e-15 17:-1.99840144433e-15 18:-1.99840144433e-15 19:0.0 20:0.0 21:-2.6645352591e-15 22:-2.6645352591e-15 23:-2.6645352591e-15 24:0.0 25:0.0 26:-3.05311331772e-15 27:-3.05311331772e-15 28:-3.05311331772e-15 29:0.0 30:0.0 
9 1:151.399693221 2:151.063670676 3:151.28775704 4:0.105140535875 5:0.011054532284 6:0.10088165113 7:-0.0882210597454 8:-2.47949808833e-15 9:0.0576996809098 10:0.00332925317709 11:0.103479046827 12:-0.0864635216576 13:-3.33066907388e-15 14:0.0573246169033 15:0.00328611170311 16:0.175743687753 17:-0.174789408266 18:1.23974904416e-15 19:0.10598713206 20:0.0112332721624 21:0.0637684774131 22:-0.0768031113493 23:-1.38777878078e-15 24:0.0508275971624 25:0.00258344463331 26:0.057354318295 27:-0.0522068460681 28:-0.00344100313721 29:0.034759412006 30:0.001208216723 
9 1:151.03389337 2:150.885829444 3:150.984357106 4:0.0462655607624 5:0.00214050211266 6:0.0438287631481 7:-0.0368805024733 8:-2.81256499572e-15 9:0.0243943201079 10:0.000595082853527 11:0.04340459141 12:-0.0380953356008 13:-3.20114305434e-15 14:0.0248216233089 15:0.00061611298369 16:0.063135434608 17:-0.0608502586803 18:-2.73855012741e-15 19:0.0383872475396 20:0.00147358077367 21:0.0186505488247 22:-0.0178368643806 23:-3.05311331772e-15 24:0.0122856623644 25:0.000150937499731 26:0.0380072597014 27:-0.0279470647304 28:0.000418035188398 29:0.0199795260814 30:0.000399181462436 
9 1:150.748773504 2:150.748773504 3:150.748773504 4:2.84217094304e-14 5:8.07793566946e-28 6:3.99680288865e-15 7:3.99680288865e-15 8:3.99680288865e-15 9:0.0 10:0.0 11:-3.88578058619e-15 12:-3.88578058619e-15 13:-3.88578058619e-15 14:0.0 15:0.0 16:-3.33066907388e-15 17:-3.33066907388e-15 18:-3.33066907388e-15 19:0.0 20:0.0 21:-3.33066907388e-16 22:-3.33066907388e-16 23:-3.33066907388e-16 24:0.0 25:0.0 26:-2.55351295664e-15 27:-2.55351295664e-15 28:-2.55351295664e-15 29:0.0 30:0.0 
