13:29:39		x: -0.6072798	y: -0.4658246	z: -0.08473763
13:29:40		x: -0.2792451	y: -1.3592149	z: -0.11619719
13:29:40		x: -0.38553563	y: -1.0565313	z: -0.27227327
13:29:40		x: -0.2847429	y: -0.7685083	z: -0.27471673
13:29:40		x: -0.22426721	y: -0.52385676	z: -0.26188856
13:29:40		x: -0.34124792	y: -0.06112636	z: -0.60763824
13:29:40		x: -0.14760363	y: -0.29508775	z: -0.9301751
13:29:41		x: -0.39958555	y: -0.42398033	z: -1.0004246
13:29:41		x: 0.07505674	y: -0.080368616	z: -0.5462463
13:29:41		x: 0.079332806	y: 2.2302291	z: -0.23195615
13:29:41		x: 0.26992276	y: -0.98811436	z: -0.15010022
13:29:41		x: -0.16348612	y: 0.028059967	z: -0.48729783
13:29:42		x: -0.65309465	y: -1.2260463	z: -0.90054816
13:29:42		x: -1.2273079	y: -4.1273513	z: 1.3077297
13:29:42		x: 1.6437588	y: -2.1255455	z: 0.58354896
13:29:42		x: 2.1336725	y: -1.4257993	z: 1.2454214
13:29:42		x: -0.10239961	y: -0.22605997	z: 1.7671003
13:29:42		x: -0.11675494	y: 0.6276242	z: 0.10065997
13:29:43		x: 2.2069764	y: 1.5738546	z: -2.4588656
13:29:43		x: 1.4846283	y: -2.8121579	z: -1.9194714
13:29:43		x: 0.4562367	y: -1.429159	z: 0.5120777
13:29:43		x: -0.8604834	y: -2.5198588	z: 0.9711429
13:29:43		x: 3.5356083	y: 1.6731201	z: -1.4552138
13:29:44		x: 1.0041828	y: 1.7769672	z: 0.23902094
13:29:44		x: -0.58223426	y: -2.0824795	z: 0.6486061
13:29:44		x: 0.06711549	y: 0.17314047	z: 4.399013
13:29:44		x: -1.0309148	y: -1.1209775	z: 0.338592
13:29:44		x: -0.55108017	y: -0.23461209	z: 0.37005156
13:29:44		x: 0.017635413	y: 0.19116098	z: 0.45038033
13:29:45		x: 0.062534004	y: -2.574226	z: 2.4204206
13:29:45		x: -0.6909683	y: -0.7104761	z: -0.30923063
13:29:45		x: -0.9579164	y: -1.1044842	z: 0.81751037
13:29:45		x: -1.1005534	y: -0.34029177	z: -1.2860042
13:29:45		x: -1.9194182	y: -1.7544447	z: 0.37677103
13:29:46		x: -0.51259565	y: -2.3121648	z: -0.83090955
13:29:46		x: -1.7227197	y: -0.8204319	z: -0.9979812
13:29:46		x: -1.5868021	y: -0.6597743	z: 0.52765477
13:29:46		x: -1.2529643	y: -0.49239722	z: 0.7860508
13:29:46		x: -0.22640526	y: 0.09983664	z: 0.28575215
13:29:46		x: -0.31925675	y: 0.59249943	z: 0.87065566
13:29:47		x: 0.7696105	y: 0.93458396	z: 2.3730788
13:29:47		x: -0.81283593	y: 2.7958903	z: 0.97053206
13:29:47		x: -1.2957249	y: 2.4895415	z: -0.015404433
13:29:47		x: -0.553829	y: 0.4984262	z: -0.53311276
13:29:47		x: 1.6590303	y: -0.22941974	z: -0.032508656
13:29:47		x: 0.5625272	y: -0.015006036	z: 0.17274207
13:29:48		x: 0.33650708	y: -0.081895776	z: 0.3572234
13:29:48		x: -0.18150666	y: 0.43947768	z: -0.10642335
13:29:48		x: 0.18867767	y: 0.40099317	z: 0.26131752
13:29:48		x: -0.12133643	y: 0.26507568	z: -0.18675213
13:29:48		x: -0.26122457	y: -0.05501771	z: -0.46836102
13:29:49		x: -0.21785313	y: -0.5528729	z: -0.28418514
13:29:49		x: -0.02329256	y: -0.46735176	z: -0.0685497
13:29:49		x: -0.04528371	y: -0.14359316	z: 0.0013943613
13:29:49		x: 0.035045072	y: 0.016453527	z: -0.209965
13:29:49		x: -0.15401772	y: -0.0437167	z: -0.19286078
13:29:49		x: -0.080103025	y: -0.26240647	z: -0.1723968
13:29:50		x: -0.061166205	y: -0.13962254	z: -0.16689901
13:29:50		x: -0.08407365	y: -0.0999163	z: -0.16415012
13:29:50		x: -0.10575937	y: -0.1466475	z: -0.18522497
13:29:50		x: -0.023903426	y: -0.1597811	z: -0.17728372
13:29:50		x: -0.08376822	y: -0.122518316	z: -0.15345997
13:29:51		x: -0.1341646	y: -0.06998391	z: -0.21546279
13:29:51		x: -0.12286359	y: -0.4386411	z: -0.21637909
13:29:51		x: 0.008777864	y: -0.19460042	z: -0.09451148
13:29:51		x: -0.12286359	y: -0.16680604	z: -0.14307526
13:29:51		x: -0.21968573	y: -0.16436258	z: -0.1284145
13:29:51		x: 0.06039598	y: -0.03791348	z: -0.12994166
13:29:52		x: -0.0052720346	y: 0.03508491	z: -0.15865232
13:29:52		x: 0.02099517	y: -0.13015413	z: -0.09328975
13:29:52		x: 0.023744062	y: -0.41512278	z: -0.9072677
13:29:52		x: -0.23373565	y: -0.4838451	z: -0.7014061
13:29:52		x: 0.0011420511	y: -0.012257136	z: -3.8348393
13:29:53		x: -0.24595293	y: 0.302033	z: 0.13883904
13:29:53		x: -0.6564544	y: -0.52630025	z: 0.14464226
13:29:53		x: -0.095985524	y: -0.2309469	z: -0.17178594
13:29:53		x: 0.13736501	y: -0.16344629	z: -0.15743059
13:29:53		x: 0.95622987	y: -0.24560767	z: 0.09424588
13:29:53		x: 1.7989185	y: -0.28592476	z: 5.778347
13:29:54		x: -0.3812596	y: 2.1654775	z: -4.5342803
13:29:54		x: 2.3114343	y: 0.01034487	z: -3.5474272
13:29:54		x: 1.017011	y: -2.9178376	z: -0.3926137
13:29:54		x: 1.0133458	y: -3.1127036	z: -1.0978577
13:29:54		x: -0.99090314	y: -0.8421176	z: 0.2582632
13:29:55		x: -0.6472914	y: -0.03333199	z: -2.7762098
13:29:55		x: -0.683027	y: -2.1227965	z: -0.40422016
13:29:55		x: 0.07872193	y: -0.08159034	z: -3.9582343
13:29:55		x: 0.3029095	y: -1.5684363	z: -1.5248524
13:29:55		x: -1.5480121	y: -7.4529014	z: -2.1888628
13:29:55		x: -1.3662797	y: 1.1334207	z: -0.4353743
13:29:56		x: -0.6283546	y: -1.0107163	z: 0.4491586
13:29:56		x: -0.60178196	y: -0.6967316	z: -0.071909465
13:29:56		x: -0.5749039	y: 1.3780723	z: -0.010822937
13:29:56		x: -0.402029	y: 1.1196762	z: -0.07099316
13:29:56		x: -0.32383826	y: 0.22078794	z: 0.59210104
13:29:56		x: 0.2760314	y: 0.59524834	z: -0.28540686
13:29:57		x: 0.15782899	y: 0.8530335	z: -0.20782697
13:29:57		x: 0.043291755	y: 0.3383795	z: -0.18675213
13:29:57		x: 0.43394008	y: 0.30447647	z: -0.08107244
13:29:57		x: 0.09490987	y: 0.1267147	z: -0.25822335
13:29:57		x: 0.08238713	y: 0.3121123	z: -0.47172076
13:29:58		x: -0.06055534	y: 0.09128452	z: -0.132996
13:29:58		x: 0.07475131	y: 0.108388744	z: -0.08840282
