13:29:39		x: 1.0
13:29:40		x: 1.0
13:29:40		x: 1.0
13:29:40		x: 1.0
13:29:40		x: 1.0
13:29:40		x: 1.0
13:29:40		x: 1.0
13:29:41		x: 1.0
13:29:41		x: 1.0
13:29:41		x: 1.0
13:29:41		x: 1.0
13:29:41		x: 1.0
13:29:42		x: 1.0
13:29:42		x: 2.0
13:29:42		x: 0.0
13:29:42		x: 0.0
13:29:42		x: 0.0
13:29:42		x: 0.0
13:29:43		x: 0.0
13:29:43		x: 0.0
13:29:43		x: 0.0
13:29:43		x: 0.0
13:29:43		x: 0.0
13:29:44		x: 0.0
13:29:44		x: 0.0
13:29:44		x: 0.0
13:29:44		x: 0.0
13:29:44		x: 0.0
13:29:44		x: 0.0
13:29:45		x: 0.0
13:29:45		x: 0.0
13:29:45		x: 0.0
13:29:45		x: 0.0
13:29:45		x: 0.0
13:29:46		x: 0.0
13:29:46		x: 0.0
13:29:46		x: 0.0
13:29:46		x: 0.0
13:29:46		x: 0.0
13:29:46		x: 0.0
13:29:47		x: 0.0
13:29:47		x: 0.0
13:29:47		x: 0.0
13:29:47		x: 0.0
13:29:47		x: 0.0
13:29:47		x: 0.0
13:29:48		x: 0.0
13:29:48		x: 0.0
13:29:48		x: 0.0
13:29:48		x: 0.0
13:29:48		x: 0.0
13:29:49		x: 0.0
13:29:49		x: 0.0
13:29:49		x: 0.0
13:29:49		x: 0.0
13:29:49		x: 0.0
13:29:49		x: 0.0
13:29:50		x: 0.0
13:29:50		x: 0.0
13:29:50		x: 0.0
13:29:50		x: 0.0
13:29:50		x: 0.0
13:29:51		x: 0.0
13:29:51		x: 0.0
13:29:51		x: 0.0
13:29:51		x: 0.0
13:29:51		x: 0.0
13:29:51		x: 0.0
13:29:52		x: 0.0
13:29:52		x: 0.0
13:29:52		x: 0.0
13:29:52		x: 0.0
13:29:52		x: 0.0
13:29:53		x: 0.0
13:29:53		x: 0.0
13:29:53		x: 0.0
13:29:53		x: 0.0
13:29:53		x: 0.0
13:29:53		x: 0.0
13:29:54		x: 0.0
13:29:54		x: 0.0
13:29:54		x: 0.0
13:29:54		x: 0.0
13:29:54		x: 0.0
13:29:55		x: 0.0
13:29:55		x: 0.0
13:29:55		x: 0.0
13:29:55		x: 0.0
13:29:55		x: 0.0
13:29:55		x: 0.0
13:29:56		x: 0.0
13:29:56		x: 0.0
13:29:56		x: 0.0
13:29:56		x: 0.0
13:29:56		x: 0.0
13:29:56		x: 0.0
13:29:57		x: 0.0
13:29:57		x: 0.0
13:29:57		x: 0.0
13:29:57		x: 0.0
13:29:57		x: 0.0
13:29:58		x: 0.0
13:29:58		x: 0.0
