19:08:58		x: 1.0
19:08:58		x: 1.0
19:08:58		x: 1.0
19:08:58		x: 1.0
19:08:59		x: 2.0
19:08:59		x: 6.0
19:08:59		x: 4.0
19:08:59		x: 3.0
19:08:59		x: 2.0
19:08:59		x: 3.0
19:09:00		x: 3.0
19:09:00		x: 4.0
19:09:00		x: 5.0
19:09:00		x: 7.0
19:09:00		x: 0.0
19:09:00		x: 1.0
19:09:01		x: 6.0
19:09:01		x: 5.0
19:09:01		x: 3.0
19:09:01		x: 2.0
19:09:01		x: 2.0
19:09:02		x: 2.0
19:09:02		x: 3.0
19:09:02		x: 7.0
19:09:02		x: 7.0
19:09:02		x: 7.0
19:09:02		x: 5.0
19:09:03		x: 1.0
19:09:03		x: 2.0
19:09:03		x: 1.0
19:09:03		x: 1.0
19:09:03		x: 0.0
19:09:04		x: 0.0
19:09:04		x: 1.0
19:09:04		x: 0.0
19:09:04		x: 0.0
19:09:04		x: 0.0
19:09:04		x: 0.0
19:09:05		x: 1.0
19:09:05		x: 1.0
19:09:05		x: 1.0
19:09:05		x: 1.0
19:09:05		x: 1.0
19:09:06		x: 1.0
19:09:06		x: 1.0
19:09:06		x: 1.0
19:09:06		x: 1.0
19:09:06		x: 1.0
19:09:06		x: 1.0
19:09:07		x: 1.0
19:09:07		x: 1.0
19:09:07		x: 1.0
19:09:07		x: 1.0
19:09:07		x: 1.0
