19:08:58		x: 23.098713
19:08:59		x: 23.098713
19:09:00		x: 23.098713
19:09:01		x: 23.098713
19:09:02		x: 23.227795
19:09:03		x: 23.227795
19:09:04		x: 23.227795
19:09:05		x: 23.430569
19:09:06		x: 23.430569
19:09:07		x: 23.430569
