17:14:21		x: 884.0
17:14:21		x: 845.0
17:14:21		x: 985.0
17:14:21		x: 937.0
17:14:22		x: 944.0
17:14:22		x: 1006.0
17:14:22		x: 1148.0
17:14:22		x: 1183.0
17:14:22		x: 1342.0
17:14:23		x: 1463.0
17:14:23		x: 1488.0
17:14:23		x: 1616.0
17:14:23		x: 1589.0
17:14:23		x: 1770.0
17:14:23		x: 2075.0
17:14:24		x: 38712.0
17:14:24		x: 31801.0
17:14:24		x: 25225.0
17:14:24		x: 19593.0
17:14:24		x: 35521.0
17:14:25		x: 17776.0
17:14:25		x: 18746.0
17:14:25		x: 21736.0
17:14:25		x: 19054.0
17:14:25		x: 17151.0
17:14:25		x: 31573.0
17:14:26		x: 37331.0
17:14:26		x: 2642.0
17:14:26		x: 2291.0
17:14:26		x: 1841.0
17:14:26		x: 2053.0
17:14:27		x: 2100.0
17:14:27		x: 2228.0
17:14:27		x: 2052.0
17:14:27		x: 1944.0
17:14:27		x: 1942.0
17:14:27		x: 1445.0
17:14:28		x: 1563.0
17:14:28		x: 1494.0
17:14:28		x: 1281.0
17:14:28		x: 1180.0
17:14:28		x: 1212.0
17:14:28		x: 1242.0
17:14:29		x: 1344.0
17:14:29		x: 1458.0
17:14:29		x: 1649.0
17:14:29		x: 2440.0
17:14:29		x: 22774.0
17:14:30		x: 27987.0
17:14:30		x: 27167.0
17:14:30		x: 32432.0
17:14:30		x: 27513.0
17:14:30		x: 26400.0
17:14:30		x: 24175.0
17:14:31		x: 24825.0
17:14:31		x: 20835.0
17:14:31		x: 22344.0
17:14:31		x: 20181.0
17:14:31		x: 20616.0
17:14:32		x: 19515.0
17:14:32		x: 18397.0
17:14:32		x: 13984.0
17:14:32		x: 11946.0
17:14:32		x: 14223.0
17:14:32		x: 15880.0
17:14:33		x: 17716.0
17:14:33		x: 17301.0
17:14:33		x: 16397.0
17:14:33		x: 16681.0
17:14:33		x: 17623.0
17:14:34		x: 16614.0
17:14:34		x: 13210.0
17:14:34		x: 17404.0
17:14:34		x: 16901.0
17:14:34		x: 16574.0
17:14:34		x: 17199.0
17:14:35		x: 17266.0
17:14:35		x: 18422.0
17:14:35		x: 18543.0
17:14:35		x: 17581.0
17:14:35		x: 17104.0
17:14:35		x: 19225.0
17:14:36		x: 20037.0
17:14:36		x: 15465.0
17:14:36		x: 17325.0
17:14:36		x: 55361.0
17:14:36		x: 7816.0
17:14:37		x: 5626.0
17:14:37		x: 775.0
17:14:37		x: 130.0
17:14:37		x: 103.0
17:14:37		x: 98.0
17:14:37		x: 620.0
17:14:38		x: 542.0
17:14:38		x: 1973.0
17:14:38		x: 591.0
17:14:38		x: 31.0
17:14:38		x: 28.0
17:14:39		x: 52.0
17:14:39		x: 30.0
17:14:39		x: 4.0
17:14:39		x: 1.0
17:14:39		x: 0.0
17:14:40		x: 1.0
17:14:40		x: 4.0
17:14:40		x: 171.0
17:14:40		x: 31.0
17:14:40		x: 925.0
17:14:40		x: 136.0
17:14:41		x: 167.0
17:14:41		x: 0.0
17:14:41		x: 0.0
17:14:41		x: 0.0
17:14:41		x: 0.0
17:14:41		x: 0.0
17:14:42		x: 0.0
17:14:42		x: 0.0
17:14:42		x: 0.0
17:14:42		x: 0.0
17:14:42		x: 10.0
17:14:43		x: 672.0
17:14:43		x: 1.0
17:14:43		x: 0.0
17:14:43		x: 0.0
17:14:43		x: 1.0
17:14:43		x: 14.0
17:14:44		x: 10.0
17:14:44		x: 0.0
17:14:44		x: 0.0
17:14:44		x: 0.0
17:14:44		x: 11.0
17:14:45		x: 99.0
17:14:45		x: 0.0
17:14:45		x: 0.0
17:14:45		x: 0.0
17:14:45		x: 0.0
17:14:45		x: 0.0
17:14:46		x: 0.0
17:14:46		x: 0.0
17:14:46		x: 0.0
17:14:46		x: 0.0
17:14:46		x: 0.0
17:14:47		x: 0.0
17:14:47		x: 0.0
17:14:47		x: 0.0
17:14:47		x: 0.0
17:14:47		x: 0.0
17:14:47		x: 0.0
17:14:48		x: 0.0
17:14:48		x: 0.0
17:14:48		x: 0.0
17:14:48		x: 0.0
17:14:48		x: 0.0
17:14:48		x: 0.0
17:14:49		x: 0.0
17:14:49		x: 0.0
17:14:49		x: 0.0
17:14:49		x: 0.0
17:14:49		x: 0.0
17:14:50		x: 0.0
17:14:50		x: 0.0
17:14:50		x: 0.0
17:14:50		x: 0.0
17:14:50		x: 0.0
17:14:50		x: 0.0
17:14:51		x: 0.0
17:14:51		x: 0.0
17:14:51		x: 0.0
17:14:51		x: 0.0
17:14:51		x: 0.0
17:14:52		x: 0.0
17:14:52		x: 0.0
17:14:52		x: 0.0
17:14:52		x: 0.0
17:14:52		x: 0.0
17:14:52		x: 0.0
17:14:53		x: 1.0
17:14:53		x: 0.0
17:14:53		x: 0.0
17:14:53		x: 0.0
17:14:53		x: 0.0
17:14:54		x: 0.0
17:14:54		x: 0.0
17:14:54		x: 0.0
17:14:54		x: 0.0
17:14:54		x: 0.0
17:14:54		x: 0.0
17:14:55		x: 0.0
17:14:55		x: 0.0
17:14:55		x: 0.0
17:14:55		x: 0.0
17:14:55		x: 0.0
17:14:56		x: 0.0
17:14:56		x: 0.0
17:14:56		x: 0.0
17:14:56		x: 0.0
17:14:56		x: 0.0
17:14:56		x: 0.0
17:14:57		x: 0.0
17:14:57		x: 3.0
17:14:57		x: 0.0
17:14:57		x: 0.0
17:14:57		x: 0.0
17:14:58		x: 0.0
17:14:58		x: 0.0
17:14:58		x: 0.0
17:14:58		x: 0.0
17:14:58		x: 0.0
17:14:58		x: 0.0
17:14:59		x: 0.0
17:14:59		x: 0.0
17:14:59		x: 0.0
17:14:59		x: 0.0
17:14:59		x: 0.0
17:14:59		x: 0.0
17:15:00		x: 0.0
17:15:00		x: 0.0
17:15:00		x: 0.0
17:15:00		x: 0.0
17:15:00		x: 0.0
17:15:01		x: 0.0
17:15:01		x: 0.0
17:15:01		x: 0.0
17:15:01		x: 0.0
17:15:01		x: 0.0
17:15:02		x: 0.0
17:15:02		x: 0.0
17:15:02		x: 0.0
17:15:02		x: 0.0
17:15:02		x: 0.0
17:15:02		x: 1.0
17:15:03		x: 0.0
17:15:03		x: 0.0
17:15:03		x: 0.0
17:15:03		x: 0.0
17:15:03		x: 0.0
17:15:03		x: 0.0
17:15:04		x: 0.0
17:15:04		x: 0.0
17:15:04		x: 0.0
17:15:04		x: 0.0
17:15:04		x: 0.0
17:15:05		x: 0.0
17:15:05		x: 0.0
17:15:05		x: 0.0
17:15:05		x: 0.0
17:15:05		x: 0.0
17:15:05		x: 0.0
17:15:06		x: 0.0
17:15:06		x: 0.0
17:15:06		x: 0.0
17:15:06		x: 0.0
17:15:06		x: 0.0
17:15:07		x: 0.0
17:15:07		x: 0.0
17:15:07		x: 0.0
17:15:07		x: 0.0
17:15:07		x: 0.0
17:15:07		x: 0.0
17:15:08		x: 0.0
17:15:08		x: 0.0
17:15:08		x: 0.0
17:15:08		x: 0.0
17:15:08		x: 0.0
17:15:08		x: 0.0
17:15:09		x: 0.0
17:15:09		x: 0.0
17:15:09		x: 0.0
17:15:09		x: 0.0
17:15:09		x: 0.0
17:15:10		x: 0.0
17:15:10		x: 0.0
17:15:10		x: 0.0
17:15:10		x: 0.0
17:15:10		x: 0.0
17:15:10		x: 0.0
17:15:11		x: 0.0
17:15:11		x: 0.0
17:15:11		x: 0.0
17:15:11		x: 0.0
17:15:11		x: 0.0
17:15:12		x: 0.0
17:15:12		x: 0.0
17:15:12		x: 0.0
17:15:12		x: 1.0
17:15:12		x: 0.0
17:15:12		x: 0.0
17:15:13		x: 0.0
17:15:13		x: 0.0
17:15:13		x: 0.0
17:15:13		x: 0.0
17:15:13		x: 0.0
17:15:14		x: 0.0
17:15:14		x: 0.0
17:15:14		x: 0.0
17:15:14		x: 0.0
17:15:14		x: 0.0
17:15:14		x: 0.0
17:15:15		x: 0.0
17:15:15		x: 0.0
17:15:15		x: 1.0
17:15:15		x: 0.0
17:15:15		x: 0.0
17:15:16		x: 0.0
17:15:16		x: 0.0
17:15:16		x: 0.0
17:15:16		x: 0.0
17:15:16		x: 0.0
17:15:16		x: 0.0
17:15:17		x: 0.0
17:15:17		x: 0.0
17:15:17		x: 0.0
17:15:17		x: 0.0
17:15:17		x: 0.0
17:15:18		x: 0.0
17:15:18		x: 1.0
17:15:18		x: 0.0
17:15:18		x: 0.0
17:15:18		x: 0.0
17:15:18		x: 0.0
17:15:19		x: 0.0
17:15:19		x: 0.0
17:15:19		x: 0.0
17:15:19		x: 0.0
17:15:19		x: 0.0
17:15:19		x: 0.0
17:15:20		x: 0.0
17:15:20		x: 0.0
17:15:20		x: 0.0
17:15:20		x: 0.0
17:15:20		x: 0.0
17:15:21		x: 0.0
17:15:21		x: 0.0
17:15:21		x: 0.0
17:15:21		x: 0.0
17:15:21		x: 0.0
17:15:21		x: 0.0
17:15:22		x: 0.0
17:15:22		x: 0.0
17:15:22		x: 0.0
17:15:22		x: 0.0
17:15:22		x: 0.0
17:15:23		x: 0.0
17:15:23		x: 0.0
17:15:23		x: 0.0
17:15:23		x: 0.0
17:15:23		x: 1.0
17:15:23		x: 0.0
17:15:24		x: 0.0
17:15:24		x: 0.0
17:15:24		x: 0.0
17:15:24		x: 0.0
17:15:24		x: 0.0
17:15:25		x: 0.0
17:15:25		x: 0.0
17:15:25		x: 0.0
17:15:25		x: 0.0
17:15:25		x: 0.0
17:15:25		x: 0.0
17:15:26		x: 0.0
17:15:26		x: 0.0
17:15:26		x: 0.0
17:15:26		x: 0.0
17:15:26		x: 0.0
17:15:27		x: 0.0
17:15:27		x: 0.0
17:15:27		x: 0.0
17:15:27		x: 0.0
17:15:27		x: 0.0
17:15:27		x: 0.0
17:15:28		x: 0.0
17:15:28		x: 0.0
17:15:28		x: 0.0
17:15:28		x: 0.0
17:15:28		x: 0.0
17:15:28		x: 0.0
17:15:29		x: 0.0
17:15:29		x: 0.0
17:15:29		x: 0.0
17:15:29		x: 0.0
17:15:29		x: 0.0
17:15:30		x: 0.0
17:15:30		x: 0.0
17:15:30		x: 0.0
17:15:30		x: 0.0
17:15:30		x: 0.0
17:15:30		x: 0.0
17:15:31		x: 0.0
17:15:31		x: 0.0
17:15:31		x: 0.0
17:15:31		x: 0.0
17:15:31		x: 0.0
17:15:32		x: 0.0
17:15:32		x: 0.0
17:15:32		x: 0.0
17:15:32		x: 0.0
17:15:32		x: 0.0
17:15:32		x: 0.0
17:15:33		x: 0.0
17:15:33		x: 0.0
17:15:33		x: 0.0
17:15:33		x: 0.0
17:15:33		x: 0.0
17:15:34		x: 0.0
17:15:34		x: 0.0
17:15:34		x: 0.0
17:15:34		x: 0.0
17:15:34		x: 0.0
17:15:34		x: 0.0
17:15:35		x: 0.0
17:15:35		x: 0.0
17:15:35		x: 0.0
17:15:35		x: 0.0
17:15:35		x: 0.0
17:15:36		x: 0.0
17:15:36		x: 0.0
17:15:36		x: 0.0
17:15:36		x: 0.0
17:15:36		x: 0.0
17:15:36		x: 0.0
17:15:37		x: 0.0
17:15:37		x: 0.0
17:15:37		x: 0.0
17:15:37		x: 0.0
17:15:37		x: 0.0
17:15:38		x: 0.0
17:15:38		x: 0.0
17:15:38		x: 0.0
17:15:38		x: 0.0
17:15:38		x: 0.0
17:15:38		x: 0.0
17:15:39		x: 0.0
17:15:39		x: 0.0
17:15:39		x: 0.0
17:15:39		x: 0.0
17:15:39		x: 0.0
17:15:39		x: 0.0
17:15:40		x: 0.0
17:15:40		x: 0.0
17:15:40		x: 0.0
17:15:40		x: 0.0
17:15:40		x: 0.0
17:15:41		x: 0.0
17:15:41		x: 0.0
17:15:41		x: 0.0
17:15:41		x: 0.0
17:15:41		x: 0.0
17:15:41		x: 0.0
17:15:42		x: 0.0
17:15:42		x: 0.0
17:15:42		x: 0.0
17:15:42		x: 0.0
17:15:42		x: 0.0
17:15:43		x: 0.0
17:15:43		x: 0.0
17:15:43		x: 0.0
17:15:43		x: 0.0
17:15:43		x: 0.0
17:15:43		x: 0.0
17:15:44		x: 0.0
17:15:44		x: 0.0
17:15:44		x: 0.0
17:15:44		x: 0.0
17:15:44		x: 0.0
17:15:45		x: 0.0
17:15:45		x: 0.0
17:15:45		x: 0.0
17:15:45		x: 0.0
17:15:45		x: 0.0
17:15:45		x: 0.0
17:15:46		x: 0.0
17:15:46		x: 0.0
17:15:46		x: 0.0
17:15:46		x: 0.0
17:15:46		x: 0.0
17:15:47		x: 0.0
17:15:47		x: 0.0
17:15:47		x: 0.0
17:15:47		x: 0.0
17:15:47		x: 0.0
17:15:47		x: 0.0
17:15:48		x: 0.0
17:15:48		x: 0.0
17:15:48		x: 0.0
17:15:48		x: 0.0
17:15:48		x: 0.0
17:15:48		x: 0.0
17:15:49		x: 0.0
17:15:49		x: 0.0
17:15:49		x: 0.0
17:15:49		x: 0.0
17:15:49		x: 0.0
17:15:50		x: 0.0
17:15:50		x: 0.0
17:15:50		x: 0.0
17:15:50		x: 0.0
17:15:50		x: 0.0
17:15:50		x: 0.0
17:15:51		x: 0.0
17:15:51		x: 0.0
17:15:51		x: 0.0
17:15:51		x: 0.0
17:15:51		x: 0.0
17:15:52		x: 0.0
17:15:52		x: 0.0
17:15:52		x: 0.0
17:15:52		x: 0.0
17:15:52		x: 0.0
17:15:52		x: 0.0
17:15:53		x: 0.0
17:15:53		x: 0.0
17:15:53		x: 0.0
17:15:53		x: 0.0
17:15:53		x: 0.0
17:15:54		x: 0.0
17:15:54		x: 0.0
17:15:54		x: 0.0
17:15:54		x: 0.0
17:15:54		x: 0.0
17:15:54		x: 0.0
17:15:55		x: 0.0
17:15:55		x: 0.0
17:15:55		x: 0.0
17:15:55		x: 0.0
17:15:55		x: 0.0
17:15:56		x: 0.0
17:15:56		x: 0.0
17:15:56		x: 0.0
17:15:56		x: 0.0
17:15:56		x: 0.0
17:15:56		x: 0.0
17:15:57		x: 0.0
17:15:57		x: 0.0
17:15:57		x: 0.0
17:15:57		x: 0.0
17:15:57		x: 0.0
17:15:58		x: 0.0
17:15:58		x: 0.0
17:15:58		x: 0.0
17:15:58		x: 0.0
17:15:58		x: 0.0
17:15:58		x: 0.0
17:15:59		x: 0.0
17:15:59		x: 0.0
17:15:59		x: 0.0
17:15:59		x: 0.0
17:15:59		x: 0.0
17:15:59		x: 0.0
17:16:00		x: 0.0
17:16:00		x: 0.0
17:16:00		x: 0.0
17:16:00		x: 0.0
17:16:00		x: 0.0
17:16:01		x: 0.0
17:16:01		x: 0.0
17:16:01		x: 0.0
17:16:01		x: 0.0
17:16:01		x: 0.0
17:16:01		x: 0.0
17:16:02		x: 0.0
17:16:02		x: 0.0
17:16:02		x: 0.0
17:16:02		x: 0.0
17:16:02		x: 0.0
17:16:03		x: 0.0
17:16:03		x: 0.0
17:16:03		x: 0.0
17:16:03		x: 0.0
17:16:03		x: 0.0
17:16:03		x: 0.0
17:16:04		x: 0.0
17:16:04		x: 0.0
17:16:04		x: 0.0
17:16:04		x: 0.0
17:16:04		x: 0.0
17:16:05		x: 0.0
17:16:05		x: 0.0
17:16:05		x: 0.0
17:16:05		x: 0.0
17:16:05		x: 0.0
17:16:05		x: 0.0
17:16:06		x: 0.0
17:16:06		x: 0.0
17:16:06		x: 0.0
17:16:06		x: 0.0
17:16:06		x: 0.0
17:16:07		x: 0.0
17:16:07		x: 0.0
17:16:07		x: 0.0
17:16:07		x: 0.0
17:16:07		x: 0.0
17:16:07		x: 0.0
17:16:08		x: 0.0
17:16:08		x: 0.0
17:16:08		x: 0.0
17:16:08		x: 0.0
17:16:08		x: 0.0
17:16:09		x: 0.0
17:16:09		x: 0.0
17:16:09		x: 0.0
17:16:09		x: 0.0
17:16:09		x: 0.0
17:16:09		x: 0.0
17:16:10		x: 0.0
17:16:10		x: 0.0
17:16:10		x: 0.0
17:16:10		x: 0.0
17:16:10		x: 0.0
17:16:10		x: 0.0
17:16:11		x: 0.0
17:16:11		x: 0.0
17:16:11		x: 0.0
17:16:11		x: 0.0
17:16:11		x: 0.0
17:16:12		x: 0.0
17:16:12		x: 0.0
17:16:12		x: 0.0
17:16:12		x: 0.0
17:16:12		x: 0.0
17:16:12		x: 0.0
17:16:13		x: 0.0
17:16:13		x: 0.0
17:16:13		x: 0.0
17:16:13		x: 0.0
17:16:13		x: 0.0
17:16:14		x: 0.0
17:16:14		x: 0.0
17:16:14		x: 0.0
17:16:14		x: 0.0
17:16:14		x: 0.0
17:16:14		x: 0.0
17:16:15		x: 0.0
17:16:15		x: 0.0
17:16:15		x: 0.0
17:16:15		x: 0.0
17:16:15		x: 0.0
17:16:16		x: 0.0
17:16:16		x: 0.0
17:16:16		x: 0.0
17:16:16		x: 0.0
17:16:16		x: 0.0
17:16:16		x: 0.0
17:16:17		x: 0.0
17:16:17		x: 0.0
17:16:17		x: 0.0
17:16:17		x: 0.0
17:16:17		x: 0.0
17:16:17		x: 0.0
17:16:18		x: 0.0
17:16:18		x: 0.0
17:16:18		x: 0.0
17:16:18		x: 0.0
17:16:18		x: 0.0
17:16:19		x: 0.0
17:16:19		x: 0.0
17:16:19		x: 0.0
17:16:19		x: 0.0
17:16:19		x: 0.0
17:16:19		x: 0.0
17:16:20		x: 0.0
17:16:20		x: 0.0
17:16:20		x: 0.0
17:16:20		x: 0.0
17:16:20		x: 0.0
17:16:21		x: 0.0
17:16:21		x: 0.0
17:16:21		x: 0.0
17:16:21		x: 0.0
17:16:21		x: 0.0
17:16:21		x: 0.0
17:16:22		x: 0.0
17:16:22		x: 0.0
17:16:22		x: 0.0
17:16:22		x: 0.0
17:16:22		x: 0.0
17:16:23		x: 0.0
17:16:23		x: 0.0
17:16:23		x: 0.0
17:16:23		x: 0.0
17:16:23		x: 0.0
17:16:23		x: 0.0
17:16:24		x: 0.0
17:16:24		x: 0.0
17:16:24		x: 0.0
17:16:24		x: 0.0
17:16:24		x: 0.0
17:16:25		x: 0.0
17:16:25		x: 0.0
17:16:25		x: 0.0
17:16:25		x: 0.0
17:16:25		x: 0.0
17:16:25		x: 0.0
17:16:26		x: 0.0
17:16:26		x: 0.0
17:16:26		x: 0.0
17:16:26		x: 0.0
17:16:26		x: 0.0
17:16:27		x: 0.0
17:16:27		x: 0.0
17:16:27		x: 0.0
17:16:27		x: 0.0
17:16:27		x: 0.0
17:16:27		x: 0.0
17:16:28		x: 0.0
17:16:28		x: 0.0
17:16:28		x: 0.0
17:16:28		x: 0.0
17:16:28		x: 0.0
17:16:28		x: 0.0
17:16:29		x: 0.0
17:16:29		x: 0.0
17:16:29		x: 0.0
17:16:29		x: 0.0
17:16:29		x: 0.0
17:16:30		x: 0.0
17:16:30		x: 0.0
17:16:30		x: 0.0
17:16:30		x: 0.0
17:16:30		x: 0.0
17:16:30		x: 0.0
17:16:31		x: 0.0
17:16:31		x: 0.0
17:16:31		x: 0.0
17:16:31		x: 0.0
17:16:31		x: 0.0
17:16:32		x: 0.0
17:16:32		x: 0.0
17:16:32		x: 0.0
17:16:32		x: 0.0
17:16:32		x: 0.0
17:16:32		x: 0.0
17:16:33		x: 0.0
17:16:33		x: 0.0
17:16:33		x: 0.0
17:16:33		x: 0.0
17:16:33		x: 0.0
17:16:34		x: 0.0
17:16:34		x: 0.0
17:16:34		x: 0.0
17:16:34		x: 0.0
17:16:34		x: 0.0
17:16:34		x: 0.0
17:16:35		x: 0.0
17:16:35		x: 0.0
17:16:35		x: 0.0
17:16:35		x: 0.0
17:16:35		x: 0.0
17:16:36		x: 0.0
17:16:36		x: 0.0
17:16:36		x: 0.0
17:16:36		x: 0.0
17:16:36		x: 0.0
17:16:37		x: 0.0
17:16:37		x: 0.0
17:16:37		x: 0.0
17:16:37		x: 0.0
17:16:37		x: 0.0
17:16:37		x: 0.0
17:16:37		x: 0.0
17:16:38		x: 0.0
17:16:38		x: 0.0
17:16:38		x: 0.0
17:16:38		x: 0.0
17:16:38		x: 0.0
17:16:39		x: 0.0
17:16:39		x: 0.0
17:16:39		x: 0.0
17:16:39		x: 0.0
17:16:39		x: 0.0
17:16:39		x: 0.0
17:16:40		x: 0.0
17:16:40		x: 0.0
17:16:40		x: 0.0
17:16:40		x: 1.0
17:16:40		x: 0.0
17:16:41		x: 0.0
17:16:41		x: 0.0
17:16:41		x: 0.0
17:16:41		x: 0.0
17:16:41		x: 0.0
17:16:41		x: 0.0
17:16:42		x: 0.0
17:16:42		x: 0.0
17:16:42		x: 0.0
17:16:42		x: 0.0
17:16:42		x: 0.0
17:16:43		x: 0.0
17:16:43		x: 0.0
17:16:43		x: 0.0
17:16:43		x: 0.0
17:16:43		x: 0.0
17:16:43		x: 0.0
17:16:44		x: 0.0
17:16:44		x: 0.0
17:16:44		x: 0.0
17:16:44		x: 0.0
17:16:44		x: 0.0
17:16:45		x: 0.0
17:16:45		x: 0.0
17:16:45		x: 0.0
17:16:45		x: 0.0
17:16:45		x: 0.0
17:16:45		x: 0.0
17:16:46		x: 0.0
17:16:46		x: 0.0
17:16:46		x: 0.0
17:16:46		x: 0.0
17:16:46		x: 0.0
17:16:47		x: 0.0
17:16:47		x: 0.0
17:16:47		x: 0.0
17:16:47		x: 0.0
17:16:47		x: 0.0
17:16:47		x: 0.0
17:16:48		x: 0.0
17:16:48		x: 0.0
17:16:48		x: 0.0
17:16:48		x: 0.0
17:16:48		x: 0.0
17:16:48		x: 0.0
17:16:49		x: 0.0
17:16:49		x: 0.0
17:16:49		x: 0.0
17:16:49		x: 0.0
17:16:49		x: 0.0
17:16:50		x: 0.0
17:16:50		x: 0.0
17:16:50		x: 0.0
17:16:50		x: 0.0
17:16:50		x: 0.0
17:16:50		x: 0.0
17:16:51		x: 0.0
17:16:51		x: 0.0
17:16:51		x: 0.0
17:16:51		x: 0.0
17:16:51		x: 0.0
17:16:52		x: 0.0
17:16:52		x: 0.0
17:16:52		x: 0.0
17:16:52		x: 0.0
17:16:52		x: 0.0
17:16:52		x: 0.0
17:16:53		x: 0.0
17:16:53		x: 0.0
17:16:53		x: 0.0
17:16:53		x: 0.0
17:16:53		x: 0.0
17:16:54		x: 0.0
17:16:54		x: 0.0
17:16:54		x: 0.0
17:16:54		x: 0.0
17:16:54		x: 0.0
17:16:54		x: 0.0
17:16:55		x: 0.0
17:16:55		x: 0.0
17:16:55		x: 0.0
17:16:55		x: 0.0
17:16:55		x: 0.0
17:16:56		x: 0.0
17:16:56		x: 0.0
17:16:56		x: 1.0
17:16:56		x: 0.0
17:16:56		x: 0.0
17:16:56		x: 0.0
17:16:57		x: 0.0
17:16:57		x: 0.0
17:16:57		x: 0.0
17:16:57		x: 0.0
17:16:57		x: 0.0
17:16:58		x: 0.0
17:16:58		x: 0.0
17:16:58		x: 0.0
17:16:58		x: 0.0
17:16:58		x: 0.0
17:16:58		x: 0.0
17:16:59		x: 0.0
17:16:59		x: 0.0
17:16:59		x: 0.0
17:16:59		x: 0.0
17:16:59		x: 0.0
17:17:00		x: 0.0
17:17:00		x: 0.0
17:17:00		x: 0.0
17:17:00		x: 0.0
17:17:00		x: 0.0
17:17:00		x: 0.0
17:17:01		x: 0.0
17:17:01		x: 0.0
17:17:01		x: 0.0
17:17:01		x: 0.0
17:17:01		x: 0.0
17:17:01		x: 0.0
17:17:02		x: 0.0
17:17:02		x: 0.0
17:17:02		x: 0.0
17:17:02		x: 0.0
17:17:02		x: 0.0
17:17:03		x: 0.0
17:17:03		x: 0.0
17:17:03		x: 0.0
17:17:03		x: 0.0
17:17:03		x: 0.0
17:17:03		x: 0.0
17:17:04		x: 0.0
17:17:04		x: 0.0
17:17:04		x: 0.0
17:17:04		x: 0.0
17:17:04		x: 0.0
17:17:05		x: 0.0
17:17:05		x: 0.0
17:17:05		x: 0.0
17:17:05		x: 0.0
17:17:05		x: 0.0
17:17:05		x: 0.0
17:17:06		x: 0.0
17:17:06		x: 0.0
17:17:06		x: 0.0
17:17:06		x: 0.0
17:17:06		x: 0.0
17:17:07		x: 0.0
17:17:07		x: 0.0
17:17:07		x: 0.0
17:17:07		x: 0.0
17:17:07		x: 0.0
17:17:07		x: 0.0
17:17:08		x: 0.0
17:17:08		x: 0.0
17:17:08		x: 0.0
17:17:08		x: 0.0
17:17:08		x: 0.0
17:17:08		x: 0.0
17:17:09		x: 0.0
17:17:09		x: 0.0
17:17:09		x: 0.0
17:17:09		x: 0.0
17:17:09		x: 0.0
17:17:10		x: 0.0
17:17:10		x: 0.0
17:17:10		x: 0.0
17:17:10		x: 0.0
17:17:10		x: 0.0
17:17:10		x: 0.0
17:17:11		x: 0.0
17:17:11		x: 0.0
17:17:11		x: 0.0
17:17:11		x: 0.0
17:17:11		x: 0.0
17:17:12		x: 0.0
17:17:12		x: 0.0
17:17:12		x: 0.0
17:17:12		x: 0.0
17:17:12		x: 0.0
17:17:12		x: 0.0
17:17:13		x: 0.0
17:17:13		x: 0.0
17:17:13		x: 0.0
17:17:13		x: 0.0
17:17:13		x: 0.0
17:17:14		x: 0.0
17:17:14		x: 0.0
17:17:14		x: 0.0
17:17:14		x: 0.0
17:17:14		x: 0.0
17:17:14		x: 0.0
17:17:15		x: 4.0
17:17:15		x: 0.0
17:17:15		x: 0.0
17:17:15		x: 0.0
17:17:15		x: 0.0
17:17:16		x: 0.0
17:17:16		x: 0.0
17:17:16		x: 0.0
17:17:16		x: 0.0
17:17:16		x: 0.0
17:17:16		x: 0.0
17:17:17		x: 0.0
17:17:17		x: 0.0
17:17:17		x: 0.0
17:17:17		x: 0.0
17:17:17		x: 0.0
17:17:17		x: 0.0
17:17:18		x: 0.0
17:17:18		x: 0.0
17:17:18		x: 0.0
17:17:18		x: 0.0
17:17:18		x: 0.0
17:17:19		x: 0.0
17:17:19		x: 0.0
17:17:19		x: 0.0
17:17:19		x: 0.0
17:17:19		x: 0.0
17:17:19		x: 0.0
17:17:20		x: 0.0
17:17:20		x: 0.0
17:17:20		x: 0.0
17:17:20		x: 0.0
17:17:20		x: 0.0
17:17:21		x: 0.0
17:17:21		x: 0.0
17:17:21		x: 0.0
17:17:21		x: 0.0
17:17:21		x: 0.0
17:17:21		x: 0.0
17:17:22		x: 0.0
17:17:22		x: 0.0
17:17:22		x: 0.0
17:17:22		x: 0.0
17:17:22		x: 0.0
17:17:23		x: 0.0
17:17:23		x: 0.0
17:17:23		x: 0.0
17:17:23		x: 0.0
17:17:23		x: 0.0
17:17:23		x: 0.0
17:17:24		x: 0.0
17:17:24		x: 0.0
17:17:24		x: 0.0
17:17:24		x: 0.0
17:17:24		x: 0.0
17:17:25		x: 0.0
17:17:25		x: 0.0
17:17:25		x: 0.0
17:17:25		x: 0.0
17:17:25		x: 0.0
17:17:25		x: 0.0
17:17:26		x: 0.0
17:17:26		x: 0.0
17:17:26		x: 0.0
17:17:26		x: 0.0
17:17:26		x: 0.0
17:17:27		x: 0.0
17:17:27		x: 0.0
17:17:27		x: 0.0
17:17:27		x: 0.0
17:17:27		x: 0.0
17:17:27		x: 0.0
17:17:28		x: 0.0
17:17:28		x: 0.0
17:17:28		x: 0.0
17:17:28		x: 0.0
17:17:28		x: 0.0
17:17:28		x: 0.0
17:17:29		x: 0.0
17:17:29		x: 0.0
17:17:29		x: 0.0
17:17:29		x: 0.0
17:17:29		x: 0.0
17:17:30		x: 0.0
17:17:30		x: 0.0
17:17:30		x: 0.0
17:17:30		x: 0.0
17:17:30		x: 0.0
17:17:30		x: 0.0
17:17:31		x: 0.0
17:17:31		x: 0.0
17:17:31		x: 0.0
17:17:31		x: 0.0
17:17:31		x: 0.0
17:17:32		x: 0.0
17:17:32		x: 0.0
17:17:32		x: 0.0
17:17:32		x: 0.0
17:17:32		x: 0.0
17:17:32		x: 0.0
17:17:33		x: 0.0
17:17:33		x: 0.0
17:17:33		x: 0.0
17:17:33		x: 0.0
17:17:33		x: 0.0
17:17:34		x: 0.0
17:17:34		x: 0.0
17:17:34		x: 0.0
17:17:34		x: 0.0
17:17:34		x: 0.0
17:17:34		x: 0.0
17:17:35		x: 0.0
17:17:35		x: 0.0
17:17:35		x: 0.0
17:17:35		x: 0.0
17:17:35		x: 0.0
17:17:36		x: 0.0
17:17:36		x: 0.0
17:17:36		x: 0.0
17:17:36		x: 0.0
17:17:36		x: 0.0
17:17:36		x: 0.0
17:17:37		x: 0.0
17:17:37		x: 0.0
17:17:37		x: 0.0
17:17:37		x: 0.0
17:17:37		x: 0.0
17:17:37		x: 0.0
17:17:38		x: 0.0
17:17:38		x: 0.0
17:17:38		x: 0.0
17:17:38		x: 0.0
17:17:38		x: 0.0
17:17:39		x: 0.0
17:17:39		x: 0.0
17:17:39		x: 0.0
17:17:39		x: 0.0
17:17:39		x: 0.0
17:17:39		x: 0.0
17:17:40		x: 0.0
17:17:40		x: 0.0
17:17:40		x: 0.0
17:17:40		x: 0.0
17:17:40		x: 0.0
17:17:41		x: 0.0
17:17:41		x: 0.0
17:17:41		x: 0.0
17:17:41		x: 0.0
17:17:41		x: 0.0
17:17:41		x: 0.0
17:17:42		x: 0.0
17:17:42		x: 0.0
17:17:42		x: 0.0
17:17:42		x: 0.0
17:17:42		x: 0.0
17:17:43		x: 0.0
17:17:43		x: 0.0
17:17:43		x: 0.0
17:17:43		x: 0.0
17:17:43		x: 0.0
17:17:43		x: 0.0
17:17:44		x: 0.0
17:17:44		x: 0.0
17:17:44		x: 0.0
17:17:44		x: 0.0
17:17:44		x: 0.0
17:17:45		x: 0.0
17:17:45		x: 0.0
17:17:45		x: 0.0
17:17:45		x: 0.0
17:17:45		x: 0.0
17:17:45		x: 0.0
17:17:46		x: 0.0
17:17:46		x: 0.0
17:17:46		x: 0.0
17:17:46		x: 0.0
17:17:46		x: 0.0
17:17:47		x: 0.0
17:17:47		x: 0.0
17:17:47		x: 0.0
17:17:47		x: 0.0
17:17:47		x: 0.0
17:17:47		x: 0.0
17:17:48		x: 0.0
17:17:48		x: 0.0
17:17:48		x: 0.0
17:17:48		x: 0.0
17:17:48		x: 0.0
17:17:49		x: 0.0
17:17:49		x: 0.0
17:17:49		x: 0.0
17:17:49		x: 0.0
17:17:49		x: 0.0
17:17:49		x: 0.0
17:17:50		x: 0.0
17:17:50		x: 0.0
17:17:50		x: 0.0
17:17:50		x: 0.0
17:17:50		x: 0.0
17:17:50		x: 0.0
17:17:51		x: 0.0
17:17:51		x: 0.0
17:17:51		x: 0.0
17:17:51		x: 0.0
17:17:51		x: 0.0
17:17:52		x: 0.0
17:17:52		x: 0.0
17:17:52		x: 0.0
17:17:52		x: 0.0
17:17:52		x: 0.0
17:17:52		x: 0.0
17:17:53		x: 0.0
17:17:53		x: 0.0
17:17:53		x: 0.0
17:17:53		x: 0.0
17:17:53		x: 0.0
17:17:54		x: 0.0
17:17:54		x: 0.0
17:17:54		x: 0.0
17:17:54		x: 0.0
17:17:54		x: 0.0
17:17:54		x: 1.0
17:17:55		x: 0.0
17:17:55		x: 0.0
17:17:55		x: 0.0
17:17:55		x: 0.0
17:17:55		x: 0.0
17:17:56		x: 0.0
17:17:56		x: 0.0
17:17:56		x: 0.0
17:17:56		x: 0.0
17:17:56		x: 0.0
17:17:56		x: 0.0
17:17:57		x: 0.0
17:17:57		x: 0.0
17:17:57		x: 0.0
17:17:57		x: 0.0
17:17:57		x: 0.0
17:17:57		x: 0.0
17:17:58		x: 0.0
17:17:58		x: 0.0
17:17:58		x: 0.0
17:17:58		x: 0.0
17:17:58		x: 0.0
17:17:59		x: 0.0
17:17:59		x: 0.0
17:17:59		x: 0.0
17:17:59		x: 0.0
17:17:59		x: 0.0
17:17:59		x: 0.0
17:18:00		x: 0.0
17:18:00		x: 0.0
17:18:00		x: 0.0
17:18:00		x: 0.0
17:18:00		x: 0.0
17:18:01		x: 0.0
17:18:01		x: 0.0
17:18:01		x: 0.0
17:18:01		x: 0.0
17:18:01		x: 0.0
17:18:01		x: 0.0
17:18:02		x: 0.0
17:18:02		x: 0.0
17:18:02		x: 0.0
17:18:02		x: 0.0
17:18:02		x: 0.0
17:18:03		x: 0.0
17:18:03		x: 0.0
17:18:03		x: 0.0
17:18:03		x: 0.0
17:18:03		x: 0.0
17:18:03		x: 0.0
17:18:04		x: 0.0
17:18:04		x: 0.0
17:18:04		x: 0.0
17:18:04		x: 0.0
17:18:04		x: 0.0
17:18:05		x: 0.0
17:18:05		x: 0.0
17:18:05		x: 0.0
17:18:05		x: 0.0
17:18:05		x: 0.0
17:18:05		x: 0.0
17:18:06		x: 0.0
17:18:06		x: 0.0
17:18:06		x: 0.0
17:18:06		x: 0.0
17:18:06		x: 0.0
17:18:07		x: 0.0
17:18:07		x: 0.0
17:18:07		x: 0.0
17:18:07		x: 0.0
17:18:07		x: 0.0
17:18:07		x: 0.0
17:18:08		x: 0.0
17:18:08		x: 0.0
17:18:08		x: 0.0
17:18:08		x: 0.0
17:18:08		x: 0.0
17:18:08		x: 0.0
17:18:09		x: 0.0
17:18:09		x: 0.0
17:18:09		x: 0.0
17:18:09		x: 0.0
17:18:09		x: 0.0
17:18:10		x: 0.0
17:18:10		x: 0.0
17:18:10		x: 0.0
17:18:10		x: 0.0
17:18:10		x: 0.0
17:18:10		x: 0.0
17:18:11		x: 0.0
17:18:11		x: 0.0
17:18:11		x: 0.0
17:18:11		x: 0.0
17:18:11		x: 0.0
17:18:12		x: 0.0
17:18:12		x: 0.0
17:18:12		x: 0.0
17:18:12		x: 0.0
17:18:12		x: 0.0
17:18:12		x: 0.0
17:18:13		x: 0.0
17:18:13		x: 0.0
17:18:13		x: 0.0
17:18:13		x: 0.0
17:18:13		x: 0.0
17:18:14		x: 0.0
17:18:14		x: 0.0
17:18:14		x: 0.0
17:18:14		x: 0.0
17:18:14		x: 0.0
17:18:14		x: 0.0
17:18:15		x: 0.0
17:18:15		x: 0.0
17:18:15		x: 0.0
17:18:15		x: 0.0
17:18:15		x: 0.0
17:18:16		x: 0.0
17:18:16		x: 0.0
17:18:16		x: 0.0
17:18:16		x: 0.0
17:18:16		x: 0.0
17:18:16		x: 0.0
17:18:17		x: 0.0
17:18:17		x: 0.0
17:18:17		x: 0.0
17:18:17		x: 0.0
17:18:17		x: 0.0
17:18:17		x: 0.0
17:18:18		x: 0.0
17:18:18		x: 0.0
17:18:18		x: 0.0
17:18:18		x: 0.0
17:18:18		x: 0.0
17:18:19		x: 0.0
17:18:19		x: 0.0
17:18:19		x: 0.0
17:18:19		x: 0.0
17:18:19		x: 0.0
17:18:19		x: 0.0
17:18:20		x: 0.0
17:18:20		x: 0.0
17:18:20		x: 0.0
17:18:20		x: 0.0
17:18:20		x: 0.0
17:18:21		x: 0.0
17:18:21		x: 0.0
17:18:21		x: 0.0
17:18:21		x: 0.0
17:18:21		x: 0.0
17:18:21		x: 0.0
17:18:22		x: 0.0
17:18:22		x: 0.0
17:18:22		x: 0.0
17:18:22		x: 0.0
17:18:22		x: 0.0
17:18:23		x: 0.0
17:18:23		x: 0.0
17:18:23		x: 0.0
17:18:23		x: 0.0
17:18:23		x: 0.0
17:18:23		x: 2.0
17:18:24		x: 0.0
17:18:24		x: 0.0
17:18:24		x: 0.0
17:18:24		x: 0.0
17:18:24		x: 0.0
17:18:25		x: 0.0
17:18:25		x: 0.0
17:18:25		x: 0.0
17:18:25		x: 0.0
17:18:25		x: 0.0
17:18:25		x: 0.0
17:18:26		x: 0.0
17:18:26		x: 0.0
17:18:26		x: 0.0
17:18:26		x: 0.0
17:18:26		x: 0.0
17:18:27		x: 0.0
17:18:27		x: 0.0
17:18:27		x: 0.0
17:18:27		x: 0.0
17:18:27		x: 0.0
17:18:27		x: 0.0
17:18:28		x: 0.0
17:18:28		x: 0.0
17:18:28		x: 0.0
17:18:28		x: 0.0
17:18:28		x: 0.0
17:18:28		x: 0.0
17:18:29		x: 0.0
17:18:29		x: 0.0
17:18:29		x: 0.0
17:18:29		x: 0.0
17:18:29		x: 0.0
17:18:30		x: 0.0
17:18:30		x: 0.0
17:18:30		x: 0.0
17:18:30		x: 0.0
17:18:30		x: 0.0
17:18:30		x: 0.0
17:18:31		x: 0.0
17:18:31		x: 0.0
17:18:31		x: 0.0
17:18:31		x: 0.0
17:18:31		x: 0.0
17:18:32		x: 0.0
17:18:32		x: 0.0
17:18:32		x: 0.0
17:18:32		x: 0.0
17:18:32		x: 0.0
17:18:32		x: 0.0
17:18:33		x: 0.0
17:18:33		x: 0.0
17:18:33		x: 0.0
17:18:33		x: 0.0
17:18:33		x: 0.0
17:18:34		x: 0.0
17:18:34		x: 0.0
17:18:34		x: 0.0
17:18:34		x: 0.0
17:18:34		x: 0.0
17:18:34		x: 0.0
17:18:35		x: 0.0
17:18:35		x: 0.0
17:18:35		x: 0.0
17:18:35		x: 0.0
17:18:35		x: 0.0
17:18:36		x: 0.0
17:18:36		x: 0.0
17:18:36		x: 0.0
17:18:36		x: 0.0
17:18:36		x: 0.0
17:18:36		x: 0.0
17:18:37		x: 0.0
17:18:37		x: 0.0
17:18:37		x: 0.0
17:18:37		x: 0.0
17:18:37		x: 0.0
17:18:38		x: 0.0
17:18:38		x: 0.0
17:18:38		x: 0.0
17:18:38		x: 0.0
17:18:38		x: 0.0
17:18:38		x: 0.0
17:18:39		x: 0.0
17:18:39		x: 0.0
17:18:39		x: 0.0
17:18:39		x: 0.0
17:18:39		x: 0.0
17:18:40		x: 0.0
17:18:40		x: 0.0
17:18:40		x: 0.0
17:18:40		x: 0.0
17:18:40		x: 0.0
17:18:40		x: 0.0
17:18:41		x: 0.0
17:18:41		x: 0.0
17:18:41		x: 0.0
17:18:41		x: 0.0
17:18:41		x: 0.0
17:18:41		x: 0.0
17:18:42		x: 0.0
17:18:42		x: 0.0
17:18:42		x: 0.0
17:18:42		x: 0.0
17:18:42		x: 0.0
17:18:43		x: 0.0
17:18:43		x: 0.0
17:18:43		x: 0.0
17:18:43		x: 0.0
17:18:43		x: 0.0
17:18:43		x: 0.0
17:18:44		x: 0.0
17:18:44		x: 0.0
17:18:44		x: 0.0
17:18:44		x: 0.0
17:18:44		x: 0.0
17:18:45		x: 0.0
17:18:45		x: 0.0
17:18:45		x: 0.0
17:18:45		x: 0.0
17:18:45		x: 0.0
17:18:45		x: 0.0
17:18:46		x: 0.0
17:18:46		x: 0.0
17:18:46		x: 0.0
17:18:46		x: 0.0
17:18:46		x: 0.0
17:18:47		x: 0.0
17:18:47		x: 0.0
17:18:47		x: 0.0
17:18:47		x: 0.0
17:18:47		x: 0.0
17:18:47		x: 0.0
17:18:48		x: 0.0
17:18:48		x: 0.0
17:18:48		x: 0.0
17:18:48		x: 0.0
17:18:48		x: 0.0
17:18:48		x: 0.0
17:18:49		x: 0.0
17:18:49		x: 0.0
17:18:49		x: 0.0
17:18:49		x: 0.0
17:18:49		x: 0.0
17:18:50		x: 0.0
17:18:50		x: 0.0
17:18:50		x: 0.0
17:18:50		x: 0.0
17:18:50		x: 0.0
17:18:50		x: 0.0
17:18:51		x: 0.0
17:18:51		x: 0.0
17:18:51		x: 0.0
17:18:51		x: 0.0
17:18:51		x: 0.0
17:18:52		x: 0.0
17:18:52		x: 0.0
17:18:52		x: 0.0
17:18:52		x: 0.0
17:18:52		x: 0.0
17:18:53		x: 0.0
17:18:53		x: 0.0
17:18:53		x: 0.0
17:18:53		x: 0.0
17:18:53		x: 0.0
17:18:53		x: 1.0
17:18:54		x: 0.0
17:18:54		x: 0.0
17:18:54		x: 0.0
17:18:54		x: 0.0
17:18:54		x: 0.0
17:18:54		x: 0.0
17:18:55		x: 0.0
17:18:55		x: 0.0
17:18:55		x: 0.0
17:18:55		x: 0.0
17:18:55		x: 0.0
17:18:56		x: 0.0
17:18:56		x: 0.0
17:18:56		x: 0.0
17:18:56		x: 0.0
17:18:56		x: 0.0
17:18:56		x: 0.0
17:18:57		x: 0.0
17:18:57		x: 0.0
17:18:57		x: 0.0
17:18:57		x: 0.0
17:18:57		x: 0.0
17:18:57		x: 0.0
17:18:58		x: 0.0
17:18:58		x: 0.0
17:18:58		x: 0.0
17:18:58		x: 0.0
17:18:58		x: 0.0
17:18:59		x: 0.0
17:18:59		x: 0.0
17:18:59		x: 0.0
17:18:59		x: 0.0
17:18:59		x: 0.0
17:18:59		x: 0.0
17:19:00		x: 0.0
17:19:00		x: 1.0
17:19:00		x: 0.0
17:19:00		x: 0.0
17:19:00		x: 0.0
17:19:01		x: 0.0
17:19:01		x: 0.0
17:19:01		x: 0.0
17:19:01		x: 0.0
17:19:01		x: 0.0
17:19:01		x: 0.0
17:19:02		x: 0.0
17:19:02		x: 0.0
17:19:02		x: 0.0
17:19:02		x: 0.0
17:19:02		x: 0.0
17:19:03		x: 0.0
17:19:03		x: 0.0
17:19:03		x: 1.0
17:19:03		x: 0.0
17:19:03		x: 0.0
17:19:04		x: 0.0
17:19:04		x: 0.0
17:19:04		x: 0.0
17:19:04		x: 0.0
17:19:04		x: 0.0
17:19:04		x: 0.0
17:19:05		x: 0.0
17:19:05		x: 0.0
17:19:05		x: 0.0
17:19:05		x: 0.0
17:19:05		x: 0.0
17:19:05		x: 0.0
17:19:06		x: 0.0
17:19:06		x: 0.0
17:19:06		x: 0.0
17:19:06		x: 0.0
17:19:06		x: 0.0
17:19:07		x: 0.0
17:19:07		x: 0.0
17:19:07		x: 0.0
17:19:07		x: 0.0
17:19:07		x: 0.0
17:19:07		x: 0.0
17:19:08		x: 0.0
17:19:08		x: 0.0
17:19:08		x: 0.0
17:19:08		x: 0.0
17:19:08		x: 0.0
17:19:08		x: 0.0
17:19:09		x: 0.0
17:19:09		x: 0.0
17:19:09		x: 0.0
17:19:09		x: 0.0
17:19:09		x: 0.0
17:19:10		x: 0.0
17:19:10		x: 0.0
17:19:10		x: 0.0
17:19:10		x: 0.0
17:19:10		x: 0.0
17:19:10		x: 0.0
17:19:11		x: 0.0
17:19:11		x: 0.0
17:19:11		x: 0.0
17:19:11		x: 0.0
17:19:11		x: 0.0
17:19:12		x: 0.0
17:19:12		x: 0.0
17:19:12		x: 0.0
17:19:12		x: 0.0
17:19:12		x: 0.0
17:19:12		x: 0.0
17:19:13		x: 0.0
17:19:13		x: 0.0
17:19:13		x: 0.0
17:19:13		x: 0.0
17:19:13		x: 0.0
17:19:14		x: 0.0
17:19:14		x: 0.0
17:19:14		x: 0.0
17:19:14		x: 0.0
17:19:14		x: 0.0
17:19:14		x: 0.0
17:19:15		x: 0.0
17:19:15		x: 0.0
17:19:15		x: 0.0
17:19:15		x: 0.0
17:19:15		x: 0.0
17:19:16		x: 0.0
17:19:16		x: 0.0
17:19:16		x: 0.0
17:19:16		x: 0.0
17:19:16		x: 0.0
17:19:16		x: 0.0
17:19:17		x: 0.0
17:19:17		x: 0.0
17:19:17		x: 0.0
17:19:17		x: 0.0
17:19:17		x: 0.0
17:19:17		x: 0.0
17:19:18		x: 0.0
17:19:18		x: 0.0
17:19:18		x: 0.0
17:19:18		x: 0.0
17:19:18		x: 0.0
17:19:19		x: 0.0
17:19:19		x: 0.0
17:19:19		x: 0.0
17:19:19		x: 0.0
17:19:19		x: 0.0
17:19:19		x: 0.0
17:19:20		x: 0.0
17:19:20		x: 0.0
17:19:20		x: 0.0
17:19:20		x: 0.0
17:19:20		x: 0.0
17:19:21		x: 0.0
17:19:21		x: 1.0
17:19:21		x: 0.0
17:19:21		x: 0.0
17:19:21		x: 0.0
17:19:21		x: 0.0
17:19:22		x: 0.0
17:19:22		x: 0.0
17:19:22		x: 0.0
17:19:22		x: 0.0
17:19:22		x: 0.0
17:19:23		x: 0.0
17:19:23		x: 0.0
17:19:23		x: 0.0
17:19:23		x: 0.0
17:19:23		x: 0.0
17:19:23		x: 0.0
17:19:24		x: 1.0
17:19:24		x: 0.0
17:19:24		x: 0.0
17:19:24		x: 0.0
17:19:24		x: 0.0
17:19:25		x: 0.0
17:19:25		x: 0.0
17:19:25		x: 0.0
17:19:25		x: 1.0
17:19:25		x: 0.0
17:19:25		x: 0.0
17:19:26		x: 0.0
17:19:26		x: 0.0
17:19:26		x: 0.0
17:19:26		x: 0.0
17:19:26		x: 0.0
17:19:27		x: 0.0
17:19:27		x: 0.0
17:19:27		x: 0.0
17:19:27		x: 0.0
17:19:27		x: 0.0
17:19:27		x: 0.0
17:19:28		x: 0.0
17:19:28		x: 0.0
17:19:28		x: 0.0
17:19:28		x: 0.0
17:19:28		x: 0.0
17:19:28		x: 0.0
17:19:29		x: 0.0
17:19:29		x: 0.0
17:19:29		x: 0.0
17:19:29		x: 0.0
17:19:29		x: 0.0
17:19:30		x: 0.0
17:19:30		x: 0.0
17:19:30		x: 0.0
17:19:30		x: 0.0
17:19:30		x: 0.0
17:19:30		x: 0.0
17:19:31		x: 0.0
17:19:31		x: 0.0
17:19:31		x: 0.0
17:19:31		x: 0.0
17:19:31		x: 0.0
17:19:32		x: 0.0
17:19:32		x: 0.0
17:19:32		x: 0.0
17:19:32		x: 0.0
17:19:32		x: 0.0
17:19:32		x: 0.0
17:19:33		x: 0.0
17:19:33		x: 0.0
17:19:33		x: 0.0
17:19:33		x: 0.0
17:19:33		x: 0.0
17:19:34		x: 0.0
17:19:34		x: 0.0
17:19:34		x: 0.0
17:19:34		x: 1.0
17:19:34		x: 0.0
17:19:34		x: 0.0
17:19:35		x: 0.0
17:19:35		x: 0.0
17:19:35		x: 0.0
17:19:35		x: 0.0
17:19:35		x: 0.0
17:19:36		x: 0.0
17:19:36		x: 0.0
17:19:36		x: 0.0
17:19:36		x: 0.0
17:19:36		x: 0.0
17:19:36		x: 0.0
17:19:37		x: 0.0
17:19:37		x: 0.0
17:19:37		x: 0.0
17:19:37		x: 0.0
17:19:37		x: 0.0
17:19:37		x: 0.0
17:19:38		x: 0.0
17:19:38		x: 0.0
17:19:38		x: 0.0
17:19:38		x: 0.0
17:19:38		x: 0.0
17:19:39		x: 0.0
17:19:39		x: 0.0
17:19:39		x: 0.0
17:19:39		x: 0.0
17:19:39		x: 0.0
17:19:40		x: 0.0
17:19:40		x: 0.0
17:19:40		x: 0.0
17:19:40		x: 0.0
17:19:40		x: 0.0
17:19:40		x: 0.0
17:19:41		x: 0.0
17:19:41		x: 0.0
17:19:41		x: 0.0
17:19:41		x: 0.0
17:19:41		x: 0.0
17:19:41		x: 0.0
17:19:42		x: 0.0
17:19:42		x: 0.0
17:19:42		x: 0.0
17:19:42		x: 0.0
17:19:42		x: 0.0
17:19:43		x: 0.0
17:19:43		x: 0.0
17:19:43		x: 0.0
17:19:43		x: 0.0
17:19:43		x: 0.0
17:19:43		x: 0.0
17:19:44		x: 0.0
17:19:44		x: 0.0
17:19:44		x: 0.0
17:19:44		x: 0.0
17:19:44		x: 0.0
17:19:45		x: 0.0
17:19:45		x: 0.0
17:19:45		x: 0.0
17:19:45		x: 0.0
17:19:45		x: 0.0
17:19:45		x: 0.0
17:19:46		x: 0.0
17:19:46		x: 0.0
17:19:46		x: 0.0
17:19:46		x: 0.0
17:19:46		x: 0.0
17:19:47		x: 0.0
17:19:47		x: 0.0
17:19:47		x: 0.0
17:19:47		x: 0.0
17:19:47		x: 0.0
17:19:47		x: 0.0
17:19:48		x: 0.0
17:19:48		x: 0.0
17:19:48		x: 0.0
17:19:48		x: 0.0
17:19:48		x: 0.0
17:19:48		x: 0.0
17:19:49		x: 0.0
17:19:49		x: 0.0
17:19:49		x: 0.0
17:19:49		x: 0.0
17:19:49		x: 0.0
17:19:50		x: 0.0
17:19:50		x: 0.0
17:19:50		x: 0.0
17:19:50		x: 0.0
17:19:50		x: 0.0
17:19:50		x: 0.0
17:19:51		x: 0.0
17:19:51		x: 0.0
17:19:51		x: 0.0
17:19:51		x: 0.0
17:19:51		x: 0.0
17:19:52		x: 0.0
17:19:52		x: 0.0
17:19:52		x: 0.0
17:19:52		x: 0.0
17:19:52		x: 0.0
17:19:52		x: 0.0
17:19:52		x: 0.0
17:19:52		x: 0.0
17:19:52		x: 0.0
17:19:53		x: 0.0
17:19:53		x: 0.0
17:19:53		x: 0.0
17:19:53		x: 0.0
17:19:53		x: 0.0
17:19:54		x: 0.0
17:19:54		x: 0.0
17:19:54		x: 0.0
17:19:54		x: 0.0
17:19:54		x: 0.0
17:19:55		x: 0.0
17:19:55		x: 0.0
17:19:55		x: 0.0
17:19:55		x: 0.0
17:19:55		x: 0.0
17:19:55		x: 0.0
17:19:56		x: 0.0
17:19:56		x: 0.0
17:19:56		x: 0.0
17:19:56		x: 0.0
17:19:56		x: 0.0
17:19:56		x: 0.0
17:19:57		x: 0.0
17:19:57		x: 0.0
17:19:57		x: 0.0
17:19:57		x: 0.0
17:19:57		x: 0.0
17:19:58		x: 0.0
17:19:58		x: 4.0
17:19:58		x: 6.0
17:19:58		x: 5.0
17:19:58		x: 4.0
17:19:58		x: 3.0
17:19:59		x: 4.0
17:19:59		x: 4.0
17:19:59		x: 3.0
17:19:59		x: 2.0
17:19:59		x: 2.0
17:19:59		x: 1.0
17:20:00		x: 1.0
17:20:00		x: 1.0
17:20:00		x: 1.0
17:20:00		x: 1.0
17:20:00		x: 1.0
17:20:01		x: 0.0
17:20:01		x: 1.0
17:20:01		x: 1.0
17:20:01		x: 0.0
17:20:01		x: 0.0
17:20:01		x: 0.0
17:20:02		x: 0.0
17:20:02		x: 0.0
17:20:02		x: 0.0
17:20:02		x: 0.0
17:20:02		x: 0.0
17:20:03		x: 0.0
17:20:03		x: 0.0
17:20:03		x: 0.0
17:20:03		x: 0.0
17:20:03		x: 0.0
