18:44:42		x: 25.061289
18:44:43		x: 25.061289
18:44:44		x: 25.061289
18:44:45		x: 25.061289
18:44:45		x: 25.061289
18:44:46		x: 25.086649
18:44:47		x: 25.086649
18:44:48		x: 25.086649
18:44:49		x: 25.086649
18:44:50		x: 25.086649
18:44:51		x: 25.086649
18:44:52		x: 25.070858
18:44:53		x: 25.070858
18:44:54		x: 25.070858
18:44:55		x: 24.959492
18:44:56		x: 24.959492
18:44:57		x: 24.959492
