18:18:57		x: 9.288	y: 41.448	z: 53.746
18:18:57		x: 8.024	y: 41.879	z: 53.746
18:18:57		x: 7.354	y: 41.879	z: 53.746
18:18:57		x: 7.807	y: 40.687	z: 54.15
18:18:58		x: 6.661	y: 38.426	z: 54.15
18:18:58		x: 5.39	y: 37.742	z: 54.936
18:18:58		x: 5.39	y: 38.641	z: 54.936
18:18:58		x: 6.744	y: 40.641	z: 55.259
18:18:58		x: 8.322	y: 40.641	z: 55.627
18:18:58		x: 9.306	y: 40.641	z: 56.315
18:18:59		x: 8.366	y: 39.285	z: 56.315
