20:56:06		x: 2.0
20:56:06		x: 1.0
20:56:06		x: 0.0
20:56:06		x: 0.0
20:56:07		x: 0.0
20:56:07		x: 0.0
20:56:07		x: 0.0
20:56:07		x: 0.0
20:56:07		x: 0.0
20:56:08		x: 0.0
20:56:08		x: 0.0
20:56:08		x: 0.0
20:56:08		x: 0.0
20:56:08		x: 0.0
20:56:08		x: 0.0
20:56:09		x: 0.0
20:56:09		x: 0.0
20:56:09		x: 0.0
20:56:09		x: 0.0
20:56:09		x: 0.0
20:56:10		x: 0.0
20:56:10		x: 0.0
20:56:10		x: 0.0
20:56:10		x: 1.0
20:56:10		x: 1.0
20:56:10		x: 11.0
20:56:11		x: 22.0
20:56:11		x: 21.0
20:56:11		x: 18.0
20:56:11		x: 19.0
20:56:11		x: 19.0
20:56:11		x: 16.0
20:56:12		x: 19.0
