20:56:06		x: 1006.11
20:56:06		x: 1006.02
20:56:06		x: 1006.04
20:56:06		x: 1006.05
20:56:07		x: 1006.08
20:56:07		x: 1006.1
20:56:07		x: 1006.1
20:56:07		x: 1006.06
20:56:07		x: 1006.02
20:56:08		x: 1006.1
20:56:08		x: 1006.11
20:56:08		x: 1006.07
20:56:08		x: 1006.04
20:56:08		x: 1006.04
20:56:08		x: 1006.08
20:56:09		x: 1006.02
20:56:09		x: 1006.05
20:56:09		x: 1006.08
20:56:09		x: 1006.03
20:56:09		x: 1006.01
20:56:10		x: 1006.03
20:56:10		x: 1006.02
20:56:10		x: 1006.03
20:56:10		x: 1006.03
20:56:10		x: 1006.02
20:56:10		x: 1006.02
20:56:11		x: 1005.95
20:56:11		x: 1006.04
20:56:11		x: 1006.06
20:56:11		x: 1005.98
20:56:11		x: 1005.95
20:56:11		x: 1005.93
20:56:12		x: 1005.99
