11 1:36.5616433173 2:18.5010096974 3:24.5019753394 4:6.17802700284 5:38.1680176478 6:4.66353402504 7:-5.87433621912 8:-4.28228880927e-16 9:3.28500849829 10:10.7912808339 11:2.59234130972 12:-2.11184785786 13:0.181141144116 14:1.50897916029 15:2.27701810618 16:1.78316649999 17:-1.30277555565 18:0.21628935867 19:0.939991931042 20:0.883584830424 21:4.19412732665 22:-7.79296143324 23:-1.21117717679 24:3.80396675618 25:14.4701630821 26:5.57145388447 27:-7.74903160381 28:0.278496741746 29:4.14956595448 30:17.2188976106 
11 1:38.4832736856 2:23.3571253687 3:33.3299590625 4:5.16252398069 5:26.6516538512 6:2.65653715674 7:-3.38641470555 8:-8.04911692853e-16 9:1.79345646188 10:3.21648608067 11:2.63660338634 12:-2.6812151275 13:-0.0684570007112 14:1.48323035 15:2.19997227116 16:1.12415849764 17:-5.0805340224 18:-0.650681566079 19:1.84455503853 20:3.40238329015 21:4.9315636258 22:-2.59879048392 23:0.631514123951 24:2.15497500715 25:4.64391728145 26:7.86527484084 27:-5.49077632674 28:0.187719834401 29:4.63162098418 30:21.4519129411 
11 1:22.2933792963 2:21.5444161862 3:21.7708779566 4:0.271338209359 5:0.0736244238582 6:0.635978524096 7:-0.920617752915 8:-1.18952466924e-16 9:0.483222232187 10:0.233503725679 11:0.383696154767 12:-0.365188642207 13:0.00200680052736 14:0.22023496864 15:0.0485034414118 16:2.29923817005 17:-1.38594114818 18:0.259302187129 19:0.982793111331 20:0.96588229968 21:2.9540776094 22:-3.08622374695 23:-0.269081930533 24:2.06169718544 25:4.25059528446 26:7.77593669278 27:-5.59779110234 28:-0.752757773794 29:5.19668239552 30:27.0055079199 
11 1:23.2386313913 2:20.6631109705 3:21.4871497785 4:0.889486750155 5:0.791186678702 6:1.38293423399 7:-1.92338540167 8:-8.366323507e-16 9:0.931482950749 10:0.867660487536 11:0.787430715273 12:-0.841524699916 13:0.00902137110483 14:0.455230051363 15:0.207234399664 16:1.47575999873 17:-1.12748771927 18:0.159495626342 19:0.721711536191 20:0.520867541471 21:2.79088039374 22:-3.06918604525 23:-0.231449997277 24:2.02714116951 25:4.10930132114 26:8.05196157919 27:-5.53450214502 28:-0.733841772405 29:5.40959291837 30:29.2636955425 
11 1:22.9541175027 2:21.9496656338 3:22.2466546978 4:0.356170065355 5:0.126857115455 6:1.02955444544 7:-1.48839530404 8:-1.90323947079e-16 9:0.71885277182 10:0.516749307554 11:0.60323836067 12:-0.691675182753 13:0.00472996587724 14:0.366287733518 15:0.134166703726 16:1.59487991623 17:-1.23746490098 18:0.171437107133 19:0.79808105101 20:0.636933363982 21:2.86275156668 22:-3.01677849707 23:-0.237924407444 24:1.97681946207 25:3.90781518561 26:8.04115245137 27:-5.73762338222 28:-0.735434123539 29:5.41907482033 30:29.3663719083 
11 1:23.0190639953 2:21.5335689274 3:21.9852572295 4:0.519447705942 5:0.269825919209 6:1.29369792679 7:-1.85345583303 8:-1.26882631386e-16 9:0.882745825166 10:0.779240191849 11:0.728769045136 12:-0.853680869453 13:0.00641382005408 14:0.452950523051 15:0.205164176333 16:1.32152397579 17:-1.14607842364 18:0.139051236061 19:0.696602980349 20:0.485255712231 21:2.77509213132 22:-2.8922424942 23:-0.218088100544 24:1.84214961472 25:3.39351520302 26:7.91894066194 27:-5.56756276526 28:-0.725998703961 29:5.38354975546 30:28.9826079695 
11 1:23.1206535514 2:21.8116233676 3:22.2087563188 4:0.458899516086 5:0.210588765864 6:1.15468795397 7:-1.65712005895 8:-3.76682811926e-16 9:0.792724316266 10:0.6284118416 11:0.653604405031 12:-0.754599769525 13:0.0048978375596 14:0.399661854317 15:0.159729597796 16:1.43883426444 17:-1.15868907129 18:0.153862646966 19:0.720802906619 20:0.51955683019 21:2.837682606 22:-2.95606186403 23:-0.217157789601 24:1.87580045152 25:3.51862733391 26:7.88705484929 27:-5.45301935014 28:-0.732008410437 29:5.31654877871 30:28.2656909164 
11 1:23.1702579546 2:21.7718193948 3:22.1989088496 4:0.489235071902 5:0.239350955579 6:1.17580989506 7:-1.68339917904 8:-8.52492679623e-16 9:0.805178416648 10:0.648312282636 11:0.661811091858 12:-0.76026004787 13:0.00504179945704 14:0.402745853283 15:0.162204222337 16:1.43093533599 17:-1.15850107252 18:0.152749262047 19:0.717705051728 20:0.515100541276 21:2.7919140078 22:-2.9825590747 23:-0.22047970599 24:1.920589952 25:3.68866576374 26:8.06421995153 27:-5.5396072495 28:-0.709278101298 29:5.40558227868 30:29.2203197715 
11 1:23.4729338531 2:21.6511915676 3:22.216019826 4:0.63328565905 5:0.401050725958 6:1.36005218882 7:-1.93161332701 8:-1.14987384693e-16 9:0.920019960248 10:0.846436727254 11:0.761418526275 12:-0.880664511334 13:0.00822598442154 14:0.467812782935 15:0.218848799877 16:1.19973529518 17:-1.0896003121 18:0.124604802798 19:0.655273573443 20:0.429383456053 21:2.77181095922 22:-2.96898559031 23:-0.222960847498 24:1.90144254514 25:3.61548375246 26:7.97682971484 27:-5.56960405292 28:-0.737014113454 29:5.4111578602 30:29.280629388 
11 1:23.1562317676 2:21.9766355063 3:22.3259903407 4:0.415246479474 5:0.172429638715 6:1.21614186628 7:-1.75420968157 8:1.78428700386e-16 9:0.834447964779 10:0.696303405924 11:0.681923970445 12:-0.816202843285 13:0.00715989812003 14:0.434010183316 15:0.188364839222 16:1.21659473443 17:-1.12218564612 18:0.125689129669 19:0.672089394469 20:0.451704154157 21:2.78549319793 22:-2.94411051384 23:-0.227165075707 24:1.87943125479 25:3.53226184148 26:8.10911337357 27:-5.54494647736 28:-0.707807080262 29:5.40042624595 30:29.164603638 
11 1:23.0599458073 2:21.6801861608 3:22.0982501529 4:0.483009222311 5:0.233297908837 6:1.22698845708 7:-1.75907037491 8:-6.46308403621e-16 9:0.838235738335 10:0.702639153022 11:0.693892838376 12:-0.814048724681 13:0.00677251657966 14:0.432144212052 15:0.18674862001 16:1.25145310687 17:-1.11496190739 18:0.130414597743 19:0.679101372627 20:0.461178674304 21:2.74989596195 22:-2.92933948278 23:-0.225917486007 24:1.89120520926 25:3.57665714351 26:7.92822228719 27:-5.58385307073 28:-0.723872276224 29:5.39407271975 30:29.0960205059 
11 1:21.5446983451 2:21.4140921728 3:21.4620582212 4:0.0435180165529 5:0.0018938177647 6:0.933505020562 7:-1.40573277823 8:-5.39251183389e-16 9:0.677068956326 10:0.458422371621 11:0.515320884612 12:-0.689866693416 13:0.00521394402172 14:0.380776415781 15:0.144990678815 16:1.01837495343 17:-1.09223891096 18:0.100107235496 19:0.630166555108 20:0.397109887177 21:2.63323658431 22:-2.80919157589 23:-0.238479073537 24:1.81421113704 25:3.29136204977 26:7.45474872611 27:-5.43970028248 28:-0.701247550426 29:5.06372165555 30:25.6412770049 
11 1:22.0948132057 2:20.1017076692 3:20.7265564633 4:0.691397869297 5:0.478031013669 6:1.35104294617 7:-1.91021206628 8:-3.37031989618e-16 9:0.913335073171 10:0.834180955884 11:0.769204543221 12:-0.869317656034 13:0.00526791003945 14:0.462621382627 15:0.214018543663 16:1.34311763497 17:-1.0988890502 18:0.14340176393 19:0.686768951498 20:0.471651592742 21:2.74534474366 22:-2.86646583536 23:-0.196807329747 24:1.80850328247 25:3.2706841227 26:7.62877052561 27:-5.25075852147 28:-0.661261352986 29:5.03019085824 30:25.3028200703 
11 1:23.497100102 2:21.0341634919 3:21.8197331657 4:0.85102449398 5:0.724242689355 6:1.390377835 7:-1.94278962152 8:-2.81520838387e-16 9:0.936519289368 10:0.877068379358 11:0.797077133134 12:-0.864846010286 13:0.00450455378844 14:0.465441086074 15:0.216635404605 16:1.47519792974 17:-1.11011299994 18:0.160351677518 19:0.716557300641 20:0.513454365103 21:2.75121779165 22:-2.92352255702 23:-0.187698460852 24:1.87606104952 25:3.51960506151 26:7.82107467039 27:-5.58310582512 28:-0.717024052921 29:5.28124543333 30:27.8915533271 
11 1:23.3263990357 2:22.1323635036 3:22.4867001039 4:0.419940521667 5:0.176350041738 6:1.22354010281 7:-1.76490420645 8:-5.31321018928e-16 9:0.838759558712 10:0.70351759733 11:0.687630475386 12:-0.824508450971 13:0.00537202580629 14:0.438469184107 15:0.192255225412 16:1.20026877119 17:-1.11334440949 18:0.123781747157 19:0.668960842706 20:0.447508609073 21:2.82969650008 22:-2.9924326407 23:-0.211149648358 24:1.89847168879 25:3.60419475312 26:7.84427696487 27:-5.5205436351 28:-0.701791276939 29:5.32070848957 30:28.3099388309 
11 1:22.8970659244 2:22.0984490633 3:22.3236721883 4:0.285926592412 5:0.0817540162485 6:1.05554652535 7:-1.53849897859 8:3.68752647465e-16 9:0.736453481293 10:0.542363730108 11:0.600044076061 12:-0.719522400141 13:0.00378175946439 14:0.381445349856 15:0.145500554927 16:1.38638822058 17:-1.16603668346 18:0.146550245187 19:0.717804478338 20:0.515243269123 21:2.76694339948 22:-2.89890441875 23:-0.21509887871 24:1.86113611704 25:3.46382764615 26:7.78277712725 27:-5.53948842998 28:-0.707390409591 29:5.30866170943 30:28.1818891452 
11 1:24.7801194911 2:22.0786260671 3:22.9474439305 4:0.932055419018 5:0.868727304121 6:1.38534687804 7:-1.92414805583 8:-5.31321018928e-16 9:0.933962992243 10:0.87228687088 11:0.79813285022 12:-0.838709432613 13:0.000856479193298 14:0.459428238712 15:0.211074306526 16:1.68796573451 17:-1.15153032865 18:0.187177216495 19:0.771238817602 20:0.594809313777 21:2.93022231161 22:-3.07916046728 23:-0.166349772779 24:1.93585670334 25:3.74754117585 26:8.43379397604 27:-5.81835601035 28:-0.72600742698 29:5.51175073288 30:30.3793961414 
11 1:24.758094476 2:24.0257379064 3:24.2266779647 4:0.264460582178 5:0.069939399526 6:1.10721731233 7:-1.62312599098 8:-1.9825411154e-16 9:0.776981040287 10:0.603699536966 11:0.633476720902 12:-0.765177044847 13:-0.00353299426947 14:0.405452948757 15:0.164392093656 16:1.55070328529 17:-1.26341798737 18:0.165154014755 19:0.787166268449 20:0.619630734184 21:3.00706660362 22:-3.17771089918 23:-0.189356174595 24:2.03263889013 25:4.13162085766 26:8.38824770111 27:-6.03846653659 28:-0.77118064255 29:5.70758807607 30:32.5765616462 
11 1:23.7260284214 2:23.3068790375 3:23.4365607262 4:0.139858200253 5:0.0195603161781 6:1.2378765299 7:-1.83681919266 8:-5.9079725239e-16 9:0.87504845871 10:0.765709805091 11:0.682453216487 12:-0.884964767382 13:0.00150527848632 14:0.479716718177 15:0.230128129698 16:1.2006768139 17:-1.22422193056 18:0.120764309735 19:0.704155554705 20:0.495835045222 21:2.67909448039 22:-2.86583399311 23:-0.223403167516 24:1.87276693527 25:3.50725599384 26:7.96820791625 27:-5.78492558435 28:-0.742363479263 29:5.42298086415 30:29.408721453 
11 1:23.6739663988 2:22.2895944908 3:22.7067332145 4:0.484801371563 5:0.23503236987 6:1.29145595538 7:-1.85568586252 8:-8.00946610622e-16 9:0.881573597474 10:0.777172007763 11:0.725516842931 12:-0.862902976684 13:0.00498463590478 14:0.458485297068 15:0.210208767627 16:1.21758666515 17:-1.12014473534 18:0.125989986218 19:0.673026010652 20:0.452964011014 21:2.82154425765 22:-2.99028977908 23:-0.20890297527 24:1.89810379676 25:3.60279802329 26:7.9002895401 27:-5.57654685852 28:-0.703598946213 29:5.37292041865 30:28.8682738251 
11 1:23.3084806885 2:22.5029975765 3:22.7309905829 4:0.287914216114 5:0.0828945958406 6:1.04941393366 7:-1.52858303093 8:-5.27355936697e-16 9:0.731205743962 10:0.534661840003 11:0.610627303494 12:-0.733809758955 13:0.00227683634092 14:0.390129758956 15:0.152201228823 16:1.29487737362 17:-1.12465461998 18:0.135547442196 19:0.710320751991 20:0.504555570709 21:2.65188120985 22:-2.81441679385 23:-0.204918995561 24:1.8326898994 25:3.35875226735 26:7.93178420012 27:-5.63129070779 28:-0.71518906097 29:5.27389621253 30:27.8139812606 
11 1:23.3979253032 2:22.3191749148 3:22.6387230466 4:0.379571780943 5:0.144074736888 6:1.13030987643 7:-1.63359009612 8:-3.64787565234e-16 9:0.775965126217 10:0.602121877105 11:0.630093170821 12:-0.755813832398 13:0.00138905056511 14:0.400996343523 15:0.160798067519 16:1.18083691783 17:-1.0575173418 18:0.122929001609 19:0.635972637404 20:0.404461195527 21:2.79689046201 22:-2.96986511456 23:-0.182710422021 24:1.86187274134 25:3.46657010495 26:7.82560829372 27:-5.63831907769 28:-0.715373951877 29:5.31384227262 30:28.2369196983 
11 1:23.1264882688 2:22.4002483372 3:22.6078346656 4:0.260016239691 5:0.0676084449028 6:0.901758280783 7:-1.31369196055 8:-3.17206578464e-16 9:0.63272696777 10:0.400343415743 11:0.519192654954 12:-0.608084070362 13:0.00130442851516 14:0.321273597132 15:0.103216724214 16:1.41842963057 17:-1.11899811534 18:0.151826904833 19:0.708891515119 20:0.502527180208 21:2.83183890381 22:-2.98527810258 23:-0.202676403994 24:1.89494219738 25:3.59080593143 26:7.88268476567 27:-5.45726147578 28:-0.697778134322 29:5.27277490085 30:27.802155155 
11 1:38.7344631792 2:19.3519439407 3:25.8573331296 4:6.60929678988 5:43.6828040568 6:4.05585766868 7:-4.87921748416 8:-1.17366434032e-15 9:2.97759646733 10:8.86608072225 11:2.60650147977 12:-2.02817507148 13:0.0667906621274 14:1.53560076461 15:2.35806970827 16:3.27301188886 17:-3.69497912939 18:0.160965639466 19:1.90833878657 20:3.64175692433 21:1.28914332646 22:-1.8637853188 23:-0.202731180949 24:0.972819538464 25:0.946377854417 26:7.46799348494 27:-5.63420333964 28:-0.504334098448 29:4.12139624286 30:16.9859069907 
11 1:32.7633760577 2:31.3762483487 3:32.0344319923 4:0.466707769141 5:0.217816141776 6:4.28659414857 7:-6.28509678663 8:-1.33226762955e-15 9:3.04081453818 10:9.24655305563 11:3.55545679392 12:-3.30843171779 13:0.0476575646754 14:2.21303161775 15:4.89750894117 16:1.9801027689 17:-9.26787505443 18:-1.15510762248 19:3.34861052898 20:11.2131924748 21:4.95769832784 22:-3.20328590513 23:0.0426091385333 24:2.44622591051 25:5.98402120527 26:7.28219860155 27:-5.73645904413 28:-0.4945250615 29:4.23966957961 30:17.9747981442 
11 1:32.3415231038 2:16.1549659967 3:21.5265494521 4:5.53302738973 5:30.6143920955 6:4.30296762681 7:-5.4301841439 8:8.72318090777e-17 9:2.99451614028 10:8.96712691441 11:2.16668563005 12:-1.81331051915 13:0.197837826606 14:1.27180988437 15:1.61750038199 16:2.74519723553 17:-2.47190725612 18:0.0532066439722 19:1.37278829488 20:1.88454770257 21:3.09827312286 22:-6.81991206508 23:-1.1530802851 24:2.52778754939 25:6.38970989487 26:7.7729089221 27:-6.22767035042 28:0.516672002234 29:4.99165724749 30:24.9166420764 
11 1:32.860119163 2:16.8448223756 3:22.2763384688 4:5.47682274333 5:29.9955873618 6:3.61135836719 7:-3.11108936812 8:-1.66533453694e-16 9:1.88389829865 10:3.54907279966 11:3.15517787106 12:-3.85739571022 13:-3.48927236311e-16 14:2.2877066406 15:5.23360167345 16:1.21500546793 17:-1.09931246333 18:0.184456900888 19:0.750300260031 20:0.562950480202 21:6.03612597769 22:-8.82125350266 23:-0.922877720396 24:5.01457497029 25:25.1459621326 26:4.20437376409 27:-6.54754018173 28:0.0835700945193 29:3.08860452885 30:9.53947793564 
