20:55:10		x: 61.772816
20:55:11		x: 61.772816
20:55:12		x: 61.4163
20:55:13		x: 61.4163
20:55:14		x: 61.4163
20:55:15		x: 61.1248
20:55:16		x: 61.1248
20:55:17		x: 61.1248
20:55:18		x: 60.751823
20:55:19		x: 60.751823
20:55:19		x: 60.751823
20:55:20		x: 60.14071
20:55:21		x: 60.14071
20:55:22		x: 60.14071
20:55:23		x: 59.309273
20:55:24		x: 59.309273
20:55:25		x: 59.309273
20:55:26		x: 58.679565
20:55:27		x: 58.679565
20:55:28		x: 58.679565
20:55:29		x: 58.41997
20:55:30		x: 58.41997
