20:55:10		x: 22.282465
20:55:11		x: 22.282465
20:55:12		x: 22.4569
20:55:13		x: 22.4569
20:55:14		x: 22.4569
20:55:15		x: 22.578623
20:55:16		x: 22.578623
20:55:17		x: 22.578623
20:55:18		x: 22.745874
20:55:19		x: 22.745874
20:55:19		x: 22.745874
20:55:20		x: 22.957499
20:55:21		x: 22.957499
20:55:22		x: 22.957499
20:55:23		x: 23.259293
20:55:24		x: 23.259293
20:55:25		x: 23.259293
20:55:26		x: 23.45363
20:55:27		x: 23.45363
20:55:28		x: 23.45363
20:55:29		x: 23.594595
20:55:30		x: 23.594595
