11 1:31.2764534212 2:18.2751903443 3:22.5481797673 4:4.45316813056 5:19.8307063991 6:4.15208492961 7:-5.37431295203 8:-7.61295788314e-16 9:2.80988728641 10:7.89546656231 11:2.00813155112 12:-1.89581721162 13:0.229196683969 14:1.20015126795 15:1.44036306597 16:2.92330865415 17:-2.78140394259 18:-0.0562302732909 19:1.49048710689 20:2.2215518158 21:1.09848851504 22:-7.55922519823 23:-1.30441541824 24:2.54567426649 25:6.48045747106 26:7.91971325216 27:-6.88542265475 28:0.775737181637 29:5.27580311642 30:27.8340985233 
11 1:20.5073623351 2:18.2641711963 3:19.090727393 4:0.779695313141 5:0.607924781334 6:2.84349911547 7:-1.78806463751 8:-5.55111512313e-16 9:1.46649919673 10:2.15061989401 11:2.20363203524 12:-2.41674142823 13:0.183746347864 14:1.45682932405 15:2.12235167941 16:5.46163283359 17:-4.46384641535 18:0.381343156699 19:2.93478640657 20:8.61297125217 21:5.72628759962 22:-8.2634438134 23:-1.35342819218 24:3.63482549467 25:13.2119563767 26:9.0235351973 27:-10.7350253792 28:-0.25289422261 29:5.7459506719 30:33.0159491239 
11 1:18.083021873 2:13.321505877 3:14.9258540986 4:1.6234630113 5:2.63563214905 6:1.0755410602 7:-0.892278639651 8:-1.14987384693e-16 9:0.613683520402 10:0.376607463213 11:0.585335949928 12:-0.332291320349 13:0.0944724470667 14:0.312933199894 15:0.0979271875961 16:2.01734925721 17:-2.23283912771 18:-0.18401132968 19:1.2349054492 20:1.52499146846 21:4.67735630625 22:-5.68540689127 23:-0.654989105502 24:3.48505869957 25:12.1456341395 26:16.3625468774 27:-11.1553011221 28:-0.699526616259 29:7.63692001533 30:58.3225473206 
11 1:17.4565270171 2:13.9723327442 3:16.1612353699 4:1.16622711986 5:1.36008569509 6:1.99081034509 7:-3.19450671316 8:-1.11022302463e-16 9:1.61976477366 10:2.623637922 11:1.68498834334 12:-1.73459279632 13:-0.0268642505237 14:1.07185769427 15:1.14887891677 16:1.88423563231 17:-2.03208845649 18:0.0805967741159 19:1.0717160011 20:1.14857518701 21:2.46831328242 22:-3.86121359667 23:-0.40136375397 24:2.30927678703 25:5.3327592791 26:10.9394598368 27:-11.7382427468 28:-1.84458938729 29:7.95490026028 30:63.280438151 
11 1:24.1904587039 2:4.44866899631 3:11.119456516 4:6.73032204044 5:45.297234768 6:4.35381102244 7:-3.33280111858 8:-2.06184276002e-16 9:2.48926977016 10:6.19646398864 11:2.11168372308 12:-2.25020767071 13:0.256639357791 14:1.38271547424 15:1.9119020827 16:0.571473072153 17:-0.517223077288 18:0.0522058992871 19:0.326154421804 20:0.106376706862 21:2.68118933683 22:-8.42231638377 23:-1.38742104589 24:2.98290032818 25:8.89769436784 26:7.10266358925 27:-8.50152996627 28:-2.03491019487 29:4.87339134267 30:23.7499431788 
11 1:25.8984919029 2:23.4993758805 3:24.2652757361 4:0.82907950199 5:0.687372820621 6:1.32759684874 7:-1.85149540879 8:-1.02695629778e-15 9:0.895013038245 10:0.801048338629 11:0.755586677524 12:-0.81209481731 13:0.00765448729792 14:0.438249872787 15:0.192062950998 16:1.44951840889 17:-1.08112500635 18:0.157857605706 19:0.693659910788 20:0.481164071834 21:2.50933509543 22:-2.70208334808 23:-0.207419505036 24:1.78228086866 25:3.17652509479 26:6.99160781247 27:-4.80350093143 28:-0.668017910149 29:4.72194745205 30:22.2967877399 
11 1:25.555847045 2:24.2204080537 3:24.6264086934 4:0.467467674263 5:0.21852602648 6:1.14447972645 7:-1.6371121445 8:-2.29974769387e-16 9:0.782250756408 10:0.611916245901 11:0.64083066322 12:-0.743494405849 13:0.0105909542874 14:0.394590753474 15:0.155701862727 16:1.24228812619 17:-1.07579761936 18:0.130508279045 19:0.651671723446 20:0.424676035139 21:2.51872495046 22:-2.67417359665 23:-0.236047640635 24:1.75212676354 25:3.0699481955 26:7.05146237814 27:-4.83078745611 28:-0.630529860755 29:4.8037523983 30:23.0760371042 
11 1:23.8824953015 2:23.7546613317 3:23.8096779199 4:0.0385050760686 5:0.00148264088305 6:0.918211304939 7:-1.38144218178 8:-3.56857400772e-16 9:0.667028426651 10:0.44492692196 11:0.501186604942 12:-0.66327896285 13:0.0073927154205 14:0.363374189088 15:0.132040801295 16:1.11163327572 17:-1.10731326388 18:0.112242577249 19:0.637902368686 20:0.406919431975 21:2.29879147058 22:-2.46685628113 23:-0.248828361177 24:1.66447876324 25:2.77048955326 26:6.74677504445 27:-4.73373695749 28:-0.612705682231 29:4.52061213211 30:20.435934049 
11 1:24.6225052523 2:22.0311265803 3:22.8549058304 4:0.894885059492 5:0.800819269702 6:1.51012636908 7:-2.10996491726 8:-6.10622663544e-16 9:1.01152411447 10:1.02318103416 11:0.843148349444 12:-0.939648041238 13:0.0122768315591 14:0.501855838845 15:0.251859282983 16:1.15362922511 17:-1.00053343972 18:0.121936323177 19:0.60434386722 20:0.365231509847 21:2.38384393161 22:-2.52590991019 23:-0.210580789119 24:1.62928633956 25:2.65457397629 26:6.80529025082 27:-4.63479126442 28:-0.591669301923 29:4.51343508308 30:20.3710962492 
11 1:25.7400730804 2:23.2255569319 3:24.0309009741 4:0.86781224672 5:0.753098095557 6:1.33313177375 7:-1.8513246192 8:-5.55111512313e-16 9:0.895712416741 10:0.802300733504 11:0.748827147321 12:-0.802229594713 13:0.0107115222066 14:0.433446280611 15:0.187875678175 16:1.32639531686 17:-1.01450867204 18:0.143782576162 19:0.641882736259 20:0.412013447107 21:2.49035100198 22:-2.67044597216 23:-0.212161457131 24:1.73370019948 25:3.00571638169 26:7.08183654802 27:-4.83382970562 28:-0.629212534813 29:4.75681364329 30:22.627276037 
11 1:26.0094538046 2:24.0414303443 3:24.6571642016 4:0.682995072161 5:0.466482268596 6:1.34186589127 7:-1.89537830255 8:-8.00946610622e-16 9:0.906348944631 10:0.821468409433 11:0.744355118154 12:-0.842702171725 13:0.0116939136836 14:0.448138701454 15:0.200828295741 16:1.25938020988 17:-1.07915867479 18:0.133000824208 19:0.652566949928 20:0.425843624139 21:2.50672930678 22:-2.69783572 23:-0.239766713181 24:1.77524244514 25:3.15148573903 26:7.08881796426 27:-4.80426106728 28:-0.649787575951 29:4.82976019282 30:23.3265835201 
11 1:25.8605056719 2:24.0945041733 3:24.6417034724 4:0.614544767261 5:0.377665270968 6:1.30309091624 7:-1.84805913941 8:-7.21644966006e-16 9:0.882958765295 10:0.779616181211 11:0.72486535472 12:-0.830675763454 13:0.0139112299114 14:0.441689090941 15:0.195089253056 16:1.2233865374 17:-1.08447329879 18:0.128007741326 19:0.649674842084 20:0.422077400437 21:2.48625657943 22:-2.65417610616 23:-0.255894304921 24:1.75717498806 25:3.08766393868 26:7.01572139971 27:-4.78450267781 28:-0.642983825446 29:4.79723871008 30:23.0134992415 
11 1:27.7630183868 2:23.8064559477 3:25.0888598101 4:1.36034302267 5:1.85053313933 6:1.78374406015 7:-2.43924777567 8:-5.23390854466e-16 9:1.19168509347 10:1.420113362 11:0.993996942845 12:-1.03645321868 13:0.018417275141 14:0.568020774165 15:0.322647599883 16:1.39600537704 17:-1.06243276158 18:0.152117512742 19:0.673133224753 20:0.453108338267 21:2.59978523996 22:-2.80198664669 23:-0.244691390535 24:1.82366167308 25:3.32574189785 26:7.55027692483 27:-5.11088153439 28:-0.650127413492 29:5.00630604565 30:25.0631002227 
11 1:27.5160999405 2:26.0503919038 3:26.500179304 4:0.512378474336 5:0.262531700963 6:1.1606005124 7:-1.65380732953 8:-5.19425772235e-16 9:0.793936123701 10:0.630334568518 11:0.653376118292 12:-0.742162055413 13:0.0122640643796 14:0.394207124113 15:0.155399256701 16:1.37958390038 17:-1.1469734611 18:0.146166878915 19:0.705198142945 20:0.497304420814 21:2.61789104171 22:-2.82480050323 23:-0.265881017708 24:1.89247571728 25:3.58146434051 26:7.4990136491 27:-5.13954068282 28:-0.696481880297 29:5.10972174395 30:26.1092563005 
11 1:26.1685189979 2:25.5512238438 3:25.7137049627 4:0.22393599 5:0.0501473276175 6:1.09980623732 7:-1.61202613045 8:-1.54638207001e-16 9:0.768460138574 10:0.590530984577 11:0.586603800184 12:-0.731774108759 13:0.0111032516509 14:0.391413699252 15:0.153204683962 16:1.18283747132 17:-1.13979335289 18:0.120777074974 19:0.666795346135 20:0.444616033628 21:2.40394982453 22:-2.67064009428 23:-0.269478433538 24:1.8192613673 25:3.30971192256 26:7.27862282021 27:-4.96315167823 28:-0.669047426421 29:4.91598645062 30:24.1669227827 
11 1:25.8343183491 2:24.181442231 3:24.6909552946 4:0.575805984665 5:0.331552531976 6:1.27516386134 7:-1.81274962127 8:-7.53365623853e-17 9:0.864707899444 10:0.747719751361 11:0.704254825557 12:-0.814189189919 13:0.0135878475061 14:0.432698292894 15:0.187227812674 16:1.1827098065 17:-1.07114009035 18:0.123016886346 19:0.636795104324 20:0.405508004891 21:2.53906294853 22:-2.71384223144 23:-0.249878619241 24:1.77531229319 25:3.15173373837 26:7.17447777866 27:-4.84679161538 28:-0.646274589654 29:4.88818954856 30:23.8943970626 
11 1:25.7698790875 2:23.8747448105 3:24.4656206888 4:0.65850610813 5:0.433630294444 6:1.32317911425 7:-1.87074734019 8:-2.53765262771e-16 9:0.895247908947 10:0.801468818474 11:0.735376428868 12:-0.833849352913 13:0.0142455331449 14:0.443646225234 15:0.196821973165 16:1.2632901302 17:-1.09531236795 18:0.132926143711 19:0.660143223618 20:0.435789075689 21:2.52316406525 22:-2.70781816191 23:-0.260165567996 24:1.79004388033 25:3.20425709352 26:7.18294209612 27:-4.86554157019 28:-0.647409499441 29:4.87319420495 30:23.7480217592 
11 1:25.6624214027 2:24.0048081094 3:24.5176848096 4:0.577131635771 5:0.333080925007 6:1.24029703126 7:-1.76097362913 8:-1.66533453694e-16 9:0.8413494949 10:0.707868972569 11:0.685738525488 12:-0.785417468048 13:0.0126130673368 14:0.417191833378 15:0.174049025837 16:1.22412940129 17:-1.06693181405 18:0.128580090948 19:0.64156980591 20:0.411611815856 21:2.53752421368 22:-2.71128838392 23:-0.247425012487 24:1.7683670565 25:3.12712204651 26:7.10530984206 27:-4.88241674023 28:-0.646706730753 29:4.84169728599 30:23.4420326092 
11 1:25.7021091066 2:23.9022201612 3:24.4627992536 4:0.625683748096 5:0.391480152632 6:1.27443844424 7:-1.80436176809 8:-8.76283173008e-16 9:0.863426510041 10:0.745505338241 11:0.71336709401 12:-0.809103473384 13:0.0115334036579 14:0.430215309773 15:0.185085212763 16:1.26997512062 17:-1.07869412854 18:0.134275402303 19:0.656326345646 20:0.430764271989 21:2.48376716506 22:-2.65947502354 23:-0.237572134964 24:1.7522678965 25:3.0704427811 26:7.24170436733 27:-4.90487644146 28:-0.648876054972 29:4.89770977878 30:23.9875610771 
11 1:25.2823781637 2:24.0600550177 3:24.4273912494 4:0.42904859612 5:0.184082697833 6:1.13581915495 7:-1.63050531093 8:-1.03488646224e-15 9:0.777879153119 10:0.605095976857 11:0.63371367926 12:-0.744792556136 13:0.0104484805821 14:0.395483664149 15:0.156407328609 16:1.1934015874 17:-1.06299688597 18:0.124504313301 19:0.637182048036 20:0.406000962339 21:2.45741204699 22:-2.61799459551 23:-0.238617453908 24:1.71681555695 25:2.94745565657 26:7.36020544328 27:-4.9896573882 28:-0.66490611726 29:4.93173709518 30:24.322030776 
11 1:27.053387891 2:23.1300959891 3:24.4023705056 4:1.34774756097 5:1.81642348811 6:1.75219826007 7:-2.39025329265 8:-4.24263798696e-16 9:1.16657334111 10:1.3608933602 11:0.978369726764 12:-1.03589508268 13:0.0212948712225 14:0.563612385427 15:0.317658921006 16:1.03017749566 17:-0.916904372807 18:0.108040067657 19:0.561794865739 20:0.315613471171 21:3.08087744581 22:-3.19162926115 23:-0.239655652075 24:1.90165547625 25:3.61629355035 26:7.25209986831 27:-5.0837538353 28:-0.649413211285 29:4.96780600181 30:24.6790964716 
11 1:25.6097203815 2:19.5023032427 3:23.5813406868 4:2.08086045738 5:4.3299802431 6:2.62982570858 7:-1.98627205112 8:-5.15460690005e-16 9:1.32744479566 10:1.76210968554 11:1.02053197368 12:-1.0379685282 13:0.029559639994 14:0.616600873405 15:0.380196637084 16:1.47152697416 17:-1.71366866497 18:-0.03091499898 19:0.859033743498 20:0.737938972469 21:3.47870204761 22:-2.87837966466 23:-0.270777051111 24:1.72509933623 25:2.97596771986 26:9.60645895121 27:-6.42539018711 28:-0.576557651229 29:5.69195530433 30:32.3983551865 
11 1:22.4679257723 2:19.5778310852 3:21.5590193872 4:0.993375609204 5:0.986795100961 6:2.75717046864 7:-1.97423554502 8:-6.18552828005e-16 9:1.32074033156 10:1.7443550234 11:1.35933267792 12:-1.04115758176 13:-0.0319571083616 14:0.795577833194 15:0.632944088669 16:2.7409398196 17:-0.801921168662 18:0.330850093118 19:1.01339425054 20:1.02696790702 21:2.4031108229 22:-3.06040792869 23:-0.105535046891 24:1.62795018723 25:2.65022181209 26:7.53751339202 27:-7.5569904649 28:-1.30754549827 29:4.87753100587 30:23.7903087132 
11 1:32.5907812212 2:17.3760338715 3:22.3121235593 4:5.21708068188 5:27.2179308413 6:7.34938765743 7:-10.1588611024 8:-5.31321018928e-16 9:4.8770438455 10:23.7855566709 11:3.91066196104 12:-4.24828322324 13:-0.0651922822836 14:2.3197285988 15:5.3811407721 16:4.03967555431 17:-3.61578624859 18:0.460444553362 19:2.57564933445 20:6.63396949403 21:6.78499344131 22:-8.40154659786 23:0.0135402813577 24:4.10507329663 25:16.8516267707 26:8.244000788 27:-6.98398829691 28:-0.413474684919 29:5.51224105182 30:30.3848014134 
11 1:31.11768552 2:13.355966061 3:19.2435385362 4:6.08372145176 5:37.0116667027 6:4.59817775692 7:-5.77079110162 8:-8.72318090777e-17 9:3.26336239629 10:10.6495341295 11:2.32564363267 12:-1.7734207436 13:0.272887599891 14:1.45284320285 15:2.11075337208 16:3.64403665166 17:-3.40056461812 18:0.329805263062 19:2.13915005226 20:4.57596294608 21:2.09717024091 22:-11.1163968429 23:-1.74396771517 24:3.59519942544 25:12.9254589087 26:8.79667604026 27:-6.53017667965 28:0.527257142793 29:5.85235849624 30:34.2500999685 
11 1:31.0839167437 2:14.4362587114 3:19.9525416552 4:5.69677200483 5:32.453211275 6:4.47748283732 7:-5.65885337301 8:-3.88578058619e-16 9:3.125107289 10:9.76629556773 11:2.28265847517 12:-1.88219942708 13:0.230621008548 14:1.35603495873 15:1.8388308093 16:2.83149781122 17:-2.65042642204 18:0.148116967981 19:1.50790587496 20:2.27378012772 21:2.22359272617 22:-8.54109544651 23:-1.39106011225 24:2.83972666124 25:8.06404751057 26:8.6733652137 27:-7.21481630233 28:0.391581221449 29:5.49019356304 30:30.1422253597 
