11 1:5323.0544594 2:5323.00018492 3:5323.01837204 4:0.0169511506695 5:0.00028734150902 6:0.0132501208785 7:-0.0159693456437 8:-1.89478062869e-14 9:0.00882127882426 10:7.78149600954e-05 11:0.0140301799615 12:-0.0156529647181 13:-9.41469124882e-14 14:0.00912018358032 15:8.31777485387e-05 16:0.0203156884205 17:-0.0213965875189 18:-7.69754630407e-14 19:0.0131556172572 20:0.000173070265418 21:0.00857424997574 22:-0.00968258264642 23:-4.41128615118e-14 24:0.00640422387103 25:4.10140833903e-05 26:0.0290518057828 27:-0.0186465853438 28:-0.000157517777102 29:0.0153393198453 30:0.000235294733315 
11 1:5323.15501669 2:5323.02080051 3:5323.06576198 4:0.0419225217555 5:0.00175749783034 6:0.0328935611887 7:-0.039536507595 8:-2.16715534407e-13 9:0.021869276289 10:0.000478265245405 11:0.0346642734547 12:-0.0388302146023 13:-6.39488462184e-14 14:0.0225381975309 15:0.000507970347942 16:0.0511799083187 17:-0.053737846988 18:-5.03301104497e-14 19:0.0329535711183 20:0.00108593784945 21:0.0202405611763 22:-0.0225982805762 23:-1.59872115546e-14 24:0.0149313000245 25:0.000222943720423 26:0.0515149661922 27:-0.032448483115 28:-0.000387502909845 29:0.0277940572157 30:0.000772509616509 
11 1:5323.13879174 2:5322.97061175 3:5323.08239517 4:0.0525084531598 5:0.00275713765324 6:0.0495812954476 7:-0.0406208862343 8:-1.5750363976e-13 9:0.0272319894309 10:0.000741581248362 11:0.0472929487066 12:-0.0421995101025 13:-8.17124146124e-14 14:0.0274505268765 15:0.000753531425797 16:0.0595559634172 17:-0.0558048255989 18:-4.08562073062e-14 19:0.0371335247262 20:0.00137889865859 21:0.0379789418595 22:-0.0440681535143 23:-4.35207425653e-14 24:0.0285387546834 25:0.000814460518877 26:0.032168684553 27:-0.0211822024288 28:-0.00120935714363 29:0.0190028511918 30:0.000361108353418 
11 1:5323.13708758 2:5323.02564456 3:5323.0628395 4:0.0348558207629 5:0.00121492824105 6:0.0286469627789 7:-0.0330710829116 8:-1.38555833473e-13 9:0.0187741829923 10:0.00035246994703 11:0.0297439263871 12:-0.0342576553857 13:-2.10202225996e-13 14:0.0194194063284 15:0.000377113342146 16:0.056013187402 17:-0.0569351277887 18:-5.86197757002e-14 19:0.0343337666343 20:0.0011788075313 21:0.0167309908675 22:-0.0143005883477 23:-3.22704825824e-14 24:0.0111251364826 25:0.000123768661757 26:0.046148974504 27:-0.047329864063 28:-0.00236962504617 29:0.0343405407678 30:0.00117927274022 
11 1:5323.20941252 2:5322.95700925 3:5323.12493571 4:0.0788623898315 5:0.00621927652993 6:0.0745180430352 7:-0.0625912481902 8:1.68161780797e-13 9:0.0414326365956 10:0.00171666337526 11:0.074025125688 12:-0.0655339395838 13:-1.26713454544e-13 14:0.0426392891659 15:0.00181810898057 16:0.107300631396 17:-0.103151967474 18:-1.14871075615e-13 19:0.0653368060274 20:0.00426889822187 21:0.0354217340459 22:-0.0356017628464 23:-2.90138283769e-14 24:0.0224427403648 25:0.000503676595081 26:0.044918076107 27:-0.0359517067371 28:0.00150824035817 29:0.0288913360922 30:0.000834709301193 
11 1:5323.24026861 2:5323.21336122 3:5323.23098747 4:0.00834281539916 5:6.96025687845e-05 6:0.00743222774405 7:-0.00522908537216 8:-5.09222293961e-14 9:0.00496357511871 10:2.46370779591e-05 11:0.00623970725339 12:-0.00554430872811 13:-9.7699626167e-14 14:0.0044358657284 15:1.96769047604e-05 16:0.0155435069529 17:-0.0152947822862 18:-1.11910480882e-13 19:0.0117146519582 20:0.000137233070502 21:0.0617634294797 22:-0.0638338471291 23:-5.18104078158e-14 24:0.038147505696 25:0.00145523219083 26:0.0335729555928 27:-0.023543981547 28:-0.00204292523859 29:0.0190774038366 30:0.000363947337143 
11 1:5323.2509574 2:5323.21865792 3:5323.22949319 4:0.0100814770195 5:0.000101636178895 6:0.00774163501345 7:-0.00958321283034 8:-1.85925349191e-13 9:0.00523695057875 10:2.74256513642e-05 11:0.00766828300662 12:-0.00876761004256 13:-1.10726242989e-13 14:0.0050043769929 15:2.5043789087e-05 16:0.00900600712339 17:-0.00976885687898 18:-9.7699626167e-14 19:0.00623322883247 20:3.8853141678e-05 21:0.0118500807442 22:-0.0100822005941 23:-4.17443857259e-14 24:0.00765525413468 25:5.86029158666e-05 26:0.0180011815828 27:-0.0236241590521 28:0.00136427526936 29:0.0139352287518 30:0.000194190600365 
11 1:5323.36377738 2:5323.22326437 3:5323.27025682 4:0.0439078910379 5:0.00192790289539 6:0.0351346508488 7:-0.041746736098 8:-4.02640883597e-14 9:0.0232372606692 10:0.000539970283409 11:0.0355445321281 12:-0.0409917470061 13:-1.59872115546e-14 14:0.0232254195714 15:0.000539420114266 16:0.0571331956418 17:-0.0591516168459 18:1.42108547152e-14 19:0.0359359981758 20:0.00129139596489 21:0.0216534445224 22:-0.0216379177004 23:-5.47710025482e-14 24:0.0137087658644 25:0.000187930261525 26:0.0175915607187 27:-0.0253286583751 28:0.00161280479746 29:0.0158517059846 30:0.000251276582623 
11 1:5323.48339406 2:5323.30839895 3:5323.36700647 4:0.0546599218679 5:0.00298770705861 6:0.0429878372149 7:-0.0517205870361 8:-2.53426909088e-13 9:0.0285940426887 10:0.000817619277284 11:0.0444316690154 12:-0.050300341062 13:-2.96059473233e-14 14:0.0289259449179 15:0.000836710289395 16:0.0653829410357 17:-0.0686199102567 18:-4.67773967709e-14 19:0.0420797025213 20:0.00177070136428 21:0.0270448742171 22:-0.0288042429981 23:-3.07901852163e-14 24:0.0209439647359 25:0.000438649658857 26:0.00636204169192 27:-0.00971166523443 28:0.000865485766256 29:0.00570660619307 30:3.25653542428e-05 
11 1:5323.68403071 2:5323.63534163 3:5323.65153867 4:0.0152496687828 5:0.000232552397984 6:0.0130442008874 7:-0.0145008706562 8:-3.78956125739e-14 9:0.00851481458728 10:7.25020674557e-05 11:0.013614633872 12:-0.0159021742503 13:-6.2172489379e-14 14:0.00892571082453 15:7.96683137231e-05 16:0.0305004733867 17:-0.030425333879 18:-2.13162820728e-14 19:0.0183700569495 20:0.000337458992326 21:0.0212612167459 22:-0.0205126831962 23:-4.64813372976e-14 24:0.0127176014592 25:0.000161737386876 26:0.0390040208865 27:-0.0280018380177 28:-0.00210082067588 29:0.023616948168 30:0.000557760240772 
11 1:5323.97281694 2:5323.96273899 3:5323.96928671 4:0.0031274259706 5:9.78079320156e-06 6:0.00385747988159 7:-0.0035265157877 8:-3.31586610021e-14 9:0.00252582053971 10:6.37976939884e-06 11:0.00234437349444 12:-0.00232536768026 13:-7.46069872548e-14 14:0.00145585987346 15:2.11952797116e-06 16:0.0128486454514 17:-0.0112757148799 18:-1.11910480882e-13 19:0.00844540138941 20:7.13248046282e-05 21:0.0406605674314 22:-0.0414826497771 23:-2.93098878501e-14 24:0.0248491537859 25:0.000617480443873 26:0.0407026432968 27:-0.0404122466037 28:-0.00235115964473 29:0.0259624465271 30:0.000674048629673 
11 1:5324.8297347 2:5324.38465334 3:5324.53331058 4:0.139161859821 5:0.0193660232287 6:0.113304512618 7:-0.132091582412 8:-1.84741111298e-13 9:0.0744410182338 10:0.00554146519568 11:0.116823686543 12:-0.134478442643 13:-3.5527136788e-14 14:0.0762728867455 15:0.00581755325248 16:0.209216606664 17:-0.21384679106 18:2.96059473233e-15 19:0.129136633553 20:0.0166762701254 21:0.0643907782363 22:-0.0421256081873 23:-1.48029736617e-14 24:0.0403020392282 25:0.00162425436595 26:0.0857241071983 27:-0.0708718098051 28:-0.00407950213974 29:0.0491366724089 30:0.00241441257542 
11 1:5325.37717179 2:5325.07486454 3:5325.17595869 4:0.0944706354373 5:0.00892470095993 6:0.0756876872516 7:-0.0897610080035 8:-1.20792265079e-13 9:0.0500196952454 10:0.00250196991245 11:0.076942576448 12:-0.0885672481129 13:-4.73695157173e-14 14:0.0502487026195 15:0.00252493211494 16:0.125025516871 17:-0.129300236452 18:-8.11202956659e-14 19:0.0784925623855 20:0.00616108234984 21:0.0423010765075 22:-0.0418433483885 23:-3.58231962612e-14 24:0.0266598113699 25:0.00071074554228 26:0.0304115901687 27:-0.0283281296823 28:0.00192032798706 29:0.0215505250924 30:0.000464425131757 
11 1:5325.47668375 2:5325.40654015 3:5325.43001896 4:0.0219084515315 5:0.000479980248509 6:0.0173030081352 7:-0.0209386836999 8:-1.24344978758e-13 9:0.0115434976327 10:0.000133252337597 11:0.0167971610066 12:-0.0196622163838 13:-9.94759830064e-14 14:0.0110306415757 15:0.000121675053572 16:0.0239450768549 17:-0.025141785926 18:-1.71714494475e-14 19:0.0154541183274 20:0.000238829773276 21:0.0143067668687 22:-0.0170992208239 23:-2.69414120642e-14 24:0.0116895237748 25:0.000136644966082 26:0.0467999939739 27:-0.0576678651694 28:0.0032669494899 29:0.0396903122949 30:0.00157532089006 
11 1:5325.54084638 2:5325.47588168 3:5325.49747803 4:0.0203479684399 5:0.000414039819629 6:0.0175205408248 7:-0.0194742157903 8:1.89478062869e-14 9:0.0114349861725 10:0.000130758908764 11:0.0176721448898 12:-0.0210633550431 13:-3.07901852163e-14 14:0.011690933897 15:0.000136677935384 16:0.0402532938283 17:-0.0400172375774 18:-1.7763568394e-14 19:0.0241918280513 20:0.000585244544463 21:0.0330987185099 22:-0.0299830457409 23:-5.3290705182e-15 24:0.0198989672208 25:0.000395968896455 26:0.0536671707387 27:-0.0342832652806 28:-0.000832677466143 29:0.029474439598 30:0.000868742589616 
11 1:5325.6135102 2:5325.59739742 3:5325.60781035 4:0.00497398343932 5:2.47405112546e-05 6:0.00618413227522 7:-0.00576216641006 8:-1.91846538655e-13 9:0.00395551266707 10:1.56460804593e-05 11:0.00771916098152 12:-0.00744321997464 13:2.6645352591e-14 14:0.00474018698461 15:2.24693726491e-05 16:0.0187875962717 17:-0.016047764409 18:-4.14483262527e-15 19:0.0131916806514 20:0.000174020438407 21:0.0611947980749 22:-0.0615123845055 23:-5.35867646552e-14 24:0.0369787304688 25:0.00136742650709 26:0.0176875067845 27:-0.0221438899466 28:0.00100234169351 29:0.0158127010777 30:0.000250041515373 
11 1:5325.82391495 2:5325.717813 3:5325.75308092 4:0.0332257111365 5:0.00110394788053 6:0.0285976912409 7:-0.0320017242185 8:-1.89478062869e-14 9:0.0186630461011 10:0.000348309289771 11:0.027763814411 12:-0.0337532896044 13:-1.0717352931e-13 14:0.018578342868 15:0.000345154823721 16:0.0625026939298 17:-0.0621196136543 18:-1.52766688188e-13 19:0.0375600053844 20:0.00141075400447 21:0.0428893437463 22:-0.0384524059225 23:1.18423789293e-14 24:0.0261309135254 25:0.000682824641674 26:0.0261426334581 27:-0.0226533437375 28:0.000767364853634 29:0.0154936052196 30:0.000240051802701 
11 1:5325.9087587 2:5325.72880089 3:5325.78904645 4:0.0562156212421 5:0.00316019607163 6:0.0444198836536 7:-0.0532993040772 8:-1.91846538655e-13 9:0.0295074880001 10:0.000870691848077 11:0.0454452495138 12:-0.0518196676105 13:-3.78956125739e-14 14:0.0296211991225 15:0.000877415437453 16:0.0682668440435 17:-0.0713967262359 18:-7.75675819871e-14 19:0.0436661489251 20:0.00190673256195 21:0.0266361419337 22:-0.028434967189 23:-4.38168020385e-14 24:0.0207191736902 25:0.000429284158404 26:0.0240015754438 27:-0.0250392610272 28:0.00143254112849 29:0.0177269300436 30:0.000314244048772 
11 1:5325.69807913 2:5325.44582842 3:5325.61385647 4:0.0788809311247 5:0.00622220129509 6:0.0748967700798 7:-0.0645026576668 8:-1.50398212403e-13 9:0.0423315035538 10:0.00179195619313 11:0.0767074006941 12:-0.0665176182201 13:-2.90138283769e-14 14:0.0434473056798 15:0.00188766837084 16:0.124129978234 17:-0.121768418942 18:-8.46730093447e-14 19:0.0749063770148 20:0.00561096531748 21:0.0256959006423 22:-0.0377572327074 23:-3.28626015289e-14 24:0.0259629602511 25:0.000674075305003 26:0.0500512552073 27:-0.0556980675379 28:0.00272528927844 29:0.0320736393113 30:0.00102871833867 
11 1:5325.55577475 2:5325.54382433 3:5325.55140816 4:0.0036785077377 5:1.35314191763e-05 6:0.00704665990255 7:-0.00690936660163 8:-4.73695157173e-14 9:0.00426896746817 10:1.82240832443e-05 11:0.00946962444083 12:-0.00942207416164 13:-9.47390314347e-14 14:0.00571798938873 15:3.26954026496e-05 16:0.023574209944 17:-0.0201701986741 18:-1.29674049276e-13 19:0.0160591341858 20:0.000257895790796 21:0.0694783310456 22:-0.0690092461989 23:-2.22044604925e-14 24:0.0416953678771 25:0.00173850370241 26:0.0409178135331 27:-0.0520578144983 28:0.00261086600048 29:0.0337364409963 30:0.0011381474511 
11 1:5325.47718169 2:5325.31251846 3:5325.36774228 4:0.0514076882379 5:0.00264275040996 6:0.0397002916589 7:-0.0485591458765 8:-1.75267208154e-13 9:0.0266482019123 10:0.000710126665159 11:0.0411139780464 12:-0.046109758838 13:-2.07241631263e-14 14:0.026747691493 15:0.000715439000206 16:0.0534917030132 17:-0.0572195730066 18:-5.44749430749e-14 19:0.0357801651068 20:0.00128022021507 21:0.0443982685792 22:-0.0376093805788 23:-2.99020067966e-14 24:0.0290952846354 25:0.000846535588017 26:0.0223630919879 27:-0.0278824689033 28:0.00188769909907 29:0.0160206497913 30:0.000256661219734 
11 1:5325.53078815 2:5325.49209552 3:5325.50512593 4:0.0120690351917 5:0.000145661610458 6:0.00886388125303 7:-0.0111145975158 8:-1.06581410364e-14 9:0.00605093947154 10:3.66138684883e-05 11:0.010481053705 12:-0.0107933844988 13:-1.06581410364e-14 14:0.00691445272704 15:4.78096565145e-05 16:0.0111134236882 17:-0.0124354117011 18:-1.03028696685e-13 19:0.00826199263351 20:6.82605222761e-05 21:0.0122992218954 22:-0.0105704632239 23:-2.63492931178e-14 24:0.00775641408326 25:6.0161959431e-05 26:0.032384874179 27:-0.0396889509413 28:-0.0016421724252 29:0.0258836361438 30:0.000669962620022 
11 1:5325.65301847 2:5325.61643741 3:5325.62857858 4:0.0114676305974 5:0.000131506551519 6:0.0100685566583 7:-0.0109527984661 8:-7.34227493619e-14 9:0.00658211700434 10:4.33242642589e-05 11:0.0103686189952 12:-0.0123225371402 13:-1.16647432454e-13 14:0.00684892868857 15:4.69078241811e-05 16:0.0254889291007 17:-0.0251722653888 18:-1.42108547152e-14 19:0.0152628254555 20:0.000232953840884 21:0.0266112021358 22:-0.0245965576927 23:-6.01000730664e-14 24:0.0158227678839 25:0.000250359983506 26:0.0532323666043 27:-0.0340502049116 28:-0.00112333709963 29:0.0303839006409 30:0.000923181418156 
11 1:5325.29196497 2:5325.09831108 3:5325.22741714 4:0.0605888764447 5:0.00367101194883 6:0.0578616218529 7:-0.0505394332607 8:1.55135163974e-13 9:0.0330639752108 10:0.00109322645674 11:0.0598757147095 12:-0.0508321511744 13:-5.86197757002e-14 14:0.0334462646232 15:0.00111865261724 16:0.101962800735 17:-0.101087656119 18:-7.81597009336e-14 19:0.0614690035567 20:0.00377843839825 21:0.0333474818381 22:-0.0380905512497 23:-1.48029736617e-15 24:0.0244130528032 25:0.000595997147171 26:0.0882545481893 27:-0.0640948127882 28:0.00148506308014 29:0.0466017624927 30:0.00217172426742 
11 1:5325.10453364 2:5325.02611636 3:5325.07801543 4:0.0244188562426 5:0.000596280540196 6:0.022817394279 7:-0.0167613652819 8:-2.2618943755e-13 9:0.0124407261724 10:0.000154771667697 11:0.0184626496931 12:-0.0175883209638 13:-9.29626745953e-14 14:0.0115877492246 15:0.000134275932093 16:0.0211055345343 17:-0.0159499610463 18:-5.38828241285e-14 19:0.0115655053172 20:0.000133760913241 21:0.0708090937519 22:-0.0751583700201 23:-2.42768768051e-14 24:0.045117757375 25:0.00203561203055 26:0.0679729323012 27:-0.0567749447305 28:-0.00402565817317 29:0.0388918849285 30:0.00151257871329 
11 1:5325.15120441 2:5325.12941227 3:5325.14381546 4:0.00678167140737 5:4.59910670775e-05 6:0.00623223774917 7:-0.00448985046644 8:-3.5527136788e-14 9:0.00341530741624 10:1.16643247474e-05 11:0.00512128719559 12:-0.0051941075155 13:-5.21064672891e-14 14:0.00351942965871 15:1.23863851226e-05 16:0.00657968421202 17:-0.00518415745269 18:-8.46730093447e-14 19:0.00359748980603 20:1.29419329045e-05 21:0.0209064429506 22:-0.0219424650683 23:-4.55931588779e-14 24:0.0131344500713 25:0.000172513778674 26:0.00303746214139 27:-0.00221822041353 28:-0.000258820956066 29:0.00188978142759 30:3.57127384406e-06 
