11 1:-3.19665951619 2:-5.0651781815 3:-3.83924960563 4:0.633495622189 5:0.401316703332 6:0.362422904036 7:-0.368292227039 8:1.58603289232e-17 9:0.2038119225 10:0.0415392997533 11:0.296013591078 12:-0.294330142069 13:-0.00216881966141 14:0.163499311075 15:0.0267320247219 16:0.407561125786 17:-0.380686993752 18:-0.028282315291 19:0.234678820031 20:0.0550741485709 21:0.97390861661 22:-1.06688385933 23:-0.0891643737613 24:0.587134848057 25:0.344727329803 26:3.01485708996 27:-2.74029330303 28:0.103105686246 29:1.48869987424 30:2.21622731558 
11 1:2.90559679102 2:-1.39574643514 3:0.0314595077577 4:1.46211261825 5:2.13777330844 6:1.50531742717 7:-2.00953745635 8:1.11022302463e-16 9:1.0056310083 10:1.01129372485 11:0.833879742442 12:-0.912272361725 13:-0.0360851534445 14:0.510882278081 15:0.261000702058 16:0.510056561121 17:-0.762783636869 18:-0.0810965658017 19:0.342728734477 20:0.117462985436 21:2.66457578954 22:-0.415941161081 23:0.393399765195 24:0.884590110626 25:0.782499663817 26:0.914356710823 27:-1.89732302502 28:-0.177952178942 29:0.809935910152 30:0.655996178554 
11 1:4.26765547453 2:3.69688674212 3:3.85680612706 4:0.197858311033 5:0.0391479112448 6:1.24243526718 7:-1.83570931592 8:-1.9825411154e-17 9:0.863187128097 10:0.745092018113 11:0.718358004831 12:-0.97192585698 13:-0.0284341558866 14:0.543473160684 15:0.295363076384 16:0.632264583909 17:-0.482582252986 18:-0.0109231525175 19:0.334554913485 20:0.111926990137 21:1.21165855592 22:-1.31150587212 23:0.108161908964 24:0.748943877036 25:0.560916930949 26:2.15580219359 27:-2.10496513177 28:0.0222352361203 29:1.21921918303 30:1.48649541626 
11 1:2.89734445759 2:2.53053196058 3:2.68289109541 4:0.127511552916 5:0.016259196127 6:1.47937397066 7:-2.19575954444 8:2.37904933848e-17 9:1.07677011917 10:1.15943388955 11:1.19695276553 12:-1.03933681397 13:0.00726382702902 14:0.712072969384 15:0.507047913727 16:1.7053985365 17:-2.88436412038 18:-0.356503843988 19:1.34453512811 20:1.80777471071 21:1.68014935075 22:-1.35613389284 23:0.141472150721 24:0.80900961798 25:0.654496561984 26:1.29641696761 27:-0.894526889189 28:0.221214814583 29:0.568056844039 30:0.322688578059 
11 1:1.29475561125 2:0.84656780785 3:1.12499600482 4:0.146835101452 5:0.0215605470183 6:0.237470116502 7:-0.382302593604 8:-7.93016446161e-18 9:0.217773451405 10:0.047425276137 11:0.131299265626 12:-0.129206851113 13:0.0195086307702 14:0.0836613970334 15:0.00699922935358 16:0.985300219284 17:-0.750941071374 18:0.11317608694 19:0.556183321649 20:0.309339887281 21:1.04017514665 22:-1.267642607 23:-0.162504015659 24:0.645891430876 25:0.417175740478 26:0.627285937451 27:-1.37679904281 28:-0.0558493472348 29:0.538205510194 30:0.289665171203 
11 1:0.497392314092 2:0.0593208717247 3:0.344533491546 4:0.148923770665 5:0.0221782894691 6:0.0921441727249 7:-0.0880016941306 8:-1.3784856193e-18 9:0.0509171342278 10:0.00259255455798 11:0.113755456692 12:-0.11926258644 13:0.00563153406272 14:0.0691015438787 15:0.00477502336642 16:0.106430245944 17:-0.263100420508 18:-0.0343702824108 19:0.105389000949 20:0.011106841521 21:0.0832681124256 22:-0.257712723461 23:-0.0473790807417 24:0.0909044745083 25:0.00826362348563 26:0.069804197285 27:-0.290168307679 28:-0.0305411446004 29:0.0928101900792 30:0.00861373138253 
11 1:0.0890685310161 2:-0.0332283762253 3:0.00679062563461 4:0.0417389694121 5:0.00174214156759 6:0.0484224279338 7:-0.0646131570096 8:-1.48690583655e-18 9:0.0321803449897 10:0.00103557460365 11:0.0263441867171 12:-0.0308763697296 13:0.000858412825947 14:0.0169858339756 15:0.000288518555847 16:0.0183280378578 17:-0.0569442612481 18:-0.00688160157659 19:0.0229128159269 20:0.000524997133702 21:0.0185193981788 22:-0.0338203892317 23:-0.000869428806924 24:0.0139034570008 25:0.000193306116572 26:0.0455570209697 27:-0.0323175253619 28:0.000352158519992 29:0.0218600063524 30:0.000477859877727 
11 1:0.0192812889942 2:-0.015178449914 3:0.00721175916091 4:0.0117340609755 5:0.000137688186976 6:0.0058377546433 7:-0.00627872160315 8:1.16164518481e-19 9:0.0033290029121 10:1.10822603888e-05 11:0.00961180946115 12:-0.0112157729551 13:0.00104798197889 14:0.0065792653658 15:4.32867327536e-05 16:0.010079246937 17:-0.0323894639654 18:-0.00419017062773 19:0.01230874994 20:0.000151505325086 21:0.0278763479184 22:-0.0423154481703 23:-0.00775894537188 24:0.0179663224608 25:0.000322788742766 26:0.0129195447444 27:-0.0235374588566 28:-0.00412234916544 29:0.0107588335871 30:0.000115752500154 
11 1:-0.00417851136787 2:-0.0249547383149 3:-0.0183678027651 4:0.0071257287568 5:5.07760103155e-05 6:0.013313022822 7:-0.0186276370596 8:6.19544098563e-20 9:0.00885219007879 10:7.8361269191e-05 11:0.00614327821713 12:-0.00791894579103 13:9.7057190681e-05 14:0.0043134543418 15:1.86058883588e-05 16:0.0126695886057 17:-0.0117687765725 18:-0.00110877725358 19:0.00706506269952 20:4.99151109481e-05 21:0.00692622498773 22:-0.00805101304918 23:-0.000218069424503 24:0.00476315774855 25:2.26876717375e-05 26:0.034306043568 27:-0.0298296614816 28:-0.000515892570824 29:0.0166723683966 30:0.00027796786795 
11 1:0.0171734539511 2:-0.0628446249685 3:-0.0367487968635 4:0.0274261079279 5:0.000752191396072 6:0.0319607269434 7:-0.0429079423461 8:6.19544098563e-19 9:0.0212141354194 10:0.000450039541594 11:0.0164424817572 12:-0.0172070556651 13:0.000831713433199 14:0.00951253229114 15:9.04882705901e-05 16:0.016249880566 17:-0.0163348297155 18:0.000436874089762 19:0.00875028633646 20:7.656751097e-05 21:0.00865321246218 22:-0.0287355812388 23:-0.004523250624 24:0.010349962793 25:0.000107121729816 26:0.0223683788788 27:-0.0259168252393 28:0.0010599420406 29:0.0154694679933 30:0.000239304439997 
11 1:-0.0116600288518 2:-0.0136675731014 3:-0.0126844523868 4:0.000581152721243 5:3.37738485408e-07 6:0.0124682351762 7:-0.00827690935065 8:-1.85863229569e-19 9:0.00616792356132 10:3.80432810582e-05 11:0.00652441030753 12:-0.00658429709776 13:0.000600037828033 14:0.00414674168431 15:1.71954665964e-05 16:0.0101170102969 17:-0.0053282662996 18:0.00119329116774 19:0.0045907928514 20:2.10753790044e-05 21:0.00422837212723 22:-0.0310208348977 23:-0.00461521870017 24:0.0100256251395 25:0.000100513159438 26:0.0287741757599 27:-0.0286295229167 28:-0.00261469146136 29:0.015146441434 30:0.000229414688114 
11 1:-0.00116466865256 2:-0.0451911927646 3:-0.0304404840239 4:0.0150525366973 5:0.000226578861025 6:0.00987593706936 7:-0.00993102181792 8:5.69206140555e-19 9:0.00661059694566 10:4.3699991978e-05 11:0.00508428163983 12:-0.00454040898242 13:0.000519829328229 14:0.00342309787511 15:1.17175990626e-05 16:0.00875742214331 17:-0.00439992683077 18:0.00108274680769 19:0.0040110536992 20:1.60885517778e-05 21:0.00403370808387 22:-0.0205426687896 23:-0.0031294439994 24:0.00681786783237 25:4.64833217797e-05 26:0.0205708483043 27:-0.0247520339284 28:-0.000816777892357 29:0.014276830076 30:0.000203827877019 
11 1:0.0241666974086 2:-0.031431095765 3:-0.0131139260092 4:0.0190335579546 5:0.000362276328412 6:0.0188837718301 7:-0.0249840174256 8:1.20036669097e-18 9:0.0127018083435 10:0.000161335935194 11:0.0110352907042 12:-0.0107369295121 13:0.000240905744442 14:0.00617656570089 15:3.81499638574e-05 16:0.00922708674306 17:-0.00506561699082 18:0.00108977258746 19:0.00420094183636 20:1.76479123125e-05 21:0.00295347172249 22:-0.0100326006919 23:-0.00114404437171 24:0.00389155390731 25:1.51441918135e-05 26:0.0290990985769 27:-0.0246636751003 28:0.00365107054945 29:0.0172125866759 30:0.000296273140076 
11 1:0.0133657807312 2:-0.03615731922 3:-0.0199089379725 4:0.0169606869021 5:0.000287664900191 6:0.0161915720804 7:-0.0209469967199 8:1.14615658234e-18 9:0.0109149757297 10:0.00011913669518 11:0.00841538697471 12:-0.00848719894808 13:0.000917092350567 14:0.00514990120156 15:2.65214823859e-05 16:0.00316888591649 17:-0.0100227933424 18:-0.00128227969174 19:0.00375378570337 20:1.40909071068e-05 21:0.00805207409854 22:-0.0286992051745 23:-0.00504500101547 24:0.00990939711803 25:9.81961512429e-05 26:0.0182042287579 27:-0.0202050728189 28:-0.000897864857744 29:0.0115297696024 30:0.000132935587085 
11 1:-0.0121254208204 2:-0.049659164778 3:-0.0243333377513 4:0.0128274966259 5:0.000164544669688 6:0.0265045714923 7:-0.019018510505 8:1.73472347598e-18 9:0.0126102761018 10:0.000159019063365 11:0.0111727291178 12:-0.00984125821596 13:0.000481618479602 14:0.00618116142874 15:3.82067566082e-05 16:0.0125236738149 17:-0.0141277328612 18:-0.00102989718571 19:0.00773162944274 20:5.97780938399e-05 21:0.0127637451386 22:-0.0180597147985 23:-0.00325094717121 24:0.00905411506548 25:8.1976999619e-05 26:0.0158089087912 27:-0.0146404640427 28:-0.00024187965118 29:0.00878302932268 30:7.7141604083e-05 
11 1:-0.00317503531657 2:-0.0618355318861 3:-0.0419340564524 4:0.0199032478263 5:0.000396139274034 6:0.0114184041818 7:-0.0095717121839 8:7.43452918276e-19 9:0.00740178794116 10:5.47864647259e-05 11:0.00510429684024 12:-0.00467354566459 13:0.000431839362402 14:0.00305027279593 15:9.30416412961e-06 16:0.0107196287312 17:-0.0144806995164 18:-0.00156638201441 19:0.00852152135434 20:7.26163261925e-05 21:0.00660336664606 22:-0.0168150685538 23:-0.000434530688062 24:0.00647241641403 25:4.18921742366e-05 26:0.0237811868491 27:-0.027928797528 28:-0.00194256764605 29:0.0139629880854 30:0.000194965036273 
11 1:0.00131428288667 2:-0.0424565046942 3:-0.0277069768499 4:0.0149650550777 5:0.000223952873478 6:0.00999499854601 7:-0.00717312816182 8:3.25260651746e-19 9:0.00593463844019 10:3.52199334158e-05 11:0.0061298813378 12:-0.00595043426726 13:0.00046216878628 14:0.00368142928467 15:1.3552921578e-05 16:0.0122413081696 17:-0.00351589487012 18:0.00150771100661 19:0.00459288542755 20:2.10945965506e-05 21:0.00583294545799 22:-0.0193293441084 23:-0.00275311038832 24:0.00732406483451 25:5.36419257001e-05 26:0.0275647780975 27:-0.0257476178129 28:0.00332654851223 29:0.0172072388409 30:0.000296089068526 
11 1:-0.0188082108644 2:-0.0777742008209 3:-0.0378768617521 4:0.0201640777299 5:0.000406590030696 6:0.0420329630926 7:-0.0303729399089 8:3.46944695195e-18 9:0.0200890903557 10:0.000403571551321 11:0.0193630507116 12:-0.0163315851727 13:0.000216195397346 14:0.0103892723222 15:0.000107936979386 16:0.00789032164553 17:-0.00500959814615 18:0.000967445930898 19:0.00398028910243 20:1.5842701339e-05 21:0.00291363596767 22:-0.016500413279 23:-0.00268452237159 24:0.00539076131041 25:2.90603075058e-05 26:0.0290342629604 27:-0.0292779851997 28:0.00305932894678 29:0.0179976417705 30:0.0003239151093 
11 1:0.0198089076905 2:-0.108639493842 3:-0.0656862186215 4:0.0437917380352 5:0.00191771632014 6:0.0312002693096 7:-0.039124958248 8:2.47817639425e-18 9:0.0219051654017 10:0.000479836271274 11:0.0171463180102 12:-0.0141190378137 13:0.000399113734209 14:0.0101144916584 15:0.000102302941509 16:0.0104567401871 17:-0.0080656157469 18:0.00123940889079 19:0.00594559686472 20:3.53501220778e-05 21:0.00876041429037 22:-0.00823890002629 23:-0.000433167683483 24:0.00439022005288 25:1.92740321128e-05 26:0.0308603341384 27:-0.0338676562206 28:0.00229706169002 29:0.0189328084851 30:0.000358451237132 
11 1:-0.0270621978436 2:-0.0576335251269 3:-0.0473709018844 4:0.0104606220632 5:0.000109424613949 6:0.00738814672024 7:-0.00761606292373 8:1.23908819713e-18 9:0.00425581777352 10:1.81119849214e-05 11:0.0104421230655 12:-0.00472929747507 13:0.00159833851779 14:0.00448919482913 15:2.01528702139e-05 16:0.0239397472987 17:-0.0199557190957 18:-0.00237529268594 19:0.0138541287931 20:0.000191936884617 21:0.0126149429435 22:-0.0509652323032 23:-0.00963341234838 24:0.0192749272497 25:0.000371522820481 26:0.0325514722126 27:-0.0347805920054 28:-0.00336300775024 29:0.0197237041522 30:0.000389024505483 
11 1:-0.0127211569493 2:-0.477245371234 3:-0.161929068913 4:0.159320431956 5:0.0253830000385 6:0.356620148055 7:-0.256139514929 8:6.44325862506e-18 9:0.169665878312 10:0.0287865102635 11:0.162462859935 12:-0.138967017263 13:0.00101247174529 14:0.086793279277 15:0.00753307332765 16:0.0746108228418 17:-0.0615546550901 18:-0.000397884771908 19:0.037847145657 20:0.00143240643438 21:0.137836828034 22:-0.123009573039 23:-0.00950871303298 24:0.0685626558706 25:0.00470083778003 26:0.196470535147 27:-0.288997662789 28:-0.00686766166811 29:0.126419486279 30:0.015981886511 
11 1:0.134707396598 2:-0.394444449256 3:-0.214642468761 4:0.180679027505 5:0.0326449109803 6:0.117897505643 7:-0.0805900351301 8:1.43734230867e-17 9:0.0667839417334 10:0.00446009487345 11:0.0917375185097 12:-0.0673938037062 13:-0.00261797059429 14:0.054730124425 15:0.00299538651957 16:0.546495424644 17:-0.63640533584 18:0.0206337303343 19:0.320895133429 20:0.102973686658 21:0.276633862711 22:-0.387304081875 23:0.0356701427524 24:0.189961616133 25:0.0360854156039 26:0.341344499693 27:-0.234367076914 28:-0.010269101852 29:0.183029220638 30:0.0334996956073 
11 1:0.95726805387 2:-0.577226212459 3:-0.0857227388776 4:0.525973605408 5:0.276648233586 6:0.854611889557 7:-1.18411897591 8:1.18952466924e-17 9:0.565084040651 10:0.319319972999 11:0.438470371679 12:-0.536179248411 13:0.00727662641077 14:0.290087094526 15:0.0841505224105 16:0.187149613176 17:-0.369400689868 18:-0.0481369157145 19:0.173817059355 20:0.0302123701227 21:0.805225690457 22:-0.767026083087 23:-0.0257932593519 24:0.382336425034 25:0.146181141908 26:1.20850067795 27:-1.55798186418 28:0.0590855065303 29:0.726421701372 30:0.527688488224 
11 1:2.91482875161 2:-4.5692967199 3:-2.17967635645 4:2.56488696753 5:6.57864515618 6:4.29650942559 7:-5.94082598396 8:2.69625591695e-16 9:2.84957085284 10:8.12005404536 11:2.04398081187 12:-2.62559122799 13:0.0632058676762 14:1.45868121045 15:2.12775087371 16:2.10540479266 17:-4.46713537033 18:-0.555664635382 19:1.92413704913 20:3.70230338382 21:4.58450219063 22:-3.4731810653 23:-0.242168012179 24:2.00583984476 25:4.02339348281 26:1.96349620108 27:-2.11193969162 28:-0.228768685511 29:1.13151559831 30:1.28032754921 
11 1:0.889791912727 2:-1.43322834035 3:-0.642447006667 4:0.795281403144 5:0.632472510187 6:0.607472757719 7:-0.604080473709 8:1.38777878078e-17 9:0.340571282795 10:0.115988798665 11:0.466871140093 12:-0.556632423118 13:0.0810117398361 14:0.309484294969 15:0.0957805288327 16:0.315150638153 17:-0.264564679771 18:0.0333683109463 19:0.181473163154 20:0.0329325089451 21:0.443517379441 22:-2.86726614035 23:-0.470752845746 24:0.939385169472 25:0.882444496624 26:1.45101649525 27:-0.88234051812 28:0.0688178537781 29:0.604766376141 30:0.365742369711 
11 1:0.666113310323 2:0.282378920697 3:0.535344271376 4:0.130579499374 5:0.0170510056568 6:0.069143532372 7:-0.0741982124352 8:-1.41256054472e-17 9:0.0479725283537 10:0.00230136347664 11:0.0523288686863 12:-0.07287709691 13:0.00528712461712 14:0.0425128745341 15:0.00180734450115 16:0.0328024527446 17:-0.146221747567 18:-0.0188808678242 19:0.0528346610662 20:0.00279150140998 21:0.129443243474 22:-0.185974005364 23:-0.0360868006089 24:0.0926711446935 25:0.0085879410588 26:0.168569716393 27:-0.117315686545 28:-0.00875603020755 29:0.0934530155197 30:0.00873346610972 
