13:34:12		x: 27.884205
13:34:13		x: 27.884205
13:34:14		x: 27.97041
13:34:15		x: 27.97041
13:34:16		x: 27.97041
13:34:17		x: 28.136414
13:34:18		x: 28.136414
13:34:19		x: 28.136414
13:34:20		x: 28.130777
13:34:21		x: 28.130777
13:34:22		x: 28.130777
13:34:23		x: 28.130777
13:34:24		x: 28.130777
13:34:25		x: 28.130777
13:34:26		x: 28.24165
13:34:27		x: 28.24165
13:34:28		x: 28.24165
13:34:28		x: 28.27237
13:34:29		x: 28.27237
13:34:30		x: 28.27237
