18:32:12		x: -1.3680327	y: 0.310625	z: 0.7816021
18:32:12		x: -1.5903877	y: 2.4312437	z: -1.6245961
18:32:12		x: 2.4486532	y: 0.47250426	z: -0.10598512
18:32:13		x: -0.23823744	y: -2.2724187	z: -0.025350908
18:32:13		x: -1.2629639	y: -0.8918633	z: -0.37201694
18:32:13		x: 0.8775079	y: -3.0793717	z: -0.945314
18:32:13		x: 1.1801916	y: -1.641395	z: -0.119729586
18:32:13		x: 1.3799446	y: -2.2583687	z: -0.573297
18:32:14		x: -2.3710735	y: -0.9755518	z: -1.2815952
18:32:14		x: 0.05467244	y: 0.41813725	z: 1.378112
18:32:14		x: 2.1380284	y: -0.35002577	z: -0.67103547
18:32:14		x: 2.5546384	y: 0.34788775	z: -4.8991394
18:32:14		x: 1.0864239	y: 1.2250903	z: 0.9621128
18:32:14		x: -0.8900307	y: -0.33933565	z: -0.50243664
18:32:15		x: -1.5183055	y: -0.10903945	z: 0.35430184
18:32:15		x: 0.37812558	y: -0.59131753	z: 0.06658431
18:32:15		x: 0.23426682	y: 0.9978484	z: 0.47158796
18:32:15		x: 0.5369505	y: 0.852157	z: 0.029626964
18:32:15		x: 0.07452556	y: 0.17898351	z: -0.6221663
18:32:16		x: -2.0607538	y: -0.24495697	z: 0.91354895
18:32:16		x: 0.6927212	y: 1.0161743	z: -0.21746802
18:32:16		x: 0.9673051	y: -0.4999932	z: 0.5030475
18:32:16		x: -0.9434814	y: 0.5143485	z: 0.9957104
18:32:16		x: -3.674049	y: -0.59864795	z: 0.73914695
18:32:16		x: 1.1102476	y: -1.2709051	z: -0.48930305
18:32:17		x: 0.51251596	y: 0.18997909	z: 0.34025195
18:32:17		x: -2.3640485	y: -0.024129177	z: 0.0290161
18:32:17		x: 2.187203	y: -1.7718146	z: -0.93523467
18:32:17		x: 1.278541	y: -0.752586	z: -0.0870483
18:32:17		x: -1.5683966	y: 2.1884248	z: 0.41599923
18:32:18		x: 3.0027082	y: -1.5005904	z: -1.1695015
18:32:18		x: 0.44226643	y: -0.65301496	z: -0.15699236
18:32:18		x: 0.8381071	y: 2.518292	z: -0.2501493
18:32:18		x: -1.0491611	y: -0.6236934	z: 0.68416905
18:32:18		x: 1.5427402	y: -0.35185838	z: -0.50701815
18:32:18		x: 0.91874135	y: 0.3744604	z: 0.029932396
18:32:19		x: 1.1957687	y: 1.5103643	z: -0.70432764
18:32:19		x: -2.8225029	y: -0.36713	z: 1.1994339
18:32:19		x: -0.4541783	y: 0.68111473	z: 0.29718593
18:32:19		x: -0.08002335	y: 1.0458013	z: 1.2925909
18:32:19		x: 0.6215554	y: -0.103847094	z: 0.033292156
18:32:19		x: 1.0036516	y: 0.21135938	z: -1.006095
18:32:20		x: -0.18448131	y: -0.9761627	z: -0.21502456
18:32:20		x: -1.6368134	y: -0.35796702	z: 0.6560693
18:32:20		x: 0.39584067	y: -1.0571023	z: -0.1994475
18:32:20		x: 1.0882565	y: 0.9645562	z: 0.064446285
18:32:20		x: -1.0158689	y: 0.37782016	z: 0.2996294
18:32:21		x: -3.5030067	y: -0.35155296	z: 0.34391713
18:32:21		x: 2.0809124	y: -0.58551437	z: -0.6273586
18:32:21		x: 0.3191771	y: -0.27305678	z: 0.9129381
18:32:21		x: 0.1001819	y: 2.0076087	z: 0.25625798
18:32:21		x: -2.4669793	y: 0.35369098	z: 0.59437186
18:32:21		x: 1.5656476	y: -0.4636467	z: -0.62125
18:32:22		x: 0.21227567	y: -0.10293079	z: 0.32650748
18:32:22		x: 1.1609493	y: 1.5958854	z: -0.7119634
18:32:22		x: -1.4321736	y: 0.408058	z: 1.1096367
18:32:22		x: 1.4874569	y: -0.24923302	z: -0.90102625
18:32:22		x: 0.98471475	y: 0.28893927	z: -0.83260936
18:32:23		x: 1.2357804	y: 2.0463986	z: -0.25686884
18:32:23		x: -1.4645494	y: 0.03970624	z: 0.5320636
18:32:23		x: 1.9285016	y: -0.20738874	z: -0.9098838
18:32:23		x: 0.93859446	y: 0.7809912	z: -0.09254608
18:32:23		x: 1.6578883	y: 2.2110267	z: -0.66523224
18:32:23		x: -2.1502457	y: 0.014049901	z: 0.3454443
18:32:24		x: 1.2217305	y: 0.44501534	z: -0.16584991
18:32:24		x: 0.68539083	y: -0.23884831	z: 0.160963
18:32:24		x: -1.4315627	y: -0.45753807	z: 0.5549711
18:32:24		x: 0.21899518	y: 0.49754974	z: 0.15302174
18:32:24		x: 0.18509217	y: -1.2290609	z: -0.6942484
18:32:25		x: -1.5118915	y: 0.23884831	z: 0.098043874
18:32:25		x: -0.050701816	y: -0.42363504	z: -0.051923547
18:32:25		x: 0.50426924	y: 0.4831944	z: 0.27091873
18:32:25		x: 0.3652974	y: 0.7189884	z: -0.3998113
18:32:25		x: 0.63163465	y: -0.050396383	z: -0.16249016
18:32:25		x: 0.16279559	y: 0.55863625	z: 0.10873401
18:32:26		x: -0.04642576	y: -0.06352998	z: -0.018020526
18:32:26		x: -0.31520647	y: -0.058337633	z: -0.007941248
18:32:26		x: -0.15241088	y: 0.26419923	z: -0.1908954
18:32:26		x: -0.0711658	y: 0.14966199	z: -0.2782491
18:32:26		x: 0.09712757	y: 0.15271631	z: 0.5131268
18:32:27		x: 0.26267207	y: -1.1936307	z: 0.09987647
18:32:27		x: 0.65668017	y: 0.12492194	z: 1.3005321
18:32:27		x: 0.91507614	y: -0.5412266	z: 1.2925909
18:32:27		x: -1.2614367	y: 0.34055737	z: -2.32984
18:32:27		x: 0.7431176	y: -4.817283	z: 1.484708
18:32:27		x: -4.774523	y: -0.40561453	z: -0.9630291
18:32:28		x: -1.4785993	y: -1.9306396	z: -1.9782871
18:32:28		x: -2.296548	y: -1.1206323	z: -1.4263704
18:32:28		x: -0.54183745	y: -4.0372086	z: -0.2406809
18:32:28		x: 0.2565634	y: -0.54825157	z: 0.37812558
18:32:28		x: 0.1853976	y: 0.20677789	z: 0.04795292
18:32:29		x: -0.35246924	y: 0.06536258	z: -0.22052236
18:32:29		x: 0.03268129	y: -0.22999077	z: -0.046120327
18:32:29		x: 0.079107046	y: -0.0842994	z: -0.15363261
18:32:29		x: 0.1441642	y: -0.118507855	z: -0.0143553335
18:32:29		x: -0.33414328	y: 0.07727446	z: -0.06780604
18:32:29		x: -0.086437434	y: -0.1685988	z: 0.03940081
18:32:30		x: 0.01985312	y: -0.052839845	z: -0.004581489
18:32:30		x: -0.009162978	y: 0.06658431	z: 0.014966198
18:32:30		x: -0.046120327	y: 0.0015271631	z: -0.008857546
