18:32:14		x: 1.0
18:32:15		x: 0.0
18:32:17		x: 1.0
18:32:18		x: 0.0
18:32:18		x: 1.0
18:32:18		x: 0.0
18:32:21		x: 1.0
18:32:21		x: 0.0
18:32:21		x: 1.0
18:32:22		x: 0.0
18:32:22		x: 1.0
18:32:22		x: 0.0
18:32:23		x: 1.0
18:32:23		x: 0.0
18:32:24		x: 1.0
18:32:25		x: 0.0
18:32:25		x: 1.0
18:32:28		x: 0.0
