20:57:52		x: 0.7679402	y: 4.953005	z: 8.443152
20:57:52		x: 1.0761937	y: 4.7776294	z: 9.952697
20:57:52		x: 1.2306197	y: 5.0493712	z: 10.084976
20:57:52		x: 1.4993688	y: 4.768651	z: 8.180987
20:57:53		x: 1.2300211	y: 4.920683	z: 8.522161
20:57:53		x: 0.8182184	y: 4.631583	z: 8.191162
20:57:53		x: 0.7739257	y: 4.8698063	z: 7.811083
20:57:53		x: 0.59495914	y: 4.3275194	z: 8.747814
20:57:53		x: 0.37469256	y: 3.3381157	z: 6.7971387
20:57:54		x: -13.673884	y: 2.4235306	z: -3.342904
20:57:54		x: -8.484452	y: 2.6461914	z: 0.24959552
20:57:54		x: -7.949947	y: 5.035006	z: 4.988918
20:57:54		x: -7.5088153	y: 1.532289	z: 5.2145715
20:57:54		x: -8.313267	y: 3.807978	z: 3.9839516
20:57:54		x: -8.559271	y: 5.418677	z: 3.5230677
20:57:55		x: -8.39886	y: 3.7361517	z: 3.8486793
20:57:55		x: -8.651448	y: 4.525041	z: 4.5537715
20:57:55		x: -8.327632	y: 5.0523643	z: 0.82779527
20:57:55		x: -7.5411367	y: 5.5641246	z: 1.54845
20:57:55		x: -6.5068417	y: 5.068525	z: 0.0724246
20:57:56		x: -5.4563856	y: 10.629657	z: -4.035427
20:57:56		x: -4.232949	y: 7.2107368	z: -0.58777654
20:57:56		x: -4.593276	y: 10.391434	z: 1.584363
20:57:56		x: -3.4380736	y: 8.664616	z: -1.6980876
20:57:56		x: -4.222773	y: 8.667608	z: -0.94810385
20:57:56		x: -3.8893807	y: 8.774151	z: -2.0057425
20:57:57		x: -4.4322658	y: 7.105392	z: -3.0142999
20:57:57		x: -5.197213	y: 7.9421654	z: -0.9403227
20:57:57		x: -4.821324	y: 8.49343	z: -0.94810385
20:57:57		x: -4.538808	y: 7.961319	z: -2.0308816
20:57:57		x: -5.5910597	y: 7.6003933	z: 0.40102878
20:57:58		x: -1.751957	y: 12.896966	z: -1.4820108
20:57:58		x: 1.1180922	y: 7.53156	z: 0.1400608
20:57:58		x: -1.3910311	y: 10.140042	z: -0.21787235
20:57:58		x: -1.6861166	y: 8.607155	z: -0.4842273
20:57:58		x: -3.3865983	y: 9.045294	z: -0.99179804
20:57:58		x: -4.433463	y: 8.938752	z: -1.0163386
20:57:59		x: -4.0013094	y: 8.603564	z: -0.1328782
20:57:59		x: -0.51834464	y: 12.406754	z: 0.47165772
20:57:59		x: 0.39264908	y: 8.943541	z: -1.8830396
20:57:59		x: -0.8158242	y: 9.082404	z: -0.62967503
20:58:00		x: -2.03148	y: 8.874108	z: -1.073201
20:58:00		x: -3.751714	y: 8.287529	z: -1.4688427
20:58:00		x: -4.945224	y: 8.929773	z: -0.6302736
20:58:00		x: -4.489128	y: 7.996035	z: -0.87089086
20:58:00		x: -4.848857	y: 8.455123	z: -0.7445967
20:58:00		x: -4.985925	y: 8.614338	z: -1.0875661
20:58:00		x: -3.916914	y: 8.84478	z: -1.0139444
20:58:00		x: -3.2555158	y: 8.469488	z: 1.1043255
20:58:01		x: -3.1932666	y: 10.571598	z: 1.3389573
20:58:01		x: -3.6152446	y: 11.180922	z: 0.9139865
20:58:01		x: -1.9183542	y: 8.187572	z: 6.7684083
20:58:01		x: 1.804031	y: -1.9015948	z: 11.026496
20:58:01		x: 0.32022446	y: 0.7206547	z: 12.734758
20:58:01		x: 1.4838065	y: 0.9223662	z: 8.98484
20:58:02		x: -0.54408234	y: 1.2719196	z: 10.028113
20:58:02		x: 1.4826094	y: 1.0845734	z: 9.565434
20:58:02		x: 0.4165911	y: 1.9111716	z: 10.014946
20:58:02		x: -0.21547815	y: 2.4774003	z: 10.542269
20:58:02		x: -0.7320272	y: 3.031658	z: 9.651027
20:58:03		x: 0.19752164	y: 3.196858	z: 9.7863
20:58:03		x: -0.38845924	y: 4.061165	z: 8.903438
20:58:03		x: -2.132635	y: 4.8506527	z: 8.549096
20:58:03		x: -0.92416185	y: 4.863222	z: 8.403049
20:58:03		x: -1.8381484	y: 5.3474493	z: 8.641871
20:58:03		x: -1.2575544	y: 4.587889	z: 8.2995
20:58:04		x: -1.0582372	y: 5.037999	z: 8.700529
20:58:04		x: -0.9636662	y: 5.1343656	z: 8.330027
20:58:04		x: -0.6985083	y: 4.8320975	z: 8.924985
20:58:04		x: -0.8319851	y: 4.8662148	z: 8.709507
20:58:04		x: -0.86251116	y: 4.9458222	z: 8.504803
20:58:05		x: -0.87328506	y: 4.88477	z: 8.68796
20:58:05		x: -1.074398	y: 5.0092683	z: 8.652645
20:58:05		x: -1.2318168	y: 5.120599	z: 8.412027
20:58:05		x: -1.1558008	y: 5.1583076	z: 8.435969
20:58:05		x: -1.192911	y: 5.2863975	z: 8.2169
20:58:05		x: -1.1653777	y: 5.3025584	z: 8.302493
