18:12:49		x: 42.606373
18:12:50		x: 43.218063
18:12:51		x: 43.218063
18:12:52		x: 43.218063
18:12:53		x: 43.218063
18:12:54		x: 43.218063
18:12:55		x: 43.218063
18:12:56		x: 43.849926
18:12:57		x: 43.849926
18:12:58		x: 43.849926
