18:29:03		x: 25.652225
18:29:04		x: 25.652225
18:29:05		x: 25.652225
18:29:06		x: 25.834608
18:29:07		x: 25.834608
18:29:08		x: 25.834608
18:29:09		x: 25.931976
18:29:10		x: 25.931976
18:29:11		x: 25.931976
18:29:11		x: 25.931976
18:29:12		x: 25.931976
18:29:13		x: 25.931976
18:29:14		x: 26.080275
18:29:15		x: 26.080275
18:29:16		x: 26.080275
18:29:17		x: 26.080275
18:29:18		x: 26.080275
18:29:19		x: 26.080275
18:29:20		x: 26.060764
18:29:21		x: 26.060764
18:29:22		x: 26.060764
18:29:23		x: 26.060764
18:29:24		x: 26.060764
18:29:25		x: 26.060764
18:29:26		x: 26.003504
18:29:27		x: 26.003504
18:29:28		x: 26.003504
18:29:29		x: 25.89336
18:29:30		x: 25.89336
18:29:31		x: 25.89336
18:29:32		x: 25.89336
