18:29:03		x: -1.1965023	y: 4.297592	z: 8.487445
18:29:03		x: -0.6194997	y: 3.5051112	z: 9.671976
18:29:03		x: -2.0602105	y: 2.9855695	z: 9.304466
18:29:03		x: -1.762731	y: 2.6635494	z: 10.499173
18:29:03		x: -0.8206126	y: 0.57520694	z: 10.235811
18:29:04		x: 1.8034325	y: -2.1493945	z: 9.611523
18:29:04		x: 4.4484267	y: -1.1097125	z: 9.661202
18:29:04		x: 7.0724716	y: -1.1575965	z: 8.854955
18:29:04		x: 8.614338	y: 1.4143747	z: 7.231686
18:29:04		x: 7.7464395	y: 2.9346926	z: 2.136825
18:29:05		x: 8.1797905	y: 5.09546	z: 1.1127052
18:29:05		x: 7.557896	y: 6.9820905	z: 0.16699557
18:29:05		x: 3.2986114	y: 8.995614	z: -0.11791443
18:29:05		x: 2.7090392	y: 9.057863	z: -0.33877954
18:29:05		x: 2.3523033	y: 9.466075	z: 1.7172412
18:29:05		x: 0.943914	y: 10.350134	z: 3.6595373
18:29:06		x: 0.9331401	y: 8.965687	z: 3.345897
18:29:06		x: 0.04309563	y: 9.103952	z: 3.714604
18:29:06		x: -1.2138603	y: 9.051878	z: 3.271078
18:29:06		x: -3.8019924	y: 9.216479	z: 2.5025394
18:29:06		x: 0.034117375	y: 12.216414	z: 3.86903
18:29:06		x: 1.9446903	y: 9.87668	z: -0.59855044
18:29:07		x: 2.5462334	y: 9.471462	z: 1.5233108
18:29:07		x: 3.0765493	y: 12.5982895	z: 2.5240872
18:29:07		x: -0.110731825	y: 10.043676	z: 2.3469162
18:29:07		x: 3.2237926	y: 5.056554	z: 5.171476
18:29:07		x: 0.006584055	y: 14.535797	z: 4.1240125
18:29:08		x: 1.283292	y: 8.848371	z: 1.1007342
18:29:08		x: 2.4875755	y: 8.722675	z: 1.09834
18:29:08		x: -1.6921021	y: 8.99322	z: 0.17717093
18:29:08		x: 3.4703953	y: 6.3021374	z: 3.5990837
18:29:08		x: 1.5233108	y: 13.563152	z: 5.113416
18:29:08		x: 0.33279404	y: 6.964134	z: 0.8379706
18:29:09		x: -1.2156559	y: 5.7867856	z: 1.062427
18:29:09		x: 1.7100586	y: 13.130401	z: 2.0111294
18:29:09		x: -2.8502972	y: 10.233417	z: 1.2934675
18:29:09		x: 2.2613235	y: 3.8881836	z: 3.9923313
18:29:09		x: -0.56323594	y: 17.180193	z: 6.694188
18:29:10		x: 0.4189853	y: 8.66701	z: 0.9756372
18:29:10		x: 2.0380642	y: 8.801085	z: 0.7733272
18:29:10		x: -2.1577742	y: 8.385692	z: -0.86610246
18:29:10		x: 4.271256	y: 6.8743515	z: 3.8522706
18:29:10		x: 1.3754689	y: 13.442844	z: 4.3915644
18:29:10		x: 0.5446809	y: 7.277775	z: 1.2569559
18:29:11		x: -1.0486604	y: 6.435614	z: 1.3006501
18:29:11		x: 2.4708161	y: 12.170924	z: 2.3421278
18:29:11		x: -4.9823337	y: 10.574591	z: 2.5031378
18:29:11		x: 1.9243397	y: 2.9694088	z: 4.222773
18:29:11		x: 0.22325931	y: 14.705786	z: 6.9342065
18:29:12		x: 1.8722657	y: 8.404845	z: 0.8403648
18:29:12		x: 1.4544775	y: 10.108918	z: 0.9415198
18:29:12		x: -1.6292542	y: 12.468404	z: -1.5275006
18:29:12		x: 2.9400797	y: 7.5932107	z: 3.8504748
18:29:12		x: 1.371279	y: 9.3661175	z: 4.2898107
18:29:12		x: -2.1152773	y: 3.3931823	z: -1.7034745
18:29:13		x: -2.3403323	y: 5.795165	z: 0.3238158
18:29:13		x: 1.5879543	y: 10.893618	z: 1.7567455
18:29:13		x: -4.5555673	y: 12.99453	z: 2.8060043
18:29:13		x: 2.0278888	y: 3.6296098	z: 4.3394904
18:29:13		x: 1.3072342	y: 11.401189	z: 4.4795513
18:29:14		x: 3.4596214	y: 11.068993	z: 2.7252002
18:29:14		x: -0.16460137	y: 10.299856	z: 1.7824832
18:29:14		x: -0.011372458	y: 13.693038	z: 2.3127987
18:29:14		x: -0.6290765	y: 8.351574	z: 1.8201919
18:29:14		x: 1.5981296	y: 5.4378304	z: 3.727772
18:29:14		x: -0.46148238	y: 17.229275	z: 6.5164185
18:29:15		x: 0.14963761	y: 8.371924	z: 0.78649527
18:29:15		x: 0.81642276	y: 9.317635	z: 0.047884032
18:29:15		x: -1.965041	y: 9.680356	z: -1.8782512
18:29:15		x: 2.6767175	y: 7.313688	z: 3.1549592
18:29:15		x: 1.4873978	y: 10.928932	z: 4.247314
18:29:16		x: -1.8351556	y: 3.7253778	z: -0.65062433
18:29:16		x: -2.0260932	y: 6.2769985	z: 1.22224
18:29:16		x: 0.7793127	y: 11.341932	z: 1.5472529
18:29:16		x: -5.0918684	y: 11.253945	z: 2.9759927
18:29:16		x: 2.1338322	y: 4.771045	z: 3.8097734
18:29:16		x: 1.0229226	y: 12.250531	z: 4.3185415
18:29:17		x: 2.2463598	y: 10.794857	z: 2.8790276
18:29:17		x: -0.2100912	y: 8.84478	z: 2.0817583
18:29:17		x: 0.87567925	y: 12.486361	z: 2.8293478
18:29:17		x: -2.4959552	y: 9.372103	z: 1.9207484
18:29:17		x: 1.572392	y: 4.003105	z: 3.9893386
18:29:17		x: 1.8495208	y: 12.179903	z: 7.390302
18:29:18		x: 1.5855601	y: 9.118318	z: 0.8206126
18:29:18		x: 1.1552023	y: 9.876082	z: 0.91099375
18:29:18		x: -1.8034325	y: 13.729549	z: -0.38187516
18:29:18		x: 2.8107927	y: 7.8224554	z: 4.164714
18:29:18		x: 0.6392518	y: 8.859743	z: 4.736928
18:29:19		x: -3.0550013	y: 7.15986	z: -1.9901801
18:29:19		x: -1.163582	y: 7.167641	z: 0.10594343
18:29:19		x: 1.5041572	y: 10.052056	z: 1.2617443
18:29:19		x: -3.2890346	y: 8.181585	z: -0.019153614
18:29:19		x: 2.961029	y: 6.865972	z: 3.6697125
18:29:19		x: 0.65421563	y: 12.9963255	z: 5.3288946
18:29:20		x: 1.3868413	y: 9.621099	z: 2.3876176
18:29:20		x: -1.2982559	y: 7.2568254	z: 1.7375919
18:29:20		x: 1.2084733	y: 11.87524	z: 1.8082209
18:29:20		x: -5.4725466	y: 9.662998	z: 2.0171149
18:29:20		x: 2.4762032	y: 3.1346085	z: 4.3538556
18:29:21		x: 0.57760113	y: 10.308235	z: 7.690176
18:29:21		x: 3.3135753	y: 9.211093	z: 1.0450691
18:29:21		x: 0.9564836	y: 10.128671	z: 1.0199299
18:29:21		x: -1.3557167	y: 13.685257	z: 0.5153519
18:29:21		x: 1.5879543	y: 7.8188643	z: 3.4955344
18:29:21		x: 0.39923313	y: 9.214086	z: 5.1702785
18:29:22		x: -2.8473043	y: 7.8595657	z: -0.8810662
18:29:22		x: -1.2030864	y: 6.9264255	z: -0.18914193
18:29:22		x: 0.3866636	y: 9.415198	z: 1.3820529
18:29:22		x: -3.2315738	y: 7.81647	z: -0.61530983
18:29:22		x: 2.5258827	y: 7.0844426	z: 3.2118216
18:29:23		x: 1.7513585	y: 12.925097	z: 5.0505686
18:29:23		x: 1.3090298	y: 9.880871	z: 2.4642322
18:29:23		x: -1.252766	y: 7.191583	z: 1.5454572
18:29:23		x: 1.234211	y: 12.588114	z: 1.8806454
18:29:23		x: -6.057929	y: 10.162787	z: 1.9003977
18:29:23		x: 2.404377	y: 3.6230257	z: 4.048595
18:29:24		x: 0.87208796	y: 11.253346	z: 6.2626333
18:29:24		x: 1.7938557	y: 9.200917	z: 0.92895025
18:29:24		x: 1.4059949	y: 9.467871	z: 0.641646
18:29:24		x: -2.0003555	y: 10.461464	z: -1.2868834
18:29:24		x: 0.6183026	y: 8.331821	z: 2.8203697
18:29:25		x: -0.074220255	y: 10.248381	z: 4.455011
18:29:25		x: -3.4644098	y: 6.479907	z: -1.4203602
18:29:25		x: -1.6017209	y: 6.101623	z: 0.034715924
18:29:25		x: 1.7938557	y: 9.545682	z: 1.4305356
18:29:25		x: -4.282628	y: 8.627506	z: 0.15622166
18:29:25		x: 3.1800983	y: 6.52001	z: 3.2082303
18:29:26		x: 0.18854338	y: 12.931084	z: 5.5527525
18:29:26		x: 0.029927522	y: 6.691195	z: 1.3000516
18:29:26		x: -1.8136078	y: 7.32506	z: 2.0278888
18:29:26		x: 0.8595184	y: 11.398195	z: 1.9147629
18:29:26		x: -7.0275807	y: 11.070788	z: 2.5570073
18:29:26		x: 2.2990322	y: 3.139397	z: 4.4394484
18:29:27		x: 0.5823896	y: 11.155783	z: 6.9348054
18:29:27		x: 2.5617957	y: 10.119692	z: 0.88525605
18:29:27		x: -0.09995792	y: 10.217256	z: 1.5370775
18:29:27		x: -1.1378443	y: 13.769054	z: 1.1282675
18:29:27		x: 0.08319851	y: 7.7183075	z: 2.9173348
18:29:28		x: 0.8122329	y: 5.2582655	z: 3.858256
18:29:28		x: -0.3705027	y: 13.299191	z: 2.8191724
18:29:28		x: -1.2372037	y: 8.517372	z: -0.5746084
18:29:28		x: 0.05805939	y: 9.082404	z: 1.3120226
18:29:28		x: -1.6340426	y: 13.38239	z: 0.688333
18:29:28		x: 0.078410104	y: 8.608353	z: 2.3439236
18:29:29		x: 1.7208325	y: 8.771158	z: 3.3794158
18:29:29		x: -0.10295067	y: 9.803658	z: -3.555988
18:29:29		x: -4.701015	y: 7.887099	z: -0.6242881
18:29:29		x: -2.6354175	y: 8.81605	z: 3.5619736
18:29:29		x: 1.2216414	y: 7.517793	z: 6.3242836
18:29:30		x: -0.23403321	y: 4.811747	z: 7.6135616
18:29:30		x: -1.459266	y: 5.325303	z: 7.3220673
18:29:30		x: -2.3540988	y: 4.865018	z: 6.495469
18:29:30		x: -1.3515269	y: 3.8480806	z: 9.130288
18:29:30		x: -1.5095441	y: 4.677073	z: 8.303091
18:29:31		x: -0.82719666	y: 4.7985787	z: 8.865729
18:29:31		x: -0.6655881	y: 4.3089647	z: 9.030331
18:29:31		x: -0.8451532	y: 4.264672	z: 8.232463
18:29:31		x: -0.985214	y: 4.550779	z: 8.783129
18:29:31		x: -0.34955344	y: 4.8961425	z: 8.04751
18:29:31		x: -1.0737995	y: 4.8662148	z: 8.653243
18:29:32		x: 0.0688333	y: 5.1523223	z: 8.856153
18:29:32		x: 0.037110128	y: 4.611831	z: 8.921992
18:29:32		x: 0.010175358	y: 4.4795513	z: 9.408015
18:29:32		x: -0.48841715	y: 5.2121773	z: 8.686762
18:29:32		x: -0.51116204	y: 4.7363296	z: 8.820838
18:29:32		x: -0.9540894	y: 5.021838	z: 8.054094
