18:01:38		x: 21.248268
18:01:39		x: 21.248268
18:01:40		x: 21.341965
18:01:41		x: 21.341965
18:01:42		x: 21.341965
18:01:43		x: 21.341965
18:01:44		x: 21.341965
18:01:45		x: 21.341965
18:01:46		x: 21.341965
18:01:47		x: 21.341965
18:01:48		x: 21.341965
18:01:49		x: 21.379625
18:01:50		x: 21.379625
18:01:51		x: 21.379625
18:01:52		x: 21.378311
18:01:53		x: 21.378311
18:01:54		x: 21.378311
18:01:55		x: 21.378311
18:01:56		x: 21.378311
18:01:57		x: 21.378311
18:01:58		x: 21.378311
18:01:58		x: 21.378311
18:01:59		x: 21.378311
18:02:00		x: 21.46926
18:02:01		x: 21.46926
18:02:02		x: 21.46926
18:02:03		x: 21.467892
18:02:04		x: 21.467892
18:02:05		x: 21.467892
18:02:06		x: 21.467892
18:02:07		x: 21.467892
18:02:08		x: 21.467892
18:02:09		x: 21.467892
18:02:10		x: 21.467892
18:02:11		x: 21.467892
18:02:12		x: 21.540062
18:02:13		x: 21.540062
18:02:14		x: 21.540062
18:02:15		x: 21.697147
18:02:16		x: 21.697147
18:02:17		x: 21.697147
18:02:18		x: 21.802544
18:02:19		x: 21.802544
18:02:20		x: 21.802544
18:02:21		x: 21.802544
18:02:22		x: 21.802544
18:02:23		x: 21.802544
18:02:23		x: 22.00936
18:02:24		x: 22.00936
18:02:25		x: 22.00936
18:02:26		x: 22.10571
18:02:27		x: 22.10571
18:02:28		x: 22.10571
18:02:29		x: 22.345871
18:02:30		x: 22.345871
18:02:31		x: 22.345871
18:02:32		x: 22.345871
18:02:33		x: 22.345871
18:02:34		x: 22.345871
18:02:35		x: 22.473227
18:02:36		x: 22.473227
18:02:37		x: 22.473227
18:02:38		x: 22.473227
18:02:39		x: 22.473227
18:02:40		x: 22.473227
18:02:41		x: 22.545465
18:02:42		x: 22.545465
18:02:43		x: 22.545465
18:02:44		x: 22.68041
18:02:45		x: 22.68041
18:02:46		x: 22.68041
18:02:47		x: 22.618849
18:02:48		x: 22.618849
18:02:48		x: 22.618849
18:02:49		x: 22.802227
18:02:50		x: 22.802227
18:02:51		x: 22.802227
18:02:52		x: 22.802227
18:02:53		x: 22.802227
18:02:54		x: 22.802227
18:02:55		x: 22.912928
18:02:56		x: 22.912928
18:02:57		x: 22.912928
18:02:58		x: 23.185349
18:02:59		x: 23.185349
18:03:00		x: 23.185349
18:03:01		x: 23.185349
18:03:02		x: 23.185349
18:03:03		x: 23.185349
18:03:04		x: 23.32894
18:03:05		x: 23.32894
18:03:06		x: 23.32894
18:03:07		x: 23.32894
18:03:08		x: 23.32894
18:03:09		x: 23.32894
18:03:10		x: 23.421577
18:03:11		x: 23.421577
18:03:12		x: 23.421577
18:03:12		x: 23.49108
18:03:13		x: 23.49108
18:03:14		x: 23.49108
18:03:15		x: 23.608877
18:03:16		x: 23.608877
18:03:17		x: 23.608877
18:03:18		x: 23.674171
18:03:19		x: 23.674171
18:03:20		x: 23.674171
18:03:21		x: 23.739565
18:03:22		x: 23.739565
18:03:23		x: 23.739565
18:03:24		x: 23.739565
18:03:25		x: 23.739565
18:03:26		x: 23.739565
18:03:27		x: 23.82194
18:03:28		x: 23.82194
18:03:29		x: 23.82194
18:03:30		x: 23.837597
18:03:31		x: 23.837597
18:03:32		x: 23.837597
18:03:33		x: 23.90302
18:03:34		x: 23.90302
18:03:35		x: 23.90302
18:03:36		x: 23.968592
18:03:37		x: 23.968592
18:03:38		x: 23.968592
18:03:38		x: 23.968592
18:03:39		x: 23.968592
18:03:40		x: 23.968592
18:03:41		x: 24.09879
18:03:42		x: 24.09879
18:03:43		x: 24.09879
18:03:44		x: 24.09879
18:03:45		x: 24.09879
18:03:46		x: 24.09879
18:03:47		x: 24.175966
18:03:48		x: 24.175966
18:03:49		x: 24.175966
18:03:50		x: 24.23858
18:03:51		x: 24.23858
18:03:52		x: 24.23858
18:03:53		x: 24.252953
18:03:54		x: 24.252953
18:03:55		x: 24.252953
18:03:56		x: 24.252953
18:03:57		x: 24.252953
18:03:58		x: 24.252953
18:03:59		x: 24.333534
18:04:00		x: 24.333534
18:04:01		x: 24.333534
18:04:01		x: 24.333534
18:04:02		x: 24.333534
18:04:03		x: 24.333534
18:04:04		x: 24.412016
18:04:05		x: 24.412016
18:04:06		x: 24.412016
18:04:07		x: 24.573092
18:04:08		x: 24.573092
18:04:09		x: 24.573092
18:04:10		x: 24.573092
18:04:11		x: 24.573092
18:04:12		x: 24.573092
18:04:13		x: 24.552292
18:04:14		x: 24.552292
18:04:15		x: 24.552292
18:04:16		x: 24.566158
18:04:17		x: 24.566158
18:04:18		x: 24.566158
18:04:19		x: 24.630472
18:04:20		x: 24.630472
18:04:21		x: 24.630472
18:04:22		x: 24.598894
18:04:23		x: 24.598894
18:04:24		x: 24.598894
18:04:25		x: 24.598894
18:04:26		x: 24.598894
18:04:27		x: 24.598894
18:04:27		x: 24.58949
18:04:28		x: 24.58949
18:04:29		x: 24.58949
18:04:30		x: 24.562069
18:04:31		x: 24.562069
18:04:32		x: 24.562069
18:04:33		x: 24.536997
18:04:34		x: 24.536997
18:04:35		x: 24.536997
18:04:36		x: 24.536997
18:04:37		x: 24.536997
18:04:38		x: 24.536997
18:04:39		x: 24.536997
18:04:40		x: 24.536997
18:04:41		x: 24.536997
18:04:42		x: 24.564087
18:04:43		x: 24.564087
18:04:44		x: 24.564087
18:04:45		x: 24.689829
18:04:46		x: 24.689829
18:04:47		x: 24.689829
18:04:48		x: 24.689829
18:04:49		x: 24.689829
18:04:50		x: 24.689829
18:04:51		x: 24.689829
18:04:51		x: 24.689829
18:04:52		x: 24.689829
18:04:53		x: 24.689829
18:04:54		x: 24.689829
18:04:55		x: 24.689829
18:04:56		x: 24.761127
18:04:57		x: 24.761127
18:04:58		x: 24.761127
