\select@language {spanish}
\contentsline {section}{1.\ INTRODUCCI\'ON}{2}{section*.2}
\contentsline {section}{2. TECNOLOG\'IA ESPEC\'IFICA / INTENSIFICACI\'ON / ITINERARIO CURSADO POR EL ALUMNO}{5}{section*.3}
\contentsline {section}{3. \ OBJETIVOS}{5}{section*.4}
\contentsline {section}{4. M\'ETODO Y FASES DE TRABAJO}{6}{section*.5}
\contentsline {section}{5. MEDIOS QUE SE PRETENDEN UTILIZAR}{7}{section*.6}
\contentsline {section}{5.1. Medios Hardware}{7}{section*.7}
\contentsline {section}{5.2. Medios Software}{7}{section*.8}
\contentsline {section}{6. REFERENCIAS}{7}{section*.9}
