8 1:247.685637972 2:246.798577044 3:247.090402567 4:0.278931692077 5:0.0778028888447 6:0.268263223916 7:-0.273556856492 8:-5.99520433298e-15 9:0.178569328925 10:0.0318870052328 11:0.24925157973 12:-0.324048688686 13:-6.66133814775e-15 14:0.177106887299 15:0.0313668495287 16:0.807255351881 17:-0.777326819923 18:-3.71924713249e-15 19:0.481311184221 20:0.231660456056 21:1.00422640142 22:-0.980291722539 23:-5.10702591328e-15 24:0.599319194725 25:0.359183497166 26:0.225526978072 27:-0.155702063555 28:-0.0136996364472 29:0.120833254867 30:0.0146006754818 
8 1:247.175218637 2:244.982291538 3:246.441714874 4:0.685276761939 5:0.469604240454 6:0.649448650286 7:-0.547780139965 8:-6.29126380621e-15 9:0.361977253759 10:0.131027532239 11:0.645086774573 12:-0.565132707017 13:-2.92358729818e-15 14:0.368341329155 15:0.135675334764 16:0.948753030267 17:-0.91647676952 18:-2.49800180541e-15 19:0.576130078109 20:0.331925866902 21:0.298746156963 22:-0.315743027061 23:-2.99760216649e-15 24:0.188877756272 25:0.0356748068145 26:0.132391783173 27:-0.133513454602 28:0.00115731399497 29:0.0906947027645 30:0.00822552910954 
8 1:243.748358941 2:242.5811556 3:243.359538944 4:0.365214735902 5:0.13338180332 6:0.350421131757 7:-0.30644347366 8:-5.25505564989e-15 9:0.200424827112 10:0.0401701113228 11:0.359443410138 12:-0.300338513254 13:2.40548322002e-15 14:0.199122009878 15:0.0396495748179 16:0.610460884333 17:-0.607146112081 18:-1.55431223448e-15 19:0.368155460902 20:0.135538443392 21:0.221505316133 22:-0.266782243352 23:4.99600361081e-16 24:0.176554050441 25:0.0311713327272 26:0.199225180229 27:-0.181344990687 28:-0.0119526217128 29:0.120739820948 30:0.0145781043625 
8 1:240.355911278 2:239.763416608 3:240.160262621 4:0.186026394777 5:0.0346058195538 6:0.181098909432 7:-0.172207158099 8:-2.92358729818e-15 9:0.113352285886 10:0.0128487407156 11:0.207006317094 12:-0.163384087369 13:-3.10862446895e-15 14:0.113028915793 15:0.0127755358054 16:0.460371842437 17:-0.47393210637 18:-1.60982338571e-15 19:0.28250875665 20:0.0798111975839 21:0.499910733516 22:-0.516453577857 23:-4.27435864481e-15 24:0.307856879792 25:0.0947758584355 26:0.0810460491154 27:-0.12849102123 28:0.00750012067464 29:0.0686123641816 30:0.00470765651858 
8 1:239.450143182 2:239.450143182 3:239.450143182 4:2.84217094304e-14 5:8.07793566946e-28 6:-7.54951656745e-15 7:-7.54951656745e-15 8:-7.54951656745e-15 9:0.0 10:0.0 11:-1.33226762955e-14 12:-1.33226762955e-14 13:-1.33226762955e-14 14:0.0 15:0.0 16:7.77156117238e-16 17:7.77156117238e-16 18:7.77156117238e-16 19:0.0 20:0.0 21:0.0 22:0.0 23:0.0 24:0.0 25:0.0 26:-1.55431223448e-15 27:-1.55431223448e-15 28:-1.55431223448e-15 29:0.0 30:0.0 
