8 1:408.784358954 2:43.0168253487 3:287.850589234 4:125.21563917 5:15678.9562926 6:134.301518041 7:-104.95370367 8:-1.67485073429e-14 9:72.3638287772 10:5236.5237153 11:47.0502451524 12:-54.4413653513 13:-4.74559597284 14:31.5103396308 15:992.901503646 16:51.373209864 17:-53.2505115095 18:-3.85673013862 19:30.8522114955 20:951.858954162 21:189.993240048 22:-56.6354706339 23:30.109540368 24:64.5029251116 25:4160.62734796 26:169.010229511 27:-144.792862559 28:0.866089788894 29:105.954704967 30:11226.3995046 
8 1:345.793828203 2:51.0623878896 3:248.066631077 4:100.94008672 5:10188.901107 6:96.046946878 7:-76.4327149699 8:-6.97854472622e-16 9:54.1986999967 10:2937.49908133 11:30.6705306115 12:-39.6687523145 13:-4.19804585405 14:24.3144566211 15:591.192800781 16:44.8899456118 17:-47.3045195452 18:-5.45043421845 19:30.398478381 20:924.06748788 21:180.980438473 22:-49.5415206533 23:28.1255558295 24:60.757330678 25:3691.45323112 26:146.63228771 27:-132.346600585 28:-0.204204866725 29:92.6944041736 30:8592.2525651 
8 1:310.462999873 2:56.6182917148 3:226.273590801 4:86.9215929175 5:7555.36331531 6:82.2452544015 7:-65.5256449057 8:-5.69385808343e-15 9:46.460812135 10:2158.60706424 11:26.5892834978 12:-34.1702318442 13:-3.60521941229 14:20.8446401264 15:434.499021998 16:35.2265526279 17:-37.1724564421 18:-4.27633121414 19:23.8592261763 20:569.26267373 21:150.80401707 22:-39.195338562 23:23.5078921781 24:50.2396087017 25:2524.0182825 26:122.060748699 27:-106.262506787 28:-1.38946731419 29:76.4283743071 30:5841.29639923 
8 1:382.845501142 2:239.854666569 3:287.883805069 4:48.4634691591 5:2348.70784294 6:40.0843112904 7:-52.2126183499 8:-2.53765262771e-15 9:27.4480252078 10:753.39408781 11:22.9213005717 12:-23.4212143687 13:-1.92201846275 14:14.7985983319 15:218.99851259 16:22.1098222056 17:-18.850455163 18:-1.67716637863 19:11.9692608999 20:143.263206491 21:123.382382723 22:-46.9364140735 23:19.0003238089 24:44.5953372522 25:1988.74410464 26:129.477813756 27:-92.9534935498 28:0.780686299404 29:83.4613613479 30:6965.79883804 
8 1:496.537535982 2:422.329436076 3:472.761455702 4:25.6180591881 5:656.284956564 6:50.3199018111 7:-36.6726530732 8:-8.31081235577e-15 9:24.6031060306 10:605.312826351 11:19.9452076917 12:-19.0392738023 13:-1.13241539426 14:11.0440173624 15:121.970319501 16:24.0314013212 17:-27.8675008517 18:-2.96498736334 19:16.6898472055 20:278.550999741 21:74.7861264163 22:-28.9096950233 23:10.4572575494 24:33.3341704267 25:1111.16691803 26:98.3925019007 27:-104.042310749 28:7.53702445297 29:69.4598470474 30:4824.67035185 
8 1:542.035487095 2:376.599726045 3:486.875725821 4:56.5740660449 5:3200.62494885 6:47.3340662611 7:-38.3729343483 8:-1.25613805072e-14 9:27.8662193848 10:776.526182804 11:16.2690894562 12:-21.7906034503 13:-1.67606853435 14:13.2669138346 15:176.011002695 16:13.451003631 17:-26.8389964233 18:-3.12036367154 19:10.7806085174 20:116.221520006 21:76.5816388358 22:-31.4497419385 23:11.1322956788 24:33.4964132459 25:1122.00970034 26:82.9144709552 27:-106.77613611 28:7.75480019496 29:67.1385729026 30:4507.58797139 
8 1:480.0635194 2:378.097513179 3:447.480790367 4:35.0835600892 5:1230.85618853 6:76.0797588706 7:-55.0722787703 8:-6.97854472622e-15 9:36.4476334063 10:1328.42998092 11:32.7519534126 12:-28.4713786906 13:-1.08895215143 14:17.6402772946 15:311.179383029 16:19.3672769927 17:-16.4692821056 18:0.0215669514774 19:12.2897605608 20:151.038214642 21:55.8177074159 22:-30.227208754 23:8.33521026548 24:28.797646417 25:829.304439158 26:94.1305132429 27:-104.880922319 28:8.07987834829 29:67.6047663295 30:4570.40443046 
8 1:454.574998111 2:392.368045892 3:434.461074663 4:21.4983475984 5:462.178949461 6:35.8006262777 7:-26.3931835857 8:-8.62801893423e-15 9:18.1435749434 10:329.189311726 11:12.1609084548 12:-13.3225678442 13:-0.964544723011 14:7.64445222401 15:58.4376498052 16:25.9270530091 17:-41.1786443121 18:-4.65458479391 19:21.7143073141 20:471.511142129 21:73.8386511389 22:-26.9722348531 23:9.98172265939 24:32.6887240004 25:1068.55267677 26:92.3259758122 27:-94.443262142 28:7.26665208593 29:63.6988934068 30:4057.54902126 
8 1:522.038844756 2:362.503589845 3:469.020386648 4:54.5971682996 5:2980.85078634 6:50.7459258448 7:-40.4249944126 8:-1.04678170893e-14 9:28.7172127119 10:824.678305938 11:17.6866397353 12:-22.4380220366 13:-1.72498624114 14:13.3119244624 15:177.207332892 16:16.0682627917 17:-28.4627444706 18:-3.26205944145 19:12.1081972015 20:146.60843947 21:82.2068933197 22:-32.7962406638 23:11.9880742847 24:35.4795406074 25:1258.79780171 26:86.0874708113 27:-99.4151816911 28:6.56270973496 29:63.7094399354 30:4058.89273688 
8 1:512.588539372 2:341.437982374 3:456.680230575 4:58.6519905893 5:3440.05600009 6:87.4765801375 7:-65.5655471244 8:-7.54951656745e-15 9:43.6138110248 10:1902.1645121 11:35.466889218 12:-34.2790766582 13:-1.89046802793 14:19.7826771877 15:391.354316712 16:20.3834782423 17:-18.4843021088 18:-0.151796915697 19:11.9891277251 20:143.739183608 21:74.8120813856 22:-27.5771098561 23:11.7259512956 24:30.8773172057 25:953.408717823 26:103.258801641 27:-107.018341255 28:8.1067691533 29:72.6681630867 30:5280.66192639 
8 1:452.047538402 2:408.904096 3:438.884881551 4:15.0775435263 5:227.332318788 6:47.6614996817 7:-33.7223474694 8:-1.70022726057e-14 9:22.7842540082 10:519.122230709 11:19.3600598045 12:-16.6324747514 13:-1.1860538173 14:10.6273217074 15:112.939966672 16:25.205590536 17:-22.1816443167 18:-2.17639564228 19:17.6428031621 20:311.268503417 21:79.5902203524 22:-37.2461251918 23:11.4405362962 24:35.6928991237 25:1273.98304785 26:117.990013838 27:-116.786109651 28:8.6927915025 29:79.91272393 30:6386.04344591 
8 1:543.036014855 2:362.219446038 3:482.672537473 4:61.8430074229 5:3824.5575671 6:49.4312136723 7:-40.3436571611 8:-7.93016446161e-15 9:29.7260071582 10:883.635501569 11:15.2990893698 12:-22.0127596497 13:-1.82927819423 14:14.4008122047 15:207.383392154 16:18.3304786631 17:-39.636918578 18:-4.66158549282 19:17.2270354671 20:296.770750986 21:90.0996793198 22:-38.5666293322 23:13.0840399667 24:41.0784970443 25:1687.44291942 26:111.224182193 27:-123.191237674 28:8.23016841804 29:80.2054664586 30:6432.91684984 
8 1:532.221965089 2:350.788458445 3:473.06796285 4:62.2338528289 5:3873.05243793 6:95.3098118964 7:-71.2228887332 8:-1.24344978758e-14 9:47.4227093503 10:2248.91336212 11:39.527348919 12:-38.1938020194 13:-2.05890583653 14:22.0212149888 15:484.933909582 16:19.9179556213 17:-16.9084337395 18:-0.877474468298 19:11.7023071582 20:136.943992824 21:92.5464266041 22:-33.0281177524 23:13.9010632079 24:37.5774799712 25:1412.06700099 26:113.546577076 27:-124.191217255 28:9.05862505761 29:82.3847980604 30:6787.25495146 
8 1:453.440663589 2:366.065481316 3:425.516173595 4:30.1468170059 5:908.830575587 6:62.8500542469 7:-45.56856891 8:-1.48452678721e-14 9:30.4250058946 10:925.680983687 11:25.4738836466 12:-23.5366712611 13:-1.1615386917 14:13.8462060649 15:191.717422391 16:26.8861509112 17:-28.1832944381 18:-2.92879034918 19:18.6215092012 20:346.760604931 21:78.6428591981 22:-37.9809041269 23:10.9721930595 24:39.2715698857 25:1542.25620129 26:114.485175634 27:-123.239720025 28:9.48349169066 29:81.5118061373 30:6644.17453976 
8 1:467.504322491 2:402.797121563 3:445.975492009 4:22.3034672909 5:497.444653196 6:14.8640392485 7:-16.765842715 8:-1.52259157663e-15 9:11.1287326208 10:123.848689746 11:12.3278242659 12:-10.9617450233 13:-1.38688359128 14:7.08142313114 15:50.1465535622 16:24.1737077581 17:-46.1435067853 18:-5.31336604612 19:21.2130592624 20:449.99388327 21:90.8180873702 22:-40.5569326577 23:12.8096235168 24:40.2594997824 25:1620.82732273 26:107.713277571 27:-117.802665609 28:8.86968902705 29:78.5334892796 30:6167.50893843 
8 1:554.368326637 2:376.467274131 3:495.732264198 4:60.9114481593 5:3710.20451686 6:72.9077727878 7:-56.0797551109 8:-9.07210814408e-15 9:38.0545330914 10:1448.14748881 11:29.2288590032 12:-31.0134214955 13:-1.93073879406 14:17.4414260502 15:304.203342665 16:14.5424617785 17:-14.0342718514 18:-1.26546171994 19:8.53673010405 20:72.8757608694 21:82.4265645684 22:-35.5457659458 23:12.2984606507 24:35.5937890929 25:1266.91782199 26:100.006214141 27:-123.870883997 28:9.84730881426 29:80.6782190573 30:6508.97503026 
8 1:479.222483533 2:466.252401481 3:472.492650184 4:4.36422083755 5:19.0464235189 6:54.0892305215 7:-35.7831746081 8:-8.24737104007e-15 9:25.8415259652 10:667.78446421 11:26.0358251256 12:-21.6507655295 13:-0.630661905441 14:15.5434392468 15:241.59850362 16:26.4755558644 17:-22.4139405369 18:-0.131748524004 19:15.2790961493 20:233.450779139 21:62.5269834843 22:-36.6357511118 23:8.70999789772 24:35.3244620801 25:1247.81762125 26:108.104816982 27:-124.152555125 28:9.516693856 29:80.884642232 30:6542.325349 
8 1:555.852575891 2:482.685785561 3:531.545196726 4:25.2035397333 5:635.21841509 6:21.3618093717 7:-18.0958130597 8:-1.04043757736e-14 9:13.5416790844 10:183.377072426 11:11.818123494 12:-12.7384838409 13:-0.988397330655 14:7.73822151682 15:59.8800722434 16:27.800487866 17:-56.0431980122 18:-6.52156210565 19:24.617477786 20:606.020212542 21:78.8061659098 22:-47.9953337964 23:10.2834034566 24:40.6300381226 25:1650.79999784 26:101.5183621 27:-126.244664739 28:9.41029075189 29:81.5742853346 30:6654.36402785 
8 1:629.331823439 2:397.116618171 3:552.716178979 4:79.4526933675 5:6312.73048335 6:96.4946238282 7:-73.9320433218 8:-1.55431223448e-14 9:49.971147551 10:2497.11558756 11:39.3065428721 12:-41.2120972409 13:-1.88912531014 14:23.0506051616 15:531.330398315 16:16.3574874586 17:-17.4617800513 18:-1.85259107007 19:10.0400370801 20:100.80234457 21:78.4765699963 22:-41.7147033379 23:11.3581032959 24:36.6941974579 25:1346.46412708 26:105.476911083 27:-131.563951154 28:10.500555072 29:86.0390525832 30:7402.71856941 
8 1:484.163145375 2:480.126755209 3:482.716059217 4:1.60017469939 5:2.56055906857 6:54.1721280014 7:-36.2517489682 8:-1.70022726057e-14 9:25.7200632111 10:661.521651585 11:25.4622116156 12:-19.5927634423 13:-0.688545497918 14:14.8368843803 15:220.133138114 16:26.7003716668 17:-21.105221623 18:-0.529493704288 19:15.6693943179 20:245.529918289 21:63.9925008449 22:-38.13773333 23:8.85792819424 24:36.6926473369 25:1346.35036859 26:111.691704847 27:-135.796002471 28:11.0044403676 29:88.9585369594 30:7913.62129796 
8 1:556.574314119 2:410.534888794 3:507.250741953 4:49.9329298235 5:2493.29748076 6:22.2306143354 7:-33.2277974517 8:-2.6645352591e-15 9:19.3916214184 10:376.034981234 11:22.1356052877 12:-23.2821061387 13:-1.1332347598 14:13.2430364066 15:175.378013266 16:18.9090593113 17:-55.3945459727 18:-6.6918613911 19:20.8022757495 20:432.734676358 21:74.4068025481 22:-38.1419324158 23:9.84470870755 24:36.9144402324 25:1362.67589767 26:91.6135743418 27:-133.414210225 28:9.30673140835 29:81.1734875048 30:6589.13507369 
8 1:508.199758943 2:401.403485537 3:473.758821205 4:36.7073015048 5:1347.42598377 6:68.9184922902 7:-50.4629002038 8:-8.881784197e-15 9:33.454092628 10:1119.17631357 11:30.4080875276 12:-27.6271630606 13:-1.07297998688 14:16.4782395189 15:271.532377643 16:16.9415586419 17:-17.6625938772 18:-0.589805275046 19:9.24112885488 20:85.3984625124 21:57.9888452429 22:-27.3319284817 23:8.16138795714 24:28.6088077905 25:818.463883191 26:87.3429165064 27:-120.737416802 28:9.8595553963 29:76.2980575729 30:5821.3935894 
8 1:420.525841275 2:407.665038677 3:416.888923148 4:4.62843746956 5:21.4224334097 6:23.8064420421 7:-16.3455444152 8:-1.30689110327e-14 9:11.5099121201 10:132.478077012 11:9.77496002642 12:-8.46517309671 13:-0.200734408207 14:5.13400844503 15:26.3580427137 16:20.1248217409 17:-27.5480090575 18:-3.02414985041 19:13.9440270806 20:194.435891225 21:41.8452849514 22:-32.2933399536 23:5.10579642599 24:25.2989382738 25:640.036277782 26:69.0712268296 27:-88.4206149489 28:9.06117589549 29:56.470393116 30:3188.90529868 
8 1:515.913176981 2:173.249071565 3:402.80289888 4:117.081609373 5:13708.1032535 6:151.891212 7:-115.056777477 8:-1.7763568394e-14 9:76.9802182446 10:5925.95400099 11:61.5460575151 12:-62.3271793463 13:-1.10017492579 14:35.1771137426 15:1237.42933126 16:27.7040531828 17:-28.7248830007 18:-1.9942476939 19:16.3302846116 20:266.678195494 21:61.5656122045 22:-52.6437356722 23:6.1779867186 24:33.5802176328 25:1127.63101627 26:147.393490166 27:-136.299514404 28:4.80964106428 29:79.2135962171 30:6274.79382564 
8 1:520.623954595 2:95.2613937917 3:379.688151202 4:145.490488716 5:21167.4823068 6:151.117696842 7:-118.53363627 8:-2.28388736494e-15 9:81.8726584287 10:6703.13219818 11:54.2605024068 12:-62.6955710193 13:-4.75070445346 14:35.9377912182 15:1291.52483765 16:43.6252281046 17:-45.1252785521 18:-3.62313596053 19:26.4737010262 20:700.856846024 21:174.84994774 22:-52.0144858997 23:27.7259770502 24:59.9164371376 25:3589.97943926 26:169.369030758 27:-115.575103216 28:1.66408142988 29:102.506570142 30:10507.5969222 
8 1:384.916216568 2:70.0955446558 3:280.776994592 4:107.791758853 5:11619.0632765 6:113.748735603 7:-89.0602162607 8:-3.90164091511e-15 9:61.6604509534 10:3802.01121177 11:39.4100325003 12:-46.4446089392 13:-4.05746591492 14:27.0223421403 15:730.206974748 16:42.911384538 17:-44.4743064473 18:-4.33869392392 19:27.8362704514 20:774.857952643 21:170.48345225 22:-49.1126582488 23:26.5610572541 24:58.6667067386 25:3441.78247955 26:147.118523113 27:-113.965999908 28:3.21259481691 29:93.8736211245 30:8812.25674302 
8 1:356.901503917 2:64.098183248 3:260.241873538 4:100.280221447 5:10056.1228135 6:111.875675496 7:-86.933731199 8:-1.03409344579e-14 9:59.664526592 10:3559.85573344 11:39.455008409 12:-44.9627208495 13:-3.87213702115 14:25.9327080586 15:672.505347254 16:43.5821950262 17:-44.8831991523 18:-3.57861453793 19:27.0414513226 20:731.240089633 21:161.633030509 22:-49.1582156528 23:25.3240880552 24:56.1358420575 25:3151.23276351 26:145.134646306 27:-113.441077214 28:3.10341739817 29:92.9481963106 30:8639.36719739 
