12 1:5337.86346128 2:5337.85023752 3:5337.8545518 4:0.00416581186553 5:1.7353988499e-05 6:0.00431044928144 7:-0.0042745760983 8:-2.20268248086e-13 9:0.00290321851077 10:8.42867772125e-06 11:0.00317378785351 12:-0.00486285558355 13:-9.47390314347e-14 14:0.00286793890415 15:8.22507355793e-06 16:0.0130327988672 17:-0.0122811883875 18:-4.02640883597e-14 19:0.007819387184 20:6.11428159333e-05 21:0.0185417949493 22:-0.0175106287994 23:-3.58231962612e-14 24:0.0110181948889 25:0.000121400618611 26:0.0216397963256 27:-0.0276101464187 28:0.00146858130257 29:0.0171168181997 30:0.00029298546528 
12 1:5337.73852145 2:5337.67460884 3:5337.71719324 4:0.0199892773268 5:0.000399571208046 6:0.019012189796 7:-0.0164475661222 8:-2.00136203906e-13 9:0.0107819029959 10:0.000116249432213 11:0.0195419463676 12:-0.0168394861681 13:-1.44477022938e-13 14:0.0110193506712 15:0.000121426089216 16:0.032166196889 17:-0.0316563707348 18:-7.22385114689e-14 19:0.019398407081 20:0.00037629819728 21:0.00628036931758 22:-0.00742862826126 23:-3.75995531006e-14 24:0.00520042947425 25:2.70444667167e-05 26:0.0446150652381 27:-0.0337811560461 28:0.000963219671355 29:0.0244143033916 30:0.000596058210098 
12 1:5337.7661076 2:5337.67281771 3:5337.73458346 4:0.0290588442672 5:0.000844416430144 6:0.0269496455776 7:-0.0202362525358 8:-5.09222293961e-14 9:0.0146296331202 10:0.000214026165231 11:0.0231909405673 12:-0.0225002042163 13:-7.75675819871e-14 14:0.0148927710188 15:0.000221794628619 16:0.0251255721093 17:-0.0165905673126 18:-5.44749430749e-14 19:0.0146786277963 20:0.000215462113982 21:0.0714704985652 22:-0.074868663823 23:-8.881784197e-16 24:0.0448991056238 25:0.00201592968582 26:0.0332502408577 27:-0.0223365659732 28:-0.000907923885414 29:0.0182668082901 30:0.000333676285106 
12 1:5337.73569643 2:5337.69938716 3:5337.71130153 4:0.0114191638074 5:0.00013039730206 6:0.0112231610872 7:-0.0114421083617 8:-1.43292785045e-13 9:0.00746509790251 10:5.5727686694e-05 11:0.00927962244814 12:-0.0130025544648 13:-7.81597009336e-14 14:0.00725865152273 15:5.26880219285e-05 16:0.0324090722636 17:-0.0309389295255 18:-9.00020798629e-14 19:0.0193474884356 20:0.000374325308767 21:0.0392547380037 22:-0.0379468952943 23:-7.63833440942e-14 24:0.0234018515735 25:0.000547646657066 26:0.0360983092313 27:-0.033169739998 28:0.00175575065598 29:0.0215813773104 30:0.000465755846614 
12 1:5337.6648926 2:5337.66017642 3:5337.66186128 4:0.00145765549334 5:2.12475953728e-06 6:0.00216816136621 7:-0.00227753184634 8:4.85537536103e-14 9:0.00140918088365 10:1.98579076286e-06 11:0.00224975711953 12:-0.00225600751445 13:-1.35003119794e-13 14:0.00136873548728 15:1.87343683414e-06 16:0.00664002513856 17:-0.00766106826934 18:-8.94099609165e-14 19:0.00511850582112 20:2.61991018408e-05 21:0.0243246982026 22:-0.0246568308412 23:4.73695157173e-15 24:0.0147463716435 25:0.000217455476648 26:0.0222661579069 27:-0.0314268664282 28:3.21466910658e-05 29:0.0160646714078 30:0.000258073667441 
