17:04:09		x: 70.695	y: 6.028	z: -34.826
17:04:09		x: 76.361	y: 1.358	z: -32.446
17:04:09		x: 86.062	y: 4.661	z: -34.42
17:04:10		x: 77.867	y: -4.042	z: -22.856
17:04:10		x: 70.497	y: 0.201	z: -23.957
17:04:10		x: 65.304	y: 3.453	z: -22.778
17:04:10		x: 63.442	y: -0.375	z: -20.503
17:04:10		x: 61.276	y: -1.969	z: -18.989
17:04:10		x: 60.429	y: -5.067	z: -17.617
17:04:11		x: 60.429	y: -8.067	z: -14.605
17:04:11		x: 68.096	y: -8.067	z: -14.605
17:04:11		x: 32.142	y: -35.397	z: -10.137
17:04:11		x: 21.472	y: -44.709	z: -7.031
17:04:11		x: 15.718	y: -44.709	z: -12.82
17:04:12		x: 21.18	y: -49.94	z: -15.597
17:04:12		x: 16.87	y: -55.467	z: -14.454
17:04:12		x: 31.341	y: -46.012	z: -16.267
17:04:12		x: 31.678	y: -44.825	z: -16.267
17:04:12		x: 31.678	y: -45.321	z: -15.895
17:04:12		x: 33.657	y: -45.321	z: -15.316
17:04:13		x: 35.986	y: -43.885	z: -16.046
17:04:13		x: 35.574	y: -43.885	z: -16.392
17:04:13		x: 36.451	y: -44.459	z: -16.392
17:04:13		x: 38.362	y: -44.459	z: -15.127
17:04:13		x: 39.55	y: -44.775	z: -13.853
17:04:14		x: 39.55	y: -44.775	z: -13.853
17:04:14		x: 41.955	y: -44.006	z: -13.314
17:04:14		x: 41.955	y: -44.006	z: -14.396
17:04:14		x: 41.401	y: -44.612	z: -13.563
17:04:14		x: 41.041	y: -45.706	z: -13.24
17:04:14		x: 41.041	y: -45.158	z: -13.24
17:04:15		x: 40.09	y: -45.158	z: -14.471
17:04:15		x: 40.898	y: -45.158	z: -14.471
17:04:15		x: 40.898	y: -45.158	z: -14.471
17:04:15		x: 40.898	y: -45.158	z: -14.471
17:04:15		x: 40.898	y: -44.854	z: -14.471
17:04:16		x: 40.483	y: -44.854	z: -14.471
17:04:16		x: 40.483	y: -44.854	z: -14.471
17:04:16		x: 40.483	y: -44.854	z: -14.471
17:04:16		x: 40.483	y: -44.854	z: -14.125
17:04:16		x: 40.483	y: -44.854	z: -14.125
17:04:16		x: 40.483	y: -44.854	z: -14.125
17:04:17		x: 40.483	y: -44.854	z: -14.125
17:04:17		x: 40.809	y: -44.854	z: -13.784
17:04:17		x: 40.809	y: -44.854	z: -13.784
17:04:17		x: 40.809	y: -44.854	z: -13.784
17:04:17		x: 40.809	y: -44.854	z: -13.784
17:04:18		x: 40.809	y: -45.195	z: -13.784
17:04:18		x: 40.809	y: -45.195	z: -13.784
17:04:18		x: 40.809	y: -45.195	z: -14.111
17:04:18		x: 40.809	y: -45.195	z: -14.111
17:04:18		x: 40.809	y: -45.195	z: -14.111
17:04:18		x: 40.507	y: -45.195	z: -14.111
17:04:19		x: 40.507	y: -45.195	z: -14.111
17:04:19		x: 40.507	y: -45.195	z: -14.111
17:04:19		x: 40.507	y: -45.195	z: -14.111
17:04:19		x: 40.507	y: -45.195	z: -14.111
17:04:19		x: 40.507	y: -45.574	z: -14.111
17:04:20		x: 40.507	y: -45.574	z: -14.111
17:04:20		x: 40.507	y: -45.904	z: -14.111
17:04:20		x: 40.507	y: -47.377	z: -13.055
17:04:20		x: 40.507	y: -51.811	z: -11.596
17:04:20		x: 40.507	y: -56.57	z: -10.673
17:04:20		x: 40.507	y: -62.606	z: -8.737
17:04:21		x: 40.507	y: -66.743	z: -7.429
17:04:21		x: 40.507	y: -70.579	z: -5.255
17:04:21		x: 37.77	y: -72.479	z: -4.664
17:04:21		x: 34.936	y: -71.113	z: -2.413
17:04:21		x: 33.891	y: -67.41	z: -0.488
17:04:21		x: 32.847	y: -60.22	z: 1.98
17:04:22		x: 33.169	y: -50.892	z: 1.98
17:04:22		x: 34.454	y: -42.06	z: 0.337
17:04:22		x: 35.743	y: -35.671	z: -3.752
17:04:22		x: 36.59	y: -31.91	z: -7.836
17:04:22		x: 36.59	y: -30.845	z: -10.8
17:04:23		x: 36.59	y: -29.988	z: -13.288
17:04:23		x: 36.096	y: -30.433	z: -14.939
17:04:23		x: 36.096	y: -31.167	z: -16.47
17:04:23		x: 35.549	y: -31.773	z: -16.47
17:04:23		x: 35.549	y: -32.225	z: -17.041
17:04:23		x: 35.549	y: -32.225	z: -17.382
17:04:24		x: 35.549	y: -32.604	z: -17.382
17:04:24		x: 35.853	y: -32.604	z: -16.7
17:04:24		x: 35.527	y: -32.604	z: -16.7
17:04:24		x: 35.527	y: -32.604	z: -17.234
17:04:24		x: 35.209	y: -32.604	z: -18.046
17:04:25		x: 35.209	y: -32.604	z: -18.046
17:04:25		x: 35.209	y: -32.604	z: -17.709
17:04:25		x: 35.209	y: -32.604	z: -17.709
17:04:25		x: 35.58	y: -32.604	z: -17.308
17:04:25		x: 35.58	y: -32.604	z: -17.308
17:04:25		x: 35.58	y: -32.144	z: -17.308
17:04:26		x: 35.58	y: -32.144	z: -17.308
17:04:26		x: 35.58	y: -32.144	z: -17.308
17:04:26		x: 35.58	y: -32.144	z: -17.308
17:04:26		x: 35.58	y: -32.144	z: -17.308
17:04:26		x: 35.58	y: -32.144	z: -17.308
17:04:27		x: 35.58	y: -32.505	z: -17.308
17:04:27		x: 35.58	y: -32.505	z: -17.308
17:04:27		x: 35.58	y: -32.505	z: -17.308
17:04:27		x: 35.923	y: -32.505	z: -17.308
17:04:27		x: 35.923	y: -32.505	z: -17.308
17:04:27		x: 35.923	y: -32.505	z: -17.308
17:04:28		x: 35.923	y: -32.505	z: -17.308
17:04:28		x: 35.923	y: -32.505	z: -17.308
17:04:28		x: 35.923	y: -32.505	z: -17.308
17:04:28		x: 35.923	y: -32.505	z: -17.308
17:04:28		x: 35.923	y: -32.505	z: -17.308
17:04:29		x: 35.923	y: -32.505	z: -16.947
17:04:29		x: 35.923	y: -32.505	z: -16.947
17:04:29		x: 35.923	y: -32.505	z: -16.947
17:04:29		x: 35.356	y: -32.505	z: -16.947
17:04:29		x: 32.366	y: -32.505	z: -16.947
17:04:29		x: 24.671	y: -32.81	z: -16.947
17:04:30		x: 19.364	y: -34.114	z: -16.947
17:04:30		x: 12.4	y: -40.304	z: -16.513
17:04:30		x: 8.995	y: -44.259	z: -16.513
17:04:30		x: 13.665	y: -42.884	z: -16.11
17:04:30		x: 21.197	y: -40.405	z: -16.11
17:04:30		x: 24.757	y: -39.582	z: -16.11
17:04:31		x: 27.377	y: -38.531	z: -15.113
17:04:31		x: 29.489	y: -39.292	z: -14.805
17:04:31		x: 7.501	y: -48.776	z: -13.609
17:04:31		x: 17.643	y: -42.81	z: -13.609
17:04:31		x: 21.022	y: -41.281	z: -14.154
17:04:32		x: 29.94	y: -36.764	z: -13.729
17:04:32		x: 31.193	y: -35.166	z: -13.104
17:04:32		x: 38.941	y: -33.311	z: -15.408
17:04:32		x: 22.967	y: -46.676	z: -15.408
17:04:32		x: 8.129	y: -53.927	z: -16.076
17:04:32		x: 12.583	y: -52.821	z: -16.076
17:04:33		x: 20.254	y: -47.917	z: -18.594
17:04:33		x: 32.279	y: -40.029	z: -21.601
17:04:33		x: 28.112	y: -40.029	z: -21.101
17:04:33		x: 13.673	y: -41.801	z: -19.505
17:04:33		x: 87.825	y: 14.796	z: -27.868
17:04:34		x: 51.521	y: -3.376	z: -30.477
17:04:34		x: 72.314	y: 0.016	z: -37.672
17:04:34		x: 89.765	y: -10.232	z: -25.764
17:04:34		x: 84.078	y: -21.868	z: -18.411
17:04:34		x: 81.216	y: -25.672	z: -15.103
17:04:34		x: 81.216	y: -25.672	z: -15.487
17:04:35		x: 79.85	y: -25.672	z: -14.43
17:04:35		x: 80.36	y: -25.672	z: -14.43
17:04:35		x: 80.989	y: -25.303	z: -13.723
17:04:35		x: 81.304	y: -24.789	z: -14.234
17:04:35		x: 81.304	y: -24.789	z: -14.234
17:04:35		x: 81.304	y: -24.789	z: -14.611
17:04:36		x: 81.816	y: -24.456	z: -14.611
17:04:36		x: 81.816	y: -24.845	z: -14.611
17:04:36		x: 81.816	y: -23.89	z: -17.323
