17:04:09		x: 1.0
17:04:09		x: 0.0
17:04:09		x: 1.0
17:04:10		x: 3.0
17:04:10		x: 5.0
17:04:10		x: 0.0
17:04:10		x: 0.0
17:04:10		x: 0.0
17:04:10		x: 0.0
17:04:11		x: 0.0
17:04:11		x: 3.0
17:04:11		x: 0.0
17:04:11		x: 2.0
17:04:11		x: 4.0
17:04:12		x: 11.0
17:04:12		x: 5.0
17:04:12		x: 3.0
17:04:12		x: 3.0
17:04:12		x: 2.0
17:04:12		x: 2.0
17:04:13		x: 2.0
17:04:13		x: 2.0
17:04:13		x: 2.0
17:04:13		x: 2.0
17:04:13		x: 1.0
17:04:14		x: 1.0
17:04:14		x: 1.0
17:04:14		x: 1.0
17:04:14		x: 1.0
17:04:14		x: 1.0
17:04:14		x: 1.0
17:04:15		x: 1.0
17:04:15		x: 1.0
17:04:15		x: 1.0
17:04:15		x: 1.0
17:04:15		x: 1.0
17:04:16		x: 0.0
17:04:16		x: 0.0
17:04:16		x: 0.0
17:04:16		x: 0.0
17:04:16		x: 0.0
17:04:16		x: 0.0
17:04:17		x: 0.0
17:04:17		x: 0.0
17:04:17		x: 0.0
17:04:17		x: 0.0
17:04:17		x: 0.0
17:04:18		x: 0.0
17:04:18		x: 0.0
17:04:18		x: 0.0
17:04:18		x: 0.0
17:04:18		x: 0.0
17:04:18		x: 0.0
17:04:19		x: 0.0
17:04:19		x: 0.0
17:04:19		x: 0.0
17:04:19		x: 0.0
17:04:19		x: 0.0
17:04:20		x: 0.0
17:04:20		x: 0.0
17:04:20		x: 0.0
17:04:20		x: 0.0
17:04:20		x: 0.0
17:04:20		x: 0.0
17:04:21		x: 0.0
17:04:21		x: 0.0
17:04:21		x: 0.0
17:04:21		x: 0.0
17:04:21		x: 0.0
17:04:21		x: 0.0
17:04:22		x: 0.0
17:04:22		x: 0.0
17:04:22		x: 0.0
17:04:22		x: 0.0
17:04:22		x: 1.0
17:04:23		x: 1.0
17:04:23		x: 1.0
17:04:23		x: 1.0
17:04:23		x: 1.0
17:04:23		x: 1.0
17:04:23		x: 1.0
17:04:24		x: 1.0
17:04:24		x: 1.0
17:04:24		x: 1.0
17:04:24		x: 1.0
17:04:24		x: 1.0
17:04:25		x: 1.0
17:04:25		x: 1.0
17:04:25		x: 1.0
17:04:25		x: 1.0
17:04:25		x: 1.0
17:04:25		x: 1.0
17:04:26		x: 0.0
17:04:26		x: 0.0
17:04:26		x: 0.0
17:04:26		x: 0.0
17:04:26		x: 0.0
17:04:27		x: 0.0
17:04:27		x: 0.0
17:04:27		x: 0.0
17:04:27		x: 0.0
17:04:27		x: 0.0
17:04:27		x: 0.0
17:04:28		x: 0.0
17:04:28		x: 0.0
17:04:28		x: 0.0
17:04:28		x: 0.0
17:04:28		x: 0.0
17:04:29		x: 0.0
17:04:29		x: 0.0
17:04:29		x: 1.0
17:04:29		x: 1.0
17:04:29		x: 1.0
17:04:29		x: 1.0
17:04:30		x: 0.0
17:04:30		x: 0.0
17:04:30		x: 0.0
17:04:30		x: 0.0
17:04:30		x: 1.0
17:04:30		x: 1.0
17:04:31		x: 0.0
17:04:31		x: 0.0
17:04:31		x: 0.0
17:04:31		x: 0.0
17:04:31		x: 0.0
17:04:32		x: 0.0
17:04:32		x: 0.0
17:04:32		x: 0.0
17:04:32		x: 0.0
17:04:32		x: 0.0
17:04:32		x: 0.0
17:04:33		x: 0.0
17:04:33		x: 0.0
17:04:33		x: 0.0
17:04:33		x: 0.0
17:04:33		x: 0.0
17:04:34		x: 0.0
17:04:34		x: 0.0
17:04:34		x: 0.0
17:04:34		x: 0.0
17:04:34		x: 0.0
17:04:34		x: 0.0
17:04:35		x: 0.0
17:04:35		x: 0.0
17:04:35		x: 0.0
17:04:35		x: 0.0
17:04:35		x: 0.0
17:04:36		x: 0.0
17:04:36		x: 0.0
17:04:36		x: 0.0
17:04:36		x: 0.0
