15:32:46		x: -2.244	y: 8.924	z: 77.223
15:32:46		x: -2.658	y: 8.924	z: 75.108
15:32:46		x: -3.271	y: 8.457	z: 73.049
15:32:47		x: -2.722	y: 8.457	z: 71.6
15:32:47		x: -2.722	y: 8.457	z: 71.6
15:32:47		x: -2.366	y: 8.457	z: 71.984
15:32:47		x: -2.366	y: 8.457	z: 72.378
15:32:47		x: -2.366	y: 8.073	z: 71.992
15:32:47		x: -2.366	y: 8.073	z: 71.508
15:32:48		x: -2.699	y: 8.073	z: 72.322
15:32:48		x: -2.699	y: 8.073	z: 73.519
15:32:48		x: -2.699	y: 8.073	z: 73.519
15:32:48		x: -2.381	y: 8.073	z: 73.953
15:32:48		x: -2.381	y: 7.772	z: 74.319
15:32:49		x: -2.381	y: 7.772	z: 73.863
15:32:49		x: -2.049	y: 7.772	z: 73.863
15:32:49		x: -2.049	y: 7.772	z: 73.863
15:32:49		x: -2.049	y: 7.772	z: 73.863
15:32:49		x: -2.049	y: 7.772	z: 73.338
15:32:49		x: -2.049	y: 7.772	z: 73.338
15:32:50		x: -2.049	y: 7.772	z: 73.338
15:32:50		x: -2.049	y: 7.772	z: 73.005
15:32:50		x: -2.049	y: 7.772	z: 73.005
15:32:50		x: -2.049	y: 7.772	z: 73.005
15:32:50		x: -2.415	y: 7.772	z: 73.005
15:32:51		x: -2.415	y: 7.772	z: 73.005
15:32:51		x: -2.415	y: 7.772	z: 73.005
15:32:51		x: -2.415	y: 7.458	z: 73.005
15:32:51		x: -2.732	y: 7.458	z: 73.005
15:32:51		x: -2.732	y: 7.458	z: 73.005
15:32:51		x: -2.732	y: 7.458	z: 73.005
15:32:52		x: -2.732	y: 7.458	z: 73.005
15:32:52		x: -2.732	y: 7.458	z: 73.005
15:32:52		x: -3.065	y: 7.458	z: 73.005
15:32:52		x: -3.065	y: 7.458	z: 73.005
15:32:52		x: -3.065	y: 7.458	z: 73.005
15:32:53		x: -3.065	y: 7.458	z: 73.005
15:32:53		x: -3.065	y: 7.458	z: 73.005
15:32:53		x: -3.065	y: 7.458	z: 73.005
15:32:53		x: -3.065	y: 7.762	z: 73.005
15:32:53		x: -3.065	y: 7.762	z: 73.005
15:32:53		x: -3.065	y: 7.762	z: 72.656
15:32:54		x: -3.065	y: 7.762	z: 72.656
15:32:54		x: -3.065	y: 7.762	z: 72.656
15:32:54		x: -3.065	y: 7.762	z: 72.656
15:32:54		x: -3.065	y: 7.762	z: 72.656
15:32:54		x: -3.065	y: 7.762	z: 72.656
15:32:54		x: -3.065	y: 7.762	z: 72.656
15:32:55		x: -3.065	y: 7.762	z: 72.656
15:32:55		x: -3.065	y: 7.762	z: 72.656
15:32:55		x: -3.065	y: 7.762	z: 72.656
15:32:55		x: -3.065	y: 7.762	z: 72.656
15:32:55		x: -3.065	y: 7.762	z: 72.656
15:32:56		x: -3.065	y: 7.762	z: 72.656
15:32:56		x: -3.065	y: 7.762	z: 72.656
15:32:56		x: -3.065	y: 7.762	z: 72.656
15:32:56		x: -3.065	y: 7.762	z: 72.656
15:32:56		x: -3.065	y: 7.762	z: 72.656
15:32:56		x: -3.065	y: 7.42	z: 72.656
15:32:57		x: -3.065	y: 7.42	z: 72.656
15:32:57		x: -3.065	y: 7.109	z: 73.002
