15:32:46		x: -3.7349546	y: 7.559692	z: 5.478532
15:32:46		x: -3.3249476	y: 7.3418193	z: 6.1566896
15:32:46		x: -3.5122938	y: 7.3226657	z: 6.627749
15:32:47		x: -3.4500446	y: 6.927623	z: 6.139332
15:32:47		x: -3.4183214	y: 7.095815	z: 6.0543375
15:32:47		x: -3.477578	y: 6.9503675	z: 5.917868
15:32:47		x: -3.50571	y: 6.9970546	z: 6.2105594
15:32:47		x: -3.9665937	y: 7.2125325	z: 5.8334723
15:32:47		x: -3.4051533	y: 7.101202	z: 6.1447186
15:32:48		x: -3.3500867	y: 7.3472066	z: 5.8244944
15:32:48		x: -3.472191	y: 7.6027875	z: 5.878962
15:32:48		x: -3.4943373	y: 7.515399	z: 5.8909335
15:32:48		x: -3.5021186	y: 7.5411367	z: 5.927445
15:32:48		x: -3.3782187	y: 7.5309615	z: 5.683835
15:32:49		x: -3.5877113	y: 7.527969	z: 6.105813
15:32:49		x: -3.007716	y: 7.4327993	z: 6.093842
15:32:49		x: -3.6978445	y: 7.4986396	z: 5.705383
15:32:49		x: -3.2142158	y: 7.3687544	z: 6.147113
15:32:49		x: -3.3758245	y: 7.4549456	z: 5.9118824
15:32:49		x: -3.2130187	y: 7.3986816	z: 6.1411276
15:32:50		x: -3.1387985	y: 7.4830775	z: 6.1369376
15:32:50		x: -3.3554738	y: 7.457938	z: 5.9717374
15:32:50		x: -3.5206735	y: 7.00304	z: 6.4122705
15:32:50		x: -3.2638955	y: 7.227496	z: 6.215348
15:32:50		x: -3.3147724	y: 7.353192	z: 6.084265
15:32:51		x: -3.1358056	y: 7.429806	z: 5.9148755
15:32:51		x: -3.144784	y: 7.4848733	z: 5.841852
15:32:51		x: -3.1890767	y: 7.506421	z: 5.955577
15:32:51		x: -3.17531	y: 7.4567413	z: 5.9238534
15:32:51		x: -3.0412347	y: 7.52737	z: 6.025607
15:32:51		x: -3.0759506	y: 7.5602903	z: 6.067506
15:32:52		x: -3.1160536	y: 7.3657618	z: 6.0285997
15:32:52		x: -3.0322564	y: 7.465121	z: 5.9400144
15:32:52		x: -3.084929	y: 7.5884223	z: 5.9448028
15:32:52		x: -2.9789855	y: 7.4495587	z: 5.9902925
15:32:52		x: -3.0627825	y: 7.4830775	z: 6.0519433
15:32:53		x: -3.1256304	y: 7.4549456	z: 6.8492126
15:32:53		x: -4.24073	y: 6.585252	z: 7.3968863
15:32:53		x: -3.6487634	y: 7.098808	z: 5.993884
15:32:53		x: -3.526659	y: 7.342418	z: 5.3163247
15:32:53		x: -3.3554738	y: 6.974908	z: 5.695207
15:32:53		x: -3.651756	y: 6.9449806	z: 6.1261635
15:32:54		x: -3.3901896	y: 7.3460093	z: 6.3177
15:32:54		x: -2.7042508	y: 7.603985	z: 6.941389
15:32:54		x: -3.7966053	y: 7.5387425	z: 4.8602295
15:32:54		x: -3.210026	y: 7.513005	z: 5.533
15:32:54		x: -3.0172927	y: 7.2484455	z: 6.1746464
15:32:54		x: -3.0250738	y: 7.257424	z: 6.3745623
15:32:55		x: -3.0986955	y: 7.427412	z: 6.0303955
15:32:55		x: -3.116652	y: 7.431602	z: 6.1327477
15:32:55		x: -3.1040826	y: 7.356185	z: 5.981314
15:32:55		x: -2.9975405	y: 7.365163	z: 6.2488666
15:32:55		x: -2.902371	y: 7.3992805	z: 6.4122705
15:32:56		x: -2.959832	y: 7.4363904	z: 6.332065
15:32:56		x: -2.938284	y: 7.417835	z: 6.126762
15:32:56		x: -3.0699651	y: 7.4202294	z: 5.725135
15:32:56		x: -2.8814218	y: 7.5106106	z: 6.2925606
15:32:56		x: -3.2375593	y: 7.7494326	z: 5.7203465
15:32:56		x: -3.2208	y: 7.6853876	z: 5.5324016
15:32:57		x: -3.1352072	y: 7.704541	z: 5.693412
15:32:57		x: -2.961029	y: 7.7063365	z: 5.8622026
