17:29:38		x: 0.91817635	y: 2.4594438	z: 11.3138
17:29:38		x: -2.2409728	y: 3.9510314	z: 10.095152
17:29:38		x: -0.01316811	y: 1.0235212	z: 9.709086
17:29:38		x: 1.4766239	y: 2.3110032	z: 8.052897
17:29:38		x: -1.1803415	y: 2.7281928	z: 9.658808
17:29:39		x: -1.6753427	y: 5.4234653	z: 10.181941
17:29:39		x: -1.8142064	y: 12.02428	z: 8.463503
17:29:39		x: -2.5276785	y: 4.020463	z: 3.3889925
17:29:39		x: -0.75956047	y: 9.932345	z: -0.10354923
17:29:39		x: -1.7112557	y: 7.5321584	z: -2.3654714
17:29:39		x: -0.6428431	y: 10.229825	z: 1.4622587
17:29:40		x: 2.4169466	y: 9.12131	z: -0.2885013
17:29:40		x: -1.9357121	y: 14.552556	z: -4.4603977
17:29:40		x: -1.4257472	y: 10.565612	z: 1.2180501
17:29:40		x: -6.105813	y: 9.529521	z: -1.1492168
17:29:40		x: -3.0681696	y: 7.023391	z: 2.722806
17:29:40		x: -5.1481323	y: 9.97604	z: -1.6376339
17:29:41		x: 1.8321629	y: 0.3728969	z: 3.1292217
17:29:41		x: 1.1803415	y: 11.39221	z: -1.7753005
17:29:41		x: 2.457648	y: 9.572617	z: 1.3012487
17:29:41		x: 1.5562311	y: 9.02614	z: 1.3772645
17:29:41		x: 1.7938557	y: 9.121908	z: 1.4933833
17:29:42		x: 1.389834	y: 9.445126	z: 1.5161282
17:29:42		x: 1.6352397	y: 9.3978405	z: 1.4760253
17:29:42		x: 1.6101006	y: 9.368511	z: 1.4999673
17:29:42		x: 1.5598224	y: 9.43914	z: 1.4167689
17:29:42		x: 1.5801731	y: 9.400234	z: 1.4227544
17:29:42		x: 1.5717934	y: 9.454104	z: 1.4568717
17:29:43		x: 1.5280992	y: 9.279327	z: 1.4377182
17:29:43		x: 1.6154876	y: 9.077616	z: 1.3760674
17:29:43		x: 1.5029601	y: 8.816648	z: 1.4089876
17:29:43		x: 1.4646529	y: 8.723872	z: 1.30484
17:29:43		x: 1.4736311	y: 8.625112	z: 1.3204023
17:29:44		x: 1.4867992	y: 8.658031	z: 1.2401965
17:29:44		x: 1.4544775	y: 8.684368	z: 1.228824
17:29:44		x: 1.5125369	y: 8.76637	z: 1.287482
17:29:44		x: 1.5514427	y: 9.023148	z: 1.347337
17:29:44		x: 1.6059108	y: 9.15423	z: 1.3485341
17:29:44		x: 1.6376339	y: 9.365519	z: 1.42455
17:29:45		x: 1.5855601	y: 9.335591	z: 1.4359225
17:29:45		x: 1.5646108	y: 9.403826	z: 1.4281414
17:29:45		x: 1.5951369	y: 9.379884	z: 1.4700398
17:29:45		x: 1.5179238	y: 9.436148	z: 1.5292963
17:29:45		x: 1.4993688	y: 9.41879	z: 1.4502877
17:29:46		x: 1.5280992	y: 9.448717	z: 1.4879963
17:29:46		x: 1.5466543	y: 9.383475	z: 1.4820108
17:29:46		x: 1.5131354	y: 9.351752	z: 1.4862007
17:29:46		x: 1.5221137	y: 9.398438	z: 1.5125369
17:29:46		x: 1.5263035	y: 9.346964	z: 1.5095441
17:29:46		x: 1.5095441	y: 9.533711	z: 1.525705
17:29:47		x: 1.5795746	y: 9.780912	z: 1.5634137
17:29:47		x: 1.5759833	y: 9.774328	z: 1.5424645
17:29:47		x: 1.6777369	y: 10.096349	z: 1.6184803
17:29:47		x: 1.7220296	y: 10.100538	z: 1.6280571
17:29:47		x: 1.6256629	y: 10.195109	z: 1.6675615
17:29:47		x: 1.7208325	y: 10.105926	z: 1.6897079
17:29:48		x: 1.6825253	y: 9.887454	z: 1.6208745
17:29:48		x: 1.6496049	y: 9.7719345	z: 1.5705963
17:29:48		x: 1.6041151	y: 9.880272	z: 1.5903485
17:29:48		x: 1.4999673	y: 9.370307	z: 1.4197617
17:29:48		x: 1.578976	y: 9.465476	z: 1.4915876
17:29:49		x: 1.489792	y: 9.449914	z: 1.4610616
17:29:49		x: 1.5155296	y: 9.491214	z: 1.429937
17:29:49		x: 1.4700398	y: 9.48882	z: 1.4401124
17:29:49		x: 1.4460979	y: 9.472659	z: 1.4149733
17:29:49		x: 1.4879963	y: 9.419987	z: 1.4036007
17:29:49		x: 1.4790181	y: 9.402629	z: 1.4562732
17:29:50		x: 1.501763	y: 9.400833	z: 1.377863
17:29:50		x: 1.5221137	y: 9.473258	z: 1.3844471
17:29:50		x: 1.5215151	y: 9.420585	z: 1.3976152
17:29:50		x: 1.5957354	y: 9.437345	z: 1.3916297
17:29:50		x: 1.5885528	y: 9.351752	z: 1.3581109
17:29:51		x: 1.5304934	y: 9.396045	z: 1.3958195
17:29:51		x: 1.4891934	y: 9.445126	z: 1.4059949
17:29:51		x: 1.4736311	y: 9.458294	z: 1.3784616
17:29:51		x: 1.4945804	y: 9.455899	z: 1.4101849
17:29:51		x: 1.5490485	y: 9.503783	z: 1.3263878
17:29:51		x: 1.5161282	y: 9.396045	z: 1.4796166
17:29:52		x: 1.4796166	y: 9.3733	z: 1.3724761
17:29:52		x: 1.4149733	y: 9.455301	z: 1.364695
17:29:52		x: 1.5095441	y: 9.509769	z: 1.168969
17:29:52		x: 1.3012487	y: 9.36492	z: 1.2413936
17:29:52		x: 1.644218	y: 9.44333	z: 1.3245921
17:29:53		x: 2.0452468	y: 9.866506	z: 0.65301853
17:29:53		x: 2.1134815	y: 9.698313	z: 1.5454572
17:29:53		x: 1.4502877	y: 8.759786	z: 1.13964
17:29:53		x: 3.9606082	y: 8.920197	z: -0.25498247
17:29:53		x: 2.1655555	y: 11.710639	z: 1.299453
17:29:53		x: 0.55485624	y: 9.982025	z: -1.3377602
17:29:54		x: 2.8167782	y: 8.960898	z: 1.6484078
17:29:54		x: 1.5155296	y: 12.62702	z: 0.25917232
17:29:54		x: 1.0414777	y: 9.399636	z: 3.3716345
17:29:54		x: 0.96785605	y: 6.029797	z: 1.7567455
17:29:54		x: 0.7739257	y: 10.084976	z: 1.4682442
17:29:55		x: -4.729147	y: 8.895058	z: 6.2650275
17:29:55		x: -1.3210008	y: 2.1320367	z: 6.4625487
17:29:55		x: -2.409764	y: 0.75357497	z: 12.004527
17:29:55		x: 0.40462008	y: 1.1803415	z: 10.146626
17:29:55		x: -0.22625206	y: 1.5101427	z: 10.747571
17:29:55		x: -1.1569979	y: 2.497751	z: 8.769362
17:29:56		x: -0.7769185	y: 1.9111716	z: 10.301651
17:29:56		x: -0.6841431	y: 2.432509	z: 9.685144
17:29:56		x: -0.8858546	y: 2.3373394	z: 9.77373
17:29:56		x: -0.43275195	y: 2.373851	z: 9.451111
17:29:56		x: -0.78769237	y: 2.5971103	z: 9.7162695
