17:29:38		x: 940.98
17:29:38		x: 940.98
17:29:38		x: 940.97
17:29:38		x: 941.01
17:29:38		x: 940.98
17:29:39		x: 940.98
17:29:39		x: 940.96
17:29:39		x: 941.04
17:29:39		x: 940.99
17:29:39		x: 941.04
17:29:39		x: 941.01
17:29:40		x: 941.01
17:29:40		x: 940.96
17:29:40		x: 941.01
17:29:40		x: 940.97
17:29:40		x: 940.97
17:29:41		x: 941.04
17:29:41		x: 941.02
17:29:41		x: 941.06
17:29:41		x: 940.96
17:29:41		x: 940.98
17:29:41		x: 941.06
17:29:42		x: 941.03
17:29:42		x: 941.02
17:29:42		x: 941.03
17:29:42		x: 941.0
17:29:42		x: 941.03
17:29:42		x: 941.03
17:29:43		x: 941.02
17:29:43		x: 940.99
17:29:43		x: 941.03
17:29:43		x: 941.05
17:29:43		x: 941.04
17:29:44		x: 941.01
17:29:44		x: 941.03
17:29:44		x: 941.06
17:29:44		x: 941.07
17:29:44		x: 941.12
17:29:44		x: 941.08
17:29:45		x: 941.09
17:29:45		x: 941.12
17:29:45		x: 941.19
17:29:45		x: 941.14
17:29:45		x: 941.17
17:29:46		x: 941.15
17:29:46		x: 941.25
17:29:46		x: 941.18
17:29:46		x: 941.28
17:29:46		x: 941.34
17:29:46		x: 941.3
17:29:47		x: 941.36
17:29:47		x: 941.37
17:29:47		x: 941.42
17:29:47		x: 941.36
17:29:47		x: 941.43
17:29:48		x: 941.45
17:29:48		x: 941.39
17:29:48		x: 941.43
17:29:48		x: 941.41
17:29:48		x: 941.47
17:29:48		x: 941.41
17:29:49		x: 941.44
17:29:49		x: 941.48
17:29:49		x: 941.46
17:29:49		x: 941.43
17:29:49		x: 941.45
17:29:49		x: 941.48
17:29:50		x: 941.5
17:29:50		x: 941.47
17:29:50		x: 941.43
17:29:50		x: 941.47
17:29:50		x: 941.47
17:29:51		x: 941.51
17:29:51		x: 941.44
17:29:51		x: 941.49
17:29:51		x: 941.42
17:29:51		x: 941.4
17:29:51		x: 941.41
17:29:52		x: 941.49
17:29:52		x: 941.46
17:29:52		x: 941.41
17:29:52		x: 941.35
17:29:52		x: 941.39
17:29:53		x: 941.41
17:29:53		x: 941.42
17:29:53		x: 941.44
17:29:53		x: 941.39
17:29:53		x: 941.45
17:29:53		x: 941.42
17:29:54		x: 941.46
17:29:54		x: 941.43
17:29:54		x: 941.49
17:29:54		x: 941.43
17:29:54		x: 941.38
17:29:55		x: 941.38
17:29:55		x: 941.42
17:29:55		x: 941.3
17:29:55		x: 941.42
17:29:55		x: 941.34
17:29:55		x: 941.35
17:29:56		x: 941.35
17:29:56		x: 941.37
17:29:56		x: 941.37
17:29:56		x: 941.36
17:29:56		x: 941.36
