7 1:5322.26339301 2:5322.1685787 3:5322.20035898 4:0.0296163933088 5:0.000877130752622 6:0.0231183275624 7:-0.0276994132476 8:-6.15803704325e-14 9:0.0153476489303 10:0.000235550327689 11:0.0255459767452 12:-0.0279055407575 13:1.59872115546e-14 14:0.0166026997382 15:0.000275649638597 16:0.0381686620568 17:-0.0401210206811 18:-1.18423789293e-13 19:0.0245949764944 20:0.000604912868761 21:0.00907540775869 22:-0.0104032365098 23:-3.84877315203e-15 24:0.00732290235314 25:5.36248988737e-05 26:0.0646631476751 27:-0.0552803803731 28:-0.00334771942063 29:0.037728868022 30:0.00142346748223 
7 1:5322.1517797 2:5322.06927415 3:5322.12439155 4:0.0258534931917 5:0.000668403110212 6:0.0248694900134 7:-0.0226135145215 8:-1.7763568394e-14 9:0.014763498742 10:0.000217960895104 11:0.0270760576271 12:-0.0223173844927 13:-1.10726242989e-13 14:0.0149154238892 15:0.000222469869793 16:0.0530709065464 17:-0.0536965046161 18:8.28966525053e-15 19:0.0321658020656 20:0.00103463882252 21:0.0407356601951 22:-0.0431838383053 23:-3.43428988951e-14 24:0.0257980158301 25:0.000665537620769 26:0.014772187704 27:-0.0201124342981 28:0.00108390706382 29:0.0111362521253 30:0.000124016111398 
7 1:5322.78654421 2:5322.49815969 3:5322.59423408 4:0.0902487923162 5:0.00814484451454 6:0.0757615797627 7:-0.0861493445206 8:-1.56319401867e-13 9:0.0495147911457 10:0.00245171454221 11:0.0766407561464 12:-0.0902542145369 13:-1.172395514e-13 14:0.0504201661524 15:0.00254219315483 16:0.157251763611 17:-0.158088356861 18:-4.97379915032e-14 19:0.0953203279465 20:0.00908596491983 21:0.0800210764224 22:-0.0709038059746 23:-4.79616346638e-14 24:0.0496358993818 25:0.00246372250744 26:0.0612858281194 27:-0.0471839091596 28:-0.00309720626862 29:0.0346522013337 30:0.00120077505727 
7 1:5322.69088759 2:5322.28717452 3:5322.55594692 4:0.126189228823 5:0.015923721471 6:0.119749600826 7:-0.101768148514 8:-9.00020798629e-14 9:0.067059337262 10:0.00449695471402 11:0.120092319577 12:-0.104597971572 13:-8.11202956659e-14 14:0.0682555909899 15:0.00465882570138 16:0.182878260591 17:-0.17776950215 18:-7.69754630407e-15 19:0.110701683609 20:0.0122548627538 21:0.0461640299368 22:-0.0556336677052 23:-1.00660220899e-14 24:0.0311444132912 25:0.000969974479251 26:0.0406752028224 27:-0.0370365880797 28:0.00139555275608 29:0.0280192744571 30:0.000785079741103 
7 1:5322.17654607 2:5322.08265133 3:5322.14504321 4:0.0293086621464 5:0.000858997676812 6:0.0277114475438 7:-0.0224995926736 8:-6.39488462184e-14 9:0.0151684449626 10:0.000230081722583 11:0.0259366259445 12:-0.0230873818693 13:-1.03028696685e-13 14:0.0150254252958 15:0.000225763405319 16:0.0306222478079 17:-0.0283750644174 18:-8.17124146124e-14 19:0.0193696121259 20:0.000375181873906 21:0.0265712806129 22:-0.0305546397598 23:8.881784197e-15 24:0.0194651848251 25:0.000378893420276 26:0.0287188790196 27:-0.0255920858667 28:-0.0017898862001 29:0.0169563003765 30:0.000287516122457 
7 1:5322.30935677 2:5322.23942937 3:5322.26266376 4:0.0219034283057 5:0.000479760171544 6:0.018952587262 7:-0.0210529328308 8:-1.44477022938e-13 9:0.0123683995676 10:0.000152977307865 11:0.0186857253884 12:-0.0225826815919 13:-5.92118946467e-14 14:0.012457910539 15:0.000155199534997 16:0.0431371968361 17:-0.0427940535567 18:-5.92118946467e-16 19:0.0258926759531 20:0.00067043066801 21:0.0332951376075 22:-0.0303917780246 23:-3.61192557345e-14 24:0.0200354477731 25:0.000401419167467 26:0.0273743635217 27:-0.018865174143 28:-0.000265622103946 29:0.0146047178872 30:0.000213297784565 
7 1:5322.16897687 2:5322.14762128 3:5322.16197571 4:0.00674530320377 5:4.54991153108e-05 6:0.006377707422 7:-0.00669913423964 8:-5.09222293961e-14 9:0.00463969194852 10:2.15267413771e-05 11:0.00884613281274 12:-0.007228842769 13:-8.76336040771e-14 14:0.00486452643783 15:2.36636174644e-05 16:0.0295497317603 17:-0.0302431903018 18:-4.4408920985e-14 19:0.0181218033303 20:0.000328399755942 21:0.0185527814269 22:-0.0155361697855 23:0.00037856339608 24:0.0107990109484 25:0.000116618637464 26:0.0192300441746 27:-0.0184108024467 28:0.00104569610987 29:0.0126058225148 30:0.000158906761275 
