18:15:23		x: -0.6099229	y: 4.8255134	z: 9.1272955
18:15:23		x: -4.1455603	y: 4.865018	z: 9.482835
18:15:23		x: 3.8414967	y: 3.0382419	z: 3.0131028
18:15:24		x: 7.193379	y: -0.7541735	z: 11.095928
18:15:24		x: 10.831368	y: -1.7902644	z: 9.321226
18:15:24		x: 9.324219	y: 7.093421	z: 3.8504748
18:15:24		x: 4.970961	y: 6.509236	z: -3.5296519
18:15:24		x: 9.160814	y: 7.824251	z: -0.31423897
18:15:25		x: 3.3943794	y: 8.990826	z: 2.1894975
18:15:25		x: 6.884527	y: 2.2948422	z: 0.42556936
18:15:25		x: 2.8808231	y: 12.1398	z: -1.0079589
18:15:25		x: -1.5041572	y: 9.389461	z: -2.1284454
18:15:25		x: 2.617461	y: 10.982801	z: 0.051475335
18:15:25		x: -1.632247	y: 14.100651	z: 4.372411
18:15:26		x: -1.7753005	y: 10.936713	z: 2.700061
18:15:26		x: -1.2605472	y: 8.39048	z: 2.7964275
18:15:26		x: 0.22984336	y: 12.750919	z: 1.2617443
18:15:26		x: -0.89662856	y: 10.996569	z: 2.3056161
18:15:26		x: 4.6136265	y: 14.908095	z: 2.2583308
18:15:27		x: -5.2397103	y: 19.608511	z: -3.0119057
18:15:27		x: 15.312117	y: -19.608511	z: 4.794389
18:15:27		x: 2.758719	y: -4.711789	z: 11.291654
18:15:27		x: -0.7224504	y: 4.4723687	z: 9.028535
18:15:27		x: -4.1000705	y: 2.4372973	z: 5.7335143
18:15:27		x: 2.6252422	y: 10.260351	z: 3.809175
18:15:28		x: -4.9428296	y: 10.928932	z: 5.0721164
18:15:28		x: 4.2784386	y: 18.87469	z: 2.030283
18:15:28		x: 0.17417817	y: 9.816227	z: 0.43275195
18:15:28		x: -0.9768343	y: 8.6257105	z: 0.6967127
18:15:28		x: 2.5151088	y: 9.522339	z: 0.27234045
18:15:28		x: 0.6380547	y: 8.296508	z: 4.547188
18:15:29		x: -3.5823243	y: 8.216302	z: 2.3666685
18:15:29		x: -4.770447	y: 7.615956	z: 2.9281087
18:15:29		x: -1.8166006	y: 8.63828	z: 3.3955765
18:15:29		x: -2.0518308	y: 8.280945	z: 1.8722657
18:15:29		x: -7.4004774	y: 12.955026	z: -1.091756
18:15:30		x: -1.0564415	y: 9.64145	z: 1.3634979
18:15:30		x: -3.4793737	y: 10.248979	z: 1.4478935
18:15:30		x: -4.5040917	y: 7.8050976	z: 0.557849
18:15:30		x: -1.5059528	y: 9.09617	z: 0.46746787
18:15:30		x: -6.1225724	y: 9.504981	z: 0.31364042
18:15:30		x: -0.60693014	y: 10.408792	z: 2.0883424
18:15:31		x: 2.4253263	y: 6.457162	z: 5.852626
18:15:31		x: -0.44472298	y: 4.055179	z: 4.496909
18:15:31		x: -9.7719345	y: 2.8443117	z: -1.3395559
18:15:31		x: -7.356185	y: 3.750517	z: -0.044292733
18:15:31		x: -2.7988217	y: 10.092158	z: -4.38917
18:15:32		x: -4.322731	y: 5.74369	z: -6.467936
18:15:32		x: -3.0238767	y: 6.974908	z: -4.853047
18:15:32		x: -4.1078515	y: 6.5265937	z: -5.2923827
18:15:32		x: -8.723274	y: 5.1636944	z: -0.011971008
18:15:32		x: -9.543886	y: 3.5535939	z: 3.8534677
18:15:32		x: -1.0821792	y: 2.0530279	z: 8.474875
18:15:33		x: -0.9696517	y: 4.914099	z: 6.739678
18:15:33		x: -1.654992	y: 4.034828	z: 9.326612
18:15:33		x: -3.0214825	y: 4.7656584	z: 8.871715
18:15:33		x: -1.1593921	y: 4.3041763	z: 9.19553
18:15:33		x: -0.58418524	y: 4.619014	z: 8.314464
18:15:34		x: -1.4389153	y: 4.8602295	z: 8.555679
18:15:34		x: -1.3030443	y: 4.869208	z: 8.84478
18:15:34		x: -1.4850036	y: 5.048773	z: 8.818443
18:15:34		x: -1.2318168	y: 5.085883	z: 8.4234
18:15:34		x: -0.88525605	y: 5.7724204	z: 5.6000376
