8 1:139.759627017 2:139.759627017 3:139.759627017 4:0.0 5:0.0 6:1.7763568394e-15 7:1.7763568394e-15 8:1.7763568394e-15 9:0.0 10:0.0 11:-3.44169137634e-15 12:-3.44169137634e-15 13:-3.44169137634e-15 14:0.0 15:0.0 16:2.6645352591e-15 17:2.6645352591e-15 18:2.6645352591e-15 19:0.0 20:0.0 21:-5.55111512313e-17 22:-5.55111512313e-17 23:-5.55111512313e-17 24:0.0 25:0.0 26:-1.44328993201e-15 27:-1.44328993201e-15 28:-1.44328993201e-15 29:0.0 30:0.0 
8 1:139.759627017 2:139.759627017 3:139.759627017 4:0.0 5:0.0 6:1.7763568394e-15 7:1.7763568394e-15 8:1.7763568394e-15 9:0.0 10:0.0 11:-3.44169137634e-15 12:-3.44169137634e-15 13:-3.44169137634e-15 14:0.0 15:0.0 16:2.6645352591e-15 17:2.6645352591e-15 18:2.6645352591e-15 19:0.0 20:0.0 21:-5.55111512313e-17 22:-5.55111512313e-17 23:-5.55111512313e-17 24:0.0 25:0.0 26:-1.44328993201e-15 27:-1.44328993201e-15 28:-1.44328993201e-15 29:0.0 30:0.0 
8 1:139.592758614 2:139.176800977 3:139.453626542 4:0.129984304038 5:0.0168959192962 6:0.123188375127 7:-0.103903742566 8:-3.44169137634e-15 9:0.0686603778512 10:0.00471424748667 11:0.122361008127 12:-0.107195203005 13:-2.05391259556e-15 14:0.069867525032 15:0.00488147105409 16:0.179960870108 17:-0.173838661501 18:-2.2574534834e-15 19:0.109281200528 20:0.0119423807887 21:0.0566666104174 22:-0.0598906017348 23:4.71844785466e-16 24:0.0358266105914 25:0.00128354602647 26:0.0251122681401 27:-0.0253250284265 28:0.000219521020621 29:0.0172031046046 30:0.000295946808038 
8 1:139.510730594 2:139.342693776 3:139.398670376 4:0.052578260984 5:0.0027644735281 6:0.0441172366584 7:-0.0504484948404 8:-4.10782519111e-15 9:0.028854226929 10:0.000832566411673 11:0.0432383340021 12:-0.0517473901499 13:-1.75785312232e-15 14:0.0286666664125 15:0.000821777763205 16:0.0874079920613 17:-0.0878852043516 18:-9.25185853854e-16 19:0.0530016234372 20:0.00280917208698 21:0.0384073944394 22:-0.0318890865458 23:-1.23974904416e-15 24:0.0254176626224 25:0.000646057573184 26:0.0261073919292 27:-0.0286815193663 28:0.00172076316227 29:0.0173823485005 30:0.000302146039392 
8 1:139.505017664 2:139.505017664 3:139.505017664 4:0.0 5:0.0 6:1.99840144433e-15 7:1.99840144433e-15 8:1.99840144433e-15 9:0.0 10:0.0 11:-1.11022302463e-15 12:-1.11022302463e-15 13:-1.11022302463e-15 14:0.0 15:0.0 16:-4.32986979604e-15 17:-4.32986979604e-15 18:-4.32986979604e-15 19:0.0 20:0.0 21:2.77555756156e-15 22:2.77555756156e-15 23:2.77555756156e-15 24:0.0 25:0.0 26:-1.66533453694e-15 27:-1.66533453694e-15 28:-1.66533453694e-15 29:0.0 30:0.0 
