20:15:59		x: -0.9696517	y: 4.9775453	z: 8.058285
20:15:59		x: 1.6795325	y: 3.1992521	z: 8.626308
20:15:59		x: 1.3269863	y: 2.718616	z: 8.3390045
20:15:59		x: 2.9706059	y: 2.0859482	z: 8.863335
20:15:59		x: 1.0408791	y: 2.677316	z: 6.7719994
20:15:59		x: -1.4730326	y: 6.1501055	z: 8.353969
20:16:00		x: 1.7938557	y: -3.642778	z: 8.593389
20:16:00		x: 2.7712884	y: -2.5983074	z: 13.635577
20:16:00		x: -3.4464533	y: -2.011728	z: 8.81605
20:16:00		x: -3.7457285	y: 2.166154	z: 4.459201
20:16:00		x: -5.727529	y: -0.031124622	z: 12.036849
20:16:01		x: -5.976526	y: 6.6983776	z: 4.4238863
20:16:01		x: -6.9407907	y: 13.642161	z: -0.5422867
20:16:01		x: -5.580884	y: 5.0146556	z: 0.17896658
20:16:01		x: -3.5996823	y: 8.515577	z: 2.2679076
20:16:01		x: -5.1571107	y: 8.613739	z: -2.1033063
20:16:01		x: -1.934515	y: 9.219472	z: 3.591901
20:16:02		x: -1.5616181	y: 5.240309	z: -3.240552
20:16:02		x: -0.0023942017	y: 6.564901	z: -2.8030117
20:16:02		x: -5.959168	y: 3.0609868	z: -6.159084
20:16:02		x: -7.217321	y: 0.7685388	z: -10.158598
20:16:02		x: -3.5021186	y: -4.9458222	z: -14.228741
20:16:03		x: -1.2431892	y: -5.4845176	z: -11.956045
20:16:03		x: -1.0468647	y: -7.1610575	z: -6.296152
20:16:03		x: -1.5059528	y: -5.8382607	z: -6.9701195
20:16:03		x: -3.1789012	y: -9.745	z: -5.258864
20:16:03		x: -8.860342	y: -2.3343468	z: -5.5868697
20:16:03		x: -2.3708582	y: -4.5046906	z: -7.4615297
20:16:04		x: -0.048482586	y: 1.0857705	z: -7.9433627
20:16:04		x: -4.164714	y: -0.9355343	z: -8.846576
20:16:04		x: -3.875614	y: -0.14604631	z: -8.704121
20:16:04		x: -4.4879313	y: 0.7320272	z: -8.87351
20:16:04		x: -4.4927197	y: 0.4950012	z: -8.592192
20:16:05		x: -4.450821	y: 0.4165911	z: -8.492832
20:16:05		x: -4.490924	y: 0.3788824	z: -8.470686
20:16:05		x: -4.177882	y: 0.3196259	z: -8.542512
20:16:05		x: -4.498705	y: 0.28431144	z: -8.471883
20:16:05		x: -4.751293	y: 0.40821138	z: -8.434174
20:16:05		x: -4.1491513	y: 0.32561144	z: -8.522161
20:16:06		x: -4.572925	y: 0.30945057	z: -8.401254
20:16:06		x: -4.2922053	y: 0.51355624	z: -8.522759
20:16:06		x: -4.923676	y: 0.26396075	z: -8.395268
20:16:06		x: -5.2439003	y: 0.8559271	z: -8.412027
20:16:07		x: -4.630386	y: 9.449914	z: -9.982025
20:16:07		x: -0.96187055	y: 3.2154129	z: -12.80838
20:16:07		x: -0.7990648	y: 3.7565024	z: -7.7344685
20:16:07		x: 0.31483752	y: 2.8089972	z: -9.058462
20:16:07		x: 1.5729905	y: 2.3780408	z: -8.371326
20:16:07		x: 1.1647792	y: 2.4343045	z: -8.31207
20:16:07		x: 2.7886465	y: 1.6687586	z: -10.309433
20:16:08		x: 0.0053869537	y: 2.2038627	z: -9.307459
20:16:08		x: -0.08559271	y: 2.8604724	z: -8.784326
20:16:08		x: 1.2270284	y: 1.9249382	z: -9.537302
20:16:08		x: 0.6925228	y: 1.9590555	z: -9.01417
20:16:08		x: 0.9139865	y: 1.8166006	z: -9.698911
20:16:08		x: 0.92535895	y: 1.0019734	z: -9.072827
20:16:09		x: 0.8900445	y: 0.6943185	z: -9.880272
20:16:09		x: 1.06123	y: 0.46208093	z: -9.053674
20:16:09		x: 1.8483237	y: -1.043872	z: -10.208876
