18:48:11		x: 41.75913
18:48:12		x: 41.75913
18:48:13		x: 41.75913
18:48:14		x: 41.603256
18:48:15		x: 41.603256
18:48:16		x: 41.603256
18:48:17		x: 41.603256
18:48:18		x: 41.603256
18:48:19		x: 41.603256
18:48:20		x: 42.33419
18:48:21		x: 42.33419
18:48:22		x: 42.33419
18:48:23		x: 42.776817
18:48:24		x: 42.776817
18:48:25		x: 42.776817
18:48:26		x: 43.040768
18:48:27		x: 43.040768
