20:57:04		x: 15.0
20:57:05		x: 19.0
20:57:05		x: 23.0
20:57:05		x: 21.0
20:57:05		x: 16.0
20:57:05		x: 8.0
20:57:06		x: 7.0
20:57:06		x: 0.0
20:57:06		x: 1.0
20:57:06		x: 2.0
20:57:06		x: 2.0
20:57:06		x: 2.0
20:57:07		x: 5.0
20:57:07		x: 6.0
20:57:07		x: 0.0
20:57:07		x: 0.0
20:57:07		x: 0.0
20:57:08		x: 0.0
20:57:08		x: 0.0
20:57:08		x: 0.0
20:57:08		x: 0.0
20:57:08		x: 0.0
20:57:08		x: 0.0
20:57:09		x: 0.0
20:57:09		x: 0.0
20:57:09		x: 0.0
20:57:09		x: 0.0
20:57:09		x: 0.0
20:57:10		x: 0.0
20:57:10		x: 0.0
20:57:10		x: 0.0
20:57:10		x: 0.0
20:57:10		x: 0.0
20:57:10		x: 0.0
20:57:11		x: 0.0
20:57:11		x: 0.0
20:57:11		x: 0.0
20:57:12		x: 0.0
20:57:12		x: 0.0
20:57:12		x: 0.0
20:57:12		x: 0.0
20:57:12		x: 0.0
20:57:12		x: 0.0
20:57:12		x: 0.0
20:57:12		x: 0.0
20:57:12		x: 0.0
20:57:13		x: 0.0
20:57:13		x: 0.0
20:57:13		x: 0.0
20:57:13		x: 0.0
20:57:13		x: 0.0
20:57:13		x: 0.0
20:57:14		x: 0.0
20:57:14		x: 0.0
20:57:14		x: 0.0
20:57:14		x: 0.0
20:57:14		x: 0.0
20:57:15		x: 0.0
20:57:15		x: 0.0
20:57:15		x: 0.0
20:57:15		x: 0.0
20:57:15		x: 0.0
20:57:15		x: 0.0
20:57:16		x: 0.0
20:57:16		x: 0.0
20:57:16		x: 0.0
20:57:16		x: 0.0
20:57:16		x: 0.0
20:57:17		x: 0.0
20:57:17		x: 0.0
20:57:17		x: 0.0
20:57:17		x: 0.0
20:57:17		x: 0.0
