20:56:40		x: -0.034117375	y: 5.055357	z: 8.555679
20:56:40		x: -0.14963761	y: 5.1726727	z: 8.531139
20:56:40		x: 1.0007763	y: 5.060744	z: 8.58022
20:56:41		x: 0.47884035	y: 5.121796	z: 8.438364
20:56:41		x: 0.5470751	y: 4.914099	z: 8.793304
20:56:41		x: 0.12330139	y: 5.035006	z: 8.48146
20:56:41		x: 1.1821371	y: 4.7961845	z: 9.229648
20:56:41		x: 1.3479356	y: 5.0403934	z: 8.455722
20:56:42		x: 0.078410104	y: 5.003283	z: 8.170812
20:56:42		x: -1.3970166	y: 4.7243586	z: 8.071452
20:56:42		x: -8.458116	y: 4.4167037	z: 2.0147207
20:56:42		x: -9.249998	y: 1.9452889	z: 8.491635
20:56:42		x: -5.638345	y: 2.6964695	z: 6.9743094
20:56:42		x: -6.0501475	y: 3.5954924	z: 4.553173
20:56:43		x: -6.4122705	y: 2.295441	z: 6.43741
20:56:43		x: -7.1460934	y: 6.0746884	z: 4.5603557
20:56:43		x: -7.7679873	y: 8.022371	z: 2.5157075
20:56:43		x: -6.0764837	y: 5.0781016	z: 3.6565444
20:56:43		x: -5.0930657	y: 3.615843	z: -0.04129998
20:56:44		x: 0.3250129	y: 0.43514615	z: -0.7266402
20:56:44		x: -6.491878	y: 19.172169	z: 0.4878186
20:56:44		x: -2.6952724	y: 8.65025	z: -0.57999533
20:56:44		x: -4.064756	y: 10.048465	z: 0.736217
20:56:44		x: -1.4580688	y: 8.056489	z: -2.9604304
20:56:44		x: -0.54647654	y: 8.897452	z: -2.3517046
20:56:45		x: 0.5291186	y: 9.911995	z: -1.2467805
20:56:45		x: -4.907515	y: 8.061875	z: 1.7705121
20:56:45		x: -6.419453	y: 8.119935	z: -0.02932897
20:56:45		x: -7.5854297	y: 6.0040593	z: 4.010886
20:56:45		x: -7.438186	y: 7.1365166	z: -0.073023155
20:56:46		x: -7.3831196	y: 7.502231	z: 2.705448
20:56:46		x: -1.0061632	y: 11.808203	z: 6.6804214
20:56:46		x: 2.2481554	y: 10.470443	z: -1.4460979
20:56:46		x: -0.079008654	y: 4.3382936	z: -2.408567
20:56:47		x: 1.9788077	y: 3.247136	z: -6.8767457
20:56:47		x: -0.23044191	y: 2.7802668	z: -6.0172276
20:56:47		x: 1.8746599	y: 9.053674	z: -3.1334114
20:56:47		x: 2.1254525	y: 9.2787285	z: -2.1003134
20:56:47		x: -7.1580644	y: 7.9942393	z: 2.4642322
20:56:47		x: -4.8518496	y: 6.857592	z: 1.1653777
20:56:47		x: -7.2262993	y: 8.670003	z: -0.44472298
20:56:47		x: -7.1909847	y: 6.687604	z: 2.641403
20:56:48		x: -5.7825956	y: 8.453327	z: -1.7998412
20:56:49		x: -6.1985884	y: 7.960122	z: 3.2291796
20:56:49		x: 3.9240966	y: 11.050438	z: -1.1587936
20:56:49		x: 0.39085343	y: 10.060435	z: -0.40342298
20:56:49		x: 2.098518	y: 4.518457	z: -8.65025
20:56:49		x: -0.4225766	y: 2.369661	z: -9.867104
20:56:49		x: 1.8698715	y: 10.997167	z: -1.5975311
20:56:49		x: -6.3607955	y: 12.682086	z: 4.224569
20:56:49		x: -3.0681696	y: 5.7299232	z: 1.3760674
20:56:49		x: -4.9781437	y: 7.328053	z: -0.46447513
20:56:49		x: -6.935404	y: 8.197746	z: -0.17537527
20:56:50		x: -5.7963624	y: 8.282143	z: 0.6536171
20:56:50		x: -7.926005	y: 7.0581064	z: 1.3455414
20:56:50		x: 2.3600843	y: 18.583794	z: 0.8571242
20:56:50		x: -0.17058687	y: 8.816648	z: -5.2846017
20:56:50		x: 1.7477672	y: 4.405331	z: -6.1836243
20:56:51		x: 1.5676036	y: 12.37084	z: -6.281188
20:56:51		x: 1.074398	y: 2.6246436	z: -7.073669
20:56:51		x: -0.031124622	y: 8.614936	z: -3.7457285
20:56:51		x: -8.185177	y: 14.424467	z: -2.959832
20:56:51		x: -1.6837224	y: 10.705673	z: -1.7369933
20:56:51		x: -3.1381998	y: 9.258977	z: -0.81343
20:56:52		x: -2.4624364	y: 9.060258	z: -2.2559366
20:56:52		x: -1.1139023	y: 8.644864	z: -2.5169046
20:56:52		x: -1.5131354	y: 9.3738985	z: -2.7168205
20:56:52		x: -1.9776106	y: 8.216302	z: -2.3894134
20:56:52		x: -0.825401	y: 9.458294	z: -1.9578584
20:56:53		x: -1.6639702	y: 13.248914	z: -2.5803509
20:56:53		x: -1.8788497	y: 11.881226	z: 5.807735
20:56:53		x: -1.4520833	y: 2.569577	z: 5.270835
20:56:53		x: -0.7044938	y: 2.6850972	z: 8.034343
20:56:53		x: -1.5688007	y: 2.5791538	z: 11.409568
20:56:53		x: -0.35553896	y: 1.3449428	z: 10.020931
20:56:54		x: 4.705205	y: 4.4939165	z: 11.704654
20:56:54		x: 0.3238158	y: 3.78643	z: 10.137649
20:56:54		x: 1.7298107	y: 4.119224	z: 9.536105
20:56:54		x: -0.9127894	y: 5.7137623	z: 7.9104424
20:56:54		x: 0.66618663	y: 5.2720323	z: 8.405443
20:56:55		x: -0.38187516	y: 5.312135	z: 8.550891
20:56:55		x: 0.02813187	y: 5.473145	z: 8.421604
20:56:55		x: -0.9259575	y: 5.651513	z: 8.364143
20:56:55		x: -0.1448492	y: 5.701193	z: 8.207323
20:56:55		x: -0.48841715	y: 5.691616	z: 8.23366
20:56:55		x: -0.5943606	y: 5.6000376	z: 8.2276745
20:56:56		x: -1.1947067	y: 5.707777	z: 7.006033
