19:42:26		x: 23.59239
19:42:28		x: 23.59239
19:42:28		x: 23.59239
19:42:29		x: 23.543175
19:42:30		x: 23.543175
19:42:31		x: 23.543175
19:42:32		x: 23.543175
19:42:33		x: 23.543175
19:42:34		x: 23.543175
19:42:35		x: 23.543175
19:42:36		x: 23.543175
19:42:37		x: 23.543175
19:42:38		x: 23.543175
19:42:39		x: 23.543175
19:42:40		x: 23.543175
19:42:41		x: 23.543175
19:42:42		x: 23.543175
