19:42:26		x: -0.22724187	y: 0.12003502	z: 0.05009095
19:42:26		x: -0.35827246	y: 0.080634214	z: -0.3894266
19:42:27		x: 0.4465425	y: 0.8588765	z: -0.50823987
19:42:27		x: -3.6410623	y: -1.0256428	z: -1.1896601
19:42:27		x: -3.642284	y: 0.82253003	z: -0.12003502
19:42:27		x: -0.043066	y: 2.1218405	z: -0.25900686
19:42:27		x: -0.31490102	y: 1.9336939	z: -0.9306532
19:42:28		x: 0.18051068	y: -0.49663344	z: -1.63437
19:42:28		x: -0.72265357	y: 0.98807454	z: -1.1560625
19:42:28		x: -0.5412266	y: -1.0729848	z: -0.44806966
19:42:28		x: 0.12583824	y: 0.95233893	z: -0.12705997
19:42:28		x: -0.18845193	y: -0.070249505	z: 0.030848695
19:42:28		x: -0.2125811	y: -0.4089743	z: 0.41416663
19:42:29		x: -0.41599923	y: -0.0106901415	z: 0.18142697
19:42:29		x: -0.5897904	y: 0.30879238	z: -0.0888809
19:42:29		x: 1.8310685	y: 0.4266894	z: 0.27458394
19:42:29		x: 2.4260514	y: -1.1230757	z: 0.8170323
19:42:29		x: -0.7791586	y: -2.8817568	z: 0.18478674
19:42:29		x: -1.0216721	y: -0.40653083	z: 0.63255095
19:42:30		x: -1.0351112	y: 3.4584136	z: -0.101098195
19:42:30		x: 1.922393	y: 0.43279803	z: -0.43035457
19:42:30		x: 1.7938058	y: -0.18509217	z: 0.2171626
19:42:30		x: -0.8417723	y: -3.5256088	z: 0.33078352
19:42:30		x: -1.2443326	y: 0.3576616	z: -0.47128254
19:42:31		x: -0.9392053	y: 2.919936	z: -0.06658431
19:42:31		x: 1.0311406	y: 0.13041973	z: -0.21471913
19:42:31		x: 2.2812762	y: -0.8933904	z: 0.25045475
19:42:31		x: -0.79320854	y: -3.1694744	z: -0.12308934
19:42:31		x: -1.0800097	y: 0.17745635	z: 0.16371189
19:42:31		x: -1.2464706	y: 3.7180314	z: -0.19058995
19:42:32		x: -0.419359	y: -0.022907447	z: -0.75594574
19:42:32		x: 1.2538009	y: -0.18051068	z: 0.057421334
19:42:32		x: 0.6588182	y: -3.5726454	z: -0.3155119
19:42:32		x: -1.169807	y: -2.047315	z: 0.9401216
19:42:32		x: -1.0592403	y: 2.4691174	z: -0.32498032
19:42:33		x: -0.30695978	y: 1.8710803	z: -0.5390886
19:42:33		x: 2.968805	y: 0.75747293	z: 0.8335256
19:42:33		x: 1.6355917	y: -1.244638	z: 0.41996986
19:42:33		x: -1.425454	y: -3.0176742	z: 0.33536503
19:42:33		x: -1.1737776	y: 0.95386606	z: 0.7113526
19:42:33		x: -1.1456778	y: 3.954436	z: -0.08460484
19:42:34		x: -0.93187493	y: 0.88361657	z: -0.5222898
19:42:34		x: 1.858252	y: 0.48899764	z: 0.67011917
19:42:34		x: 0.81122905	y: -2.1609359	z: 1.1142182
19:42:34		x: -0.6722572	y: -1.3625349	z: 0.08735373
19:42:34		x: 0.48380527	y: 0.13958271	z: -0.07971791
19:42:35		x: -0.30024028	y: -1.8845193	z: -0.4156938
19:42:35		x: 0.08277224	y: 3.7791178	z: 0.11728613
19:42:35		x: 1.2788464	y: 1.6184875	z: -0.15851954
19:42:35		x: 2.1762075	y: 0.26328292	z: 0.6178902
19:42:35		x: 0.37048978	y: -2.7430904	z: -0.14721853
19:42:35		x: -1.1924089	y: -1.1820242	z: 1.2586879
19:42:36		x: -1.6517797	y: 2.3839016	z: 0.051618114
19:42:36		x: -0.6261369	y: 0.86345804	z: -0.81306165
19:42:36		x: 3.0314188	y: 0.6203337	z: 0.9025534
19:42:36		x: 1.4892895	y: -2.2269092	z: -0.23701571
19:42:36		x: -0.46853364	y: -3.0735686	z: 0.46578476
19:42:36		x: -0.7791586	y: 1.1917981	z: -0.3744604
19:42:37		x: -0.8219192	y: 3.3496795	z: 0.06047566
19:42:37		x: -0.35918877	y: 0.49418998	z: -0.7464773
19:42:37		x: 1.5757269	y: 0.6404922	z: 0.3979787
19:42:37		x: 0.9398162	y: -2.6306913	z: -0.48716503
19:42:37		x: -1.2782356	y: -0.91965765	z: 0.30787608
19:42:38		x: -0.84604836	y: 1.9785925	z: -0.4981606
19:42:38		x: -1.2131784	y: 2.0247128	z: -0.062002823
19:42:38		x: -0.84116143	y: -0.8854492	z: -0.7113526
19:42:38		x: 2.3032675	y: -0.29749137	z: 0.124311075
19:42:38		x: 1.6462818	y: -1.9975294	z: 0.66675943
19:42:38		x: -0.56596667	y: -3.040887	z: 0.069027774
19:42:39		x: -0.9101892	y: 0.2666427	z: 0.2049453
19:42:39		x: -1.0662653	y: 2.270586	z: 0.070554934
19:42:39		x: -0.6988298	y: 0.5720753	z: -0.9969321
19:42:39		x: 2.098933	y: 0.32162055	z: 0.33536503
19:42:39		x: 1.1942415	y: -0.6789767	z: 0.9859365
19:42:40		x: 0.11209377	y: -2.2855523	z: -0.35979962
19:42:40		x: -1.5042557	y: -0.90133166	z: 1.3979651
19:42:40		x: -1.1230757	y: 3.1221323	z: 0.121256754
19:42:40		x: 1.3640621	y: 2.833804	z: 0.48930305
19:42:40		x: 5.0292535	y: -0.37415496	z: 0.84513205
19:42:40		x: 2.5396724	y: -1.5164729	z: 0.09254608
19:42:41		x: 2.5949554	y: -1.5632042	z: -0.39858958
19:42:41		x: 1.6462818	y: -0.60048056	z: -2.561358
19:42:41		x: -0.6267477	y: -0.35735616	z: -1.3628404
19:42:41		x: 0.21288654	y: -1.0002918	z: -1.5861117
19:42:41		x: 0.2556471	y: -0.24587326	z: -2.2003367
19:42:42		x: 0.36865717	y: -0.7959574	z: -2.4721715
19:42:42		x: 0.7648033	y: -0.6310238	z: -1.2076806
19:42:42		x: 0.8051204	y: -0.2996294	z: -0.65393126
