18:26:09		x: 42.691822
18:26:10		x: 42.691822
18:26:11		x: 42.189957
18:26:12		x: 42.189957
18:26:13		x: 42.189957
18:26:14		x: 42.24618
18:26:15		x: 42.24618
18:26:16		x: 42.24618
18:26:17		x: 42.395126
18:26:18		x: 42.395126
18:26:18		x: 42.395126
18:26:19		x: 42.08856
18:26:20		x: 42.08856
18:26:21		x: 42.08856
18:26:22		x: 41.718723
18:26:23		x: 41.718723
18:26:24		x: 41.718723
18:26:25		x: 41.492718
18:26:26		x: 41.492718
18:26:27		x: 41.492718
18:26:28		x: 41.492718
18:26:29		x: 41.492718
18:26:30		x: 41.492718
18:26:31		x: 40.94425
18:26:32		x: 40.94425
18:26:33		x: 40.94425
18:26:34		x: 40.976315
18:26:35		x: 40.976315
18:26:36		x: 40.976315
18:26:37		x: 40.76389
18:26:38		x: 40.76389
18:26:39		x: 40.76389
18:26:40		x: 40.60303
18:26:41		x: 40.60303
18:26:42		x: 40.60303
18:26:42		x: 40.33391
18:26:44		x: 40.33391
18:26:44		x: 40.33391
18:26:45		x: 40.33391
18:26:46		x: 40.33391
18:26:47		x: 40.33391
18:26:48		x: 40.33391
18:26:49		x: 40.33391
