18:26:08		x: 941.1
18:26:08		x: 941.09
18:26:09		x: 941.1
18:26:09		x: 941.09
18:26:09		x: 941.08
18:26:09		x: 941.08
18:26:09		x: 941.12
18:26:09		x: 941.1
18:26:10		x: 941.07
18:26:10		x: 941.16
18:26:10		x: 941.09
18:26:10		x: 941.12
18:26:10		x: 941.14
18:26:10		x: 941.13
18:26:11		x: 941.17
18:26:11		x: 941.12
18:26:11		x: 941.12
18:26:11		x: 941.14
18:26:11		x: 941.15
18:26:12		x: 941.11
18:26:12		x: 941.15
18:26:12		x: 941.09
18:26:12		x: 941.11
18:26:12		x: 941.09
18:26:12		x: 941.11
18:26:13		x: 941.14
18:26:13		x: 941.13
18:26:13		x: 941.12
18:26:13		x: 941.12
18:26:13		x: 941.17
18:26:14		x: 941.15
18:26:14		x: 941.1
18:26:14		x: 941.16
18:26:14		x: 941.14
18:26:14		x: 941.14
18:26:14		x: 941.18
18:26:15		x: 941.15
18:26:15		x: 941.11
18:26:15		x: 941.15
18:26:15		x: 941.15
18:26:15		x: 941.14
18:26:16		x: 941.17
18:26:16		x: 941.17
18:26:16		x: 941.17
18:26:16		x: 941.2
18:26:16		x: 941.14
18:26:16		x: 941.12
18:26:17		x: 941.11
18:26:17		x: 941.15
18:26:17		x: 941.11
18:26:17		x: 941.13
18:26:17		x: 941.1
18:26:18		x: 941.1
18:26:18		x: 941.12
18:26:18		x: 941.07
18:26:18		x: 941.1
18:26:18		x: 941.11
18:26:18		x: 941.07
18:26:19		x: 941.13
18:26:19		x: 941.14
18:26:19		x: 941.13
18:26:19		x: 941.15
18:26:19		x: 941.15
18:26:19		x: 941.11
18:26:20		x: 941.1
18:26:20		x: 941.15
18:26:20		x: 941.14
18:26:20		x: 941.12
18:26:20		x: 941.13
18:26:21		x: 941.11
18:26:21		x: 941.12
18:26:21		x: 941.13
18:26:21		x: 941.13
18:26:21		x: 941.17
18:26:21		x: 941.09
18:26:22		x: 941.14
18:26:22		x: 941.11
18:26:22		x: 941.17
18:26:22		x: 941.16
18:26:22		x: 941.14
18:26:23		x: 941.08
18:26:23		x: 941.11
18:26:23		x: 941.14
18:26:23		x: 941.13
18:26:23		x: 941.12
18:26:23		x: 941.13
18:26:24		x: 941.18
18:26:24		x: 941.13
18:26:24		x: 941.16
18:26:24		x: 941.13
18:26:24		x: 941.1
18:26:25		x: 941.1
18:26:25		x: 941.11
18:26:25		x: 941.08
18:26:25		x: 941.2
18:26:25		x: 941.14
18:26:25		x: 941.13
18:26:26		x: 941.11
18:26:26		x: 941.13
18:26:26		x: 941.09
18:26:26		x: 941.17
18:26:26		x: 941.11
18:26:27		x: 941.15
18:26:27		x: 941.16
18:26:27		x: 941.17
18:26:27		x: 941.15
18:26:27		x: 941.16
18:26:27		x: 941.21
18:26:28		x: 941.21
18:26:28		x: 941.12
18:26:28		x: 941.14
18:26:28		x: 941.16
18:26:28		x: 941.15
18:26:29		x: 941.19
18:26:29		x: 941.19
18:26:29		x: 941.19
18:26:29		x: 941.16
18:26:29		x: 941.2
18:26:29		x: 941.23
18:26:30		x: 941.14
18:26:30		x: 941.17
18:26:30		x: 941.16
18:26:30		x: 941.15
18:26:30		x: 941.14
18:26:30		x: 941.18
18:26:31		x: 941.16
18:26:31		x: 941.13
18:26:31		x: 941.06
18:26:31		x: 941.09
18:26:31		x: 941.16
18:26:32		x: 941.13
18:26:32		x: 941.11
18:26:32		x: 941.12
18:26:32		x: 941.15
18:26:32		x: 941.17
18:26:32		x: 941.14
18:26:33		x: 941.2
18:26:33		x: 941.15
18:26:33		x: 941.07
18:26:33		x: 941.14
18:26:33		x: 941.14
18:26:34		x: 941.12
18:26:34		x: 941.2
18:26:34		x: 941.18
18:26:34		x: 941.15
18:26:34		x: 941.15
18:26:34		x: 941.16
18:26:35		x: 941.13
18:26:35		x: 941.09
18:26:35		x: 941.15
18:26:35		x: 941.15
18:26:35		x: 941.11
18:26:36		x: 941.19
18:26:36		x: 941.17
18:26:36		x: 941.1
18:26:36		x: 941.18
18:26:36		x: 941.09
18:26:36		x: 941.17
18:26:37		x: 941.12
18:26:37		x: 941.09
18:26:37		x: 941.13
18:26:37		x: 941.15
18:26:37		x: 941.13
18:26:38		x: 941.09
18:26:38		x: 941.09
18:26:38		x: 941.11
18:26:38		x: 941.13
18:26:38		x: 941.13
18:26:38		x: 941.16
18:26:39		x: 941.11
18:26:39		x: 941.17
18:26:39		x: 941.13
18:26:39		x: 941.17
18:26:39		x: 941.17
18:26:39		x: 941.08
18:26:40		x: 941.1
18:26:40		x: 941.09
18:26:40		x: 941.13
18:26:40		x: 941.16
18:26:40		x: 941.11
18:26:41		x: 941.2
18:26:41		x: 941.2
18:26:41		x: 941.16
18:26:41		x: 941.16
18:26:41		x: 941.2
18:26:41		x: 941.15
18:26:42		x: 941.17
18:26:42		x: 941.17
18:26:42		x: 941.16
18:26:42		x: 941.14
18:26:42		x: 941.09
18:26:43		x: 941.14
18:26:43		x: 941.16
18:26:43		x: 941.1
18:26:43		x: 941.15
18:26:43		x: 941.11
18:26:43		x: 941.08
18:26:44		x: 941.13
18:26:44		x: 941.1
18:26:44		x: 941.09
18:26:44		x: 941.12
18:26:44		x: 941.08
18:26:45		x: 941.13
18:26:45		x: 941.18
18:26:45		x: 941.15
18:26:45		x: 941.14
18:26:45		x: 941.18
18:26:45		x: 941.11
18:26:46		x: 941.05
18:26:46		x: 941.11
18:26:46		x: 941.12
18:26:46		x: 941.1
18:26:46		x: 941.12
18:26:47		x: 941.08
18:26:47		x: 941.13
18:26:47		x: 941.14
18:26:47		x: 941.12
18:26:47		x: 941.12
18:26:47		x: 941.07
18:26:48		x: 941.14
18:26:48		x: 941.14
18:26:48		x: 941.09
18:26:48		x: 941.12
18:26:48		x: 941.14
18:26:48		x: 941.15
18:26:49		x: 941.19
18:26:49		x: 941.13
18:26:49		x: 941.11
18:26:49		x: 941.15
18:26:49		x: 941.16
