10 1:133.091726382 2:132.717303117 3:132.966845684 4:0.117120448199 5:0.0137171993864 6:0.111690663331 7:-0.0969559981483 8:-3.97829917157e-15 9:0.0635069703967 10:0.00403313528896 11:0.114757545164 12:-0.0979759978983 13:-6.10622663544e-16 14:0.0643216346354 15:0.00413727268217 16:0.190806812141 17:-0.188432789572 18:-2.05391259556e-15 19:0.115043112208 20:0.0132349176665 21:0.0523596132957 22:-0.0637603007954 23:1.75785312232e-16 24:0.0435759402979 25:0.00189886257285 26:0.0775292248253 27:-0.0577593402549 28:0.00193096934491 29:0.0440336242525 30:0.00193896006481 
10 1:132.405982365 2:132.405982365 3:132.405982365 4:0.0 5:0.0 6:-1.02140518266e-14 7:-1.02140518266e-14 8:-1.02140518266e-14 9:0.0 10:0.0 11:-1.55431223448e-15 12:-1.55431223448e-15 13:-1.55431223448e-15 14:0.0 15:0.0 16:1.99840144433e-15 17:1.99840144433e-15 18:1.99840144433e-15 19:0.0 20:0.0 21:-2.6645352591e-15 22:-2.6645352591e-15 23:-2.6645352591e-15 24:0.0 25:0.0 26:9.15933995316e-16 27:9.15933995316e-16 28:9.15933995316e-16 29:0.0 30:0.0 
10 1:132.087671362 2:131.777727705 3:131.984422607 4:0.0969805233427 5:0.00940522190782 6:0.0930521728926 7:-0.0813741766938 8:-7.12393107468e-15 9:0.0532215781933 10:0.00283253638538 11:0.0954479833381 12:-0.0797530420655 13:-2.86807614695e-15 14:0.0528756231024 15:0.00279583151847 16:0.162104127306 17:-0.161223909954 18:-2.38697950294e-15 19:0.0977614147511 20:0.00955729421413 21:0.0588193721939 22:-0.0708423813045 23:2.59052039079e-16 24:0.0468828404959 25:0.00219800073296 26:0.0529030193535 27:-0.0481550451654 28:-0.00317394506594 29:0.0320617156778 30:0.0010279536122 
10 1:131.387578809 2:130.946548229 3:131.240368632 4:0.137918031011 5:0.019021383278 6:0.131306719985 7:-0.113113530688 8:-2.51650552248e-15 9:0.0742258103094 10:0.00550947091609 11:0.133697009919 12:-0.114920840414 13:-3.57121739588e-15 14:0.0752675046122 15:0.00566519725055 16:0.215553106194 17:-0.211751539558 18:-1.56356409301e-15 19:0.130054270027 20:0.0169141131522 21:0.0376924391748 22:-0.0621783786365 23:5.55111512313e-16 24:0.0409381772324 25:0.00167593435511 26:0.0968077515965 27:-0.0718468252961 28:0.0020164784059 29:0.0535424206975 30:0.00286679081415 
10 1:130.473318379 2:130.23372892 3:130.393179021 4:0.0748702905632 5:0.00560556040902 6:0.0709558704649 7:-0.0598480212985 8:-3.88578058619e-16 9:0.0395480244938 10:0.00156404624136 11:0.0704793113283 12:-0.0617438855819 13:-2.73855012741e-15 14:0.040243335061 15:0.00161952601683 16:0.103656535569 17:-0.100130174901 18:-2.43323879564e-15 19:0.0629454094257 20:0.00396212456777 21:0.0326396761407 22:-0.0344966785572 23:-4.07081775696e-16 24:0.0206359434297 25:0.000425842161232 26:0.014464537286 27:-0.0145870861166 28:0.000126442978791 29:0.00990889976964 30:9.81862946447e-05 
10 1:130.063569245 2:129.901629233 3:130.009623619 4:0.0506705871792 5:0.00256750840508 6:0.0486180943993 7:-0.0425165504596 8:-4.40388466435e-15 9:0.0278073217663 10:0.000773247143816 11:0.0498698624643 12:-0.0416695366399 13:-4.62592926927e-16 14:0.0276265664251 15:0.00076322717244 16:0.0846965043254 17:-0.0842366065178 18:-6.01370805005e-16 19:0.0510785889596 20:0.0026090222501 21:0.0307320689129 22:-0.0370138759222 23:-1.28600833686e-15 24:0.0244954448035 25:0.000600026816121 26:0.0276408804758 27:-0.0251601489667 28:-0.001658329473 29:0.0167516724325 30:0.000280618529284 
10 1:129.300999579 2:129.175413926 3:129.25968438 4:0.0394897552175 5:0.00155944076714 6:0.0387288128521 7:-0.0379793668029 8:-6.64283443067e-15 9:0.0252809533263 10:0.000639126601086 11:0.04587719416 12:-0.035287793215 13:-3.83026943496e-15 14:0.0250739081483 15:0.000628700869828 16:0.110050047072 17:-0.114287179081 18:-1.88737914186e-15 19:0.0681416324794 20:0.00464328207696 21:0.138784803823 22:-0.142173356063 23:4.81096644004e-16 24:0.0848486169523 25:0.00719928779871 26:0.0220435201568 27:-0.0319289826577 28:0.00193952607479 29:0.0171069684528 30:0.000292648369645 
10 1:128.917367234 2:128.803963777 3:128.880140062 4:0.0357438914266 5:0.00127762577432 6:0.0342901748912 7:-0.0348358226289 8:-6.10622663544e-15 9:0.0236210343474 10:0.000557953263639 11:0.043909517779 12:-0.0342454363032 13:-1.38777878078e-15 14:0.0240092516076 15:0.000576444162755 16:0.145846244299 17:-0.149692704586 18:-1.33226762955e-15 19:0.08970971349 20:0.00804783269446 21:0.113113064531 22:-0.0833917396063 23:-5.05084093484e-05 24:0.0580277836286 25:0.00336722367284 26:0.0244510321499 27:-0.0161384321092 28:4.14316108131e-05 29:0.0136452591633 30:0.000186193097632 
