19:40:18		x: 51.07589
19:40:19		x: 51.07589
19:40:20		x: 51.07589
19:40:21		x: 51.07589
19:40:22		x: 51.07589
19:40:23		x: 51.450447
19:40:24		x: 51.450447
19:40:24		x: 51.450447
19:40:25		x: 51.450447
19:40:26		x: 51.450447
19:40:27		x: 51.450447
19:40:28		x: 51.472923
19:40:29		x: 51.472923
19:40:30		x: 51.472923
19:40:31		x: 51.651615
19:40:32		x: 51.651615
19:40:33		x: 51.651615
19:40:34		x: 51.476753
19:40:35		x: 51.476753
19:40:36		x: 51.476753
