8 1:0.0 2:0.0 3:0.0 4:0.0 5:0.0 6:0.0 7:0.0 8:0.0 9:0.0 10:0.0 11:0.0 12:0.0 13:0.0 14:0.0 15:0.0 16:0.0 17:0.0 18:0.0 19:0.0 20:0.0 21:0.0 22:0.0 23:0.0 24:0.0 25:0.0 26:0.0 27:0.0 28:0.0 29:0.0 30:0.0 
8 1:0.0 2:0.0 3:0.0 4:0.0 5:0.0 6:0.0 7:0.0 8:0.0 9:0.0 10:0.0 11:0.0 12:0.0 13:0.0 14:0.0 15:0.0 16:0.0 17:0.0 18:0.0 19:0.0 20:0.0 21:0.0 22:0.0 23:0.0 24:0.0 25:0.0 26:0.0 27:0.0 28:0.0 29:0.0 30:0.0 
8 1:10.3769362195 2:4.68902730995 3:6.58730048673 4:1.7786974049 5:3.16376445818 6:1.46063769722 7:-1.69678906541 8:-1.38777878078e-16 9:0.958634796601 10:0.918980673253 11:1.46684220567 12:-1.71755666304 13:6.59194920871e-17 14:0.962950385397 15:0.927273444736 16:2.70301255633 17:-2.74934160679 18:-2.96059473233e-16 19:1.65889217135 20:2.75192323618 21:1.04477548286 22:-0.677792287593 23:1.85037170771e-17 24:0.675555905741 25:0.456375781782 26:1.84724317799 27:-1.43615731596 28:0.0393464239625 29:0.995505872292 30:0.991031941769 
8 1:13.9042638014 2:13.516755075 3:13.6365825871 4:0.125869739252 5:0.0158431912594 6:0.20671471905 7:-0.236719166028 8:-3.23815048849e-16 9:0.163638684275 10:0.0267776189912 11:0.149473553356 12:-0.240299796991 13:-4.53341068389e-16 14:0.156652283197 15:0.0245399378309 16:1.03594899707 17:-0.955670321901 18:-1.66533453694e-16 19:0.633484062932 20:0.401302057988 21:1.96764067325 22:-1.99107086418 23:3.70074341542e-17 24:1.19360820193 25:1.42470053972 26:0.634964027592 27:-0.880686578701 28:-0.0331288311803 29:0.504853599326 30:0.254877156752 
8 1:10.6614865235 2:8.76509627072 3:9.4099592321 4:0.589698863885 5:0.347744750067 6:0.372877709175 7:-0.538358072549 8:-1.71159382963e-16 9:0.299838162208 10:0.089902923516 11:0.443312488624 12:-0.421082363527 13:-8.78926561162e-17 14:0.308148041154 15:0.0949552152669 16:0.553447252638 17:-0.625575929386 18:-1.5959455979e-16 19:0.358549119984 20:0.128557471441 21:2.42078726335 22:-2.38167136173 23:7.40148683083e-17 24:1.4525295334 25:2.10984204539 26:1.59573502275 27:-2.24080526053 28:0.00835489941766 29:1.14644662515 30:1.31433986431 
8 1:10.251613232 2:9.85292332084 3:10.1245500168 4:0.127632627981 5:0.0162900877253 6:0.168995299667 7:-0.16058776057 8:-4.11707704965e-16 9:0.126347934619 10:0.0159638005825 11:0.209692879415 12:-0.147117628306 13:-2.77555756156e-16 14:0.119158323919 15:0.0141987061591 16:0.736017490948 17:-0.786088607853 18:-1.85037170771e-16 19:0.474805869739 20:0.225440613939 21:1.47578717318 22:-1.48691248066 23:-7.40148683083e-17 24:0.892142925436 25:0.795918999406 26:1.00006564349 27:-0.884357602777 28:0.0519143339188 29:0.69981571142 30:0.48974202995 
8 1:8.8254343244 2:3.40916726407 3:7.01395742776 4:1.69261302124 5:2.86493883966 6:1.60442896372 7:-1.3547712238 8:-4.140206696e-16 9:0.894848271629 10:0.800753429238 11:1.59590338936 12:-1.39688096939 13:-1.38777878078e-17 14:0.910605062651 15:0.829201580125 16:2.35931158287 17:-2.28142923129 18:-1.48029736617e-16 19:1.43190568506 20:2.0503538909 21:0.76422453631 22:-0.840204241791 23:-5.43546689139e-17 24:0.4861227681 25:0.236315345665 26:0.777292778615 27:-1.1448982272 28:-0.00303372503667 29:0.599597513231 30:0.359517177872 
8 1:2.68904523547 2:2.17041333683 3:2.34868819079 4:0.160871061662 5:0.0258794984804 6:0.0836863719023 7:-0.142882905357 8:6.93889390391e-18 9:0.0892360760528 10:0.00796307726931 11:0.113632103252 12:-0.123756333604 13:-3.23815048849e-17 14:0.0915416926526 15:0.0083798814937 16:0.253259392195 17:-0.223708212067 18:-4.16333634234e-17 19:0.179933494866 20:0.0323760625747 21:0.98969415362 22:-0.941814475416 23:1.85037170771e-17 24:0.59065407499 25:0.348872236303 26:0.891283980486 27:-0.632922397761 28:0.0191345307432 29:0.467382334019 30:0.218446246153 
8 1:0.0 2:0.0 3:0.0 4:0.0 5:0.0 6:0.0 7:0.0 8:0.0 9:0.0 10:0.0 11:0.0 12:0.0 13:0.0 14:0.0 15:0.0 16:0.0 17:0.0 18:0.0 19:0.0 20:0.0 21:0.0 22:0.0 23:0.0 24:0.0 25:0.0 26:0.0 27:0.0 28:0.0 29:0.0 30:0.0 
8 1:0.0 2:0.0 3:0.0 4:0.0 5:0.0 6:0.0 7:0.0 8:0.0 9:0.0 10:0.0 11:0.0 12:0.0 13:0.0 14:0.0 15:0.0 16:0.0 17:0.0 18:0.0 19:0.0 20:0.0 21:0.0 22:0.0 23:0.0 24:0.0 25:0.0 26:0.0 27:0.0 28:0.0 29:0.0 30:0.0 
8 1:0.0 2:0.0 3:0.0 4:0.0 5:0.0 6:0.0 7:0.0 8:0.0 9:0.0 10:0.0 11:0.0 12:0.0 13:0.0 14:0.0 15:0.0 16:0.0 17:0.0 18:0.0 19:0.0 20:0.0 21:0.0 22:0.0 23:0.0 24:0.0 25:0.0 26:0.0 27:0.0 28:0.0 29:0.0 30:0.0 
8 1:3.28095818728 2:0.714236174127 3:1.57295863082 4:0.802024074513 5:0.643242616098 6:0.639331943163 7:-0.759781630692 8:-7.27138257014e-17 9:0.422881116873 10:0.178828439007 11:0.660391353203 12:-0.752428516625 13:-1.38777878078e-17 14:0.430288515566 15:0.185148206628 16:1.05485314774 17:-1.09446719495 18:-3.70074341542e-17 19:0.665451713408 20:0.442825982877 21:0.309206122466 22:-0.323311528355 23:-1.61907524425e-17 24:0.212974766224 25:0.045358251048 26:0.484468757244 27:-0.658864537347 28:-0.00724673557533 29:0.346349652973 30:0.119958082114 
8 1:5.97000342275 2:2.88464951096 3:3.92164682161 4:0.962637634312 5:0.926671214993 6:0.723018315065 7:-0.902664536049 8:-1.52655665886e-16 9:0.492032409626 10:0.242095892122 11:0.774023456455 12:-0.843147336312 13:-7.86407975776e-17 14:0.503932608015 15:0.253948073421 16:0.843522670089 17:-0.932843130981 18:-7.40148683083e-17 19:0.610584393691 20:0.372813301819 21:1.19286979627 22:-1.06481809723 23:0.0 24:0.739502154738 25:0.546863436862 26:0.23241944314 27:-0.148453640517 28:0.0118877951678 29:0.127461675117 30:0.0162464786237 
8 1:4.53094694647 2:4.51458550085 3:4.52313864357 4:0.00597922968969 5:3.57511876821e-05 6:0.0677238663608 7:-0.0639362462122 8:-1.61907524425e-17 9:0.0409061829118 10:0.00167331580042 11:0.0933918565528 12:-0.0893469432027 13:-1.15648231732e-16 14:0.0557686352704 15:0.00311014067993 16:0.219652830953 17:-0.249860389219 18:4.62592926927e-18 19:0.162527804991 20:0.0264152873953 21:0.515283690996 22:-0.480728192591 23:-9.25185853854e-18 24:0.305700617766 25:0.0934528677025 26:1.76028235109 27:-1.08736575576 28:-0.0187855027385 29:0.938761783955 30:0.881273687014 
8 1:3.28095818728 2:0.714236174127 3:1.57295863082 4:0.802024074513 5:0.643242616098 6:0.639331943163 7:-0.759781630692 8:-7.27138257014e-17 9:0.422881116873 10:0.178828439007 11:0.660391353203 12:-0.752428516625 13:-1.38777878078e-17 14:0.430288515566 15:0.185148206628 16:1.05485314774 17:-1.09446719495 18:-3.70074341542e-17 19:0.665451713408 20:0.442825982877 21:0.309206122466 22:-0.323311528355 23:-1.61907524425e-17 24:0.212974766224 25:0.045358251048 26:0.484468757244 27:-0.658864537347 28:-0.00724673557533 29:0.346349652973 30:0.119958082114 
8 1:6.97058838462 2:5.81745771025 3:6.5810074448 4:0.359278166441 5:0.129080800881 6:0.329963564827 7:-0.2518531669 8:-1.41090842713e-16 9:0.178839133623 10:0.0319834357151 11:0.300084162682 12:-0.298283571823 13:-1.50342701251e-16 14:0.199220982566 15:0.0396889998945 16:0.316712256113 17:-0.191704716738 18:-1.85037170771e-17 19:0.203210411188 20:0.0412944712152 21:0.687743536827 22:-0.730141890583 23:-1.11022302463e-16 24:0.438275003179 25:0.192084978412 26:0.681963558886 27:-0.641478169715 28:0.0311724686198 29:0.404413180113 30:0.163550020249 
8 1:11.5168311236 2:10.1278915846 3:11.0430073131 4:0.431566447915 5:0.186249598966 6:0.387980767843 7:-0.259432201328 8:-4.30211422042e-16 9:0.220147900052 10:0.0484650978974 11:0.299756626263 12:-0.335817412087 13:-2.22044604925e-16 14:0.244515902069 15:0.0597880263646 16:0.508027976336 17:-0.473431678925 18:-3.1456319031e-16 19:0.305663451068 20:0.0934301453186 21:1.9205850789 22:-1.94637680073 23:3.70074341542e-17 24:1.16806868453 25:1.36438445179 26:1.37180688993 27:-1.14129166476 28:0.029565134064 29:0.795556794821 30:0.632910613786 
8 1:9.31304238264 2:8.70441870179 3:8.92374956561 4:0.197303095268 5:0.0389285114025 6:0.270670459623 7:-0.317366153843 8:-1.20274161001e-16 9:0.177539689507 10:0.0315203413503 11:1.08795649627 12:-1.06587661906 13:-1.11022302463e-16 14:0.651911585842 15:0.424988715756 16:0.579648746445 17:-0.520087330884 18:-0.0269378234013 19:0.425864010114 20:0.18136015511 21:1.18136471738 22:-1.18136471738 23:-0.0731571526044 24:0.79572394954 25:0.633176603872 26:0.081924172792 27:-0.081924172792 28:-4.85722573274e-17 29:0.081924172792 30:0.00671157008765 
