18:45:06		x: -0.8268061	y: 0.2602286	z: 0.056505036
18:45:07		x: -0.056199603	y: -0.62888575	z: 1.3548992
18:45:07		x: 0.2843578	y: -1.9190332	z: 3.1951306
18:45:07		x: 1.2745703	y: -0.31306845	z: 1.8017471
18:45:07		x: 1.1982121	y: -0.8323039	z: 0.43890667
18:45:07		x: 0.65148777	y: -1.2501358	z: 1.1297953
18:45:07		x: -0.59315014	y: -1.8793269	z: 0.36896262
18:45:08		x: -0.47739118	y: -0.23823744	z: 2.1587977
18:45:08		x: -0.37782016	y: 0.21410827	z: 1.9083431
18:45:08		x: 0.1518	y: -0.08246681	z: 0.5653558
18:45:08		x: -0.07238753	y: -0.099265605	z: 1.4037683
18:45:08		x: 0.053145275	y: -0.97402465	z: -0.63529986
18:45:08		x: 0.3295618	y: 0.5662721	z: 0.018020526
18:45:09		x: -0.23090707	y: -0.28405234	z: 1.5564847
18:45:09		x: 0.071776666	y: -0.34147367	z: -0.7791586
18:45:09		x: -0.850019	y: -0.602924	z: -0.61361414
18:45:09		x: -0.3652974	y: -0.33658674	z: 0.1432479
18:45:09		x: -0.04520403	y: -0.17898351	z: 0.11056661
18:45:10		x: -0.37659842	y: 0.06047566	z: -0.17623462
18:45:10		x: 1.0290025	y: 0.5867361	z: 0.03359759
18:45:10		x: 0.43188173	y: 1.4999796	z: 0.23823744
18:45:10		x: -0.23304509	y: 1.1661417	z: 0.13530666
18:45:10		x: -2.2131648	y: 0.5821546	z: -0.49510628
18:45:10		x: 0.018325957	y: -1.4337007	z: -0.7837401
18:45:11		x: 0.12186762	y: -1.5338826	z: 0.17104226
18:45:11		x: 0.22510384	y: -0.13041973	z: 0.19883664
18:45:11		x: 0.9954049	y: 1.2217305	z: 0.23671028
18:45:11		x: 0.30970868	y: 0.8167268	z: 0.42943826
18:45:11		x: -1.2858714	y: 0.22907446	z: -0.9211848
18:45:12		x: -1.3301591	y: -1.6142114	z: -1.4034629
18:45:12		x: 0.9324858	y: -2.1584923	z: -0.16615535
18:45:12		x: 0.28313604	y: -0.33108896	z: -0.13347405
18:45:12		x: 0.9923506	y: -0.8509353	z: 0.46761733
18:45:12		x: 1.0650436	y: -0.3304781	z: 0.051618114
18:45:12		x: 0.08552113	y: 0.05589417	z: 0.3643811
18:45:13		x: -2.1954496	y: 0.010995574	z: -1.0036516
18:45:13		x: -0.5015204	y: -1.8961257	z: -1.2550226
18:45:13		x: 0.5751296	y: -2.2492058	z: 0.11148291
18:45:13		x: 0.59712076	y: 0.0870483	z: -0.073303826
18:45:13		x: 0.63438356	y: -0.12614368	z: 0.5626069
18:45:14		x: 0.24129178	y: 0.5183192	z: 0.20891592
18:45:14		x: 0.016798794	y: 1.6062702	z: 0.50915617
18:45:14		x: -2.2247713	y: 1.0519099	z: -0.88331115
18:45:14		x: -1.1545353	y: -0.8350528	z: -0.28405234
18:45:14		x: 1.1023064	y: -1.0659598	z: -0.21471913
18:45:14		x: -0.08246681	y: -0.41233405	z: 0.7666359
18:45:15		x: 1.2067643	y: -2.1578815	z: -0.15974127
18:45:15		x: 0.40530908	y: -0.35613444	z: -0.03634648
18:45:15		x: -0.28893927	y: -0.14935656	z: 0.0076358155
18:45:15		x: -1.5812247	y: 0.17745635	z: -0.1432479
18:45:15		x: -0.24648413	y: -0.82924956	z: 0.84635377
18:45:15		x: 0.54244834	y: 0.77518797	z: 0.46486846
18:45:16		x: -0.062308256	y: 1.135293	z: 0.2519819
18:45:16		x: 0.25259277	y: 2.1847596	z: -0.21563543
18:45:16		x: 0.19975294	y: 2.5094345	z: 0.12339478
18:45:16		x: -0.16218472	y: 1.7162259	z: 0.3933972
18:45:16		x: -2.4141395	y: 0.9627236	z: -1.0262536
18:45:17		x: -1.174083	y: -0.84665924	z: -0.41996986
18:45:17		x: 0.9654725	y: -1.3817772	z: 0.26083946
18:45:17		x: 0.7852673	y: 0.97585726	z: 0.66828656
18:45:17		x: 0.64996064	y: 0.7788532	z: 0.07422013
18:45:17		x: 0.44348818	y: 1.0332786	z: 0.2751948
18:45:17		x: -0.12522738	y: 0.8671232	z: 0.20189096
18:45:18		x: -2.5399778	y: 0.5723807	z: -0.67011917
18:45:18		x: 0.035430185	y: -0.6044512	z: -1.0867293
18:45:18		x: 0.88270026	y: 0.14966199	z: 0.07360926
18:45:18		x: 0.59650993	y: 0.37507126	z: 0.093462385
18:45:18		x: 0.2180789	y: 0.97585726	z: 0.3323107
18:45:19		x: 0.1600467	y: 0.89949906	z: 0.6282749
18:45:19		x: -0.45478916	y: 0.89644474	z: 0.4370741
18:45:19		x: -1.9486601	y: 0.5751296	z: -0.77366084
18:45:19		x: 0.8744536	y: -0.41416663	z: -1.9721785
18:45:19		x: 0.7486154	y: -1.3930782	z: -0.5653558
18:45:19		x: 0.12156218	y: -1.1053606	z: -0.16035213
18:45:20		x: 1.0213667	y: 0.70646566	z: 0.95172805
18:45:20		x: 0.4166101	y: 0.49418998	z: 0.68508536
18:45:20		x: -1.842675	y: 0.16401732	z: -1.029308
18:45:20		x: -0.91782504	y: -1.6853772	z: -1.087951
18:45:20		x: 0.9960158	y: -1.7751744	z: 0.06780604
18:45:21		x: -0.3304781	y: 0.20341812	z: 0.38728857
18:45:21		x: 1.0595458	y: -0.02321288	z: 0.17959438
18:45:21		x: 0.7476991	y: 0.78801614	z: 0.48930305
18:45:21		x: -1.1053606	y: 0.4605924	z: -0.52564955
18:45:21		x: -1.9788979	y: -0.32467487	z: -1.2238685
18:45:21		x: 1.2712106	y: -1.348485	z: 0.003970624
18:45:22		x: 0.28680122	y: 0.16035213	z: 0.015271631
18:45:22		x: 0.87872964	y: -0.06963864	z: 0.049480084
18:45:22		x: 0.605062	y: 1.7776178	z: 0.50701815
18:45:22		x: -0.77671516	y: 0.9691377	z: -0.30390546
18:45:22		x: -2.1520782	y: 0.18387043	z: -0.6973027
18:45:23		x: 1.328021	y: -1.3970488	z: -0.2565634
18:45:23		x: 0.081855945	y: -0.09560041	z: -0.044898596
18:45:23		x: 0.4578435	y: 0.312763	z: 0.548557
18:45:23		x: 0.73792523	y: 1.7669277	z: 0.69974613
18:45:23		x: -0.118507855	y: 0.6065892	z: 0.2779437
18:45:23		x: -2.3719897	y: -0.31581733	z: -0.6273586
18:45:24		x: 0.88117313	y: -0.5403103	z: -1.2269229
18:45:24		x: -3.0543262E-4	y: -2.0173824	z: -0.15790866
18:45:24		x: 0.75533485	y: -0.40286562	z: 1.0094548
18:45:24		x: 0.5714644	y: 0.39920044	z: 0.69058317
18:45:24		x: 0.037873644	y: 1.4010195	z: 0.6068946
18:45:24		x: -2.652377	y: 0.5021312	z: -0.6374379
18:45:25		x: 0.122478485	y: -1.5909985	z: -0.93676186
18:45:25		x: 0.364992	y: -1.3350459	z: 0.21563543
18:45:25		x: 0.26206118	y: -0.05497787	z: 0.2669481
18:45:25		x: 0.7370089	y: 1.01312	z: 0.40744713
18:45:25		x: 0.39584067	y: 1.3390167	z: 0.61850107
18:45:26		x: -1.500285	y: 0.5305365	z: -0.5290093
18:45:26		x: -1.3713925	y: -0.86620694	z: -1.5204436
18:45:26		x: 1.2030991	y: -1.7696766	z: -0.07880162
18:45:26		x: 0.21533	y: -0.038179077	z: -0.07360926
18:45:26		x: 0.9483683	y: -0.25778514	z: 0.3726278
18:45:26		x: 0.48991394	y: 0.6795876	z: 0.37232238
18:45:27		x: -0.01740966	y: 1.1673635	z: 0.21746802
18:45:27		x: -2.7076602	y: 0.18203785	z: -0.36560285
18:45:27		x: 0.43249258	y: -1.4828753	z: -1.0821478
18:45:27		x: 0.46211955	y: -1.8915442	z: 0.24923302
18:45:27		x: 0.5204572	y: 0.004276057	z: 0.15974127
18:45:28		x: 0.84421575	y: 1.2177598	z: 0.41080686
18:45:28		x: 0.31245756	y: 1.4416419	z: 0.75655663
18:45:28		x: -2.022575	y: 0.72326446	z: -1.0012082
18:45:28		x: -1.0986412	y: -1.181108	z: -1.0867293
18:45:28		x: 1.4187346	y: -1.7162259	z: 0.047036625
18:45:28		x: -0.20861048	y: 0.91813046	z: 0.30543262
18:45:29		x: 0.70646566	y: 0.36071593	z: 0.18478674
18:45:29		x: 0.4728097	y: 1.6520851	z: 0.6236934
18:45:29		x: -0.5317582	y: 0.784351	z: -0.14905111
18:45:29		x: -0.39675698	y: 0.66828656	z: -0.63285637
18:45:29		x: 1.2070698	y: -0.22540927	z: 0.22693644
18:45:30		x: -0.30176744	y: 0.08827003	z: -0.829555
18:45:30		x: 0.20891592	y: -0.29901853	z: 0.26083946
18:45:30		x: 0.23701571	y: -0.14660765	z: 0.3594942
18:45:30		x: -0.18417588	y: 0.4792238	z: -0.07086037
18:45:30		x: 0.04917465	y: -0.1469131	z: 0.3472769
18:45:30		x: -0.0027488936	y: 0.8200866	z: -0.21930063
18:45:31		x: 0.05955936	y: 0.5479461	z: -0.062308256
18:45:31		x: -0.040927973	y: 0.5873469	z: -1.6517797
18:45:31		x: -0.31429017	y: 0.28252518	z: -0.73884153
18:45:31		x: -3.0292807	y: -0.6068946	z: -3.6490035
18:45:31		x: 0.3051272	y: 2.3102922	z: -3.8096611
18:45:32		x: -0.50243664	y: 2.6499333	z: -0.1282817
18:45:32		x: 0.88514376	y: 5.177388	z: 0.17195857
18:45:32		x: -0.68539083	y: 1.1441506	z: 0.62888575
18:45:32		x: 0.6872234	y: 1.1951579	z: 0.14630222
18:45:32		x: -0.43371433	y: 0.25992316	z: 0.0693332
18:45:32		x: -0.22113322	y: 0.2770274	z: -0.30451632
18:45:33		x: -0.18784106	y: -0.47158796	z: -0.54519725
18:45:33		x: 6.1086525E-4	y: -0.13927728	z: -0.37720928
18:45:33		x: 0.172264	y: -0.103847094	z: -0.27091873
18:45:33		x: 0.1685988	y: 0.12705997	z: -0.07849618
18:45:33		x: -3.0543262E-4	y: 0.15790866	z: -9.162979E-4
18:45:34		x: -0.08124508	y: 0.019242255	z: -0.023823744
18:45:34		x: 0.516792	y: -0.03604105	z: 0.02321288
