18:45:06		x: 1.8417397	y: 2.292448	z: 7.9152308
18:45:06		x: 1.4281414	y: -0.19991584	z: 7.0946183
18:45:07		x: 8.202535	y: -0.32621	z: 11.021708
18:45:07		x: 10.812814	y: -1.2575544	z: 8.209718
18:45:07		x: 6.1824274	y: -1.1779473	z: 7.233482
18:45:07		x: 9.999383	y: -2.0147207	z: 5.6443305
18:45:07		x: 4.43885	y: -3.879804	z: 0.021547815
18:45:08		x: 5.783194	y: -7.128137	z: 1.3904326
18:45:08		x: 6.2249246	y: -7.351396	z: 1.436521
18:45:08		x: 5.692813	y: -10.0825815	z: 0.97264445
18:45:08		x: 4.138976	y: -7.270592	z: -0.49440265
18:45:08		x: 5.283405	y: -8.369531	z: 0.48243165
18:45:08		x: 3.2309752	y: -8.243237	z: 0.7356185
18:45:09		x: 3.0909145	y: -5.383961	z: -0.34356794
18:45:09		x: 1.2743138	y: -9.643246	z: -1.0815806
18:45:09		x: 2.8975825	y: -9.009381	z: -2.8353333
18:45:09		x: 1.4173675	y: -8.021772	z: -1.9027919
18:45:09		x: 2.4875755	y: -7.457938	z: -5.313332
18:45:10		x: -1.4059949	y: -7.571663	z: -1.5676036
18:45:10		x: 2.315193	y: -8.868722	z: -0.581791
18:45:10		x: 2.8766334	y: -8.950125	z: -0.78050977
18:45:10		x: 4.9775453	y: -10.080188	z: -0.7308301
18:45:10		x: 1.1450269	y: -12.98615	z: 2.083554
18:45:10		x: -0.18974048	y: -5.995081	z: -0.3172317
18:45:11		x: 7.5016327	y: -14.192827	z: -8.587403
18:45:11		x: 1.2018893	y: -6.5086374	z: 1.8794483
18:45:11		x: 3.4099417	y: -8.42759	z: -0.1933318
18:45:11		x: 3.0029275	y: -9.409811	z: -0.49320555
18:45:11		x: 5.129577	y: -12.299014	z: -1.3485341
18:45:12		x: 3.205836	y: -8.550891	z: 0.54168814
18:45:12		x: -0.17118542	y: -6.141726	z: -1.7034745
18:45:12		x: 2.2457612	y: -13.03164	z: -4.0467997
18:45:12		x: 4.0641575	y: -10.093356	z: -1.1677719
18:45:12		x: 2.184709	y: -9.284116	z: -0.08259996
18:45:12		x: 3.9875429	y: -9.901221	z: 0.9008184
18:45:13		x: 1.4616601	y: -11.291056	z: -0.3842694
18:45:13		x: 1.1755531	y: -7.7889366	z: 0.1400608
18:45:13		x: 1.8118122	y: -9.962274	z: -2.8766334
18:45:13		x: 0.08319851	y: -12.357074	z: -2.1470003
18:45:13		x: 8.034941	y: -9.164406	z: 0.7212533
18:45:13		x: 4.3538556	y: -8.589797	z: 0.3597288
18:45:14		x: 3.5835214	y: -10.345944	z: 0.9367314
18:45:14		x: 0.0664391	y: -10.447099	z: -2.4319103
18:45:14		x: 2.3930047	y: -6.303933	z: 0.20949265
18:45:14		x: 3.9731777	y: -7.744644	z: -6.203377
18:45:14		x: 7.9505453	y: -13.433866	z: 1.7681179
18:45:15		x: 2.823961	y: -8.762179	z: -1.2539631
18:45:15		x: 0.3309984	y: -9.500791	z: 0.4902128
18:45:15		x: 2.954445	y: -10.460866	z: 0.46567222
18:45:15		x: -0.700304	y: -9.409811	z: -1.5634137
18:45:15		x: 1.477821	y: -6.8372416	z: -3.2609026
18:45:15		x: 2.3475149	y: -10.214862	z: -6.847417
18:45:16		x: 1.9925743	y: -5.792771	z: -0.6422446
18:45:16		x: 2.3948002	y: -9.039907	z: -0.38187516
18:45:16		x: 2.847903	y: -8.89805	z: -0.59735334
18:45:16		x: 2.3026235	y: -10.538078	z: 0.05267244
18:45:16		x: 0.9768343	y: -11.872248	z: -1.3688848
18:45:17		x: 0.1933318	y: -5.5707088	z: 0.78888947
18:45:17		x: 1.8561049	y: -8.004415	z: -4.4753613
18:45:17		x: 1.9662381	y: -15.649101	z: 0.7661445
18:45:17		x: 2.0925324	y: -8.763377	z: 1.1139023
18:45:17		x: 3.5009215	y: -8.531737	z: 0.2160767
18:45:17		x: 3.927688	y: -10.005967	z: -0.038307227
18:45:18		x: -2.8580782	y: -13.621811	z: -2.0691888
18:45:18		x: 1.1001357	y: -6.481104	z: -2.280477
18:45:18		x: 7.6883802	y: -11.228806	z: -4.2957964
18:45:18		x: 3.9671922	y: -15.849615	z: -2.6276364
18:45:18		x: 2.9161377	y: -8.447342	z: 0.25797522
18:45:19		x: 3.9576154	y: -9.209895	z: -0.5494693
18:45:19		x: 4.68246	y: -10.053851	z: -0.19812019
18:45:19		x: 0.7218518	y: -10.209475	z: -1.9267339
18:45:19		x: 1.8848352	y: -6.6893997	z: -1.8740613
18:45:19		x: 6.151303	y: -10.984597	z: -5.579687
18:45:19		x: -2.0368671	y: -6.8958993	z: 0.022744916
18:45:20		x: 2.6833014	y: -8.498817	z: -0.38726214
18:45:20		x: 4.238934	y: -9.895834	z: 0.40282443
18:45:20		x: 1.7699136	y: -9.56723	z: -1.9165585
18:45:20		x: 2.404377	y: -6.652888	z: 0.17178397
18:45:20		x: 4.455011	y: -12.476784	z: -9.721058
18:45:21		x: 3.1352072	y: -9.954493	z: 0.05686229
18:45:21		x: 0.7350199	y: -8.339603	z: -0.81163436
18:45:21		x: 3.821146	y: -9.8683	z: -0.8122329
18:45:21		x: 7.1023993	y: -11.175535	z: -2.1140802
18:45:21		x: 4.8081555	y: -9.044696	z: -0.025737667
18:45:21		x: -1.3018472	y: -5.422867	z: -1.1785458
18:45:22		x: 2.4720132	y: -13.050195	z: 0.40821138
18:45:22		x: 1.1420342	y: -7.9152308	z: -0.866701
18:45:22		x: 3.891775	y: -8.861539	z: -0.062249243
18:45:22		x: 6.8348475	y: -11.659762	z: -2.7341783
18:45:22		x: 6.1183825	y: -9.31943	z: -0.3417723
18:45:23		x: -0.6967127	y: -5.379771	z: -1.1402385
18:45:23		x: -0.5793968	y: -7.5770497	z: -2.4636335
18:45:23		x: 2.2481554	y: -8.340201	z: -0.44711718
18:45:23		x: 3.8498764	y: -8.363545	z: -0.7015011
18:45:23		x: 4.547786	y: -10.906786	z: -0.41240123
18:45:23		x: 0.60812724	y: -13.770251	z: -0.2208651
18:45:24		x: -1.1665748	y: -5.2121773	z: 0.86849666
18:45:24		x: 6.5601125	y: -12.294226	z: -7.2023573
18:45:24		x: 7.1083846	y: -10.342952	z: 4.1934443
18:45:24		x: 4.477157	y: -8.673594	z: -0.59017074
18:45:24		x: 5.8292828	y: -10.070012	z: 0.40641573
18:45:24		x: -2.2098482	y: -15.150508	z: 0.4249708
18:45:25		x: -0.30346507	y: -4.147356	z: -0.4961983
18:45:25		x: 6.265626	y: -13.293805	z: -7.177817
18:45:25		x: -1.0163386	y: -5.8107276	z: 1.9093759
18:45:25		x: 3.140594	y: -8.464102	z: 0.16998832
18:45:25		x: 3.09271	y: -9.465476	z: -0.599149
18:45:26		x: 4.83928	y: -10.600926	z: -1.9099745
18:45:26		x: 1.846528	y: -8.674192	z: -0.12210429
18:45:26		x: -0.8475474	y: -5.3678	z: -1.9428947
18:45:26		x: 2.1625626	y: -12.525865	z: -3.3716345
18:45:26		x: 4.1419687	y: -8.375516	z: 0.01316811
18:45:26		x: 3.7295678	y: -8.520366	z: -1.0223241
18:45:27		x: 3.9426517	y: -10.063428	z: 0.10235212
18:45:27		x: 0.3878607	y: -12.758102	z: 1.0103531
18:45:27		x: 0.08559271	y: -5.127183	z: -0.8798691
18:45:27		x: 6.081871	y: -15.181034	z: -8.1402855
18:45:27		x: 1.2240356	y: -7.5333557	z: 2.3187842
18:45:28		x: 2.7982233	y: -8.458116	z: 0.35194764
18:45:28		x: 2.8491	y: -9.23683	z: -0.2885013
18:45:28		x: 2.5192988	y: -9.870695	z: -1.8513165
18:45:28		x: 1.2940661	y: -5.448006	z: 0.6254852
18:45:28		x: 1.2162545	y: -8.5299425	z: -6.1195793
18:45:28		x: -1.0408791	y: -9.354745	z: -0.13587095
18:45:29		x: 2.0368671	y: -9.222465	z: -0.2148796
18:45:29		x: 3.2722752	y: -8.416816	z: -0.7308301
18:45:29		x: 4.110844	y: -11.963826	z: -3.727772
18:45:29		x: 4.8177323	y: -9.384073	z: -4.5262384
18:45:29		x: -1.2401965	y: -6.2345014	z: 0.2837129
18:45:30		x: 2.5049336	y: -8.806473	z: -4.6351743
18:45:30		x: 2.1260512	y: -9.132683	z: -0.7637503
18:45:30		x: 2.882619	y: -11.373655	z: 1.5065514
18:45:30		x: 1.1869255	y: -9.978435	z: 1.1085154
18:45:30		x: 2.441487	y: -9.671976	z: 0.14065935
18:45:30		x: 1.091756	y: -9.758766	z: -0.4794389
18:45:31		x: 1.2413936	y: -10.1460285	z: -0.26036942
18:45:31		x: 1.2862848	y: -13.958196	z: 0.50637364
18:45:31		x: 5.619191	y: -10.717046	z: -0.20590134
18:45:31		x: 10.88464	y: -5.771223	z: -0.8738836
18:45:31		x: 6.8204823	y: -6.0848637	z: 2.1918917
18:45:32		x: 4.5274353	y: 1.1851299	z: 2.7712884
18:45:32		x: 3.0855274	y: 4.2036195	z: 7.0970125
18:45:32		x: -0.7691373	y: 3.3291376	z: 11.622053
18:45:32		x: 0.40880993	y: 2.7216089	z: 9.174581
18:45:32		x: 0.99898064	y: 3.177704	z: 10.188525
18:45:32		x: -0.13826515	y: 4.1491513	z: 9.23683
18:45:33		x: 0.41359833	y: 3.7163997	z: 9.220071
18:45:33		x: 0.5279215	y: 3.804985	z: 9.252991
18:45:33		x: -0.12270284	y: 3.9863458	z: 8.9279785
18:45:33		x: -0.52492875	y: 4.3059716	z: 8.459313
18:45:33		x: -0.46866497	y: 4.285621	z: 8.830415
18:45:34		x: -0.45370123	y: 4.0557775	z: 9.094974
18:45:34		x: -1.3335704	y: 5.077503	z: 6.9557543
