12 1:4.77431820655 2:-26.6570240129 3:-5.76858522021 4:10.7080021373 5:114.661309773 6:8.33313975448 7:-6.82330991944 8:1.90323947079e-16 9:4.94525095288 10:24.4555069869 11:3.16361301021 12:-3.97148070217 13:-0.119697389474 14:2.33592826426 15:5.45656085575 16:1.20576318546 17:-1.32692062746 18:-0.0380452977572 19:0.870449175194 20:0.757681766596 21:1.54192789408 22:-1.77971381107 23:0.16086349774 24:0.954221375906 25:0.910538434236 26:3.00497608289 27:-2.15897292603 28:-0.192044943945 29:1.4893649909 30:2.21820807611 
12 1:-7.94200302318 2:-19.8510555149 3:-15.6841193393 4:4.04371895237 5:16.3516629658 6:2.51509625413 7:-2.97502062202 8:1.09039761347e-15 9:1.70092288867 10:2.89313867322 11:2.93185634746 12:-3.16417857904 13:-0.0591465562407 14:1.7753093284 15:3.15172321151 16:4.52738717836 17:-2.05847358714 18:0.608308321592 19:1.77100654979 20:3.13646419941 21:2.63658200342 22:-0.887596572892 23:0.519122907046 24:1.02795892061 25:1.05669954247 26:2.25608041773 27:-3.10822352291 28:-0.0568911187844 29:1.41518511598 30:2.00274891248 
12 1:-0.671952856844 2:-5.76851449814 3:-4.03547176403 4:1.73232356888 5:3.00094494728 6:1.02689687588 7:-0.79620329511 8:5.15460690005e-17 9:0.608999711594 10:0.370880648722 11:0.724447676177 12:-0.631018890513 13:0.0091254811427 14:0.390489885843 15:0.152482350946 16:1.14815538406 17:-0.841946476731 18:0.0573656528138 19:0.611606309066 20:0.37406227729 21:0.594379859707 22:-0.846664364548 23:0.00680773891257 24:0.412281466254 25:0.169976007417 26:0.690426182697 27:-1.99601514314 28:-0.376900924422 29:0.76393738542 30:0.583600328842 
12 1:-0.149854915466 2:-3.67474219953 3:-2.51624497512 4:1.20383623957 5:1.44922169171 6:1.17595681251 7:-1.52272542198 8:-3.17206578464e-17 9:0.792310826749 10:0.627756446183 11:0.580854150129 12:-0.643900429356 13:0.0577373303949 14:0.380230429826 15:0.144575179766 16:0.412393019664 17:-1.57030395376 18:-0.193929081672 19:0.573596977369 20:0.329013492447 21:1.37969112507 22:-1.4567114912 23:-0.211265617876 24:0.788587766617 25:0.621870665658 26:1.51890379328 27:-1.58558828648 28:-0.119876850445 29:1.03273611794 30:1.0665438893 
12 1:0.60032003641 2:-0.168926790945 3:0.0872684698146 4:0.261676262717 5:0.0684744664698 6:0.203018227941 7:-0.253961579441 8:3.9650822308e-18 9:0.142738005439 10:0.0203741381967 11:0.10562431111 12:-0.110193690559 13:0.00692286222352 14:0.0629437009594 15:0.00396190949047 16:0.16593480186 17:-0.37197822144 18:-0.0437015782805 19:0.145738542511 20:0.0212397227731 21:0.190149442269 22:-0.283161344889 23:-0.0156532625654 24:0.12505216777 25:0.0156380446639 26:0.20099883973 27:-0.430452584438 28:-0.0466736501481 29:0.172946815701 30:0.0299106010611 
12 1:0.907333690765 2:-1.26130984706 3:0.178079243066 4:0.73812956442 5:0.544835253871 6:0.515239944193 7:-0.437628241321 8:7.93016446161e-18 9:0.32250391963 10:0.104008778177 11:0.197670507998 12:-0.255259798008 13:-0.00838470648419 14:0.151122855554 15:0.0228381174708 16:0.170799093477 17:-0.170303000461 18:0.0170336100778 19:0.127648525564 20:0.0162941460785 21:0.150477477111 22:-0.176779993695 23:-0.000405568754433 24:0.0963349578489 25:0.00928042410375 26:0.404383085925 27:-0.250999140065 28:0.0242458198019 29:0.180410766876 30:0.0325480448048 
12 1:-1.13126983106 2:-2.61412108707 3:-1.62620240572 4:0.505476135411 5:0.25550612347 6:0.441552949243 7:-0.356916240151 8:-9.91270557701e-18 9:0.25263123674 10:0.0638225417769 11:0.262633796483 12:-0.26811233053 13:-0.008900392075 14:0.150003400173 15:0.0225010200634 16:1.10676183358 17:-0.944641330399 18:0.0285924626847 19:0.553536751947 20:0.306402935756 21:0.79691573144 22:-1.11111553784 23:-0.0420306193702 24:0.55097658339 25:0.303575195444 26:1.66366924973 27:-1.48058419907 28:0.147056017551 29:0.893062555109 30:0.797560727338 
12 1:-1.68366547589 2:-3.44808911473 3:-2.78374214233 4:0.595796515332 5:0.354973487682 6:2.1290923595 7:-1.34523197799 8:-5.55111512313e-17 9:1.05748593142 10:1.11827649514 11:1.14666905028 12:-1.16425240733 13:0.0460274265458 14:0.716245083076 15:0.51300701903 16:0.692476272931 17:-0.564395912358 18:0.0596428750896 19:0.424530214633 20:0.180225903137 21:2.10029031713 22:-2.12661514631 23:-0.115792303403 24:1.31197287898 25:1.72127283517 26:1.39552518608 27:-1.14863544166 28:0.0332613493751 29:0.671819725265 30:0.451341743255 
12 1:-0.488088146516 2:-1.92252919144 3:-1.41421362311 4:0.493253443544 5:0.243298959568 6:0.526617352774 7:-0.445592081034 8:6.74063979237e-17 9:0.336192935487 10:0.113025689872 11:0.576259281345 12:-0.704508900948 13:0.00161155298902 14:0.385882682187 15:0.148905444412 16:1.7549825669 17:-0.595360081869 18:0.220151150363 19:0.740836112779 20:0.548838145997 21:0.503404760945 22:-0.654384877782 23:-0.0605913283403 24:0.365082367178 25:0.133285134824 26:1.03586093271 27:-1.06991756523 28:0.0178379797161 29:0.591950039454 30:0.350404849209 
12 1:1.05794911675 2:-0.662790410626 3:0.493955070564 4:0.587793229989 5:0.345500881221 6:0.847272011324 7:-0.639868367559 8:-1.9825411154e-17 9:0.425347137592 10:0.180920187457 11:0.364247329526 12:-0.328155689847 13:-0.0169226680552 14:0.200569685167 15:0.0402281986082 16:0.570328970095 17:-0.154265430875 18:0.0696988846549 19:0.212439725606 20:0.0451306370156 21:0.294127918856 22:-0.390958137243 23:0.0699338593043 24:0.202143032951 25:0.0408618057707 26:0.527667508507 27:-1.12918788713 28:0.0159144673676 29:0.447627990119 30:0.200370817538 
12 1:-0.0542034903579 2:-0.526375761921 3:-0.191710488649 4:0.165735069408 5:0.0274681132317 6:0.869903842918 7:-0.605684404724 8:1.9825411154e-18 9:0.410414825981 10:0.168440329385 11:0.426447683605 12:-0.36054093645 13:-0.0127987997546 14:0.259310449821 15:0.0672419093862 16:0.69833290202 17:-0.140789186128 18:0.0880982946898 19:0.263616116075 20:0.0694934566546 21:0.521827394604 22:-0.512544748083 23:0.0580114067016 24:0.285455362249 25:0.0814847638365 26:0.756345776972 27:-0.589782654617 28:0.000772222846635 29:0.464996956389 30:0.216222169451 
12 1:-0.0635821182906 2:-1.76273659786 3:-0.622761082099 4:0.58063493844 5:0.337136931738 6:0.843431953091 7:-0.62890320312 8:1.18952466924e-17 9:0.417723164183 10:0.174492641895 11:0.295268146943 12:-0.2968376806 13:-0.00289541712077 14:0.171004877826 15:0.0292426682402 16:0.680838452123 17:-0.785498081879 18:-0.0329939910964 19:0.40252264425 20:0.162024479134 21:0.523490326155 22:-0.402068079571 23:0.0108703148677 24:0.294702296634 25:0.0868494436413 26:1.02528731988 27:-0.949031810231 28:-0.0999080539146 29:0.515667887124 30:0.265913369811 
12 1:0.494265304511 2:-0.889069150548 3:0.0358451897586 4:0.47323571175 5:0.223952038876 6:0.350261808941 7:-0.31247468311 8:-1.38777878078e-17 9:0.22906830615 10:0.0524722888823 11:0.221218828293 12:-0.284235223004 13:-0.0386371014044 14:0.166354087282 15:0.0276736823553 16:1.2039833499 17:-1.00199658699 18:0.114091331106 19:0.68233775622 20:0.465584813564 21:0.795036671458 22:-0.525369097961 23:0.148099141336 24:0.395449410923 25:0.156380236599 26:0.878208592327 27:-1.37222044534 28:0.0760538465331 29:0.596394436608 30:0.355686324017 
12 1:1.56623257828 2:-1.41438587921 3:-0.423076320825 4:1.01743757883 5:1.03517922681 6:0.824372675446 7:-1.05661435601 8:-3.37031989618e-17 9:0.565090997812 10:0.319327835808 11:0.442216483171 12:-0.391288941391 13:0.0149610824564 14:0.251551178191 15:0.0632779952492 16:0.379560986467 17:-0.331036308067 18:0.0329427044856 19:0.204747966471 20:0.0419217297741 21:0.367321183977 22:-0.418228482064 23:-0.04386463152 24:0.252601550752 25:0.0638075434424 26:0.627891723415 27:-0.470164392975 28:0.0836734835064 29:0.316658763717 30:0.100272772638 
12 1:2.53948432122 2:-4.16015987901 3:0.327657502644 4:2.28703418192 5:5.23052534926 6:3.05344836869 7:-2.30395062911 8:-4.75809867696e-17 9:1.53600121386 10:2.35929972898 11:1.27206000371 12:-1.24953437094 13:-0.00903247917861 14:0.712775535881 15:0.50804896455 16:0.553034255385 17:-0.576143749699 18:0.00482046190982 19:0.285646779154 20:0.081594082441 21:0.622548767452 22:-0.795374103563 23:-0.0516230854054 24:0.430026315215 25:0.184922631778 26:1.54067734518 27:-1.20865692501 28:0.0369793711324 29:0.727825035833 30:0.529729282786 
12 1:-1.97373237476 2:-3.46854208201 3:-2.94231335309 4:0.503802933226 5:0.253817395527 6:0.324115987576 7:-0.406357964081 8:5.55111512313e-17 9:0.241024471336 10:0.0580927957827 11:0.312971394513 12:-0.382604125338 13:-0.00195223757995 14:0.222004758556 15:0.0492861128217 16:0.845524196473 17:-0.695475823824 18:0.00729222131182 19:0.468550333443 20:0.21953941497 21:1.03811565622 22:-0.679013431046 23:0.12533727244 24:0.591352281071 25:0.349697520328 26:1.6237802323 27:-1.0139064403 28:-0.0949663033459 29:0.859549821759 30:0.738825896087 
12 1:-2.12926802822 2:-3.56513773226 3:-3.07971746837 4:0.48637651259 5:0.236562111999 6:0.346676388354 7:-0.412133405292 8:4.75809867696e-17 9:0.274968977533 10:0.0756079386054 11:0.183391665379 12:-0.162927378541 13:0.020803334413 14:0.12711985128 15:0.0161594565895 16:1.08352666735 17:-2.48064418695 18:-0.294850323109 19:0.965931976866 20:0.933024583932 21:1.67041891264 22:-1.13122352791 23:-0.000577836772397 24:0.875884151685 25:0.767173047173 26:1.67444761295 27:-2.26192452071 28:-0.0669173247389 29:1.29971698591 30:1.68926424345 
12 1:-0.149849001811 2:-0.817510038568 3:-0.585293007426 4:0.228680002329 5:0.0522945434651 6:0.127793615705 7:-0.0882617877673 8:9.91270557701e-18 9:0.0695023378236 10:0.00483057496295 11:0.227746218986 12:-0.214584719011 13:-0.0242882343226 14:0.134937817773 15:0.0182082146652 16:0.748945911562 17:-0.138653544135 18:0.0950072617775 19:0.271873125344 20:0.0739149962841 21:0.922999467738 22:-0.490728059985 23:0.17776950766 24:0.406270489088 25:0.165055710304 26:1.38922586757 27:-0.290925785747 28:0.146863339768 29:0.469993186542 30:0.220893595396 
12 1:-0.548207395626 2:-0.858839120576 3:-0.653448563005 4:0.1114793901 5:0.012427654417 6:0.340257678174 7:-0.230064944432 8:1.9825411154e-17 9:0.188293964528 10:0.0354546170775 11:0.130031660404 12:-0.171318453755 13:0.0124482067025 14:0.111449232522 15:0.0124209314298 16:0.556663495366 17:-1.29367032808 18:-0.154583213264 19:0.54036278136 20:0.291991935479 21:0.355262495939 22:-0.712307434054 23:-0.00141523365653 24:0.280776683799 25:0.0788355461654 26:0.204573954281 27:-0.509332871189 28:-0.0738015848519 29:0.172520326337 30:0.0297632629995 
12 1:-0.22598701119 2:-0.275953380103 3:-0.252409963885 4:0.0180661480123 5:0.000326385704003 6:0.0707097285198 7:-0.109894533751 8:9.91270557701e-19 9:0.0579849731575 10:0.00336225711208 11:0.0515375303254 12:-0.0810629339542 13:-0.0101562924862 14:0.0453568165069 15:0.00205724080364 16:0.401353550654 17:-0.15912518158 18:0.0483995793645 19:0.15321865043 20:0.0234759548396 21:0.276612529367 22:-0.110844966086 23:0.0391637057303 24:0.10150811604 25:0.010303897622 26:0.117450088005 27:-0.222198273635 28:-0.0171239227821 29:0.0923793794201 30:0.00853394974204 
12 1:0.165173443017 2:-0.264310571148 3:-0.118489941 4:0.145827010412 5:0.0212655169658 6:0.0863870793404 7:-0.0733279533455 8:-3.9650822308e-18 9:0.0525022458719 10:0.00275648582159 11:0.0371553248413 12:-0.0337169994778 13:0.00320760625578 14:0.0235042549823 15:0.000552450002275 16:0.079363304497 17:-0.105246872591 18:-0.0114069895391 19:0.0503957794912 20:0.00253973459052 21:0.0799026751701 22:-0.0971753359271 23:-0.0031223206914 24:0.0571264404455 25:0.00326343019797 26:0.0711572129259 27:-0.0964159483755 28:-0.0152011538685 29:0.0473369966935 30:0.00224079125596 
12 1:0.00479382942129 2:-0.160821488281 3:-0.0498178798506 4:0.0524814722732 5:0.00275430493196 6:0.0459214242134 7:-0.0492315300744 8:4.04768811061e-18 9:0.0346987545667 10:0.00120400356848 11:0.0730328953312 12:-0.068217636647 13:-2.60208521397e-18 14:0.0440879892753 15:0.00194375079833 16:0.261749273641 17:-0.270430986641 18:-1.85037170771e-17 19:0.161658669545 20:0.0261335254391 21:0.0912103280249 22:-0.145097226834 23:0.0 24:0.09571121957 25:0.00916063755157 26:0.135115498732 27:-0.119561723216 28:-2.31296463464e-18 29:0.0796272018028 30:0.00634049126694 
