1 1:-374.155225749 2:-391.322983641 3:-380.267301319 4:5.77933260134 5:33.4006853169 6:6.64190998229 7:-8.05252678036 8:5.58283578097e-15 9:4.64996498529 10:21.6221743644 11:5.09070607909 12:-5.00733381492 13:-0.34917030025 14:3.15359188027 15:9.94514174729 16:11.3084310422 17:-10.2243894928 18:1.16675872763 19:6.88339145466 20:47.3810779181 21:28.9892834627 22:-29.6962179075 23:0.235155839596 24:17.8015524042 25:316.895268001 26:83.1208478646 27:-65.4754877953 28:-7.41065572833 29:55.1765566056 30:3044.45239885 
1 1:-364.43676645 2:-485.875518966 3:-406.048140667 4:41.2250874327 5:1699.50783384 6:24.793779144 7:-25.3033064058 8:-4.94842262404e-15 9:13.8349744218 10:191.406517253 11:16.4309257337 12:-15.1842462643 13:-0.829175803694 14:8.79993448946 15:77.4388470187 16:12.0708048423 17:-19.2642149113 18:0.93840193305 19:11.454255105 20:131.19996001 21:27.4773676348 22:-36.4024806995 23:0.385964464967 24:21.0044374854 25:441.186394077 26:83.0848984328 27:-60.5392209061 28:-8.69735485362 29:53.6874662756 30:2882.34403509 
1 1:-472.485086172 2:-534.209837363 3:-513.531873662 4:21.1181348164 5:445.975618123 6:13.9636547774 7:-14.2781251565 8:1.52259157663e-14 9:9.42264854693 10:88.786305639 11:7.94501929196 12:-6.89523180124 13:0.627070222419 14:5.07639955359 15:25.7698324277 16:18.5765932354 17:-8.14892508734 18:2.18864430668 19:7.46880162813 20:55.7829977604 21:22.6909152246 22:-36.7174919027 23:-5.0952497754 24:18.6196386289 25:346.690942669 26:68.2060603218 27:-45.4292279585 28:-5.50243627705 29:44.3027190815 30:1962.73091801 
1 1:-453.453523868 2:-510.858834735 3:-492.103930396 4:19.6852627909 5:387.509571148 6:22.2364265409 7:-29.7983035726 8:1.87786294451e-14 9:14.8351722225 10:220.08233487 11:12.4659427852 12:-12.7699424523 13:0.444959092755 14:7.08507645212 15:50.1983083325 16:8.10406702612 17:-8.51408704999 18:0.811262109458 19:5.27577118304 20:27.8337615758 21:26.0631086301 22:-27.8336961106 23:-3.51813669992 24:18.264612494 25:333.596069557 26:69.4937574627 27:-51.2086032012 28:-6.28103562981 29:45.6125874973 30:2080.5081382 
1 1:-285.454413549 2:-518.988155235 3:-442.022929111 4:79.8330264864 5:6373.31211797 6:80.4147092781 7:-106.459795406 8:4.82153999266e-15 9:53.7341024006 10:2887.3537608 11:44.9349187855 12:-45.0715253516 13:0.85423342193 14:25.3726984193 15:643.773825075 16:10.4746436702 17:-9.32736208286 18:1.20886549378 19:6.33291605737 20:40.1058257897 21:15.6676851416 22:-28.1324524807 23:-3.5332532468 24:13.7564259685 25:189.239255426 26:121.070872846 27:-88.5402202277 28:-5.52480750867 29:58.9614091675 30:3476.44777102 
1 1:-228.809287749 2:-274.197307082 3:-259.867831365 4:15.5877171487 5:242.976925909 6:30.5471457403 7:-42.925141097 8:1.07850236678e-14 9:20.3086943449 10:412.443065996 11:16.2078753339 12:-20.6109450556 13:-0.0468102578423 14:11.267218917 15:126.950222124 16:9.64654404315 17:-17.552770843 18:-2.33153378429 19:7.2053634604 20:51.9172625965 21:26.5870870302 22:-35.2934588484 23:-1.15398812066 24:19.6910981561 25:387.739346591 26:74.7192322593 27:-87.43429398 28:-10.4969227298 29:51.0272294057 30:2603.77814082 
1 1:-215.468401924 2:-325.23453006 3:-289.346916883 4:37.6386545846 5:1416.66831894 6:41.1888590946 7:-54.8951918471 8:1.83979815509e-14 9:27.5149656606 10:757.073335302 11:21.6625728653 12:-21.7193885323 13:1.18495026874 14:12.3140980391 15:151.637010517 16:14.3142789322 17:-15.2506607086 18:1.34940040608 19:10.3587254635 20:107.303193227 21:20.6113756361 22:-55.3335734372 23:-8.22116440829 24:22.2981418405 25:497.207129537 26:61.3720384712 27:-54.5444078024 28:-4.25684106267 29:41.7905973702 30:1746.45402855 
1 1:-247.027616586 2:-258.902220604 3:-252.086648503 4:3.85877392473 5:14.8901362022 6:19.3859925131 7:-29.9204776206 8:1.09119062992e-14 9:14.9363453877 10:223.094413541 11:9.73074570297 12:-12.9481350849 13:0.126277078802 14:6.89728797064 15:47.57258135 16:40.1247540128 17:-29.4864834377 18:4.42379449953 19:21.1734158491 20:448.31353872 21:25.8814202938 22:-48.9631787406 23:-5.71036097197 24:22.5348463994 25:507.819302242 26:73.5508889409 27:-72.4753746374 28:-6.68828172461 29:50.3306382646 30:2533.17314812 
1 1:-283.122372667 2:-357.963920705 3:-333.60613993 4:25.7280110508 5:661.930552632 6:28.9600177891 7:-38.6539342352 8:6.05864564867e-15 9:19.4641486698 10:378.853083439 11:14.9797187739 12:-14.6977027323 13:1.16579769136 14:8.60574108169 15:74.058779565 16:15.5039334196 17:-14.5492558322 18:1.6158958555 19:10.4874186275 20:109.985949467 21:20.5473422697 22:-60.8355858473 23:-9.01055074904 24:24.8730657748 25:618.669401038 26:70.0738274521 27:-68.3425228827 28:-4.68466707258 29:46.5663116171 30:2168.42137762 
1 1:-275.346055647 2:-379.045423733 3:-344.988124211 4:35.551561232 5:1263.91350603 6:35.035432743 7:-46.0512876869 8:4.59949538773e-15 9:23.6733427587 10:560.427157372 11:18.5837934746 12:-17.5135086836 13:1.20523460763 14:10.4948156768 15:110.141156089 16:16.1346728854 17:-13.3503934209 18:1.74327634563 19:9.86458727209 20:97.3100820486 21:20.1065136175 22:-58.4581925136 23:-8.64271854974 24:24.3007660613 25:590.527231164 26:68.6546808964 27:-68.1840412247 28:-4.74324239285 29:46.3444748729 30:2147.81035125 
1 1:-265.734926571 2:-372.512500895 3:-337.470227861 4:36.610289836 5:1340.31332187 6:36.7373373906 7:-48.4201462223 8:5.83660104374e-15 9:24.7737081302 10:613.73661452 11:19.3409426472 12:-18.3545362054 13:1.22527237611 14:10.9235269501 15:119.323441029 16:17.1250406508 17:-14.5162085864 18:1.85446753847 19:11.0248159568 20:121.54656688 21:21.4938479773 22:-59.8334547941 23:-8.86130195456 24:25.0000829161 25:625.004145813 26:69.8332561485 27:-72.8367119391 28:-4.88561396719 29:48.5036183193 30:2352.60099006 
1 1:-246.105563265 2:-371.614505854 3:-330.3566192 4:43.0130485546 5:1850.12234596 6:41.9958204777 7:-55.1624800871 8:1.80807749725e-15 9:28.3712752473 10:804.929259156 11:22.1834402976 12:-20.832593766 13:1.36615137697 14:12.5107741639 15:156.51947018 16:19.3110376175 17:-16.3556824105 18:2.11939286149 19:12.245977105 20:149.963955256 21:21.6174691793 22:-65.2213063359 23:-9.65696635075 24:26.5988962282 25:707.501280558 26:71.0357998236 27:-75.8559508007 28:-4.80733653152 29:50.0088532477 30:2500.88540315 
1 1:-250.590346798 2:-358.844101827 3:-323.496571195 4:37.1658804462 5:1381.30266934 6:40.5589003046 7:-54.0130428621 8:1.64947420801e-15 9:27.2245551287 10:741.176401955 11:21.1341058375 12:-20.6691940948 13:1.39084279782 14:12.0106426919 15:144.255537871 16:19.9053338675 17:-18.4606739445 18:2.12030465871 19:13.56896826 20:184.116899642 21:26.0538389612 22:-70.7858638989 23:-10.4616398711 24:28.78440983 25:828.542249262 26:76.256160763 27:-84.1991534451 28:-5.21633132468 29:54.2978819164 30:2948.25998061 
1 1:-275.461404059 2:-365.849412545 3:-336.114030882 4:31.0363329567 5:963.2539634 6:27.563353016 7:-35.5944740081 8:5.20218788682e-15 9:19.1375699521 10:366.246583671 11:14.3899278458 12:-12.1275572331 13:1.48722571252 14:8.51536043722 15:72.5113633758 16:22.5869201676 17:-15.983974691 18:2.49575097566 19:12.3003562841 20:151.298764717 21:22.1184324691 22:-75.7645643241 23:-11.2751860161 24:28.4906679539 25:811.718160459 26:76.4739431741 27:-72.2926261434 28:-4.69903135636 29:49.5556425213 30:2455.7617057 
1 1:-284.537160242 2:-365.756622139 3:-339.153537151 4:27.8833143129 5:777.479217074 6:28.0983152738 7:-37.0033108976 8:4.53605407204e-15 9:19.0442678195 10:362.684136779 11:14.702012195 12:-13.7068790333 13:1.16052010869 14:8.38656638655 15:70.334495756 16:16.6231064328 17:-13.5447669404 18:1.79307342278 19:10.0513081953 20:101.028796436 21:18.3073463571 22:-58.9993147486 23:-8.71365257138 24:23.6099307079 25:557.428828031 26:66.1889509038 27:-64.7849503729 28:-4.6278093262 29:44.4529225657 30:1976.06232463 
1 1:-281.25896401 2:-369.605220512 3:-340.585776762 4:30.2973498555 5:917.929408265 6:29.4896396348 7:-38.6910142017 8:4.4408920985e-16 9:19.991811308 10:399.672519376 11:15.6595757261 12:-14.5444127477 13:1.07768443559 14:8.86121269124 15:78.5210903594 16:15.7820840859 17:-12.4613828284 18:1.71678432301 19:9.06910973514 20:82.248751388 21:17.9949047512 22:-53.9465653657 23:-7.93900216141 24:22.4493810232 25:503.974708323 26:65.8603216049 27:-63.3132018721 28:-4.64857673759 29:43.9363755186 30:1930.40509371 
1 1:-282.954931744 2:-365.301948395 3:-338.320398746 4:28.2543276071 5:798.307028528 6:28.7931424424 7:-38.000425028 8:2.60109394341e-15 9:19.4356271888 10:377.743604224 11:15.1649972946 12:-14.3941278895 13:1.0550471875 14:8.59656445136 15:73.9009203664 16:14.7334594488 17:-12.4521314985 18:1.57955672062 19:9.07358102742 20:82.3298726611 21:17.7685777939 22:-53.072473208 23:-7.83540880268 24:22.0887434631 25:487.912587779 26:66.3510119909 27:-63.7835134419 28:-4.58365556234 29:44.1424777103 30:1948.5583384 
1 1:-279.69033952 2:-364.026701678 3:-336.387434555 4:28.9362172197 5:837.304666983 6:29.5693668161 7:-39.0730088501 8:4.37745078281e-15 9:19.9585676342 10:398.344422009 11:15.5981011669 12:-14.7737608173 13:1.01642536538 14:8.81698084701 15:77.7391512565 16:16.6387286077 17:-13.162017559 18:1.81147103691 19:9.86186283727 20:97.2563386211 21:17.9854079356 22:-52.7499527803 23:-7.7017804317 24:22.2218420313 25:493.810263264 26:65.1948224259 27:-63.2878359578 28:-4.75524232182 29:43.7265018504 30:1912.00696407 
1 1:-281.929987711 2:-363.175263652 3:-336.590858923 4:27.8847685948 5:777.560319588 6:29.1846929425 7:-38.6586711256 8:4.40917144065e-15 9:19.6610617449 10:386.557348935 11:15.3497403003 12:-14.7286042621 13:1.04067662805 14:8.70229845734 15:75.7299984406 16:15.2115441849 17:-12.969381488 18:1.6277115654 19:9.42982222102 20:88.9215471201 21:18.551396103 22:-53.3349742681 23:-7.83264958951 24:22.4161511575 25:502.483832717 26:65.4056329386 27:-63.6279433169 28:-4.60096201155 29:43.791961126 30:1917.73585926 
1 1:-282.058816619 2:-365.302455002 3:-338.037825959 4:28.5646768286 5:815.940762321 6:29.4098341033 7:-38.8811137245 8:1.11973922198e-14 9:19.8374187906 10:393.523184274 11:15.5028725199 12:-14.7641866318 13:1.04304871307 14:8.77763451729 15:77.0468677191 16:15.6307826273 17:-12.9528637237 18:1.68376867739 19:9.48020499421 20:89.8742867322 21:18.2868946461 22:-53.3620015158 23:-7.82721504762 24:22.381519368 25:500.93240922 26:65.0486512682 27:-63.6279433169 28:-4.61855487689 29:43.7182454303 30:1911.2849835 
1 1:-282.058816619 2:-365.302455002 3:-338.037825959 4:28.5646768286 5:815.940762321 6:29.4098341033 7:-38.8811137245 8:1.11973922198e-14 9:19.8374187906 10:393.523184274 11:15.5028725199 12:-14.7641866318 13:1.04304871307 14:8.77763451729 15:77.0468677191 16:15.6307826273 17:-12.9528637237 18:1.68376867739 19:9.48020499421 20:89.8742867322 21:18.2868946461 22:-53.3620015158 23:-7.82721504762 24:22.381519368 25:500.93240922 26:65.0486512682 27:-63.6279433169 28:-4.61855487689 29:43.7182454303 30:1911.2849835 
1 1:-282.058816619 2:-365.302455002 3:-338.037825959 4:28.5646768286 5:815.940762321 6:29.4098341033 7:-38.8811137245 8:1.11973922198e-14 9:19.8374187906 10:393.523184274 11:15.5028725199 12:-14.7641866318 13:1.04304871307 14:8.77763451729 15:77.0468677191 16:15.6307826273 17:-12.9528637237 18:1.68376867739 19:9.48020499421 20:89.8742867322 21:18.2868946461 22:-53.3620015158 23:-7.82721504762 24:22.381519368 25:500.93240922 26:65.0486512682 27:-63.6279433169 28:-4.61855487689 29:43.7182454303 30:1911.2849835 
1 1:-282.725926933 2:-365.198942165 3:-338.195199633 4:28.3026230122 5:801.03846937 6:29.2961998402 7:-38.7572612263 8:1.2593101165e-14 9:19.7546070856 10:390.244501107 11:15.4368741755 12:-14.7306335053 13:1.03957631918 14:8.74255653862 15:76.432294831 16:15.629734555 17:-12.9969308352 18:1.68230609652 19:9.49719011161 20:90.1966200161 21:18.2203203951 22:-53.3628059348 23:-7.82515166167 24:22.3396793882 25:499.061275166 26:65.0486512682 27:-63.4389309102 28:-4.59419503402 29:43.6016150039 30:1901.10083095 
1 1:-282.753972989 2:-365.919733508 3:-338.679458882 4:28.5376556548 5:814.397790271 6:29.3569699447 7:-38.8065017172 8:1.01506105109e-15 9:19.8028840748 10:392.154217679 11:15.4735305671 12:-14.7310756737 13:1.04246638954 14:8.76126133169 15:76.7597001222 16:15.5803632617 17:-12.9095470552 18:1.67844930682 19:9.45908082781 20:89.474210107 21:18.2468624389 22:-53.274122396 23:-7.81694698163 24:22.3194842692 25:498.159378043 26:64.7678968143 27:-63.4389309102 28:-4.59303174472 29:43.5502456254 30:1896.62389403 
1 1:-282.753972989 2:-365.919733508 3:-338.679458882 4:28.5376556548 5:814.397790271 6:29.3569699447 7:-38.8065017172 8:1.01506105109e-15 9:19.8028840748 10:392.154217679 11:15.4735305671 12:-14.7310756737 13:1.04246638954 14:8.76126133169 15:76.7597001222 16:15.5803632617 17:-12.9095470552 18:1.67844930682 19:9.45908082781 20:89.474210107 21:18.2468624389 22:-53.274122396 23:-7.81694698163 24:22.3194842692 25:498.159378043 26:64.7678968143 27:-63.4389309102 28:-4.59303174472 29:43.5502456254 30:1896.62389403 
1 1:-282.753972989 2:-365.919733508 3:-338.679458882 4:28.5376556548 5:814.397790271 6:29.3569699447 7:-38.8065017172 8:1.01506105109e-15 9:19.8028840748 10:392.154217679 11:15.4735305671 12:-14.7310756737 13:1.04246638954 14:8.76126133169 15:76.7597001222 16:15.5803632617 17:-12.9095470552 18:1.67844930682 19:9.45908082781 20:89.474210107 21:18.2468624389 22:-53.274122396 23:-7.81694698163 24:22.3194842692 25:498.159378043 26:64.7678968143 27:-63.4389309102 28:-4.59303174472 29:43.5502456254 30:1896.62389403 
1 1:-282.753972989 2:-365.919733508 3:-338.679458882 4:28.5376556548 5:814.397790271 6:29.3569699447 7:-38.8065017172 8:1.01506105109e-15 9:19.8028840748 10:392.154217679 11:15.4735305671 12:-14.7310756737 13:1.04246638954 14:8.76126133169 15:76.7597001222 16:15.5803632617 17:-12.9095470552 18:1.67844930682 19:9.45908082781 20:89.474210107 21:18.2468624389 22:-53.274122396 23:-7.81694698163 24:22.3194842692 25:498.159378043 26:64.7678968143 27:-63.4389309102 28:-4.59303174472 29:43.5502456254 30:1896.62389403 
1 1:-282.753972989 2:-365.919733508 3:-338.679458882 4:28.5376556548 5:814.397790271 6:29.3569699447 7:-38.8065017172 8:1.01506105109e-15 9:19.8028840748 10:392.154217679 11:15.4735305671 12:-14.7310756737 13:1.04246638954 14:8.76126133169 15:76.7597001222 16:15.5803632617 17:-12.9095470552 18:1.67844930682 19:9.45908082781 20:89.474210107 21:18.2468624389 22:-53.274122396 23:-7.81694698163 24:22.3194842692 25:498.159378043 26:64.7678968143 27:-63.4389309102 28:-4.59303174472 29:43.5502456254 30:1896.62389403 
1 1:-282.753972989 2:-365.919733508 3:-338.679458882 4:28.5376556548 5:814.397790271 6:29.3569699447 7:-38.8065017172 8:1.01506105109e-15 9:19.8028840748 10:392.154217679 11:15.4735305671 12:-14.7310756737 13:1.04246638954 14:8.76126133169 15:76.7597001222 16:15.5803632617 17:-12.9095470552 18:1.67844930682 19:9.45908082781 20:89.474210107 21:18.2468624389 22:-53.274122396 23:-7.81694698163 24:22.3194842692 25:498.159378043 26:64.7678968143 27:-63.4389309102 28:-4.59303174472 29:43.5502456254 30:1896.62389403 
1 1:-282.753972989 2:-365.919733508 3:-338.679458882 4:28.5376556548 5:814.397790271 6:29.3569699447 7:-38.8065017172 8:1.01506105109e-15 9:19.8028840748 10:392.154217679 11:15.4735305671 12:-14.7310756737 13:1.04246638954 14:8.76126133169 15:76.7597001222 16:15.5803632617 17:-12.9095470552 18:1.67844930682 19:9.45908082781 20:89.474210107 21:18.2468624389 22:-53.274122396 23:-7.81694698163 24:22.3194842692 25:498.159378043 26:64.7678968143 27:-63.4389309102 28:-4.59303174472 29:43.5502456254 30:1896.62389403 
1 1:-283.406258629 2:-365.818520956 3:-338.833335363 4:28.2814250679 5:799.839003871 6:29.2458608875 7:-38.6854014968 8:1.83979815509e-15 9:19.7218871576 10:388.952833057 11:15.4089988525 12:-14.6982681722 13:1.03907115996 14:8.72693909481 15:76.1594659645 16:15.5793384799 17:-12.9526348976 18:1.67701922775 19:9.47568439867 20:89.7885948233 21:18.1817676157 22:-53.274908939 23:-7.81492944871 24:22.2786373279 25:496.337681187 26:64.7678968143 27:-63.2541187793 28:-4.5692132317 29:43.4363445054 30:1886.71602399 
1 1:-283.433681439 2:-366.523294713 3:-339.306833295 4:28.5112349848 5:812.890520358 6:29.3052805453 7:-38.7335477545 8:1.54479603712e-14 9:19.7691209115 10:390.818141614 11:15.4448406576 12:-14.6987005147 13:1.04189700654 14:8.74525670967 15:76.479514918 16:15.5310643264 17:-12.8671929794 18:1.67324814449 19:9.43845051589 20:89.084348141 21:18.2077198364 22:-53.1881961455 23:-7.80690709489 24:22.2588764193 25:495.45757945 26:64.4933813483 27:-63.2541187793 28:-4.56807579327 29:43.3861724511 30:1882.35995996 
1 1:-283.433681439 2:-366.523294713 3:-339.306833295 4:28.5112349848 5:812.890520358 6:29.3052805453 7:-38.7335477545 8:1.54479603712e-14 9:19.7691209115 10:390.818141614 11:15.4448406576 12:-14.6987005147 13:1.04189700654 14:8.74525670967 15:76.479514918 16:15.5310643264 17:-12.8671929794 18:1.67324814449 19:9.43845051589 20:89.084348141 21:18.2077198364 22:-53.1881961455 23:-7.80690709489 24:22.2588764193 25:495.45757945 26:64.4933813483 27:-63.2541187793 28:-4.56807579327 29:43.3861724511 30:1882.35995996 
1 1:-281.390921073 2:-367.013724327 3:-338.880198325 4:29.3653340167 5:862.322841912 6:28.2837979624 7:-37.0482620762 8:6.97854472622e-16 9:19.2129012235 10:369.135573424 11:15.1661046483 12:-14.0148448429 13:1.05795483431 14:8.58131778606 15:73.6390149454 16:15.4542059688 17:-12.1517350642 18:1.67982162304 19:8.37880490527 20:70.2043716406 21:17.5518710283 22:-53.1950327903 23:-7.79878361055 24:21.9187046907 25:480.429615318 26:64.5650288483 27:-58.4412347474 28:-4.53933953134 29:41.7010658665 30:1738.9788944 
1 1:-282.309412416 2:-353.323134146 3:-330.144211675 4:24.3822636307 5:594.494779756 6:26.8560069348 7:-35.814018621 8:6.85166209483e-15 9:18.0173116117 10:324.623517712 11:14.0696611591 12:-13.8248530783 13:0.889567502646 14:7.98927654464 15:63.8285397067 16:13.687239304 17:-12.1491323985 18:1.45131639321 19:8.79787846378 20:77.4026654635 21:17.7451892476 22:-46.8283478095 23:-6.83226588798 24:20.6514083846 25:426.480668268 26:61.8539201044 27:-60.7683586244 28:-4.53307950341 29:41.9225427856 30:1757.49959361 
1 1:-285.011754608 2:-362.933425566 3:-337.454589472 4:26.7457067993 5:715.332832192 6:28.4335954849 7:-37.7417151384 8:1.09753476149e-14 9:19.1239999791 10:365.727375201 11:14.922104021 12:-14.4381127945 13:0.989494135029 14:8.46316865835 15:71.6252237397 16:14.458941882 17:-12.5862612006 18:1.54009115441 19:9.17166840513 20:84.1195013336 21:18.0418064038 22:-50.9207590493 23:-7.47531999399 24:21.8021390921 25:475.333268991 26:64.4539357077 27:-63.1317790088 28:-4.58789242066 29:43.4477506009 30:1887.70703227 
1 1:-284.756989714 2:-366.762706198 3:-339.899588453 4:28.1409367459 5:791.912320935 6:28.8827579147 7:-38.1738224435 8:8.59629827638e-15 9:19.4954018708 10:380.070694105 11:15.2717845589 12:-14.5032219969 13:1.02132052146 14:8.64114950877 15:74.6694648329 16:15.945346261 17:-12.9730476553 18:1.72359820138 19:9.37892796355 20:87.9642897455 21:17.9471419275 22:-52.8195409545 23:-7.71598487344 24:22.2335014019 25:494.328584586 26:64.7950944798 27:-62.5746605088 28:-4.66836138156 29:43.3523869748 30:1879.42945641 
1 1:-283.825905009 2:-365.4168812 3:-338.69914826 4:27.9979854113 5:783.887187092 6:28.9965493567 7:-38.3696333788 8:2.37904933848e-15 9:19.546594715 10:382.069364954 11:15.2956306363 12:-14.6123484356 13:1.00832884604 14:8.65551257973 15:74.9178980178 16:15.3999428714 17:-12.7702455911 18:1.65878774549 19:9.31730118685 20:86.8121014065 21:18.1509746513 22:-51.9602604677 23:-7.60420719346 24:21.9803001809 25:483.133596044 26:64.6141603735 27:-63.0113196818 28:-4.61530575069 29:43.3646632113 30:1880.49401543 
1 1:-283.691483868 2:-365.681251806 3:-338.842232521 4:28.1351716062 5:791.587881308 6:29.3372703587 7:-38.8499553369 8:-3.74303762588e-15 9:19.7584666779 10:390.397005464 11:15.4321598875 12:-14.8072169571 13:1.0210724114 14:8.73976176284 15:76.3834356711 16:15.1336236536 17:-12.8213587219 18:1.62248865404 19:9.39197557058 20:88.2092051184 21:18.4514019167 22:-52.2471514487 23:-7.66648182371 24:22.2984068484 25:497.218947978 26:64.8665045053 27:-63.1878594075 28:-4.61807940247 29:43.6002414277 30:1900.98105256 
1 1:-282.885286349 2:-369.572611556 3:-341.144603063 4:29.737787746 5:884.336020028 6:29.8891164741 7:-39.3845150306 8:1.43694580044e-14 9:20.198129113 10:407.964419664 11:15.7982067846 12:-14.9017244275 13:1.07760662623 14:8.94196543486 15:79.9587458382 16:15.527399336 17:-12.7346479247 18:1.67670581063 19:9.32142001907 20:86.8888711719 21:18.5137125997 22:-54.2770697221 23:-7.99070249374 24:22.457176694 25:504.324785066 26:65.8125939964 27:-63.3294245234 28:-4.53464044819 29:43.6024908105 30:1901.17720488 
1 1:-280.477564349 2:-361.859496738 3:-335.147384853 4:27.9202555377 5:779.54066929 6:27.4619053279 7:-36.091927713 8:7.54951656745e-15 9:18.6272396452 10:346.974056798 11:14.4887965668 12:-13.3975737873 13:1.02107956509 14:8.2132674448 15:67.4577621198 16:16.8628011667 17:-12.7817686135 18:1.84857109822 19:9.622368206 20:92.5899698919 21:18.2436266072 22:-52.7398543462 23:-7.700718794 24:22.1090514664 25:488.810156745 26:62.5557964132 27:-60.894325875 28:-4.52311640716 29:42.217583235 30:1782.3243342 
1 1:-281.496827644 2:-362.626555495 3:-336.06182242 4:27.8390642289 5:775.013497143 6:28.8217948213 7:-38.125189836 8:-1.45915026094e-15 9:19.4239566598 10:377.29009232 11:15.1481311586 12:-14.4850303262 13:1.02483670908 14:8.58375487184 15:73.6808476998 16:14.7573449886 17:-12.5520827568 18:1.58028670061 19:9.21725184773 20:84.9577316245 21:17.9762566582 22:-52.0675346558 23:-7.66247564976 24:22.0892207787 25:487.933674609 26:64.7106547007 27:-62.9607900244 28:-4.54351071297 29:43.4174618462 30:1885.07599317 
1 1:-281.385609049 2:-365.519581961 3:-337.945080829 4:28.8666044876 5:833.280854643 6:29.3242075836 7:-38.6971813454 8:1.10070682727e-14 9:19.8030226895 10:392.15970764 11:15.4632580848 12:-14.6321253952 13:1.05522405161 14:8.75565159644 15:76.6614348782 16:15.6595876882 17:-12.8318107374 18:1.69091193959 19:9.44191895691 20:89.1498335889 21:18.1620495361 22:-53.6322338823 23:-7.87857214868 24:22.3769518777 25:500.727975337 26:65.1138384664 27:-63.3142671815 28:-4.57678565081 29:43.5768288285 30:1898.94001075 
1 1:-281.003988999 2:-363.502821187 3:-336.476419772 4:28.3092324434 5:801.412641533 6:29.0126763051 7:-38.3353114297 8:8.24737104007e-15 9:19.58273991 10:383.483702383 11:15.3067044515 12:-14.5277287725 13:1.03293095731 14:8.66474323636 15:75.0777753521 16:15.8418311124 17:-12.9291578274 18:1.71185361741 19:9.46638250538 20:89.6123977381 21:18.0064245857 22:-53.079011793 23:-7.77281705826 24:22.2285911238 25:494.11026335 26:64.4654114858 27:-62.8939904574 28:-4.59744634837 29:43.2904151749 30:1874.06004601 
1 1:-280.218295555 2:-362.674199692 3:-335.663346795 4:28.2937365819 5:800.535529766 6:29.0705111619 7:-38.4271782763 8:5.64627709667e-15 9:19.6132528894 10:384.679688902 11:15.337544509 12:-14.5850646094 13:1.02286548835 14:8.67936960138 15:75.3314566774 16:15.7417186104 17:-12.8830540293 18:1.70027137291 19:9.43452188756 20:89.0102032468 21:18.0511941676 22:-52.5484264385 23:-7.69132769618 24:22.1486496861 25:490.562682917 26:64.7132266928 27:-63.1028041638 28:-4.59326854452 29:43.4528642423 30:1888.15141086 
1 1:-281.489985039 2:-362.966869809 3:-336.293725967 4:27.9604999041 5:781.789554886 6:29.0351017928 7:-38.4235734938 8:1.3639882874e-15 9:19.5681786658 10:382.913616298 11:15.2795953083 12:-14.6196194274 13:1.03199335996 14:8.65770171509 15:74.9557989875 16:15.0671750613 17:-12.7519286663 18:1.61535380068 19:9.31213991015 20:86.7159497063 21:18.0874991292 22:-52.706096479 23:-7.7455974543 24:22.1606182346 25:491.093000541 26:65.2206596144 27:-63.1063705359 28:-4.55407484199 29:43.5123413611 30:1893.32385073 
1 1:-283.37977088 2:-364.207999489 3:-337.745454924 4:27.740127063 5:769.514649471 6:28.7133698085 7:-37.982952925 8:6.43929354283e-15 9:19.3670900032 10:375.084175191 11:15.1051451557 12:-14.3936386602 13:1.03337184651 14:8.56003979739 15:73.2742813329 16:15.5593198589 17:-12.9316266743 18:1.6741119608 19:9.47970417283 20:89.8647912044 21:18.2441551467 22:-53.1395377826 23:-7.79656431373 24:22.3070689955 25:497.605327171 26:64.7324420829 27:-63.6007640236 28:-4.59544725257 29:43.5744721906 30:1898.73462669 
1 1:-283.538355795 2:-366.365048172 3:-339.23695658 4:28.4215974803 5:807.787203333 6:29.2619984063 7:-38.6855696965 8:6.15380762221e-15 9:19.7377245808 10:389.577771627 11:15.4249127396 12:-14.6898335986 13:1.03783256732 14:8.73349911529 15:76.2740067968 16:15.5517445125 17:-12.8873346254 18:1.67525692284 19:9.4324649 20:88.9713940897 21:18.1948215586 22:-53.0939322946 23:-7.78794902852 24:22.2685573505 25:495.888646473 26:64.7182470818 27:-63.3065432063 28:-4.59497894932 29:43.4966156876 30:1891.95557628 
1 1:-283.743657448 2:-366.327093301 3:-339.280940257 4:28.3386803346 5:803.080803108 6:29.2185497979 7:-38.6350221788 8:5.04358459758e-15 9:19.7063261323 10:388.339289633 11:15.3924231802 12:-14.6659098829 13:1.0371352737 14:8.71633140381 15:75.974433141 16:15.5520050963 17:-12.9057015459 18:1.67467508558 19:9.45933890193 20:89.4790924616 21:18.171313531 22:-53.0939322946 23:-7.78880730422 24:22.3121674333 25:497.83281557 26:64.7182470818 27:-63.3725664948 28:-4.59603419506 29:43.5445149241 30:1896.12477997 
1 1:-284.567528909 2:-367.134887508 3:-340.1000081 4:28.3349606027 5:802.869992357 6:29.3205935038 7:-38.7874217185 8:1.14194368247e-14 9:19.7715502803 10:390.914200486 11:15.447168471 12:-14.7382112399 13:1.04204995621 14:8.74895761682 15:76.5442593809 16:15.6241171541 17:-12.9964449839 18:1.68165380334 19:9.50735492044 20:90.3897975833 21:18.2275327012 22:-53.4442060057 23:-7.83991292231 24:22.3384190211 25:499.004964364 26:64.9416686882 27:-63.4106932734 28:-4.5767174312 29:43.538956657 30:1895.64074678 
1 1:-284.599314439 2:-367.951784363 3:-340.648835248 4:28.6013311111 5:818.036141325 6:29.389466289 7:-38.8432276082 8:1.90323947079e-16 9:19.8262925324 10:393.081875581 11:15.4887123815 12:-14.738712364 13:1.04532536929 14:8.77018153838 15:76.9160842161 16:15.5681630216 17:-12.8974100333 18:1.67728277501 19:9.46420330713 20:89.5711442388 21:18.2576136843 22:-53.3436979951 23:-7.83061428493 24:22.3155047898 25:497.981754023 26:64.6234803072 27:-63.4106932734 28:-4.57539903666 29:43.4808071081 30:1890.58058677 
1 1:-285.45469578 2:-367.813339338 3:-340.84645221 4:28.2631914951 5:798.807993487 6:29.2358127501 7:-38.6727642276 8:7.89844380376e-15 9:19.714528027 10:388.662615329 11:15.3926683598 12:-14.6829395541 13:1.04122118612 14:8.71920160512 15:76.0244766307 16:15.5673659472 17:-12.9584195936 18:1.67528390492 19:9.50635647084 20:90.3708133507 21:18.1694191889 22:-53.3444973067 23:-7.82936878529 24:22.3146033371 25:497.941522092 26:64.6234803072 27:-63.2847894682 28:-4.55218333918 29:43.4104647691 30:1884.46845147 
1 1:-285.54615056 2:-369.39700748 3:-341.92841681 4:28.7717291743 5:827.812399678 6:29.5126402607 7:-38.9962117635 8:1.31323523484e-14 9:19.9117443002 10:396.477561077 11:15.5505618997 12:-14.7868311681 13:1.05239140713 14:8.80573017101 15:77.5408838446 16:15.5870397314 17:-12.9098485223 18:1.67954967194 19:9.49553540424 20:90.1651926132 21:18.3192566383 22:-53.5839656028 23:-7.87132952546 24:22.3640357397 25:500.150094566 26:64.5540057349 27:-63.521403683 28:-4.55880177074 29:43.4784845941 30:1890.3786226 
1 1:-285.751542526 2:-369.385158337 3:-341.99699678 4:28.6989485589 5:823.629648389 6:29.6390879353 7:-39.1990929374 8:1.32909556377e-14 9:19.9851426665 10:399.405927402 11:15.6128869492 12:-14.8947623757 13:1.04942666715 14:8.84140132999 15:78.170377478 16:15.593917305 17:-12.9955249836 18:1.67811855938 19:9.53902992887 20:90.9930919838 21:18.4320442257 22:-53.5814774696 23:-7.86658520581 24:22.4081510391 25:502.125232992 26:64.5540057349 27:-63.8045944371 28:-4.58014605154 29:43.6006401157 30:1901.01581849 
1 1:-284.463541388 2:-370.424329872 3:-342.236356658 4:29.4898258643 5:869.649829505 6:29.6727669614 7:-39.1078386294 8:5.55111512313e-15 9:20.0540039579 10:402.163074743 11:15.7153488387 12:-14.8254952444 13:1.06578791596 14:8.89201148008 15:79.0678681619 16:15.6517339061 17:-12.7561961804 18:1.692134884 19:9.24475652512 20:85.4655232088 21:18.3378097147 22:-53.894729567 23:-7.91610819111 24:22.2874191306 25:496.729051502 26:64.7527433678 27:-62.6065995889 28:-4.55976190944 29:43.1282681906 30:1860.04751712 
1 1:-284.365847228 2:-366.015651639 3:-339.320804981 4:28.0227803682 5:785.276219565 6:29.9807946571 7:-39.8348187466 8:1.11656715619e-14 9:20.1435271372 10:405.761685528 11:15.7457436792 12:-15.3125824868 13:1.0081460261 14:8.92520449272 15:79.6592752369 16:14.7214858238 17:-12.8899410462 18:1.56817740219 19:9.46233378724 20:89.5357607012 21:18.6559993952 22:-51.6356848425 23:-7.57797610309 24:22.0173734459 25:484.764733455 26:64.3667278888 27:-64.6417924238 28:-4.58168024065 29:43.8832348323 30:1925.73829935 
1 1:-283.656094295 2:-370.944849893 3:-342.305118245 4:29.9424789296 5:896.552044452 6:29.7443274351 7:-39.1291562916 8:7.77156117238e-15 9:20.1275775394 10:405.119377603 11:15.7048553046 12:-14.7080669958 13:1.09514728487 14:8.89563063705 15:79.1322444309 16:15.841677067 17:-12.7814109983 18:1.71630397756 19:9.460785745 20:89.5064669129 21:18.2891559203 22:-54.9220795784 23:-8.09347829587 24:22.6429840857 25:512.704728305 26:65.3838695813 27:-63.3254300272 28:-4.52050644804 29:43.5651170879 30:1897.91942688 
1 1:-283.206527657 2:-365.674253892 3:-338.671923887 4:28.3015515975 5:800.977822828 6:29.3147582974 7:-38.7929586681 8:8.81834288131e-15 9:19.7692964254 10:390.825081156 11:15.4037203953 12:-14.6698868822 13:1.0328308148 14:8.72199559843 15:76.0732072191 16:16.247733309 17:-13.208418239 18:1.75834010435 19:9.90176819834 20:98.0450134537 21:18.1963039622 22:-53.3236069527 23:-7.80365057389 24:22.3343892113 25:498.824941443 26:64.2208828384 27:-64.3056505127 28:-4.55871669566 29:43.7004427209 30:1909.728694 
1 1:-282.68324713 2:-368.536022144 3:-340.403147024 4:29.4565545296 5:867.688604755 6:30.0543085021 7:-39.6847549108 8:6.18552828005e-15 9:20.2853117411 10:411.493872436 11:15.8651950113 12:-15.0579973362 13:1.07037560776 14:8.98035881564 15:80.6468444576 16:15.7742839354 17:-13.0049417682 18:1.70180757968 19:9.53415557627 20:90.9001225526 21:18.6365735997 22:-54.3227579753 23:-7.97994923128 24:22.5091082201 25:506.659952863 26:65.2553049856 27:-64.0935530363 28:-4.59878988678 29:43.8200240133 30:1920.19450452 
1 1:-281.94190277 2:-363.597355147 3:-336.794338839 4:28.0128812762 5:784.721517396 6:27.4817287852 7:-36.0943806987 8:5.90004235944e-15 9:18.6407191537 10:347.476410568 11:14.4524518501 12:-13.3595219385 13:1.04411306798 14:8.20286153204 15:67.2869373138 16:16.3246647044 17:-12.5886645236 18:1.78353590427 19:9.56121876532 20:91.4169042782 21:18.355305343 22:-53.234190813 23:-7.81661449847 24:22.1806593685 25:491.981650021 26:63.682727546 27:-61.0869408484 28:-4.42090344643 29:42.441521646 30:1801.28275963 
1 1:-283.423647761 2:-367.401998596 3:-339.92718637 4:28.8172357838 5:830.433078219 6:30.3803794388 7:-40.2767668449 8:9.96028656378e-15 9:20.4298289022 10:417.377908972 11:16.0145272173 12:-15.5166847914 13:1.05014027288 14:9.07923758689 15:82.4325551591 16:14.060720361 17:-12.6257545013 18:1.48822336939 19:9.02984846815 20:81.5381633577 21:19.0260159854 22:-52.7268256705 23:-7.77819795174 24:22.15043034 25:490.641564246 26:65.6880157795 27:-64.3746665797 28:-4.61809436018 29:44.0679194181 30:1941.98152184 
1 1:-284.046834384 2:-364.139975044 3:-337.912463846 4:27.4892444406 5:755.658559912 6:28.3235363932 7:-37.4525951235 8:1.42108547152e-14 9:19.1225040586 10:365.670161473 11:14.91018 12:-14.1350884387 13:1.02023821663 14:8.44580988481 15:71.3317046104 16:16.3226235038 17:-13.1274270058 18:1.7686996796 19:9.6908813158 20:93.913180677 21:17.7584948374 22:-53.0441569987 23:-7.74781383576 24:22.227390129 25:494.056871947 26:63.8379583166 27:-62.5701360173 28:-4.60015807978 29:43.1009426282 30:1857.69125544 
1 1:-283.019981219 2:-366.57580391 3:-339.163396055 4:28.6632931715 5:821.584375436 6:28.5282202518 7:-37.5422968002 8:2.75969723264e-15 9:19.3046974632 10:372.671344146 11:15.0805092975 12:-14.1274813166 13:1.04476584722 14:8.53915591257 15:72.9171836992 16:15.4945414716 17:-12.4406148009 18:1.67961935723 19:9.12489612839 20:83.2637293539 21:17.5812657398 22:-52.8431321045 23:-7.76438067497 24:22.00083019 25:484.036529047 26:64.7428088573 27:-61.549652101 28:-4.51477783744 29:42.8169244087 30:1833.28901582 
1 1:-294.659760966 2:-358.947038884 3:-337.787349643 4:22.067551412 5:486.976825321 6:19.7159012435 7:-25.5171497532 8:4.25056815142e-15 9:13.6546659271 10:186.449901581 11:10.5175473744 12:-8.98648624162 13:0.940614621083 14:6.11482762867 15:37.3911169283 16:15.8920719015 17:-11.2927435373 18:1.74901009373 19:8.03284603999 20:64.5266155023 21:21.4918031348 22:-50.8836180447 23:-7.45851093738 24:21.2978936729 25:453.600274904 26:64.2837323088 27:-60.3366680299 28:-4.64954165441 29:41.8807148866 30:1753.99427941 
1 1:-345.81126527 2:-407.993223526 3:-367.09782581 4:21.016041527 5:441.674001463 6:9.7358442806 7:-10.8818286565 8:1.62409768174e-14 9:7.4510589777 10:55.5182798892 11:4.70432457606 12:-6.4154105913 13:0.506137738162 14:4.07169235675 15:16.5786786481 16:18.8657090804 17:-18.1134739265 18:1.90117917643 19:11.2658337691 20:126.919010512 21:29.7069400326 22:-49.0395258511 23:-6.73315811464 24:23.6048341272 25:557.188194174 26:66.7491562419 27:-56.2774265839 28:-4.075296523 29:43.0993418742 30:1857.55326999 
1 1:-430.280798143 2:-471.785051904 3:-458.50721593 4:14.3215839564 5:205.10776702 6:21.1150045946 7:-29.0351296641 8:1.33226762955e-14 9:14.1120222522 10:199.149172046 11:11.1648352355 12:-12.0130121726 13:0.594355720721 14:6.56800372434 15:43.1386729229 16:13.1220691876 17:-13.1836454635 18:1.3325430219 19:7.94096656278 20:63.0589499513 21:24.8552238518 22:-39.2933847798 23:-5.41131514549 24:21.8924283772 25:479.278420251 26:79.6407701237 27:-64.9421633707 28:-6.04326844527 29:52.7995043551 30:2787.78766014 
1 1:-431.980985313 2:-483.063223797 3:-466.538226966 4:17.5899653968 5:309.40688266 6:22.4568407342 7:-30.5185995898 8:1.1990408666e-14 9:15.0717523936 10:227.157720213 11:12.0876749155 12:-12.2993299347 13:0.590266996075 14:6.87436806252 15:47.256936259 16:18.0224031367 17:-14.4964296818 18:1.93987826553 19:9.2779397716 20:86.0801664054 21:27.2409710718 22:-41.6325968549 23:-5.5806784588 24:22.9647554124 25:527.379991152 26:82.5709885601 27:-64.3367969372 28:-7.00186270219 29:54.8755754072 30:3011.32877628 
1 1:-431.468488938 2:-484.17641709 3:-467.134605524 4:18.1446030323 5:329.226619199 6:23.5102963228 7:-31.9946821979 8:1.72560378685e-14 9:15.7411287235 10:247.78313349 11:12.6621324867 12:-13.0490469844 13:0.580279706979 14:7.23118359134 15:52.2900161316 16:16.7904504568 17:-14.1353474029 18:1.79030291387 19:8.89148015721 20:79.0584193861 21:26.1013629147 22:-41.1256706789 23:-5.53716413294 24:22.6452674557 25:512.808138139 26:82.7729619521 27:-63.3815250739 28:-6.98994609394 29:53.7857622828 30:2892.90822435 
1 1:-433.998458935 2:-483.476927496 3:-467.499252274 4:17.0395986452 5:290.34792199 6:22.3751039899 7:-30.4813248411 8:-4.18712683573e-15 9:14.9849649091 10:224.549173326 11:12.0243441683 12:-12.4283773066 13:0.577913653548 14:6.88330946071 15:47.3799491319 16:16.1466113285 17:-13.8000679455 18:1.714149169 19:8.62692949797 20:74.423912563 21:25.7874727264 22:-40.3271570917 23:-5.44428377685 24:22.2459123262 25:494.880615225 26:80.2563931385 27:-63.2948504703 28:-6.68405744528 29:53.097500292 30:2819.34453726 
