1 1:133.946615306 2:133.946615306 3:133.946615306 4:0.0 5:0.0 6:-6.2172489379e-15 7:-6.2172489379e-15 8:-6.2172489379e-15 9:0.0 10:0.0 11:4.10782519111e-15 12:4.10782519111e-15 13:4.10782519111e-15 14:0.0 15:0.0 16:-3.33066907388e-16 17:-3.33066907388e-16 18:-3.33066907388e-16 19:0.0 20:0.0 21:-3.44169137634e-15 22:-3.44169137634e-15 23:-3.44169137634e-15 24:0.0 25:0.0 26:-3.88578058619e-15 27:-3.88578058619e-15 28:-3.88578058619e-15 29:0.0 30:0.0 
1 1:133.946615306 2:133.946615306 3:133.946615306 4:0.0 5:0.0 6:-6.2172489379e-15 7:-6.2172489379e-15 8:-6.2172489379e-15 9:0.0 10:0.0 11:4.10782519111e-15 12:4.10782519111e-15 13:4.10782519111e-15 14:0.0 15:0.0 16:-3.33066907388e-16 17:-3.33066907388e-16 18:-3.33066907388e-16 19:0.0 20:0.0 21:-3.44169137634e-15 22:-3.44169137634e-15 23:-3.44169137634e-15 24:0.0 25:0.0 26:-3.88578058619e-15 27:-3.88578058619e-15 28:-3.88578058619e-15 29:0.0 30:0.0 
1 1:134.158634105 2:133.992769962 3:134.048261466 4:0.0518275977191 5:0.00268609988533 6:0.0413142694991 7:-0.0490978487569 8:-1.81336427355e-15 9:0.0273270006534 10:0.000746764964712 11:0.0426751496353 12:-0.0486226831728 13:-2.03540887848e-15 14:0.0278056741644 15:0.000773155515736 16:0.0681656652599 17:-0.070725564605 18:-7.40148683083e-17 19:0.0430021551721 20:0.00184918534945 21:0.0199812088398 22:-0.0208927142738 23:-1.82261613209e-15 24:0.0137626423681 25:0.000189410324953 26:0.0313068555618 27:-0.0425764852679 28:-0.000468291299616 29:0.0223814609247 30:0.000500929793125 
1 1:135.160094854 2:134.554936384 3:134.757353516 4:0.189108446362 5:0.0357620044854 6:0.151164984675 7:-0.17922134832 8:-5.55111512313e-16 9:0.099890963591 10:0.00997820460713 11:0.155953585687 12:-0.178017648465 13:-3.34917279095e-15 14:0.101647188926 15:0.0103321510165 16:0.252910222025 17:-0.261817154032 18:-2.36847578587e-15 19:0.158988411726 20:0.0252773150632 21:0.0871322020728 22:-0.082441758918 23:-9.99200722163e-16 24:0.0521225598543 25:0.00271676124577 26:0.0368442698927 27:-0.0365347343108 28:-0.000319371476893 29:0.0250280401812 30:0.00062640279531 
1 1:135.169813871 2:135.169813871 3:135.169813871 4:0.0 5:0.0 6:3.77475828373e-15 7:3.77475828373e-15 8:3.77475828373e-15 9:0.0 10:0.0 11:2.33146835171e-15 12:2.33146835171e-15 13:2.33146835171e-15 14:0.0 15:0.0 16:-2.10942374679e-15 17:-2.10942374679e-15 18:-2.10942374679e-15 19:0.0 20:0.0 21:-7.77156117238e-16 22:-7.77156117238e-16 23:-7.77156117238e-16 24:0.0 25:0.0 26:0.0 27:0.0 28:0.0 29:0.0 30:0.0 
1 1:136.771304414 2:135.987388711 3:136.248920142 4:0.245186476209 5:0.060116408116 6:0.202290739628 7:-0.233679539394 8:-2.10942374679e-15 9:0.132583822424 10:0.0175784699685 11:0.204816558628 12:-0.239313251692 13:-1.83186799063e-15 14:0.134342805382 15:0.0180479893579 16:0.387942489099 17:-0.393560436943 18:-7.03141248929e-16 19:0.237330397705 20:0.0563257176748 21:0.117953207639 22:-0.0940280137954 23:-1.94289029309e-16 24:0.0840897876996 25:0.00707109239537 26:0.123384474722 27:-0.165854365515 28:-0.0038765993774 29:0.093233642799 30:0.00869251214957 
1 1:138.235693673 2:137.66054326 3:137.852923113 4:0.179731106179 5:0.0323032705284 6:0.14366915087 7:-0.170334280696 8:-3.73775084957e-15 9:0.0949376599984 10:0.00901315928597 11:0.148220299026 12:-0.16919026883 13:-1.97989772725e-15 14:0.096606799205 15:0.00933287365264 16:0.240369136562 17:-0.248834399606 18:-1.72084568817e-15 19:0.151104636831 20:0.0228326112719 21:0.0828115685136 22:-0.0783537108509 23:-2.36847578587e-15 24:0.0495379530621 25:0.00245400879358 26:0.0350172692526 27:-0.0347230826437 28:-0.000303534770279 29:0.0237869721517 30:0.000565820044146 
1 1:139.341853562 2:138.800696785 3:138.980967496 4:0.169326476854 5:0.0286714557637 6:0.142078039709 7:-0.162467638412 8:2.29446091756e-15 9:0.0929240430701 10:0.0086348777805 11:0.139247564004 12:-0.166650685977 13:-4.38538094727e-15 14:0.0923200108927 15:0.00852298441124 16:0.281494425027 17:-0.283031270755 18:-9.25185853854e-17 19:0.170689901039 20:0.0291350423166 21:0.12368968969 22:-0.102697703838 23:-3.05311331772e-16 24:0.0818567061966 25:0.00670052034936 26:0.0840779556506 27:-0.0923678443186 28:0.00554165844048 29:0.0559792540861 30:0.00313367688803 
1 1:140.836150578 2:140.576525884 3:140.66193728 4:0.0816376336325 5:0.00666470322511 6:0.0785151899668 7:-0.080064528565 8:-7.77156117238e-16 9:0.052263611009 10:0.0027314850357 11:0.0729508683535 12:-0.0948424609949 13:-4.12632890819e-15 14:0.0518355840868 15:0.00268692777761 16:0.23626722433 17:-0.227507751683 18:-2.29446091756e-15 19:0.140869995188 20:0.0198443555443 21:0.293916644726 22:-0.286911450978 23:-1.45254179055e-15 24:0.175408539932 25:0.030768155881 26:0.0660071599358 27:-0.0455708274872 28:-0.00400960497835 29:0.0353654363118 30:0.00125071408552 
1 1:141.714977017 2:141.164909155 3:141.348899241 4:0.171892956976 5:0.0295471886581 6:0.13740367872 7:-0.162905931008 8:-6.47630097698e-15 9:0.0907973886795 10:0.00824416579101 11:0.141756349388 12:-0.161811809982 13:-1.70234197109e-15 14:0.0923937360226 15:0.00853660245622 16:0.229886537327 17:-0.237982626686 18:-1.79486055648e-15 19:0.144514900008 20:0.0208845563242 21:0.0792001211491 22:-0.0749366725357 23:-7.86407975776e-16 24:0.0473775820748 25:0.00224463528326 26:0.0334901513991 27:-0.0332087943921 28:-0.000290297491168 29:0.0227496122824 30:0.000517544859001 
1 1:141.723811263 2:141.723811263 3:141.723811263 4:2.84217094304e-14 5:8.07793566946e-28 6:-8.881784197e-16 7:-8.881784197e-16 8:-8.881784197e-16 9:0.0 10:0.0 11:-3.10862446895e-15 12:-3.10862446895e-15 13:-3.10862446895e-15 14:0.0 15:0.0 16:-1.22124532709e-15 17:-1.22124532709e-15 18:-1.22124532709e-15 19:0.0 20:0.0 21:1.11022302463e-16 22:1.11022302463e-16 23:1.11022302463e-16 24:0.0 25:0.0 26:-1.49880108324e-15 27:-1.49880108324e-15 28:-1.49880108324e-15 29:0.0 30:0.0 
1 1:142.951476777 2:142.740771897 3:142.81008964 4:0.0662550527493 5:0.00438973201481 6:0.0637209559048 7:-0.0649783601923 8:-4.88498130835e-15 9:0.0424158338526 10:0.00179910296141 11:0.0592050922572 12:-0.0769717589363 13:1.11022302463e-16 14:0.0420684579543 15:0.00176975515465 16:0.191748544322 17:-0.184639576356 18:-1.14723045878e-15 19:0.114326549493 20:0.013070559919 21:0.238535365783 22:-0.232850126506 23:-1.82261613209e-15 24:0.142357164812 25:0.0202655623732 26:0.0535697529287 27:-0.0369841388665 28:-0.00325409468065 29:0.0287016997441 30:0.0008237875682 
1 1:144.03235218 2:143.679472257 3:143.79531283 4:0.111225019439 5:0.0123710049491 6:0.108399362644 7:-0.106701459091 8:-5.51410768897e-15 9:0.0735020698526 10:0.00540255427261 11:0.106562245085 12:-0.136634170863 13:-4.81096644004e-16 14:0.0747100936739 15:0.00558159809677 16:0.465801940215 17:-0.453832828766 18:-4.42238838142e-15 19:0.27915160405 20:0.077925618044 21:0.25949183171 22:-0.351976304175 23:0.000157168080674 24:0.180566275927 25:0.0326041800023 26:0.0502182989433 27:-0.0760847914881 28:-0.00012892361559 29:0.0424602402005 30:0.00180287199789 
