18:20:12		x: 1.812	y: 35.836	z: 48.88
18:20:12		x: 1.812	y: 36.369	z: 48.88
18:20:12		x: 0.387	y: 34.985	z: 48.88
18:20:13		x: -2.021	y: 35.38	z: 48.88
18:20:13		x: -0.257	y: 32.389	z: 48.88
18:20:13		x: -1.837	y: 31.425	z: 48.468
18:20:13		x: -3.7	y: 29.28	z: 48.468
18:20:13		x: -3.25	y: 30.738	z: 48.468
18:20:14		x: -3.613	y: 32.725	z: 48.468
18:20:14		x: -4.406	y: 36.94	z: 48.468
18:20:14		x: -4.406	y: 35.618	z: 48.468
18:20:14		x: -4.899	y: 34.698	z: 48.133
18:20:14		x: -4.333	y: 32.386	z: 48.133
18:20:14		x: -4.333	y: 33.947	z: 48.133
18:20:15		x: -3.872	y: 34.32	z: 48.133
18:20:15		x: -3.872	y: 32.556	z: 48.133
18:20:15		x: -3.422	y: 33.755	z: 48.133
18:20:15		x: -3.773	y: 32.966	z: 48.133
18:20:15		x: -4.417	y: 33.374	z: 48.133
18:20:15		x: -4.417	y: 33.374	z: 48.133
18:20:16		x: -4.417	y: 33.374	z: 48.133
18:20:16		x: -4.417	y: 32.783	z: 48.133
18:20:16		x: -4.417	y: 31.353	z: 48.133
18:20:16		x: -4.417	y: 31.353	z: 47.799
18:20:16		x: -4.417	y: 30.012	z: 47.799
18:20:16		x: -4.719	y: 30.644	z: 47.799
18:20:17		x: -4.719	y: 28.991	z: 47.799
18:20:17		x: -6.446	y: 26.907	z: 47.799
18:20:17		x: -9.628	y: 17.114	z: 49.919
18:20:17		x: -8.787	y: 16.36	z: 52.989
18:20:17		x: -5.467	y: 14.018	z: 54.513
18:20:18		x: -3.414	y: 15.452	z: 54.513
