21:27:46		x: 62.619934
21:27:47		x: 62.619934
21:27:48		x: 62.702503
21:27:49		x: 62.702503
21:27:50		x: 62.702503
21:27:51		x: 62.677937
21:27:52		x: 62.677937
21:27:53		x: 62.677937
21:27:54		x: 62.677937
21:27:55		x: 62.677937
21:27:56		x: 62.677937
21:27:57		x: 62.96657
21:27:58		x: 62.96657
21:27:59		x: 62.96657
21:28:00		x: 63.498447
21:28:01		x: 63.498447
21:28:02		x: 63.498447
21:28:03		x: 63.91818
21:28:04		x: 63.91818
21:28:04		x: 63.91818
21:28:05		x: 63.91818
21:28:06		x: 63.91818
21:28:07		x: 63.91818
21:28:08		x: 64.40007
21:28:09		x: 64.40007
21:28:10		x: 64.40007
21:28:11		x: 64.347916
21:28:12		x: 64.347916
21:28:13		x: 64.347916
21:28:14		x: 64.347916
21:28:15		x: 64.347916
21:28:16		x: 64.347916
21:28:17		x: 64.347916
21:28:18		x: 64.347916
21:28:19		x: 64.347916
21:28:20		x: 64.01858
21:28:21		x: 64.01858
21:28:22		x: 64.01858
21:28:23		x: 63.714294
21:28:24		x: 63.714294
21:28:25		x: 63.714294
21:28:26		x: 63.714294
21:28:27		x: 63.714294
21:28:28		x: 63.714294
21:28:29		x: 63.714294
21:28:29		x: 63.714294
21:28:30		x: 63.714294
21:28:31		x: 63.383034
21:28:32		x: 63.383034
21:28:33		x: 63.383034
21:28:34		x: 63.16853
21:28:35		x: 63.16853
21:28:36		x: 63.16853
21:28:37		x: 63.16853
21:28:38		x: 63.16853
21:28:39		x: 63.16853
21:28:40		x: 62.30154
21:28:41		x: 62.30154
21:28:42		x: 62.30154
21:28:43		x: 62.549557
21:28:44		x: 62.549557
21:28:45		x: 62.549557
21:28:46		x: 62.11342
21:28:47		x: 62.11342
21:28:48		x: 62.11342
21:28:49		x: 62.11342
21:28:50		x: 62.11342
21:28:51		x: 62.11342
21:28:52		x: 61.922226
21:28:53		x: 61.922226
21:28:54		x: 61.922226
21:28:54		x: 61.862984
21:28:55		x: 61.862984
21:28:56		x: 61.862984
21:28:57		x: 61.373066
21:28:58		x: 61.373066
21:28:59		x: 61.373066
21:29:00		x: 61.373066
21:29:01		x: 61.373066
21:29:02		x: 61.373066
21:29:03		x: 61.373066
21:29:04		x: 61.373066
21:29:05		x: 61.373066
21:29:06		x: 61.09121
21:29:07		x: 61.09121
21:29:08		x: 61.09121
21:29:09		x: 61.09121
21:29:10		x: 61.09121
21:29:11		x: 61.09121
21:29:12		x: 60.75432
21:29:13		x: 60.75432
21:29:14		x: 60.75432
21:29:15		x: 60.471176
21:29:16		x: 60.471176
21:29:17		x: 60.471176
21:29:18		x: 60.609016
21:29:19		x: 60.609016
21:29:19		x: 60.609016
21:29:20		x: 60.40849
21:29:21		x: 60.40849
21:29:22		x: 60.40849
21:29:23		x: 60.19931
21:29:24		x: 60.19931
21:29:25		x: 60.19931
21:29:26		x: 59.880657
21:29:27		x: 59.880657
21:29:28		x: 59.880657
21:29:29		x: 59.880657
21:29:30		x: 59.880657
21:29:31		x: 59.880657
21:29:32		x: 59.880657
21:29:33		x: 59.880657
21:29:34		x: 59.880657
21:29:35		x: 59.880657
21:29:36		x: 59.880657
21:29:37		x: 59.880657
21:29:38		x: 59.880657
21:29:39		x: 59.880657
21:29:40		x: 59.880657
21:29:41		x: 59.870304
21:29:42		x: 59.870304
21:29:43		x: 59.870304
21:29:43		x: 59.308163
21:29:44		x: 59.308163
21:29:45		x: 59.308163
21:29:46		x: 59.56025
21:29:47		x: 59.56025
21:29:48		x: 59.56025
21:29:49		x: 59.256245
21:29:50		x: 59.256245
21:29:51		x: 59.256245
21:29:52		x: 59.423344
21:29:53		x: 59.423344
21:29:54		x: 59.423344
21:29:55		x: 59.423344
21:29:56		x: 59.423344
21:29:57		x: 59.423344
21:29:58		x: 59.370884
21:29:59		x: 59.370884
21:30:00		x: 59.370884
21:30:01		x: 59.037807
21:30:02		x: 59.037807
21:30:03		x: 59.037807
21:30:04		x: 59.037807
21:30:05		x: 59.037807
21:30:06		x: 59.037807
21:30:07		x: 59.037807
21:30:08		x: 59.037807
21:30:08		x: 59.037807
21:30:09		x: 58.705193
21:30:10		x: 58.705193
21:30:11		x: 58.705193
21:30:12		x: 58.705193
21:30:13		x: 58.705193
21:30:14		x: 58.705193
21:30:15		x: 58.705193
21:30:16		x: 58.705193
21:30:17		x: 58.705193
21:30:18		x: 58.705193
21:30:19		x: 58.705193
21:30:20		x: 58.705193
21:30:21		x: 58.705193
21:30:22		x: 58.705193
21:30:23		x: 58.705193
21:30:24		x: 58.705193
21:30:25		x: 58.705193
21:30:26		x: 58.705193
21:30:27		x: 58.705193
21:30:28		x: 58.705193
21:30:29		x: 58.705193
21:30:30		x: 58.813084
21:30:31		x: 58.813084
21:30:32		x: 58.813084
21:30:32		x: 58.81024
21:30:33		x: 58.81024
21:30:34		x: 58.81024
21:30:35		x: 58.75169
21:30:36		x: 58.75169
21:30:37		x: 58.75169
21:30:38		x: 58.486855
21:30:39		x: 58.486855
21:30:40		x: 58.486855
21:30:41		x: 58.575928
21:30:42		x: 58.575928
21:30:43		x: 58.575928
21:30:44		x: 58.575928
21:30:45		x: 58.575928
21:30:46		x: 58.575928
21:30:47		x: 58.87734
21:30:48		x: 58.87734
21:30:49		x: 58.87734
21:30:50		x: 58.85169
21:30:51		x: 58.85169
21:30:52		x: 58.85169
21:30:53		x: 58.729717
21:30:54		x: 58.729717
21:30:55		x: 58.729717
21:30:56		x: 58.850887
21:30:57		x: 58.850887
21:30:57		x: 58.850887
21:30:58		x: 58.850887
21:30:59		x: 58.850887
21:31:00		x: 58.850887
21:31:01		x: 58.850887
21:31:02		x: 58.850887
21:31:03		x: 58.850887
21:31:04		x: 58.850887
21:31:05		x: 58.850887
21:31:06		x: 58.850887
21:31:07		x: 58.823513
21:31:08		x: 58.823513
21:31:09		x: 58.823513
21:31:10		x: 58.823513
21:31:11		x: 58.823513
21:31:12		x: 58.823513
21:31:13		x: 58.823513
21:31:14		x: 58.823513
21:31:15		x: 58.823513
21:31:16		x: 58.880257
21:31:17		x: 58.880257
21:31:18		x: 58.880257
21:31:19		x: 59.27256
21:31:20		x: 59.27256
21:31:21		x: 59.27256
21:31:21		x: 58.926086
21:31:22		x: 58.926086
21:31:23		x: 58.926086
21:31:24		x: 58.926086
21:31:25		x: 58.926086
21:31:26		x: 58.926086
21:31:27		x: 59.058
21:31:28		x: 59.058
21:31:29		x: 59.058
21:31:30		x: 59.09815
21:31:31		x: 59.09815
21:31:32		x: 59.09815
21:31:33		x: 59.19895
21:31:34		x: 59.19895
21:31:35		x: 59.19895
21:31:36		x: 59.19895
21:31:37		x: 59.19895
21:31:38		x: 59.19895
21:31:39		x: 59.19895
21:31:40		x: 59.19895
21:31:41		x: 59.19895
21:31:42		x: 58.98962
21:31:43		x: 58.98962
21:31:44		x: 58.98962
21:31:45		x: 59.088764
21:31:46		x: 59.088764
21:31:46		x: 59.088764
21:31:47		x: 59.088764
21:31:48		x: 59.088764
21:31:49		x: 59.088764
21:31:50		x: 58.975327
21:31:51		x: 58.975327
21:31:52		x: 58.975327
21:31:53		x: 59.1608
21:31:54		x: 59.1608
21:31:55		x: 59.1608
21:31:56		x: 58.92435
21:31:57		x: 58.92435
21:31:58		x: 58.92435
21:31:59		x: 59.188507
21:32:00		x: 59.188507
21:32:01		x: 59.188507
21:32:02		x: 58.83437
21:32:03		x: 58.83437
21:32:04		x: 58.83437
21:32:05		x: 58.83437
21:32:06		x: 58.83437
21:32:07		x: 58.83437
21:32:08		x: 58.83437
21:32:09		x: 58.83437
21:32:10		x: 58.83437
21:32:10		x: 58.83437
21:32:11		x: 58.83437
21:32:12		x: 58.83437
21:32:13		x: 58.83437
21:32:14		x: 58.83437
21:32:15		x: 58.83437
21:32:16		x: 58.83437
21:32:17		x: 58.83437
21:32:18		x: 58.83437
21:32:19		x: 58.83437
21:32:20		x: 58.83437
21:32:21		x: 58.83437
21:32:22		x: 58.83437
21:32:23		x: 58.83437
21:32:24		x: 58.83437
21:32:25		x: 58.83437
21:32:26		x: 58.83437
21:32:27		x: 58.83437
21:32:28		x: 58.83437
21:32:29		x: 58.83437
21:32:30		x: 58.83437
21:32:31		x: 58.83437
21:32:32		x: 58.83437
21:32:33		x: 58.83437
21:32:34		x: 58.591732
21:32:35		x: 58.591732
21:32:35		x: 58.591732
21:32:36		x: 58.75632
21:32:37		x: 58.75632
21:32:38		x: 58.75632
21:32:39		x: 58.75632
21:32:40		x: 58.75632
21:32:41		x: 58.75632
21:32:42		x: 58.572937
21:32:43		x: 58.572937
21:32:44		x: 58.572937
21:32:45		x: 58.572937
21:32:46		x: 58.572937
21:32:47		x: 58.572937
21:32:48		x: 58.572937
21:32:49		x: 58.572937
21:32:50		x: 58.572937
21:32:51		x: 58.572937
21:32:52		x: 58.572937
21:32:53		x: 58.572937
21:32:54		x: 58.572937
21:32:55		x: 58.572937
21:32:56		x: 58.572937
21:32:57		x: 58.550213
21:32:58		x: 58.550213
21:32:59		x: 58.550213
21:32:59		x: 58.550213
21:33:00		x: 58.550213
21:33:01		x: 58.550213
21:33:02		x: 58.550213
21:33:03		x: 58.550213
21:33:04		x: 58.550213
21:33:05		x: 58.550213
21:33:06		x: 58.550213
21:33:07		x: 58.550213
21:33:08		x: 58.4829
21:33:09		x: 58.4829
21:33:10		x: 58.4829
21:33:11		x: 58.4829
21:33:12		x: 58.4829
21:33:13		x: 58.4829
21:33:14		x: 58.4829
21:33:15		x: 58.4829
21:33:16		x: 58.4829
21:33:17		x: 58.23627
21:33:18		x: 58.23627
21:33:19		x: 58.23627
21:33:20		x: 58.089756
21:33:21		x: 58.089756
21:33:22		x: 58.089756
21:33:23		x: 57.91239
21:33:24		x: 57.91239
21:33:24		x: 57.91239
21:33:25		x: 57.91239
21:33:26		x: 57.91239
21:33:27		x: 57.91239
21:33:28		x: 58.045204
21:33:29		x: 58.045204
21:33:30		x: 58.045204
21:33:31		x: 58.042343
21:33:32		x: 58.042343
21:33:33		x: 58.042343
21:33:34		x: 57.92825
21:33:35		x: 57.92825
21:33:36		x: 57.92825
21:33:37		x: 57.92825
21:33:38		x: 57.92825
21:33:39		x: 57.92825
21:33:40		x: 57.92825
21:33:41		x: 57.92825
21:33:42		x: 57.92825
21:33:43		x: 57.92825
21:33:44		x: 57.92825
21:33:45		x: 57.92825
21:33:46		x: 57.980534
21:33:47		x: 57.980534
21:33:48		x: 57.980534
21:33:49		x: 58.224194
21:33:49		x: 58.224194
21:33:50		x: 58.224194
21:33:51		x: 58.18323
21:33:52		x: 58.18323
