8 1:136.351426806 2:134.973626756 3:135.890571759 4:0.430554375306 5:0.185377070095 6:0.408043834911 7:-0.344166253792 8:-3.84877315203e-15 9:0.227427659923 10:0.0517233404979 11:0.405303300317 12:-0.355068744701 13:-8.881784197e-16 14:0.231426161928 15:0.0535580684245 16:0.596094586822 17:-0.575815648362 18:-8.51170985546e-16 19:0.36197831249 20:0.131028298713 21:0.187700024473 22:-0.198379033588 23:-9.5294142947e-16 24:0.118670512234 25:0.0140826904738 26:0.083180788647 27:-0.0838855265985 28:0.000727131914889 29:0.0569828181271 30:0.00324704156171 
8 1:134.4621713 2:133.985706512 3:134.303450851 4:0.149084530224 5:0.0222261971522 6:0.143045624048 7:-0.125093477398 8:-1.73934940525e-15 9:0.0818155409897 10:0.00669378274744 11:0.146728613812 12:-0.122601367785 13:-3.88578058619e-16 14:0.0812837171717 15:0.00660704267725 16:0.249196610143 17:-0.247843484939 18:-2.59052039079e-15 19:0.150284965371 20:0.0225855708166 21:0.0904208202779 22:-0.10890334237 23:-4.81096644004e-16 24:0.0720712366772 25:0.00519426315618 26:0.0813258324035 27:-0.0740269493189 28:-0.00487918700379 29:0.0492872759937 30:0.00242923557488 
8 1:134.072446245 2:133.693237761 3:133.94536227 4:0.118424275485 5:0.0140243090241 6:0.111771455356 7:-0.0923906044229 8:-5.07001847912e-15 9:0.061629198456 10:0.00379815810233 11:0.108370800629 12:-0.0966491861603 13:-1.25825276124e-15 14:0.0628566524432 15:0.00395095875637 16:0.144281681478 17:-0.136525596071 18:-3.10862446895e-15 19:0.0890043576381 20:0.00792177567857 21:0.0638509908827 22:-0.0758602775628 23:-1.15648231732e-15 24:0.0509813060914 25:0.00259909357079 26:0.107730362704 27:-0.0787949535655 28:0.000582091465171 29:0.0555878762478 30:0.00309001198574 
8 1:133.322505891 2:133.322505891 3:133.322505891 4:2.84217094304e-14 5:8.07793566946e-28 6:1.33226762955e-15 7:1.33226762955e-15 8:1.33226762955e-15 9:0.0 10:0.0 11:7.77156117238e-16 12:7.77156117238e-16 13:7.77156117238e-16 14:0.0 15:0.0 16:-2.88657986403e-15 17:-2.88657986403e-15 18:-2.88657986403e-15 19:0.0 20:0.0 21:-1.55431223448e-15 22:-1.55431223448e-15 23:-1.55431223448e-15 24:0.0 25:0.0 26:9.15933995316e-16 27:9.15933995316e-16 28:9.15933995316e-16 29:0.0 30:0.0 
8 1:133.322505891 2:133.322505891 3:133.322505891 4:2.84217094304e-14 5:8.07793566946e-28 6:1.33226762955e-15 7:1.33226762955e-15 8:1.33226762955e-15 9:0.0 10:0.0 11:7.77156117238e-16 12:7.77156117238e-16 13:7.77156117238e-16 14:0.0 15:0.0 16:-2.88657986403e-15 17:-2.88657986403e-15 18:-2.88657986403e-15 19:0.0 20:0.0 21:-1.55431223448e-15 22:-1.55431223448e-15 23:-1.55431223448e-15 24:0.0 25:0.0 26:9.15933995316e-16 27:9.15933995316e-16 28:9.15933995316e-16 29:0.0 30:0.0 
8 1:133.240236553 2:133.084362245 3:133.136856916 4:0.0486028807179 5:0.00236224001407 6:0.0355248148867 7:-0.0453748731612 8:-1.75785312232e-15 9:0.0246261401569 10:0.000606446779027 11:0.0386381593287 12:-0.0412278253964 13:-2.55351295664e-15 14:0.0252576484001 15:0.000637948802701 16:0.0331699186416 17:-0.0386192629018 18:-2.96059473233e-15 19:0.0276928230025 20:0.000766892445848 21:0.0856402745698 22:-0.0805082552111 23:-1.20274161001e-15 24:0.0516628964332 25:0.00266905486786 26:0.0409648075891 27:-0.0566245901278 28:0.000341080641106 29:0.0289186514977 30:0.000836288404446 
8 1:133.416047632 2:133.416047632 3:133.416047632 4:0.0 5:0.0 6:6.66133814775e-15 7:6.66133814775e-15 8:6.66133814775e-15 9:0.0 10:0.0 11:-1.7763568394e-15 12:-1.7763568394e-15 13:-1.7763568394e-15 14:0.0 15:0.0 16:-6.66133814775e-16 17:-6.66133814775e-16 18:-6.66133814775e-16 19:0.0 20:0.0 21:5.55111512313e-16 22:5.55111512313e-16 23:5.55111512313e-16 24:0.0 25:0.0 26:-2.19269047363e-15 27:-2.19269047363e-15 28:-2.19269047363e-15 29:0.0 30:0.0 
8 1:134.786749506 2:134.110526345 3:134.335790511 4:0.211588378938 5:0.0447696421015 6:0.17753905156 7:-0.20301765489 8:-3.99680288865e-15 9:0.116116794035 10:0.0134831098571 11:0.174002122327 12:-0.20824474205 13:-1.72084568817e-15 14:0.115362002513 15:0.0133083916238 16:0.35175213102 17:-0.353672555413 18:-1.03620815632e-15 19:0.213292097804 20:0.0454935189855 21:0.154561185109 22:-0.128329845867 23:-1.99840144433e-15 24:0.10228717972 25:0.0104626671351 26:0.105062826978 27:-0.115421774601 28:0.00692479137247 29:0.0699510191573 30:0.00489314508114 
8 1:135.332483789 2:134.887565629 3:135.036417438 4:0.1390236551 5:0.0193275766774 6:0.11082243836 7:-0.131701307646 8:-3.70074341542e-16 9:0.0733026356798 10:0.00537327639761 11:0.114472897556 12:-0.1304267115 13:-1.11022302463e-15 14:0.0745866415767 15:0.00556316710169 16:0.182849299482 17:-0.18971603804 18:-1.60982338571e-15 19:0.115350065454 20:0.0133056376002 21:0.0535980984743 22:-0.0560431436366 23:-2.36847578587e-15 24:0.036917258952 25:0.00136288400853 26:0.0839782988494 27:-0.114208237768 28:-0.00125615639136 29:0.0600365951959 30:0.00360439276272 
8 1:136.517750939 2:135.965763168 3:136.150395437 4:0.172492917156 5:0.0297538064689 6:0.137883260531 7:-0.163474523656 8:-2.62752782495e-15 9:0.0911142999628 10:0.00830181565771 11:0.142251123382 12:-0.162376583805 13:5.18104078158e-16 14:0.0927162190574 15:0.00859629727631 16:0.230688913239 17:-0.238813260482 18:-1.23974904416e-15 19:0.145019302206 20:0.0210305980122 21:0.0794765543417 22:-0.0751982249593 23:-3.23815048849e-16 24:0.0475429446536 25:0.00226033158633 26:0.0336070425015 27:-0.0333247034705 28:-0.000291310720201 29:0.0228290155442 30:0.000521163950719 
8 1:136.559513693 2:136.543283929 3:136.548690405 4:0.00507824898325 5:2.57886127359e-05 6:0.004261044546 7:-0.00487254642575 8:-2.92358729818e-15 9:0.00278687324043 10:7.76666245823e-06 11:0.00417615610662 12:-0.00499799967699 13:-1.48029736617e-15 14:0.00276875778769 15:7.66601968688e-06 16:0.00844226375134 17:-0.00848835509751 18:-2.22044604925e-16 19:0.0051191392658 20:2.62055868227e-05 21:0.00370956186285 22:-0.00307999386624 23:-2.09092002971e-15 24:0.00245495413795 25:6.02679981942e-06 26:0.0025215713498 27:-0.00277019235392 28:0.000166199178438 29:0.00167886673973 30:2.81859352979e-06 
8 1:137.312761876 2:137.187281323 3:137.232500987 4:0.0406781764546 5:0.00165471403967 6:0.055804399331 7:-0.065431697304 8:-4.4408920985e-15 9:0.0366035353254 10:0.00133981879832 11:0.224305078793 12:-0.219752848428 13:-5.71764857682e-15 14:0.134405263565 15:0.0180647748739 16:0.119506761703 17:-0.107226925096 18:-0.00555379798846 19:0.0878008088292 20:0.00770898203106 21:0.243563145148 22:-0.243563145148 23:-0.0150828833096 24:0.164055202401 25:0.0269141094347 26:0.0168903886287 27:-0.0168903886287 28:-5.27355936697e-16 29:0.0168903886287 30:0.000285285228028 
