20:17:38		x: 20.665253
20:17:38		x: 20.665253
20:17:39		x: 20.665253
20:17:40		x: 20.665253
20:17:41		x: 20.665253
20:17:42		x: 20.665253
20:17:43		x: 20.873516
20:17:44		x: 20.873516
20:17:45		x: 20.873516
20:17:46		x: 20.873516
20:17:47		x: 20.873516
20:17:48		x: 20.873516
20:17:49		x: 21.09826
20:17:50		x: 21.09826
20:17:51		x: 21.09826
