2 1:333.027777792 2:333.027777792 3:333.027777792 4:5.68434188608e-14 5:3.23117426779e-27 6:-6.2172489379e-15 7:-6.2172489379e-15 8:-6.2172489379e-15 9:0.0 10:0.0 11:-1.06581410364e-14 12:-1.06581410364e-14 13:-1.06581410364e-14 14:0.0 15:0.0 16:-1.42108547152e-14 17:-1.42108547152e-14 18:-1.42108547152e-14 19:0.0 20:0.0 21:-7.43849426499e-15 22:-7.43849426499e-15 23:-7.43849426499e-15 24:0.0 25:0.0 26:-2.10942374679e-15 27:-2.10942374679e-15 28:-2.10942374679e-15 29:0.0 30:0.0 
2 1:337.080134838 2:335.080941767 3:335.746915053 4:0.625542049074 5:0.39130285516 6:0.524878269124 7:-0.600203472778 8:-1.74675089208e-14 9:0.343288878328 10:0.117847253984 11:0.514421655339 12:-0.615656886759 13:-7.58652400161e-15 14:0.341057404946 15:0.116320153469 16:1.03992360029 17:-1.04560116262 18:-5.92118946467e-15 19:0.630578940967 20:0.397629800791 21:0.456946269572 22:-0.379395669762 23:-8.51170985546e-16 24:0.302402865023 25:0.0914474927739 26:0.310608816985 27:-0.341234115758 28:0.020472524088 29:0.206803908977 30:0.0427678567682 
2 1:336.733655438 2:336.67595059 3:336.714671683 4:0.0181449889011 5:0.000329240622222 6:0.0177953465521 7:-0.0174509865993 8:-7.17944222591e-15 9:0.0116162436305 10:0.000134937116083 11:0.0210799275473 12:-0.0162142462698 13:-1.22124532709e-15 14:0.0115211092738 15:0.0001327359589 16:0.0505664537975 17:-0.0525133565541 18:-5.92118946467e-15 19:0.0313101248218 20:0.000980323916358 21:0.0637696716816 22:-0.0653266639307 23:-2.99760216649e-15 24:0.0389867499658 25:0.00151996667289 26:0.0101286884759 27:-0.0146709199071 28:0.000891185040439 29:0.00786041217522 30:6.17860795643e-05 
2 1:337.231922428 2:336.817984487 3:336.956440999 4:0.129353160897 5:0.0167322402341 6:0.103399234465 7:-0.122590229847 8:-7.47550169914e-15 9:0.0683269950875 10:0.00466857825768 11:0.106674713107 12:-0.121766880155 13:-2.10942374679e-15 14:0.0695282809246 15:0.00483418184834 16:0.172994582059 17:-0.179087064077 18:-5.55111512313e-15 19:0.108750581999 20:0.0118266890851 21:0.0595998009126 22:-0.056391463793 23:-7.03141248929e-15 24:0.035652653284 25:0.00127111168619 26:0.0252020619029 27:-0.0249903346813 28:-0.000218455128955 29:0.0171195743542 30:0.000293079826069 
2 1:336.887967135 2:336.546580083 3:336.774243924 4:0.106819075675 5:0.0114103149281 6:0.102492199004 7:-0.0896294847526 8:-2.96059473233e-15 9:0.0586208404803 10:0.00343640293862 11:0.105131061411 12:-0.0878438880517 13:-4.32986979604e-15 14:0.0582397886799 15:0.00339187298548 16:0.178549387497 17:-0.1775798732 18:-6.29126380621e-16 19:0.107679187536 20:0.0115948074285 21:0.0647865236543 22:-0.078029251944 23:-5.29206308405e-15 24:0.0516390458019 25:0.00266659105134 26:0.0582699642462 27:-0.0530403140379 28:-0.00349593780794 29:0.0353143364792 30:0.00124710236097 
2 1:335.565962243 2:335.360382495 3:335.498330567 4:0.0646434818623 5:0.00417877974728 6:0.0633978432472 7:-0.0621710237387 8:-1.39888101103e-14 9:0.0413841220035 10:0.001712645554 11:0.0750995176403 12:-0.0577650027986 13:-5.55111512313e-15 14:0.0410451955873 15:0.0016847080808 16:0.180148450722 17:-0.187084501976 18:-9.17784367023e-15 19:0.111545699865 20:0.0124424431584 21:0.227186339831 22:-0.232733292808 23:-2.20194233217e-15 24:0.138894505696 25:0.0192916837125 26:0.0360845461712 27:-0.0522667360166 28:0.00317494291738 29:0.0280035669709 30:0.000784199763093 
2 1:335.274793437 2:335.274793437 3:335.274793437 4:0.0 5:0.0 6:-1.55431223448e-14 7:-1.55431223448e-14 8:-1.55431223448e-14 9:0.0 10:0.0 11:-9.54791801178e-15 12:-9.54791801178e-15 13:-9.54791801178e-15 14:0.0 15:0.0 16:2.6645352591e-15 17:2.6645352591e-15 18:2.6645352591e-15 19:0.0 20:0.0 21:-3.21964677141e-15 22:-3.21964677141e-15 23:-3.21964677141e-15 24:0.0 25:0.0 26:1.11022302463e-15 27:1.11022302463e-15 28:1.11022302463e-15 29:0.0 30:0.0 
2 1:335.274793437 2:335.274793437 3:335.274793437 4:0.0 5:0.0 6:-1.55431223448e-14 7:-1.55431223448e-14 8:-1.55431223448e-14 9:0.0 10:0.0 11:-9.54791801178e-15 12:-9.54791801178e-15 13:-9.54791801178e-15 14:0.0 15:0.0 16:2.6645352591e-15 17:2.6645352591e-15 18:2.6645352591e-15 19:0.0 20:0.0 21:-3.21964677141e-15 22:-3.21964677141e-15 23:-3.21964677141e-15 24:0.0 25:0.0 26:1.11022302463e-15 27:1.11022302463e-15 28:1.11022302463e-15 29:0.0 30:0.0 
2 1:333.690507583 2:333.362258142 3:333.582520001 4:0.103216328467 5:0.0106536104622 6:0.10122741573 7:-0.0992685514838 8:-8.881784197e-16 9:0.0660780794439 10:0.00436631258299 11:0.119911493892 12:-0.0922334523294 13:-4.66293670343e-15 14:0.0655369152107 15:0.00429508725534 16:0.287643256935 17:-0.298718058662 18:-6.88338275268e-15 19:0.178105158706 20:0.0317214475576 21:0.362748713399 22:-0.371605540167 23:-3.0716170348e-15 24:0.221773031235 25:0.0491832773831 26:0.0576162400739 27:-0.0834543628711 28:0.00506943533336 29:0.0447133304619 30:0.00199928192099 
2 1:332.853994696 2:331.927688559 3:332.544158115 4:0.289465195019 5:0.0837900991272 6:0.274331176323 7:-0.231385760979 8:-1.65053156328e-14 9:0.152901458463 10:0.0233788560003 11:0.272488692711 12:-0.238715593952 13:-7.84557604068e-15 14:0.155589683759 15:0.0242081496921 16:0.400759220484 17:-0.387125525851 18:-4.25585492773e-15 19:0.24336095236 20:0.0592245531337 21:0.126192247263 22:-0.133371831616 23:-3.33066907388e-15 24:0.0797831468841 25:0.00636535052674 26:0.0559231181668 27:-0.0563969192017 28:0.000488856677853 29:0.0383100103214 30:0.00146765689082 
2 1:331.912811819 2:331.912811819 3:331.912811819 4:5.68434188608e-14 5:3.23117426779e-27 6:1.59872115546e-14 7:1.59872115546e-14 8:1.59872115546e-14 9:0.0 10:0.0 11:3.5527136788e-15 12:3.5527136788e-15 13:3.5527136788e-15 14:0.0 15:0.0 16:3.99680288865e-15 17:3.99680288865e-15 18:3.99680288865e-15 19:0.0 20:0.0 21:4.99600361081e-15 22:4.99600361081e-15 23:4.99600361081e-15 24:0.0 25:0.0 26:-2.10942374679e-15 27:-2.10942374679e-15 28:-2.10942374679e-15 29:0.0 30:0.0 
2 1:330.888801168 2:330.67663559 3:330.819002884 4:0.0667143618493 5:0.00445080607696 6:0.0654288186993 7:-0.0641626975335 8:-5.84717459636e-15 9:0.0427098790259 10:0.00182413376641 11:0.0775053609464 12:-0.0596155279374 13:-1.14723045878e-15 14:0.0423600949655 15:0.00179437764549 16:0.185919578924 17:-0.193077829375 18:-7.77156117238e-16 19:0.115119111303 20:0.0132524097873 21:0.234464345763 22:-0.240188997614 23:-2.84957242987e-15 24:0.143344047148 25:0.0205475158528 26:0.0372405291467 27:-0.0539411219638 28:0.00327665349296 29:0.0289006725217 30:0.000835248872209 
2 1:330.370857401 2:329.828820426 3:330.189553535 4:0.169383352235 5:0.0286907200143 6:0.16052753515 7:-0.135397610934 8:-1.13982897195e-14 9:0.0894717639351 10:0.00800519654165 11:0.159449388084 12:-0.139686733432 13:-6.95739762098e-15 14:0.0910448049082 15:0.00828915650077 16:0.234508125235 17:-0.226530237254 18:1.85037170771e-16 19:0.142405009733 20:0.0202791867969 21:0.0738426112547 22:-0.0780438143226 23:-3.62672854711e-15 24:0.046685878315 25:0.00217957123405 26:0.0327239522593 27:-0.0330012015071 28:0.000286059202566 29:0.0224174722352 30:0.000502543061415 
2 1:329.820115158 2:329.820115158 3:329.820115158 4:0.0 5:0.0 6:-7.9936057773e-15 7:-7.9936057773e-15 8:-7.9936057773e-15 9:0.0 10:0.0 11:2.88657986403e-15 12:2.88657986403e-15 13:2.88657986403e-15 14:0.0 15:0.0 16:-8.43769498715e-15 17:-8.43769498715e-15 18:-8.43769498715e-15 19:0.0 20:0.0 21:-5.55111512313e-16 22:-5.55111512313e-16 23:-5.55111512313e-16 24:0.0 25:0.0 26:2.44249065418e-15 27:2.44249065418e-15 28:2.44249065418e-15 29:0.0 30:0.0 
2 1:326.995723742 2:325.797547602 3:326.59791789 4:0.375410673687 5:0.140933173918 6:0.361451646226 7:-0.327657356248 8:-1.11022302463e-14 9:0.213868668191 10:0.045739807234 11:0.390762502435 12:-0.321256445201 13:8.14163551392e-16 14:0.215058781337 15:0.0462502794302 16:0.757306779559 17:-0.76574557559 18:-2.10942374679e-15 19:0.458852083754 20:0.210545234765 21:0.55375469049 22:-0.588850538652 23:-3.34917279095e-15 24:0.3523374006 25:0.124141643862 26:0.160572798291 27:-0.194460593014 28:0.0102949130415 29:0.125972632166 30:0.0158691040549 
2 1:324.967399711 2:324.967399711 3:324.967399711 4:0.0 5:0.0 6:1.42108547152e-14 7:1.42108547152e-14 8:1.42108547152e-14 9:0.0 10:0.0 11:-3.33066907388e-15 12:-3.33066907388e-15 13:-3.33066907388e-15 14:0.0 15:0.0 16:2.6645352591e-15 17:2.6645352591e-15 18:2.6645352591e-15 19:0.0 20:0.0 21:-5.44009282066e-15 22:-5.44009282066e-15 23:-5.44009282066e-15 24:0.0 25:0.0 26:-2.22044604925e-15 27:-2.22044604925e-15 28:-2.22044604925e-15 29:0.0 30:0.0 
2 1:324.967399711 2:324.967399711 3:324.967399711 4:0.0 5:0.0 6:1.42108547152e-14 7:1.42108547152e-14 8:1.42108547152e-14 9:0.0 10:0.0 11:-3.33066907388e-15 12:-3.33066907388e-15 13:-3.33066907388e-15 14:0.0 15:0.0 16:2.6645352591e-15 17:2.6645352591e-15 18:2.6645352591e-15 19:0.0 20:0.0 21:-5.44009282066e-15 22:-5.44009282066e-15 23:-5.44009282066e-15 24:0.0 25:0.0 26:-2.22044604925e-15 27:-2.22044604925e-15 28:-2.22044604925e-15 29:0.0 30:0.0 
2 1:322.994133959 2:322.585291464 3:322.859632855 4:0.128558394637 5:0.0165272608317 6:0.126081156468 7:-0.12364134441 8:-1.07321559047e-14 9:0.082301821235 10:0.00677358977859 11:0.149352620678 12:-0.114878960911 13:-4.18184005942e-15 14:0.0816277882977 15:0.00666309582237 16:0.358266525162 17:-0.372060454398 18:-4.0338103228e-15 19:0.221834215767 20:0.049210419285 21:0.451812159413 22:-0.462843548028 23:-3.47869881049e-15 24:0.276223590713 25:0.0762994720665 26:0.0717623988272 27:-0.103944395965 28:0.00631410240854 29:0.0556915176933 30:0.00310154514299 
2 1:322.075860083 2:321.230281922 3:321.793025892 4:0.264238179165 5:0.0698218153283 6:0.250423096687 7:-0.211220392703 8:-1.19163937976e-14 9:0.139576030802 10:0.0194814683744 11:0.248741186311 12:-0.21791142759 13:-2.07241631263e-15 14:0.14202997611 15:0.0201725141138 16:0.365832882594 17:-0.353387370293 18:-2.22044604925e-15 19:0.222151941021 20:0.0493514848995 21:0.115194538809 22:-0.121748419308 23:-2.44249065418e-15 24:0.0728300114262 25:0.00530421056434 26:0.0510493944416 27:-0.0514819035131 28:0.000446252608783 29:0.0349712764964 30:0.00122299017979 
2 1:320.056136598 2:318.926078925 3:319.679690604 4:0.35359195793 5:0.125027272713 6:0.339269152905 7:-0.296691061982 8:-6.06921920128e-15 9:0.194046406318 10:0.037654007805 11:0.348004301748 12:-0.290780388916 13:-1.48029736617e-15 14:0.192785050597 15:0.0371660757339 16:0.591033269229 17:-0.587823987962 18:-8.06762064561e-15 19:0.356439095815 20:0.127048829025 21:0.214456019224 22:-0.258292030673 23:-2.44249065418e-15 24:0.170935305285 25:0.0292188785929 26:0.192884937603 27:-0.175573776232 28:-0.0115722354505 29:0.116897335984 30:0.0136649871602 
2 1:317.372970413 2:317.043220403 3:317.264489174 4:0.10368817454 5:0.0107512375394 6:0.10169016963 7:-0.0997223505762 8:-3.03460960064e-15 9:0.0663801506642 10:0.0044063244022 11:0.120459660721 12:-0.0926550909687 13:-8.77076189454e-15 14:0.0658365125374 15:0.00433444638308 16:0.288958197538 17:-0.30008362693 18:-6.29126380621e-15 19:0.178919353717 20:0.0320121351345 21:0.364406993232 22:-0.37330430835 23:-1.88737914186e-15 24:0.222786850806 25:0.0496339808921 26:0.0578796285999 27:-0.08383586853 28:0.00509260989488 29:0.0449177342582 30:0.00201760285089 
2 1:316.441105548 2:315.282410607 3:316.053538128 4:0.36208532308 5:0.13110578119 6:0.343154528832 7:-0.28943510122 8:-8.80776932869e-15 9:0.19126090093 10:0.0365807322245 11:0.34084980866 12:-0.298603819899 13:-3.21964677141e-15 14:0.194623539828 15:0.0378783222553 16:0.501300447596 17:-0.484246374045 18:-3.62672854711e-15 19:0.30441459138 20:0.0926682434453 21:0.157850965874 22:-0.166831742025 23:-7.40148683083e-16 24:0.0997988946962 25:0.00995981938258 26:0.0699529361648 27:-0.0705456029301 28:0.000611499521139 29:0.0479211065894 30:0.00229643245675 
2 1:315.263801637 2:315.263801637 3:315.263801637 4:5.68434188608e-14 5:3.23117426779e-27 6:2.22044604925e-15 7:2.22044604925e-15 8:2.22044604925e-15 9:0.0 10:0.0 11:-1.08801856413e-14 12:-1.08801856413e-14 13:-1.08801856413e-14 14:0.0 15:0.0 16:-3.33066907388e-15 17:-3.33066907388e-15 18:-3.33066907388e-15 19:0.0 20:0.0 21:-9.32587340685e-15 22:-9.32587340685e-15 23:-9.32587340685e-15 24:0.0 25:0.0 26:-4.88498130835e-15 27:-4.88498130835e-15 28:-4.88498130835e-15 29:0.0 30:0.0 
2 1:315.185790619 2:314.905445541 3:315.091998376 4:0.0875994754905 5:0.00767366810622 6:0.0829856290491 7:-0.0698297528281 8:-1.06581410364e-14 9:0.0461883442282 10:0.00213336314254 11:0.0821824998713 12:-0.0721299247709 13:-7.58652400161e-15 14:0.0469974025356 15:0.0022087558451 16:0.119540990434 17:-0.115214225355 18:3.70074341542e-17 19:0.0726826324935 20:0.00528276506619 21:0.0353130550615 22:-0.0337724203141 23:-3.97829917157e-15 24:0.0232617428912 25:0.000541108682338 26:0.0719631613626 27:-0.0529151310724 28:0.00079151019974 29:0.0378293481466 30:0.0014310595812 
2 1:314.645943045 2:314.645943045 3:314.645943045 4:0.0 5:0.0 6:2.6645352591e-15 7:2.6645352591e-15 8:2.6645352591e-15 9:0.0 10:0.0 11:-1.7763568394e-15 12:-1.7763568394e-15 13:-1.7763568394e-15 14:0.0 15:0.0 16:3.77475828373e-15 17:3.77475828373e-15 18:3.77475828373e-15 19:0.0 20:0.0 21:-3.10862446895e-15 22:-3.10862446895e-15 23:-3.10862446895e-15 24:0.0 25:0.0 26:-3.88578058619e-15 27:-3.88578058619e-15 28:-3.88578058619e-15 29:0.0 30:0.0 
2 1:314.645943045 2:314.645943045 3:314.645943045 4:0.0 5:0.0 6:2.6645352591e-15 7:2.6645352591e-15 8:2.6645352591e-15 9:0.0 10:0.0 11:-1.7763568394e-15 12:-1.7763568394e-15 13:-1.7763568394e-15 14:0.0 15:0.0 16:3.77475828373e-15 17:3.77475828373e-15 18:3.77475828373e-15 19:0.0 20:0.0 21:-3.10862446895e-15 22:-3.10862446895e-15 23:-3.10862446895e-15 24:0.0 25:0.0 26:-3.88578058619e-15 27:-3.88578058619e-15 28:-3.88578058619e-15 29:0.0 30:0.0 
2 1:317.161452568 2:316.237974491 3:316.545295448 4:0.289095097843 5:0.0835759755967 6:0.245679657785 7:-0.276992966446 8:-1.48029736617e-14 9:0.160415122715 10:0.0257330115957 11:0.244557108249 12:-0.291896444237 13:-6.6243307136e-15 14:0.161907097148 15:0.0262139081069 16:0.526016366672 17:-0.525835145049 18:-3.03460960064e-15 19:0.317366979506 20:0.100721799681 21:0.302117728636 22:-0.274521183168 23:-4.71844785466e-15 24:0.184167936557 25:0.0339178288558 26:0.128101289399 27:-0.158270224473 28:-0.00631185825566 29:0.100861921956 30:0.0101731273006 
2 1:317.866769179 2:317.866769179 3:317.866769179 4:0.0 5:0.0 6:-9.7699626167e-15 7:-9.7699626167e-15 8:-9.7699626167e-15 9:0.0 10:0.0 11:1.55431223448e-15 12:1.55431223448e-15 13:1.55431223448e-15 14:0.0 15:0.0 16:-1.26565424807e-14 17:-1.26565424807e-14 18:-1.26565424807e-14 19:0.0 20:0.0 21:-1.44328993201e-15 22:-1.44328993201e-15 23:-1.44328993201e-15 24:0.0 25:0.0 26:-6.55031584529e-15 27:-6.55031584529e-15 28:-6.55031584529e-15 29:0.0 30:0.0 
2 1:319.420462203 2:318.653962042 3:318.909299376 4:0.239835805864 5:0.0575212137742 6:0.201240832398 7:-0.23012087483 8:-1.34707060321e-14 9:0.131618593666 10:0.0173234541985 11:0.197231716788 12:-0.236045787473 13:-5.55111512313e-16 14:0.130763036125 15:0.0170989716167 16:0.398711669473 17:-0.400888473956 18:-6.77236045021e-15 19:0.241766974244 20:0.0584512698353 21:0.175195379689 22:-0.145462109755 23:-3.5527136788e-15 24:0.115942701111 25:0.0134427099409 26:0.119088902241 27:-0.130830787894 28:0.00784926340279 29:0.079289605293 30:0.00628684150752 
2 1:321.283229229 2:319.862219032 3:320.337543356 4:0.444051279103 5:0.197181538473 6:0.354801236043 7:-0.420833635155 8:-4.4408920985e-15 9:0.234495636751 10:0.0549882036553 11:0.365988584083 12:-0.417714358591 13:-1.18423789293e-15 14:0.238539164084 15:0.0569009328018 16:0.591940343018 17:-0.613089109698 18:-3.99680288865e-15 19:0.372380427811 20:0.138667183016 21:0.173541993248 22:-0.174342555925 23:4.07081775696e-16 24:0.112797660794 25:0.0127233122807 26:0.265247141641 27:-0.360494083126 28:-0.00421288259728 29:0.190043236143 30:0.0361164316037 
2 1:325.530594245 2:323.432265567 3:324.134127467 4:0.655715314437 5:0.429962573587 6:0.524150017436 7:-0.621432754742 8:-7.84557604068e-15 9:0.346362290319 10:0.119966836155 11:0.540754029994 12:-0.617259041487 13:-6.14323406959e-15 14:0.352451832429 15:0.124222294183 16:0.876941823328 17:-0.90782575175 18:-5.58812255728e-15 19:0.551276996836 20:0.303906327241 21:0.302122514245 22:-0.285858854597 23:-5.66213742559e-15 24:0.180729953536 25:0.032663316105 26:0.127753955377 27:-0.126680670575 28:-0.00110738982009 29:0.086782317516 30:0.00753117063345 
2 1:330.170975118 2:327.898311366 3:328.655383491 4:0.711110278007 5:0.505677827488 6:0.596676646164 7:-0.682305624409 8:-6.43929354283e-15 9:0.390247546214 10:0.152293147326 11:0.58478966663 12:-0.699872919091 13:-5.47710025482e-15 14:0.387710828404 15:0.150319686461 16:1.18217530157 17:-1.18862950066 18:-5.14403334743e-15 19:0.716836169015 20:0.513854093208 21:0.519452192335 22:-0.431293404814 23:-2.29446091756e-15 24:0.343768713446 25:0.118176928344 26:0.353097161932 27:-0.387911711581 28:0.0232729715249 29:0.235092725458 30:0.0552685895635 
2 1:336.030233722 2:333.601056255 3:334.41028827 4:0.76017326633 5:0.577863394843 6:0.63827300193 7:-0.726769412286 8:-7.54951656745e-15 9:0.417212445994 10:0.174066225093 11:0.639754032311 12:-0.757028300574 13:-5.55111512313e-16 14:0.421778570915 15:0.177897162883 16:1.30900569816 17:-1.31588551609 18:1.48029736617e-15 19:0.793464781737 20:0.629586359858 21:0.618174830701 22:-0.544946763 23:-2.77555756156e-16 24:0.387082122855 25:0.149832569834 26:0.342407584188 27:-0.456477085763 28:-0.014715027094 29:0.273544092203 30:0.0748263703792 
2 1:340.14557158 2:338.586992751 3:339.108315797 4:0.487046675679 5:0.23721446429 6:0.38932371706 7:-0.461582565927 8:-6.06921920128e-15 9:0.257268052715 10:0.0661868509476 11:0.401656705083 12:-0.458482450494 13:-1.40628249786e-15 14:0.261791191303 15:0.0685346278437 16:0.651367430976 17:-0.674307134135 18:-4.88498130835e-15 19:0.409472865398 20:0.167668027497 21:0.224408005991 22:-0.212327822425 23:-5.60662627436e-15 24:0.134241066401 25:0.0180206639084 26:0.094892002522 27:-0.0940947971138 28:-0.000822537645044 29:0.0644594358609 30:0.0041550188715 
2 1:344.959377546 2:342.596879577 3:343.38387737 4:0.739219158791 5:0.546444964724 6:0.620262176049 7:-0.709275910239 8:-1.30266168223e-14 9:0.405673313625 10:0.164570837388 11:0.607905326087 12:-0.727537607755 13:-6.10622663544e-15 14:0.403036324028 15:0.162438278486 16:1.22890451593 17:-1.23561383764 18:2.6645352591e-15 19:0.745171383734 20:0.555280391136 21:0.53998518166 22:-0.448341639488 23:-5.45859653774e-15 24:0.357357258123 25:0.127704209933 26:0.367054443013 27:-0.403245147748 28:0.024192909265 29:0.244385508304 30:0.0597242766692 
2 1:349.444955296 2:347.793438354 3:348.342958256 4:0.517035937852 5:0.26732616103 6:0.440153725176 7:-0.495547787656 8:-1.61352412912e-14 9:0.287364682033 10:0.0825784604797 11:0.437708007327 12:-0.5230845981 13:-2.36847578587e-15 14:0.289968468176 15:0.0840817125364 16:0.948088580412 17:-0.947037461968 18:-6.58732327944e-15 19:0.571688734561 20:0.326828009224 21:0.55774372868 22:-0.508453884734 23:-3.57121739588e-15 24:0.339195042968 25:0.115053277174 26:0.231595967586 27:-0.279076914546 28:-0.0114745103671 29:0.179691449855 30:0.0322890171511 
2 1:352.742027605 2:351.283786966 3:351.771548276 4:0.455691584231 5:0.207654819939 6:0.364259834354 7:-0.431866802966 8:-8.21565038223e-15 9:0.240705649721 10:0.0579392098074 11:0.37579884926 12:-0.428966266768 13:-8.400687553e-15 14:0.244937597687 15:0.0599944267609 16:0.609433697754 17:-0.630896588676 18:-4.73695157173e-15 19:0.383111820797 20:0.146774667235 21:0.209961067123 22:-0.198658581628 23:-1.94289029309e-15 24:0.125598894873 25:0.0157750823934 26:0.0887830450743 27:-0.0880371621567 28:-0.000769584315584 29:0.0603096662247 30:0.00363725584014 
2 1:354.443815552 2:353.615808046 3:353.891634772 4:0.259081286008 5:0.0671231127597 6:0.217389282085 7:-0.24858678617 8:-4.07081775696e-15 9:0.142180248636 10:0.0202152231022 11:0.213058457402 12:-0.254987139869 13:-2.59052039079e-16 14:0.141256037395 15:0.0199532681005 16:0.430706047839 17:-0.433057528689 18:3.33066907388e-16 19:0.261167419835 20:0.0682084211835 21:0.189253827672 22:-0.157134629356 23:-3.23815048849e-15 24:0.125246453501 25:0.0156866741147 26:0.128645119651 27:-0.141329225863 28:0.0084791228286 29:0.0856521520314 30:0.0073362911476 
2 1:355.541109007 2:354.660664322 3:354.955225875 4:0.275112704112 5:0.0756869999636 6:0.21930556114 7:-0.260622574305 8:-8.06762064561e-15 9:0.145057949353 10:0.0210418086705 11:0.22652942315 12:-0.258100287058 13:-4.77395900589e-15 14:0.147598857475 15:0.0217854227279 16:0.361838891296 17:-0.375427420614 18:-6.29126380621e-16 19:0.228265243088 20:0.0521050212021 21:0.106064811747 22:-0.110903290391 23:1.18423789293e-15 24:0.0730552432343 25:0.00533706856402 26:0.166183926516 27:-0.226005690194 28:-0.00248579697725 29:0.118805897012 30:0.0141148411647 
2 1:358.222346246 2:356.890420442 3:357.335931188 4:0.416218944245 5:0.173238209549 6:0.332707139943 7:-0.394457898731 8:-5.92118946467e-15 9:0.219855390943 10:0.0483363929267 11:0.3432466293 12:-0.39180861102 13:-1.01400369582e-14 14:0.22372076168 15:0.0500509792067 16:0.55664370167 17:-0.576247447075 18:-3.18263933726e-15 19:0.349926141053 20:0.122448304192 21:0.19177394693 22:-0.181450498477 23:8.881784197e-16 24:0.11471934359 25:0.0131605277937 26:0.0810925339998 27:-0.0804112604999 28:-0.000702921849827 29:0.055085558901 30:0.00303441879943 
2 1:358.243737353 2:358.243737353 3:358.243737353 4:0.0 5:0.0 6:-2.48689957516e-14 7:-2.48689957516e-14 8:-2.48689957516e-14 9:0.0 10:0.0 11:-1.66533453694e-14 12:-1.66533453694e-14 13:-1.66533453694e-14 14:0.0 15:0.0 16:8.43769498715e-15 17:8.43769498715e-15 18:8.43769498715e-15 19:0.0 20:0.0 21:-1.44328993201e-15 22:-1.44328993201e-15 23:-1.44328993201e-15 24:0.0 25:0.0 26:-1.7763568394e-15 27:-1.7763568394e-15 28:-1.7763568394e-15 29:0.0 30:0.0 
2 1:361.562327498 2:359.969130096 3:360.500577355 4:0.498332394026 5:0.248335174936 6:0.411875204913 7:-0.475094029067 8:-1.97619698383e-14 9:0.269859096506 10:0.0728239319669 11:0.416592919052 12:-0.487382228563 13:-1.21014309684e-14 14:0.27337729025 15:0.0747351428246 16:0.795437308523 17:-0.806165349613 18:-6.25425637206e-15 19:0.486095990324 20:0.236289311809 21:0.256272570271 22:-0.20770765987 23:-6.8648790356e-15 24:0.178401714734 25:0.03182717182 26:0.248145838065 27:-0.333311322602 28:-0.00805563896481 29:0.188363274247 30:0.035480723085 
2 1:362.893507497 2:362.893507497 3:362.893507497 4:0.0 5:0.0 6:-2.17603712827e-14 7:-2.17603712827e-14 8:-2.17603712827e-14 9:0.0 10:0.0 11:-6.66133814775e-15 12:-6.66133814775e-15 13:-6.66133814775e-15 14:0.0 15:0.0 16:-1.11022302463e-15 17:-1.11022302463e-15 18:-1.11022302463e-15 19:0.0 20:0.0 21:-7.77156117238e-16 22:-7.77156117238e-16 23:-7.77156117238e-16 24:0.0 25:0.0 26:-4.55191440096e-15 27:-4.55191440096e-15 28:-4.55191440096e-15 29:0.0 30:0.0 
2 1:365.156364587 2:364.040004858 3:364.411887778 4:0.349305908684 5:0.122014617841 6:0.293094734424 7:-0.335156716905 8:-1.02880666949e-14 9:0.191694281404 10:0.0367466975231 11:0.287255707319 12:-0.343785983028 13:-4.32986979604e-15 14:0.190448215151 15:0.0362705226541 16:0.580698705544 17:-0.583869085651 18:-2.14643118094e-15 19:0.352118535112 20:0.123987462769 21:0.255161155271 22:-0.211856500091 23:-1.85037170771e-16 24:0.168863320558 25:0.0285148210298 26:0.173445566485 27:-0.19054689138 28:0.0114319631113 29:0.115480370107 30:0.01333571588 
2 1:366.153857809 2:365.762678892 3:365.892894854 4:0.122446161589 5:0.0149930624879 6:0.103715183258 7:-0.117250401979 8:-1.00660220899e-14 9:0.0677364460954 10:0.00458822612964 11:0.103435849707 12:-0.123167686728 13:-5.69914485974e-15 14:0.0683971099934 15:0.00467816465544 16:0.219513544692 17:-0.219762260503 18:-5.21804821574e-15 19:0.132595049371 20:0.0175814471176 21:0.120164378798 22:-0.108446521007 23:-8.97430278239e-15 24:0.0736386431027 25:0.00542264975801 26:0.0531418328995 27:-0.0688186769534 28:-0.00259012275519 29:0.0430530472365 30:0.00185356487635 
2 1:366.455996314 2:366.455996314 3:366.455996314 4:0.0 5:0.0 6:7.54951656745e-15 7:7.54951656745e-15 8:7.54951656745e-15 9:0.0 10:0.0 11:-2.6645352591e-14 12:-2.6645352591e-14 13:-2.6645352591e-14 14:0.0 15:0.0 16:-4.88498130835e-15 17:-4.88498130835e-15 18:-4.88498130835e-15 19:0.0 20:0.0 21:-7.21644966006e-15 22:-7.21644966006e-15 23:-7.21644966006e-15 24:0.0 25:0.0 26:2.55351295664e-15 27:2.55351295664e-15 28:2.55351295664e-15 29:0.0 30:0.0 
2 1:368.103382694 2:367.290659778 3:367.561394885 4:0.254298779752 5:0.0646678693832 6:0.213376388612 7:-0.243998002942 8:-1.97619698383e-14 9:0.139555674939 10:0.0194757864076 11:0.209125508707 12:-0.250280209428 13:-5.84717459636e-15 14:0.138648524158 15:0.0192234132513 16:0.422755437433 17:-0.425063511165 18:-3.0716170348e-15 19:0.25634640463 20:0.0657134791666 21:0.185760300105 22:-0.154234005542 23:-4.88498130835e-15 24:0.122934468886 25:0.0151128836402 26:0.12627039742 27:-0.138720361605 28:0.00832260261596 29:0.0840710576988 30:0.0070679427426 
2 1:368.041663384 2:367.945991086 3:367.978191059 4:0.0298371293923 5:0.000890254290373 6:0.02199675719 7:-0.027894755545 8:-6.95739762098e-15 9:0.0151546077153 10:0.000229662135006 11:0.0238007507815 12:-0.0255650515275 13:-5.84717459636e-15 14:0.0155339955406 15:0.000241305017456 16:0.0221592592762 17:-0.025326567511 18:1.07321559047e-15 19:0.0175412335406 20:0.000307694874126 21:0.0482921490952 22:-0.0451575685943 23:-1.31376391247e-15 24:0.0292074011931 25:0.000853072284456 26:0.0244705622856 27:-0.0337867845181 28:0.00016382163848 29:0.0172425409478 30:0.000297305218335 
2 1:370.335171413 2:368.77401807 3:369.296202255 4:0.487851196086 5:0.237998789523 6:0.389966815331 7:-0.462345023844 8:-6.88338275268e-15 9:0.25769301691 10:0.066405690964 11:0.402320175407 12:-0.459239787534 13:-8.77076189454e-15 14:0.262223626973 15:0.068761230543 16:0.652443382043 17:-0.675420977791 18:-5.8101671622e-15 19:0.410149246724 20:0.168222404588 21:0.224778690834 22:-0.212678552806 23:-5.01450732789e-15 24:0.134462810399 25:0.0180802473804 26:0.095048748387 27:-0.0942502261275 28:-0.00082389634094 29:0.0645659121683 30:0.00416875701412 
2 1:370.36024398 2:370.36024398 3:370.36024398 4:0.0 5:0.0 6:-2.48689957516e-14 7:-2.48689957516e-14 8:-2.48689957516e-14 9:0.0 10:0.0 11:-2.6645352591e-15 12:-2.6645352591e-15 13:-2.6645352591e-15 14:0.0 15:0.0 16:-2.44249065418e-15 17:-2.44249065418e-15 18:-2.44249065418e-15 19:0.0 20:0.0 21:-6.10622663544e-15 22:-6.10622663544e-15 23:-6.10622663544e-15 24:0.0 25:0.0 26:3.99680288865e-15 27:3.99680288865e-15 28:3.99680288865e-15 29:0.0 30:0.0 
2 1:371.24453556 2:370.639559699 3:370.84182427 4:0.189079951339 5:0.0357512279982 6:0.151991669337 7:-0.179382268108 8:-9.84397748501e-15 9:0.100261218895 10:0.0100523120143 11:0.156232263437 12:-0.179107823162 13:-8.69674702623e-15 14:0.101918118285 15:0.0103873028348 16:0.260805131153 17:-0.268942402236 18:-1.96139401017e-15 19:0.162976134646 20:0.0265612204642 21:0.0764922869502 22:-0.0690738273776 23:-2.22044604925e-15 24:0.0443675978498 25:0.00196848373896 26:0.109638899001 27:-0.14874585952 28:-0.0020159786403 29:0.0790687769998 30:0.00625187149624 
2 1:372.886971575 2:372.105576647 3:372.366942435 4:0.244181298327 5:0.0596245064528 6:0.19518780324 7:-0.231414843508 8:-1.03620815632e-15 9:0.128981574594 10:0.0166362465848 11:0.201370958116 12:-0.229860597787 13:-1.21384384026e-14 14:0.131249254281 15:0.0172263667493 16:0.326563659965 17:-0.33806450122 18:-3.84877315203e-15 19:0.205289597272 20:0.0421438187479 21:0.112507159979 22:-0.10645074885 23:-6.47630097698e-15 24:0.0673018819743 25:0.00452954331728 26:0.0475741926467 27:-0.0471745129829 28:-0.000412380004054 29:0.0323167973911 30:0.00104437539362 
2 1:372.899521 2:372.899521 3:372.899521 4:0.0 5:0.0 6:-8.881784197e-16 7:-8.881784197e-16 8:-8.881784197e-16 9:0.0 10:0.0 11:2.6645352591e-15 12:2.6645352591e-15 13:2.6645352591e-15 14:0.0 15:0.0 16:-1.33226762955e-15 17:-1.33226762955e-15 18:-1.33226762955e-15 19:0.0 20:0.0 21:-9.88098491916e-15 22:-9.88098491916e-15 23:-9.88098491916e-15 24:0.0 25:0.0 26:-9.99200722163e-16 27:-9.99200722163e-16 28:-9.99200722163e-16 29:0.0 30:0.0 
2 1:373.28661667 2:373.211944401 3:373.236568964 4:0.0234574972196 5:0.00055025417581 6:0.0220196185259 7:-0.0228973279656 8:-4.07081775696e-15 9:0.0145465836669 10:0.00021160309638 11:0.0207318765199 12:-0.0265170136126 13:-1.00660220899e-14 14:0.0144764237099 15:0.000209566843427 16:0.0626895759644 17:-0.0606889436137 18:-3.9597954545e-15 19:0.0373643340503 20:0.00139609345902 21:0.0720870460043 22:-0.0700273710312 23:-1.73934940525e-15 24:0.0429866899809 25:0.00184785551551 26:0.0171981571143 27:-0.0112552470085 28:-0.00102009075365 29:0.00912442306609 30:8.32550962889e-05 
2 1:373.323077961 2:373.323077961 3:373.323077961 4:0.0 5:0.0 6:-1.55431223448e-14 7:-1.55431223448e-14 8:-1.55431223448e-14 9:0.0 10:0.0 11:-4.66293670343e-15 12:-4.66293670343e-15 13:-4.66293670343e-15 14:0.0 15:0.0 16:-1.99840144433e-15 17:-1.99840144433e-15 18:-1.99840144433e-15 19:0.0 20:0.0 21:-3.21964677141e-15 22:-3.21964677141e-15 23:-3.21964677141e-15 24:0.0 25:0.0 26:-3.10862446895e-15 27:-3.10862446895e-15 28:-3.10862446895e-15 29:0.0 30:0.0 
2 1:373.323077961 2:373.323077961 3:373.323077961 4:0.0 5:0.0 6:-1.55431223448e-14 7:-1.55431223448e-14 8:-1.55431223448e-14 9:0.0 10:0.0 11:-4.66293670343e-15 12:-4.66293670343e-15 13:-4.66293670343e-15 14:0.0 15:0.0 16:-1.99840144433e-15 17:-1.99840144433e-15 18:-1.99840144433e-15 19:0.0 20:0.0 21:-3.21964677141e-15 22:-3.21964677141e-15 23:-3.21964677141e-15 24:0.0 25:0.0 26:-3.10862446895e-15 27:-3.10862446895e-15 28:-3.10862446895e-15 29:0.0 30:0.0 
2 1:373.938358823 2:372.858522795 3:373.22073126 4:0.337127130864 5:0.113654702364 6:0.259999968427 7:-0.317563631614 8:-8.14163551392e-15 9:0.174370815372 10:0.0304051812534 11:0.273844935181 12:-0.30441385611 13:-7.62353143576e-15 14:0.178051124197 15:0.031702202828 16:0.359837858794 17:-0.384774922014 18:-8.881784197e-16 19:0.240329704168 20:0.0577583667054 21:0.284677683263 22:-0.250233398176 23:-2.51650552248e-15 24:0.181344846907 25:0.0328859534997 26:0.235189100777 27:-0.322333488333 28:-0.000925890715998 29:0.165394562157 30:0.027355361191 
2 1:375.023584917 2:375.023584917 3:375.023584917 4:5.68434188608e-14 5:3.23117426779e-27 6:-1.37667655054e-14 7:-1.37667655054e-14 8:-1.37667655054e-14 9:0.0 10:0.0 11:3.77475828373e-15 12:3.77475828373e-15 13:3.77475828373e-15 14:0.0 15:0.0 16:-2.22044604925e-16 17:-2.22044604925e-16 18:-2.22044604925e-16 19:0.0 20:0.0 21:-8.99280649946e-15 22:-8.99280649946e-15 23:-8.99280649946e-15 24:0.0 25:0.0 26:3.10862446895e-15 27:3.10862446895e-15 28:3.10862446895e-15 29:0.0 30:0.0 
2 1:375.952061052 2:375.494005892 3:375.646593706 4:0.143324207925 5:0.0205418285775 6:0.120260120468 7:-0.137518632772 8:-8.14163551392e-15 9:0.0786543552888 10:0.0061865076059 11:0.11786430089 12:-0.14105931932 13:-7.91959090899e-15 14:0.0781430800589 15:0.0061063409611 16:0.238267317977 17:-0.239568161181 18:4.81096644004e-16 19:0.144478260706 20:0.0208739678165 21:0.104695539249 22:-0.0869271441296 23:-4.62592926927e-15 24:0.0692865510286 25:0.00480062615344 26:0.0711666989211 27:-0.078183568044 28:0.0046906651655 29:0.0473829161347 30:0.00224514074143 
2 1:377.207676932 2:376.554618688 3:376.772570457 4:0.204232734439 5:0.0417110098164 6:0.167784381056 7:-0.194500585141 8:1.85037170771e-15 9:0.110061675882 10:0.0121135724979 11:0.170298882529 12:-0.198366170854 13:-1.31746465589e-14 14:0.111582505793 15:0.012450655599 16:0.316274730738 17:-0.321635662916 18:-5.7361522939e-15 19:0.194024566137 20:0.0376455322648 21:0.0928786699527 22:-0.0619365066433 23:-8.51170985546e-16 24:0.063125475744 25:0.00398482568791 26:0.105370131943 27:-0.141884388956 28:-0.00305476042992 29:0.0788165367919 30:0.00621204647186 
2 1:377.763312568 2:377.763312568 3:377.763312568 4:5.68434188608e-14 5:3.23117426779e-27 6:-4.84057238737e-14 7:-4.84057238737e-14 8:-4.84057238737e-14 9:0.0 10:0.0 11:-1.7763568394e-15 12:-1.7763568394e-15 13:-1.7763568394e-15 14:0.0 15:0.0 16:-3.10862446895e-15 17:-3.10862446895e-15 18:-3.10862446895e-15 19:0.0 20:0.0 21:-4.66293670343e-15 22:-4.66293670343e-15 23:-4.66293670343e-15 24:0.0 25:0.0 26:3.44169137634e-15 27:3.44169137634e-15 28:3.44169137634e-15 29:0.0 30:0.0 
2 1:377.763312568 2:377.763312568 3:377.763312568 4:5.68434188608e-14 5:3.23117426779e-27 6:-4.84057238737e-14 7:-4.84057238737e-14 8:-4.84057238737e-14 9:0.0 10:0.0 11:-1.7763568394e-15 12:-1.7763568394e-15 13:-1.7763568394e-15 14:0.0 15:0.0 16:-3.10862446895e-15 17:-3.10862446895e-15 18:-3.10862446895e-15 19:0.0 20:0.0 21:-4.66293670343e-15 22:-4.66293670343e-15 23:-4.66293670343e-15 24:0.0 25:0.0 26:3.44169137634e-15 27:3.44169137634e-15 28:3.44169137634e-15 29:0.0 30:0.0 
2 1:378.477748112 2:378.355129163 3:378.395468375 4:0.0385568904573 5:0.00148663380174 6:0.0370821818821 7:-0.0378139238001 8:-1.49510033983e-14 9:0.0246837424717 10:0.000609287142407 11:0.0344541912194 12:-0.044793439209 13:-5.3290705182e-15 14:0.0244815883128 15:0.000599348166318 16:0.111587378049 17:-0.107450339623 18:-5.03301104497e-15 19:0.0665319256758 20:0.00442649713413 21:0.138814801091 22:-0.135506296472 23:-7.03141248929e-16 24:0.0828442417852 25:0.00686316839697 26:0.031174725697 27:-0.0215227870443 28:-0.00189370873516 29:0.0167028512853 30:0.000278985241059 
2 1:378.702397036 2:378.578501045 3:378.619942539 4:0.0387167649993 5:0.00149898789201 6:0.0309484811512 7:-0.0366925484253 8:-1.04360964315e-14 9:0.0204509900922 10:0.000418242995753 11:0.0319288664467 12:-0.0364461111809 13:-6.95739762098e-15 14:0.0208105476101 15:0.000433078891831 16:0.0517791025225 17:-0.0536026466318 18:-5.88418203051e-15 19:0.0325501958946 20:0.00105951525278 21:0.0178388488533 22:-0.0168785597236 23:-6.29126380621e-15 24:0.0106712150613 25:0.000113874830885 26:0.00754324286647 27:-0.00747987067651 28:-6.53859235616e-05 29:0.00512406911869 30:2.62560843332e-05 
2 1:382.252019473 2:380.501827549 3:381.084853312 4:0.547630270733 5:0.299898913424 6:0.459504247632 7:-0.525447635021 8:-2.59052039079e-15 9:0.300531965288 10:0.0903194621599 11:0.450350013722 12:-0.53897631354 13:-1.13982897195e-14 14:0.298578423757 15:0.0891490751333 16:0.910400257844 17:-0.9153706751 18:-8.14163551392e-16 19:0.552039813585 20:0.304747955783 21:0.400033234675 22:-0.332141626058 23:-4.58892183512e-15 24:0.264738338674 25:0.0700863879641 26:0.271922232549 27:-0.298733125092 28:0.0179226543212 29:0.181046311482 30:0.0327777669013 
2 1:382.842375696 2:382.333985067 3:382.504072224 4:0.158856908439 5:0.0252355173587 6:0.126632477982 7:-0.150489947591 8:-1.2952601954e-14 9:0.083760062819 10:0.00701574812344 11:0.130803715329 12:-0.149033516288 13:2.81256499572e-15 14:0.0852272462781 15:0.00726368350816 16:0.208934762972 17:-0.216781117304 18:-6.92039018683e-15 19:0.131806020875 20:0.0173728271388 21:0.0612444566768 22:-0.0640383144213 23:-8.14163551392e-16 24:0.0421839119459 25:0.00177948242706 26:0.0959587267473 27:-0.130501298912 28:-0.00143536091541 29:0.0686014757643 30:0.00470616247703 
2 1:383.312969429 2:383.312969429 3:383.312969429 4:0.0 5:0.0 6:1.64313007645e-14 7:1.64313007645e-14 8:1.64313007645e-14 9:0.0 10:0.0 11:-2.26485497024e-14 12:-2.26485497024e-14 13:-2.26485497024e-14 14:0.0 15:0.0 16:3.99680288865e-15 17:3.99680288865e-15 18:3.99680288865e-15 19:0.0 20:0.0 21:9.7699626167e-15 22:9.7699626167e-15 23:9.7699626167e-15 24:0.0 25:0.0 26:-2.10942374679e-15 27:-2.10942374679e-15 28:-2.10942374679e-15 29:0.0 30:0.0 
2 1:382.59276302 2:381.891488461 3:382.359153706 4:0.219426893371 5:0.0481481615342 6:0.21053865782 7:-0.184116172785 8:-1.53950926081e-14 9:0.120418463014 10:0.0145006062347 11:0.215959387932 12:-0.180448214282 13:-3.47869881049e-15 14:0.119635709444 15:0.0143127029743 16:0.366774727866 17:-0.364783159329 18:3.03460960064e-15 19:0.221193728297 20:0.0489266654378 21:0.133083960219 22:-0.160287067061 23:1.59131966863e-15 24:0.106076516065 25:0.0112522272606 26:0.119697695852 27:-0.108954990101 28:-0.00718132756501 29:0.0725424283641 30:0.00526240391297 
2 1:381.344287789 2:381.225973007 3:381.305364563 4:0.0372034672406 5:0.00138409797473 6:0.0364865801845 7:-0.0357805238571 8:-1.03620815632e-14 9:0.023817294225 10:0.000567263504198 11:0.0432211007798 12:-0.0332447808714 13:-2.73855012741e-15 14:0.0236222360775 15:0.0005580100373 16:0.103678619898 17:-0.107670440081 18:-1.85037170771e-15 19:0.0641965233187 20:0.00412119360621 21:0.130749757097 22:-0.133942126652 23:-8.51170985546e-16 24:0.0799362448263 25:0.00638980323693 26:0.0207672945934 27:-0.0300804310837 28:0.00182723580808 29:0.0161165481253 30:0.000259743123476 
2 1:380.494852499 2:378.795154381 3:379.926327004 4:0.531145619834 5:0.282115669469 6:0.50337589871 7:-0.424574475794 8:-8.58572472377e-15 9:0.280562020328 10:0.0787150472504 11:0.499995087762 12:-0.438024136566 13:-1.20644235343e-14 14:0.285494700026 15:0.0815072237427 16:0.73536130848 17:-0.710344562731 18:-8.25265781638e-15 19:0.446547999929 20:0.199405116241 21:0.231552741208 22:-0.244726707706 23:-3.36767650803e-15 24:0.146395731623 25:0.0214317102373 26:0.102614475843 27:-0.103483863074 28:0.000897013138842 29:0.0702958232221 30:0.00494150276247 
2 1:378.649070931 2:378.533407603 3:378.610541042 4:0.0361907390814 5:0.00130976959526 6:0.0347247755946 7:-0.0303668354757 8:7.40148683083e-17 9:0.0198609801588 10:0.000394458532867 11:0.0356188329551 12:-0.0297618680212 13:-1.70234197109e-15 14:0.0197318782526 15:0.000389347019375 16:0.060493261669 17:-0.0601647862657 18:2.59052039079e-15 19:0.0364821484927 20:0.00133094715864 21:0.0219499387984 22:-0.0264366292254 23:-1.14723045878e-15 24:0.0174955196085 25:0.000306093206371 26:0.0197421018577 27:-0.0179702750095 28:-0.00118443800653 29:0.0119646414208 30:0.000143152644328 
2 1:378.126927442 2:377.96855759 3:378.074392658 4:0.049636241258 5:0.00246375644622 6:0.0478760683019 7:-0.0437433617462 8:-1.19163937976e-14 9:0.0285679260418 10:0.000816126398327 11:0.0522378774606 12:-0.0426555891626 13:-6.58732327944e-15 14:0.0286875590984 15:0.000822976047024 16:0.103767017218 17:-0.105283487631 18:-2.84957242987e-15 19:0.0629874592952 20:0.00396742002846 21:0.0828520903161 22:-0.0874562209123 23:-4.10782519111e-15 24:0.0522212144115 25:0.00272705523462 26:0.0190347697277 27:-0.0270842900136 28:0.0014636743885 29:0.0166247514655 30:0.000276382361289 
2 1:377.862986339 2:377.862986339 3:377.862986339 4:0.0 5:0.0 6:5.3290705182e-15 7:5.3290705182e-15 8:5.3290705182e-15 9:0.0 10:0.0 11:-1.64313007645e-14 12:-1.64313007645e-14 13:-1.64313007645e-14 14:0.0 15:0.0 16:-1.93178806285e-14 17:-1.93178806285e-14 18:-1.93178806285e-14 19:0.0 20:0.0 21:2.22044604925e-15 22:2.22044604925e-15 23:2.22044604925e-15 24:0.0 25:0.0 26:-4.66293670343e-15 27:-4.66293670343e-15 28:-4.66293670343e-15 29:0.0 30:0.0 
2 1:376.615924763 2:375.401644319 3:376.211422392 4:0.379945032796 5:0.144358227946 6:0.36455475453 7:-0.318803334598 8:-1.25825276124e-15 9:0.208508611576 10:0.0434758411013 11:0.373940930712 12:-0.312452141303 13:-3.66373598126e-15 14:0.20715324749 15:0.0429124679458 16:0.635082755205 17:-0.631634287419 18:-3.36767650803e-15 19:0.383004366789 20:0.14669234498 21:0.23043934521 22:-0.277542438011 23:-3.53420996172e-15 24:0.183675048925 25:0.0337365235977 26:0.207260579036 27:-0.188659223358 28:-0.012434709781 29:0.125609650214 30:0.015777784227 
2 1:375.442927523 2:375.442927523 3:375.442927523 4:5.68434188608e-14 5:3.23117426779e-27 6:2.6645352591e-15 7:2.6645352591e-15 8:2.6645352591e-15 9:0.0 10:0.0 11:-5.99520433298e-15 12:-5.99520433298e-15 13:-5.99520433298e-15 14:0.0 15:0.0 16:-6.43929354283e-15 17:-6.43929354283e-15 18:-6.43929354283e-15 19:0.0 20:0.0 21:4.66293670343e-15 22:4.66293670343e-15 23:4.66293670343e-15 24:0.0 25:0.0 26:1.7763568394e-15 27:1.7763568394e-15 28:1.7763568394e-15 29:0.0 30:0.0 
2 1:375.185653854 2:374.544340427 3:374.971143389 4:0.200406656973 5:0.040162828159 6:0.189928858102 7:-0.160196277918 8:-9.62193288008e-15 9:0.105858910378 10:0.0112061089063 11:0.188653243667 12:-0.165270972036 13:-4.10782519111e-15 14:0.107720060712 15:0.0116036114799 16:0.277459318116 17:-0.268020244919 18:-1.03620815632e-15 19:0.168487112577 20:0.0283879071045 21:0.0873672097548 22:-0.0923378816125 23:-4.90348502543e-15 24:0.0552366019299 25:0.00305108219276 26:0.0387174878091 27:-0.0390455164741 28:0.000338452201621 29:0.026523330712 30:0.000703487072058 
2 1:374.534040751 2:374.534040751 3:374.534040751 4:5.68434188608e-14 5:3.23117426779e-27 6:-3.5527136788e-15 7:-3.5527136788e-15 8:-3.5527136788e-15 9:0.0 10:0.0 11:-1.26565424807e-14 12:-1.26565424807e-14 13:-1.26565424807e-14 14:0.0 15:0.0 16:8.21565038223e-15 17:8.21565038223e-15 18:8.21565038223e-15 19:0.0 20:0.0 21:-6.43929354283e-15 22:-6.43929354283e-15 23:-6.43929354283e-15 24:0.0 25:0.0 26:-6.88338275268e-15 27:-6.88338275268e-15 28:-6.88338275268e-15 29:0.0 30:0.0 
2 1:374.795631547 2:374.590986801 3:374.659452742 4:0.0639453794609 5:0.0040890115544 6:0.0509739358284 7:-0.0605773894151 8:-7.40148683083e-15 9:0.0337163114483 10:0.00113678965768 11:0.0526530025909 12:-0.0599911256305 13:-9.58492544593e-15 14:0.0343069033461 15:0.0011769636172 16:0.084103441469 17:-0.0872618694535 18:-5.69914485974e-15 19:0.05305646511 20:0.00281498848997 21:0.0246530041442 22:-0.0257776281558 23:3.51570624465e-16 24:0.016980478111 25:0.000288336636878 26:0.038626694015 27:-0.0525312695626 28:-0.000577782227428 29:0.0276144578315 30:0.000762558281327 
2 1:376.160154382 2:375.321501465 3:375.602019258 4:0.262074081637 5:0.0686828242656 6:0.209490508205 7:-0.248372143996 8:-9.91799235332e-15 9:0.138432910061 10:0.0191636705878 11:0.21612674385 12:-0.246704008383 13:-9.43689570931e-15 14:0.140866757679 15:0.0198434434189 16:0.350493145329 17:-0.362836729504 18:-1.73934940525e-15 19:0.220332527687 20:0.0485464227572 21:0.120751305817 22:-0.114251101273 23:-5.64363370851e-15 24:0.0722335372596 25:0.00521768390503 26:0.0510602692872 27:-0.0506313024434 28:-0.000442597822146 29:0.0346848634835 30:0.00120303975487 
2 1:376.173623386 2:376.173623386 3:376.173623386 4:0.0 5:0.0 6:-1.42108547152e-14 7:-1.42108547152e-14 8:-1.42108547152e-14 9:0.0 10:0.0 11:-1.35447209004e-14 12:-1.35447209004e-14 13:-1.35447209004e-14 14:0.0 15:0.0 16:-1.46549439251e-14 17:-1.46549439251e-14 18:-1.46549439251e-14 19:0.0 20:0.0 21:-3.66373598126e-15 22:-3.66373598126e-15 23:-3.66373598126e-15 24:0.0 25:0.0 26:-2.33146835171e-15 27:-2.33146835171e-15 28:-2.33146835171e-15 29:0.0 30:0.0 
2 1:376.972426948 2:376.835327871 3:376.880430759 4:0.0431100910891 5:0.00185847995371 6:0.0414612335113 7:-0.0422793871633 8:-4.58892183512e-15 9:0.0275986567836 10:0.000761685856259 11:0.0385229022428 12:-0.0500831167035 13:-1.02880666949e-14 14:0.0273726301487 15:0.00074926088126 16:0.124764781989 17:-0.120139198825 18:-5.51410768897e-15 19:0.0743887108687 20:0.0055336803047 21:0.155207503733 22:-0.151508296307 23:-5.05151476204e-15 24:0.0926273557649 25:0.00857982703599 26:0.0348561631536 27:-0.0240644227003 28:-0.00211733765614 29:0.0186752985476 30:0.000348766775843 
2 1:376.814665028 2:376.279126206 3:376.635534704 4:0.167352717782 5:0.028006932149 6:0.158603067726 7:-0.133774410956 8:-1.93918954968e-14 9:0.08839914113 10:0.00781440815252 11:0.157537845913 12:-0.138012113761 13:-7.03141248929e-16 14:0.0899533238673 15:0.00809160047478 16:0.23169674931 17:-0.223814503397 18:-7.40148683083e-17 19:0.140697802293 20:0.0197958715701 21:0.072957356898 22:-0.0771081942861 23:-1.66533453694e-15 24:0.046126189587 25:0.00212762536581 26:0.0323316446091 27:-0.0326055700836 28:0.000282629811989 29:0.0221487227337 30:0.000490565918736 
2 1:377.194398752 2:376.738614283 3:376.890445682 4:0.142613714888 5:0.0203386716742 6:0.119663961735 7:-0.136836919386 8:-1.22124532709e-14 9:0.0782644464759 10:0.00612532358218 11:0.117280018818 12:-0.140360053888 13:-7.40148683083e-17 14:0.0777557057619 15:0.00604594977853 16:0.237086168799 17:-0.238380563406 18:-2.59052039079e-16 19:0.143762046747 20:0.020667526085 21:0.104176537939 22:-0.0864962250857 23:1.11022302463e-16 24:0.068943080705 25:0.0047531483771 26:0.0708139082461 27:-0.0777959930382 28:0.00466741239482 29:0.0471480274688 30:0.0022229364942 
2 1:376.355397947 2:376.184775292 3:376.299266464 4:0.0536514058938 5:0.00287847335438 6:0.0526175775632 7:-0.0515993683097 8:-1.93918954968e-14 9:0.0343471029592 10:0.00117972348169 11:0.0623294814461 12:-0.0479425538712 13:-2.84957242987e-15 14:0.0340658081063 15:0.00116047928194 16:0.149515734183 17:-0.155272368734 18:-6.18024150375e-15 19:0.0925782994166 20:0.00857074152287 21:0.188555229091 22:-0.193158969748 23:2.38697950294e-15 24:0.115276672711 25:0.0132887112712 26:0.0299486750613 27:-0.0433792207348 28:0.00263507079511 29:0.0232417978541 30:0.00054018116749 
2 1:377.380335547 2:376.476377788 3:376.778739147 4:0.282481458961 5:0.0797957746567 6:0.225803269163 7:-0.267712568764 8:1.11022302463e-15 9:0.149212505708 10:0.0222643718597 11:0.232956260085 12:-0.26591453754 13:8.14163551392e-16 14:0.151835873963 15:0.023054132622 16:0.377785603331 17:-0.391090366796 18:-1.48029736617e-16 19:0.237489542991 20:0.0564012830302 21:0.130154057302 22:-0.12314769005 23:9.80697005086e-16 24:0.0778582714612 25:0.00606191043492 26:0.055036267887 27:-0.0545738979375 28:-0.000477062354855 29:0.0373857299413 30:0.00139769280325 
2 1:378.452636113 2:377.930788725 3:378.104627073 4:0.163284621689 5:0.02666186768 6:0.137008454881 7:-0.156670518207 8:-3.47869881049e-15 9:0.0896083560022 10:0.00802965746541 11:0.134278975338 12:-0.160704307557 13:-5.18104078158e-16 14:0.0890258767148 15:0.00792560672484 16:0.271450227702 17:-0.272932236175 18:-1.11022302463e-16 19:0.164599396592 20:0.0270929613585 21:0.1192762323 22:-0.099033276019 23:-5.16253706451e-15 24:0.0789359204323 25:0.0062308795345 26:0.0810779119478 27:-0.089072003363 28:0.0053439226918 29:0.0539818195932 30:0.00291403684659 
2 1:378.434894304 2:378.434894304 3:378.434894304 4:0.0 5:0.0 6:2.17603712827e-14 7:2.17603712827e-14 8:2.17603712827e-14 9:0.0 10:0.0 11:-2.04281036531e-14 12:-2.04281036531e-14 13:-2.04281036531e-14 14:0.0 15:0.0 16:-8.65973959208e-15 17:-8.65973959208e-15 18:-8.65973959208e-15 19:0.0 20:0.0 21:-1.11022302463e-14 22:-1.11022302463e-14 23:-1.11022302463e-14 24:0.0 25:0.0 26:6.66133814775e-16 27:6.66133814775e-16 28:6.66133814775e-16 29:0.0 30:0.0 
2 1:378.372973766 2:378.218622673 3:378.321345462 4:0.0482338048493 5:0.00232649993024 6:0.045712011843 7:-0.0385559847332 8:-5.62512999143e-15 9:0.0254780859171 10:0.000649132862 11:0.0454049974022 12:-0.0397773603574 13:-5.10702591328e-15 14:0.0259260269356 15:0.000672158872666 16:0.0667788126692 17:-0.0645070197985 18:-1.81336427355e-15 19:0.0405514199499 20:0.00164441765995 21:0.0210275098103 22:-0.0222238493929 23:-1.62832710278e-15 24:0.0132943262378 25:0.000176739110117 26:0.00931851156768 27:-0.00939746139325 28:8.14585587654e-05 29:0.00638362605734 30:4.075068164e-05 
2 1:378.858994667 2:378.541850081 3:378.647497617 4:0.0992336743868 5:0.00984732213231 6:0.0832647450766 7:-0.0952140564676 8:-1.26565424807e-14 9:0.0544580765163 10:0.00296568209785 11:0.081605946585 12:-0.0976655288401 13:-6.2172489379e-15 14:0.0541040838417 15:0.00292725188835 16:0.164969629286 17:-0.16587029675 18:-6.92039018683e-15 19:0.100032708266 20:0.010006542723 21:0.0724882642087 22:-0.0601859242119 23:-1.11022302463e-15 24:0.0479720707596 25:0.00230131957296 26:0.0492738325936 27:-0.0541321165906 28:0.00324768541496 29:0.0328066063596 30:0.00107627342083 
2 1:378.84821236 2:378.84821236 3:378.84821236 4:0.0 5:0.0 6:-1.15463194561e-14 7:-1.15463194561e-14 8:-1.15463194561e-14 9:0.0 10:0.0 11:-1.06581410364e-14 12:-1.06581410364e-14 13:-1.06581410364e-14 14:0.0 15:0.0 16:4.21884749358e-15 17:4.21884749358e-15 18:4.21884749358e-15 19:0.0 20:0.0 21:5.55111512313e-15 22:5.55111512313e-15 23:5.55111512313e-15 24:0.0 25:0.0 26:-5.10702591328e-15 27:-5.10702591328e-15 28:-5.10702591328e-15 29:0.0 30:0.0 
2 1:378.84821236 2:378.84821236 3:378.84821236 4:0.0 5:0.0 6:-1.15463194561e-14 7:-1.15463194561e-14 8:-1.15463194561e-14 9:0.0 10:0.0 11:-1.06581410364e-14 12:-1.06581410364e-14 13:-1.06581410364e-14 14:0.0 15:0.0 16:4.21884749358e-15 17:4.21884749358e-15 18:4.21884749358e-15 19:0.0 20:0.0 21:5.55111512313e-15 22:5.55111512313e-15 23:5.55111512313e-15 24:0.0 25:0.0 26:-5.10702591328e-15 27:-5.10702591328e-15 28:-5.10702591328e-15 29:0.0 30:0.0 
2 1:378.684636695 2:378.621621284 3:378.66417911 4:0.0198620374869 5:0.000394500533132 6:0.0221207748398 7:-0.0213659447521 8:5.69914485974e-15 9:0.0140737545167 10:0.000198070566196 11:0.0240976252207 12:-0.0212730298347 13:-1.34707060321e-14 14:0.0163571225722 15:0.000267555458842 16:0.0312340069935 17:-0.0334295582382 18:-1.07321559047e-15 19:0.020198935732 20:0.000407997004706 21:0.0535659939011 22:-0.0601535018594 23:0.00305525609756 24:0.0354055131175 25:0.00125355035911 26:0.0479225121239 27:-0.0320752871857 28:-0.00958450242478 29:0.029655255545 30:0.000879434181437 
