2 1:138.964607064 2:138.964607064 3:138.964607064 4:0.0 5:0.0 6:-1.35447209004e-14 7:-1.35447209004e-14 8:-1.35447209004e-14 9:0.0 10:0.0 11:-9.32587340685e-15 12:-9.32587340685e-15 13:-9.32587340685e-15 14:0.0 15:0.0 16:1.66533453694e-15 17:1.66533453694e-15 18:1.66533453694e-15 19:0.0 20:0.0 21:-2.10942374679e-15 22:-2.10942374679e-15 23:-2.10942374679e-15 24:0.0 25:0.0 26:1.72084568817e-15 27:1.72084568817e-15 28:1.72084568817e-15 29:0.0 30:0.0 
2 1:138.62911803 2:138.302447894 3:138.520297333 4:0.102214192678 5:0.0104477411848 6:0.0980738441215 7:-0.0857656309627 8:-2.73855012741e-15 9:0.0560937439865 10:0.00314650811443 11:0.100598947328 12:-0.0840570098753 13:-2.6645352591e-15 14:0.0557291190176 15:0.00310573470648 16:0.170852269417 17:-0.169924550088 18:-3.57121739588e-15 19:0.10303722582 20:0.0106166699047 21:0.061993629601 22:-0.0746654747039 23:-2.52575738102e-15 24:0.0494129287671 25:0.00244163752934 26:0.0557579937399 27:-0.0507537894753 28:-0.00334523078797 29:0.0337919643132 30:0.00114189685214 
2 1:138.903929543 2:138.802603086 3:138.835937489 4:0.0318615770375 5:0.00101516009132 6:0.0306429481408 7:-0.0312476247943 8:-1.11022302463e-16 9:0.0203974685979 10:0.0004160567252 11:0.028471301881 12:-0.0370151637543 13:-2.49800180541e-15 14:0.0202304180337 15:0.000409269813816 16:0.0922104920792 17:-0.0887918406542 18:-2.97909844941e-15 19:0.0549788131312 20:0.00302266989332 21:0.114709937095 22:-0.111975946528 23:-2.26670534194e-15 24:0.068458533882 25:0.00468657086127 26:0.0257613078398 27:-0.0177854056523 28:-0.00156487066349 29:0.0138024404111 30:0.000190507361301 
2 1:138.901649553 2:138.790809741 3:138.86457517 4:0.0346367863165 5:0.00119970696634 6:0.0328258819982 7:-0.0276871254217 8:-7.40148683083e-17 9:0.0182958615938 10:0.000334738551459 11:0.0326054143486 12:-0.0285641975631 13:-2.27595720048e-15 14:0.0186175288848 15:0.000346612381776 16:0.0479539914406 17:-0.0463226126916 18:-1.05471187339e-15 19:0.0291200512177 20:0.000847977382922 21:0.0150998944898 22:-0.0159589882025 23:-1.88737914186e-15 24:0.00954668076798 25:9.11391136857e-05 26:0.00669164074794 27:-0.00674833476672 28:5.84955448229e-05 29:0.00458409392258 30:2.10139170911e-05 
2 1:139.406887972 2:139.102073239 3:139.203613442 4:0.0953756971949 5:0.00909652361542 6:0.0800276031551 7:-0.0915123527822 8:-3.21964677141e-15 9:0.0523408716621 10:0.00273956684634 11:0.0784332949363 12:-0.0938685175431 13:1.85037170771e-17 14:0.0520006414091 15:0.00270406670696 16:0.158555989248 17:-0.159421640832 18:-2.20194233217e-15 19:0.0961436664731 20:0.0092436046029 21:0.0696700870957 22:-0.0578460338036 23:-1.32301577101e-15 24:0.0461070269024 25:0.00212585792978 26:0.0473581792281 27:-0.0520275843092 28:0.00312142287017 29:0.0315311609036 30:0.000994214107929 
2 1:139.396524857 2:139.396524857 3:139.396524857 4:0.0 5:0.0 6:2.88657986403e-15 7:2.88657986403e-15 8:2.88657986403e-15 9:0.0 10:0.0 11:2.77555756156e-15 12:2.77555756156e-15 13:2.77555756156e-15 14:0.0 15:0.0 16:-5.99520433298e-15 17:-5.99520433298e-15 18:-5.99520433298e-15 19:0.0 20:0.0 21:1.16573417586e-15 22:1.16573417586e-15 23:1.16573417586e-15 24:0.0 25:0.0 26:-2.27595720048e-15 27:-2.27595720048e-15 28:-2.27595720048e-15 29:0.0 30:0.0 
2 1:139.396524857 2:139.396524857 3:139.396524857 4:0.0 5:0.0 6:2.88657986403e-15 7:2.88657986403e-15 8:2.88657986403e-15 9:0.0 10:0.0 11:2.77555756156e-15 12:2.77555756156e-15 13:2.77555756156e-15 14:0.0 15:0.0 16:-5.99520433298e-15 17:-5.99520433298e-15 18:-5.99520433298e-15 19:0.0 20:0.0 21:1.16573417586e-15 22:1.16573417586e-15 23:1.16573417586e-15 24:0.0 25:0.0 26:-2.27595720048e-15 27:-2.27595720048e-15 28:-2.27595720048e-15 29:0.0 30:0.0 
2 1:140.977678635 2:140.197630964 3:140.457481259 4:0.244074784947 5:0.0595725006467 6:0.20479766444 7:-0.234188147318 8:-1.88737914186e-15 9:0.133944887121 10:0.0179412327858 11:0.200717689697 12:-0.240217779858 13:4.07081775696e-16 14:0.133074208025 15:0.0177087448414 16:0.405758700758 17:-0.407973979182 18:-3.70074341542e-16 19:0.246040085772 20:0.0605357238067 21:0.178291871255 22:-0.1480330805 23:-2.86807614695e-15 24:0.117991930929 25:0.0139220957644 26:0.121193739606 27:-0.133143157272 28:0.00798799524587 29:0.0806910097961 30:0.00651103906191 
2 1:140.757501707 2:140.7173778 3:140.744301734 4:0.0126167536909 5:0.000159182473696 6:0.0123736369041 7:-0.0121341931255 8:-2.29446091756e-15 9:0.00807712176059 10:6.52398959355e-05 11:0.0146575043465 12:-0.0112742505704 13:-1.68383825401e-15 14:0.00801097199594 15:6.41756723197e-05 16:0.0351603683011 17:-0.0365141080402 18:-2.60902410787e-15 19:0.0217708666045 20:0.000473970632712 21:0.0443409607434 22:-0.0454235840402 23:-2.19269047363e-15 24:0.0271086537559 25:0.000734879108458 26:0.00704278015313 27:-0.0102011295733 28:0.000619667623357 29:0.00546557977322 30:2.98725622575e-05 
2 1:141.575535658 2:140.95115415 3:141.160001123 4:0.195115532065 5:0.0380700708531 6:0.155966785101 7:-0.184914367432 8:-2.47949808833e-15 9:0.10306402958 10:0.0106221941932 11:0.16090749744 12:-0.183672431695 13:-1.22124532709e-15 14:0.104876041931 15:0.0109989841712 16:0.260943989993 17:-0.270133853328 18:-6.66133814775e-16 19:0.164038725625 20:0.0269087035047 21:0.0898999822299 22:-0.0850605457617 23:-7.03141248929e-16 24:0.0537782483767 25:0.00289209999847 26:0.0380146390179 27:-0.0376952709467 28:-0.000329516406271 29:0.0258230632764 30:0.000666830596976 
2 1:141.585563402 2:141.585563402 3:141.585563402 4:0.0 5:0.0 6:-1.04360964315e-14 7:-1.04360964315e-14 8:-1.04360964315e-14 9:0.0 10:0.0 11:-1.33226762955e-15 12:-1.33226762955e-15 13:-1.33226762955e-15 14:0.0 15:0.0 16:1.88737914186e-15 17:1.88737914186e-15 18:1.88737914186e-15 19:0.0 20:0.0 21:-3.38618022511e-15 22:-3.38618022511e-15 23:-3.38618022511e-15 24:0.0 25:0.0 26:0.0 27:0.0 28:0.0 29:0.0 30:0.0 
2 1:142.11837013 2:142.02692423 3:142.057008125 4:0.0287546871946 5:0.000826832035657 6:0.027654889382 7:-0.0282006027346 8:2.59052039079e-16 9:0.0184084682438 10:0.000338871703083 11:0.0256950049474 12:-0.033405736758 13:-1.18423789293e-15 14:0.0182577071339 15:0.000333343869785 16:0.0832188517434 17:-0.0801335602578 18:-1.05471187339e-15 19:0.0496177126467 20:0.00246191740829 21:0.103524328233 22:-0.101056934876 23:-1.61907524425e-15 24:0.0617829972841 25:0.0038171387534 26:0.0232492681635 27:-0.016051113087 28:-0.00141227681152 29:0.0124565352203 30:0.000155165269694 
2 1:142.425307669 2:142.233420561 3:142.297604143 4:0.0599635876474 5:0.00359563184355 6:0.0479322578243 7:-0.056828530058 8:-1.07691633389e-14 9:0.0316739979927 10:0.00100324214884 11:0.0494506548183 12:-0.0564468540241 13:-3.9597954545e-15 14:0.0322308719654 15:0.00103882910765 16:0.0801942195448 17:-0.0830184804825 18:2.59052039079e-16 19:0.0504129548144 20:0.00254146601312 21:0.0276283769256 22:-0.0261411043863 23:-2.32221649317e-15 24:0.0165273193576 25:0.000273152285147 26:0.0116827918029 27:-0.0115846424904 28:-0.00010126813432 29:0.00793603411121 30:6.29806374143e-05 
2 1:143.259984852 2:142.849724901 3:142.986391124 4:0.128369217609 5:0.0164786560296 6:0.107711724331 7:-0.12316941814 8:-2.22044604925e-15 9:0.0704472621626 10:0.00496281674621 11:0.105565893635 12:-0.126340656053 13:-2.34997206879e-15 14:0.0699893353253 15:0.00489850705927 16:0.213405604212 17:-0.214570712513 18:-2.12792746386e-15 19:0.129402852154 20:0.0167450981456 21:0.0937712104264 22:-0.0778568369044 23:-7.30896824545e-16 24:0.0620569300547 25:0.00385106256781 26:0.0637408962 27:-0.0700255986408 28:0.00420122340864 29:0.0424388033277 30:0.00180105202789 
2 1:144.003573956 2:143.410946077 3:143.609215646 4:0.18517853654 5:0.0342910903952 6:0.147614713025 7:-0.175425220929 8:4.4408920985e-16 9:0.0976385981936 10:0.00953329585721 11:0.15247709915 12:-0.173727467775 13:-2.77555756156e-15 14:0.0993488850705 15:0.00987020096475 16:0.243553988428 17:-0.252700436175 18:-4.99600361081e-16 19:0.153645480657 20:0.0236069337263 21:0.07139229241 22:-0.0746490754704 23:-1.48029736617e-15 24:0.0491735307986 25:0.0024180361312 26:0.111858506891 27:-0.152124574163 28:-0.00167319153025 29:0.0799683250252 30:0.00639493300733 
2 1:144.552142222 2:144.552142222 3:144.552142222 4:0.0 5:0.0 6:2.22044604925e-15 7:2.22044604925e-15 8:2.22044604925e-15 9:0.0 10:0.0 11:5.10702591328e-15 12:5.10702591328e-15 13:5.10702591328e-15 14:0.0 15:0.0 16:-1.11022302463e-15 17:-1.11022302463e-15 18:-1.11022302463e-15 19:0.0 20:0.0 21:6.10622663544e-16 22:6.10622663544e-16 23:6.10622663544e-16 24:0.0 25:0.0 26:-5.55111512313e-16 27:-5.55111512313e-16 28:-5.55111512313e-16 29:0.0 30:0.0 
2 1:144.552142222 2:144.552142222 3:144.552142222 4:0.0 5:0.0 6:2.22044604925e-15 7:2.22044604925e-15 8:2.22044604925e-15 9:0.0 10:0.0 11:5.10702591328e-15 12:5.10702591328e-15 13:5.10702591328e-15 14:0.0 15:0.0 16:-1.11022302463e-15 17:-1.11022302463e-15 18:-1.11022302463e-15 19:0.0 20:0.0 21:6.10622663544e-16 22:6.10622663544e-16 23:6.10622663544e-16 24:0.0 25:0.0 26:-5.55111512313e-16 27:-5.55111512313e-16 28:-5.55111512313e-16 29:0.0 30:0.0 
2 1:145.66158692 2:145.471172341 3:145.533814976 4:0.0598748732405 5:0.00358500044557 6:0.0575848029584 7:-0.0587211226684 8:-7.1054273576e-15 9:0.0383313056127 10:0.00146928898997 11:0.0535038045703 12:-0.0695595900717 13:-3.46019509342e-15 14:0.0380173810588 15:0.00144532126257 16:0.173283686435 17:-0.166859292549 18:-2.34997206879e-15 19:0.10331721695 20:0.0106744473183 21:0.215565065561 22:-0.210427299203 23:-7.49400541622e-16 24:0.128648561042 25:0.0165504522583 26:0.0484111329331 27:-0.0334226679272 28:-0.00294073430526 29:0.0259378049319 30:0.000672769724687 
2 1:145.837113482 2:145.768419862 3:145.791396927 4:0.0214663506971 5:0.00046080421225 6:0.0171592577517 7:-0.020344032165 8:-2.81256499572e-15 9:0.0113389671227 10:0.000128572175409 11:0.0177028283359 12:-0.020207396051 13:2.96059473233e-16 14:0.0115383223057 15:0.00013313288163 16:0.0287087098716 17:-0.0297197663831 18:-8.69674702623e-16 19:0.0180473218862 20:0.000325705827263 21:0.00989067618442 22:-0.00935824783644 23:-8.51170985546e-16 24:0.00591661118575 25:3.50062879233e-05 26:0.00418231990116 27:-0.00414718345177 28:-3.62529556855e-05 29:0.00284101899268 30:8.07138891675e-06 
2 1:147.141098067 2:146.498333541 3:146.712451932 4:0.201119264035 5:0.040448958366 6:0.168754652625 7:-0.192972608148 8:3.88578058619e-15 9:0.110371487677 10:0.012181865292 11:0.165392726002 12:-0.197941065906 13:-4.21884749358e-15 14:0.109654042247 15:0.0120240089811 16:0.334347897879 17:-0.336173302196 18:4.4408920985e-16 19:0.20273868513 20:0.0411029744484 21:0.146913700807 22:-0.121980253755 23:-9.89948863624e-16 24:0.097226144502 25:0.00945292317473 26:0.0998644563817 27:-0.10971085689 28:0.00658216179649 29:0.0664899346648 30:0.00442091141173 
2 1:148.027035663 2:147.871231125 3:147.92248774 4:0.048991925923 5:0.00240020880564 6:0.0471181022713 7:-0.0480478827959 8:-3.40468394218e-15 9:0.0313641496586 10:0.000983709883805 11:0.0437788723088 12:-0.0569163340076 13:-2.70154269325e-15 14:0.0311072845054 15:0.000967663149299 16:0.141787382086 17:-0.136530695727 18:-2.64603154202e-15 19:0.0845381236807 20:0.00714669435546 21:0.176383633935 22:-0.172179715743 23:-2.09092002971e-15 24:0.105265204443 25:0.0110807632665 26:0.0396118523538 27:-0.0273477133665 28:-0.00240622200007 29:0.0212233103647 30:0.000450428902835 
2 1:148.871793967 2:148.315192028 3:148.501367673 4:0.173934817296 5:0.0302533206676 6:0.139035852162 7:-0.16484103738 8:-3.92278802034e-15 9:0.0918759412175 10:0.0084411885746 11:0.143440226785 12:-0.163733919647 13:-2.77555756156e-15 14:0.0934912510496 15:0.00874061402282 16:0.232617284454 17:-0.240809544615 18:-2.55351295664e-15 19:0.146231545326 20:0.0213836648484 21:0.0801409135322 22:-0.0758268208046 23:-1.38777878078e-15 24:0.0479403649052 25:0.00229827858724 26:0.0338879699742 27:-0.0336032708192 28:-0.000293745840293 29:0.0230198474998 30:0.000529913378915 
2 1:148.880733152 2:148.880733152 3:148.880733152 4:0.0 5:0.0 6:3.10862446895e-15 7:3.10862446895e-15 8:3.10862446895e-15 9:0.0 10:0.0 11:-3.21964677141e-15 12:-3.21964677141e-15 13:-3.21964677141e-15 14:0.0 15:0.0 16:-2.44249065418e-15 17:-2.44249065418e-15 18:-2.44249065418e-15 19:0.0 20:0.0 21:-3.5527136788e-15 22:-3.5527136788e-15 23:-3.5527136788e-15 24:0.0 25:0.0 26:-1.44328993201e-15 27:-1.44328993201e-15 28:-1.44328993201e-15 29:0.0 30:0.0 
2 1:149.144273395 2:148.964839335 3:149.083857374 4:0.0559526894531 5:0.00313070345703 6:0.0522619268512 7:-0.0410185143914 8:-2.6645352591e-15 9:0.0283728606492 10:0.000805019221417 11:0.0476273762654 12:-0.0445333703928 13:-5.23655193282e-15 14:0.0290946251528 15:0.000846497212784 16:0.0455046933591 17:-0.0393462813689 18:-2.53500923956e-15 19:0.0322177264318 20:0.00103798189644 21:0.0899271968805 22:-0.0958249891646 23:9.25185853854e-17 24:0.0578529310728 25:0.00334696163372 26:0.0645577816108 27:-0.0467219085443 28:-0.000363226351284 29:0.0329605041182 30:0.00108639483172 
2 1:148.763641926 2:148.763641926 3:148.763641926 4:0.0 5:0.0 6:-2.6645352591e-15 7:-2.6645352591e-15 8:-2.6645352591e-15 9:0.0 10:0.0 11:-7.32747196253e-15 12:-7.32747196253e-15 13:-7.32747196253e-15 14:0.0 15:0.0 16:-1.7763568394e-15 17:-1.7763568394e-15 18:-1.7763568394e-15 19:0.0 20:0.0 21:-2.05391259556e-15 22:-2.05391259556e-15 23:-2.05391259556e-15 24:0.0 25:0.0 26:6.66133814775e-16 27:6.66133814775e-16 28:6.66133814775e-16 29:0.0 30:0.0 
2 1:148.349369475 2:147.94598688 3:148.214994244 4:0.126217311823 5:0.0159308098037 6:0.121104678723 7:-0.105906108568 8:-6.55031584529e-15 9:0.0692663258454 10:0.00479782389613 11:0.124222755875 12:-0.103796249311 13:-2.38697950294e-15 14:0.0688160754233 15:0.00473565223666 16:0.210973775751 17:-0.209828198638 18:-2.72004641033e-15 19:0.127233619129 20:0.0161883938365 21:0.0765516908502 22:-0.0921992852088 23:-5.82867087928e-16 24:0.0610166443121 25:0.00372303088311 26:0.068851730842 27:-0.062672381443 28:-0.00413079657944 29:0.0417273842808 30:0.00174117459892 
2 1:147.509636254 2:147.20842863 3:147.409313552 4:0.0942644743841 5:0.00888579113091 6:0.0901575671655 7:-0.0793209962736 8:-2.77555756156e-15 9:0.0518362748515 10:0.00268699939048 11:0.0941089304108 12:-0.079405795007 13:-1.42478621494e-15 14:0.0523883212681 15:0.00274453620529 16:0.164664609291 17:-0.163975537902 18:-3.46019509342e-15 19:0.0993026257304 20:0.00986101147695 21:0.0715207087331 22:-0.0805864913268 23:-2.03540887848e-16 24:0.0501246437758 25:0.00251247991365 26:0.0557060958876 27:-0.0418350883285 28:0.00186669132824 29:0.0337149294728 30:0.00113669646935 
2 1:146.970628433 2:146.970628433 3:146.970628433 4:0.0 5:0.0 6:-5.3290705182e-15 7:-5.3290705182e-15 8:-5.3290705182e-15 9:0.0 10:0.0 11:-4.66293670343e-15 12:-4.66293670343e-15 13:-4.66293670343e-15 14:0.0 15:0.0 16:8.881784197e-16 17:8.881784197e-16 18:8.881784197e-16 19:0.0 20:0.0 21:1.66533453694e-16 22:1.66533453694e-16 23:1.66533453694e-16 24:0.0 25:0.0 26:1.16573417586e-15 27:1.16573417586e-15 28:1.16573417586e-15 29:0.0 30:0.0 
2 1:146.357355492 2:145.760203472 3:146.158431587 4:0.186847235151 5:0.0349118892834 6:0.179278690509 7:-0.156779314071 8:-4.0338103228e-15 9:0.102539194397 10:0.0105142863876 11:0.183894571536 12:-0.153655959889 13:-2.33146835171e-15 14:0.101872661056 15:0.0103780390707 16:0.312317431889 17:-0.310621563762 18:-3.70074341542e-17 19:0.188351737246 20:0.0354763769237 21:0.113324167461 22:-0.136488261993 23:-1.81336427355e-15 24:0.0903266843767 25:0.00815890991048 26:0.101925443961 27:-0.092777773697 28:-0.00611507176545 29:0.0617716085879 30:0.00381573162754 
2 1:145.471411061 2:144.761834746 3:145.234152188 4:0.221764702632 5:0.0491795833335 6:0.210347130413 7:-0.178053950187 8:-9.62193288008e-16 9:0.117496110663 10:0.0138053360208 11:0.209781857681 12:-0.183148391426 13:-2.77555756156e-16 14:0.119454539531 15:0.0142693870147 16:0.313611174275 17:-0.303866792819 18:-1.20274161001e-15 19:0.190122828902 20:0.0361466900698 21:0.0822064286344 22:-0.0891150917662 23:-1.38777878078e-15 24:0.0525854597032 25:0.0027652305722 26:0.175556624491 27:-0.129354687863 28:0.00231316561551 29:0.093158000849 30:0.00867841312218 
2 1:143.858992148 2:143.214565355 3:143.643440305 4:0.201379565372 5:0.0405537293492 6:0.190850900234 7:-0.160973978153 8:2.44249065418e-15 9:0.106372820567 10:0.0113151769553 11:0.18956909311 12:-0.166073308242 13:-1.90588285894e-15 14:0.108243006174 15:0.0117165483856 16:0.27880629184 17:-0.269321395047 18:-1.79486055648e-15 19:0.169305062087 20:0.0286642040484 21:0.0877913488201 22:-0.0927861516546 23:-1.68383825401e-15 24:0.055504757463 25:0.00308077810103 26:0.0389054484769 27:-0.0392350696131 28:0.000340095275733 29:0.0266520927581 30:0.000710334048389 
2 1:141.909482366 2:140.648783319 3:141.489516982 4:0.394469286708 5:0.155606018156 6:0.378490680422 7:-0.330990309502 8:-1.40628249786e-15 9:0.216479322484 10:0.0468632970632 11:0.388235664311 12:-0.324396327552 13:-1.07321559047e-15 14:0.215072146556 15:0.0462560282244 16:0.659360222722 17:-0.655779929495 18:-6.47630097698e-16 19:0.397645570629 20:0.158121999841 21:0.239248407765 22:-0.288152122289 23:-1.06396373193e-15 24:0.190696441015 25:0.036365132616 26:0.215183581092 27:-0.195871146732 28:-0.0129100545456 29:0.130411361768 30:0.0170071232781 
2 1:139.002687778 2:137.876036366 3:138.627442704 4:0.352593621437 5:0.124322261878 6:0.337244676003 7:-0.296760693917 8:2.36847578587e-15 9:0.193928775671 10:0.0376083700333 11:0.352097008103 12:-0.29704195702 13:-4.62592926927e-16 14:0.195988524925 15:0.0384115019024 16:0.616464681633 17:-0.613946846887 18:-2.62752782495e-15 19:0.37176984227 20:0.138212815622 21:0.26895488831 22:-0.302859820215 23:-7.30896824545e-16 24:0.188266447701 25:0.0354442553301 26:0.208040438819 27:-0.156255918741 28:0.00699755854279 29:0.126036720598 30:0.0158852549391 
2 1:136.570231637 2:135.530906332 3:136.222591707 4:0.324783017214 5:0.105484008271 6:0.307802487814 7:-0.259617276565 8:-3.44169137634e-15 9:0.17155705719 10:0.0294318238716 11:0.30573520167 12:-0.26784142686 13:-2.53500923956e-15 14:0.174573274467 15:0.030475828158 16:0.449656093531 17:-0.434358943632 18:4.4408920985e-16 19:0.273053568235 20:0.074558251126 21:0.141589039099 22:-0.149644608848 23:-1.75785312232e-15 24:0.0895175365253 25:0.00801338934556 26:0.0627463313822 27:-0.0632779411658 28:0.000548502374552 29:0.0429842376762 30:0.00184764468861 
2 1:134.777095295 2:134.059352548 3:134.538000081 4:0.224579744123 5:0.0504360614702 6:0.215482784151 7:-0.188439813998 8:-4.4408920985e-15 9:0.12324627668 10:0.0151896447155 11:0.221030810479 12:-0.184685720006 13:-9.25185853854e-16 14:0.122445141533 15:0.0149928126851 16:0.37538778073 17:-0.373349443744 18:-1.2952601954e-16 19:0.226388070028 20:0.0512515582511 21:0.136209200585 22:-0.164051124061 23:-1.50805294178e-15 24:0.108567534587 25:0.0117869095664 26:0.122508583582 27:-0.111513604471 28:-0.00734996828437 29:0.0742459584138 30:0.00551246234078 
2 1:133.162323105 2:132.744838077 3:133.023637215 4:0.130778896243 5:0.0171031197024 6:0.125771435355 7:-0.113431866726 8:1.88737914186e-15 9:0.0740267990066 10:0.00547996697116 11:0.135160385361 12:-0.111610021407 13:-4.27435864481e-15 14:0.0745042743712 15:0.00555088689959 16:0.257671024311 17:-0.259933701653 18:0.0 19:0.155953655626 20:0.0243215427031 21:0.176625718949 22:-0.188912913699 23:-6.47630097698e-16 24:0.113276994616 25:0.0128316775092 26:0.059647860934 27:-0.0654226251197 28:0.0034131630764 29:0.0440993928286 30:0.00194475644786 
2 1:132.155079508 2:131.42349444 3:131.910374429 4:0.228616011265 5:0.0522652806066 6:0.216663351504 7:-0.18274559653 8:-5.36607795235e-16 9:0.120759670427 10:0.0145828980016 11:0.21520818086 12:-0.18853460746 13:-1.18423789293e-15 14:0.122882797334 15:0.0151001818807 16:0.316514648536 17:-0.305746926061 18:-2.98835030795e-15 19:0.192203453761 20:0.0369421676377 21:0.0996650675741 22:-0.105335414012 23:-3.05311331772e-16 24:0.0630117372336 25:0.0039704790292 26:0.0441673832737 27:-0.0445415854389 28:0.000386092924794 29:0.0302567697322 30:0.00091547211463 
2 1:131.168081019 2:130.930822184 3:131.089045108 4:0.0742376412225 5:0.00551122737428 6:0.0712305274098 7:-0.062291135642 8:-2.23894976633e-15 9:0.0407405970913 10:0.00165979625136 11:0.0730644968519 12:-0.0610501729542 13:-8.32667268469e-16 14:0.040475771856 15:0.00163828810734 16:0.124089122525 17:-0.123415324759 18:-2.07241631263e-15 19:0.0748354059511 20:0.00560033798386 21:0.0450256535989 22:-0.0542291493731 23:-1.16573417586e-15 24:0.0358883554374 25:0.001287974056 26:0.040496743418 27:-0.0368622156575 28:-0.00242962387647 29:0.0245429294814 30:0.000602355387527 
2 1:130.854870071 2:130.552936294 3:130.753855114 4:0.0943452999812 5:0.00890103562855 6:0.0893761523448 7:-0.075207173802 8:-1.42478621494e-15 9:0.0497451973022 10:0.00247458465463 11:0.0885111761247 12:-0.0776844764427 13:-4.99600361081e-15 14:0.0506165592401 15:0.0025620360693 16:0.128746554011 17:-0.124086595181 18:-2.31296463464e-15 19:0.078279746855 20:0.00612771876768 21:0.0380324283265 22:-0.0363731530101 23:-1.80411241502e-15 24:0.0250530736499 25:0.00062765649931 26:0.0775048709862 27:-0.0569899977896 28:0.000852462492668 29:0.0407424950778 30:0.00165995090516 
2 1:130.273450136 2:130.273450136 3:130.273450136 4:2.84217094304e-14 5:8.07793566946e-28 6:1.66533453694e-15 7:1.66533453694e-15 8:1.66533453694e-15 9:0.0 10:0.0 11:-1.11022302463e-16 12:-1.11022302463e-16 13:-1.11022302463e-16 14:0.0 15:0.0 16:-2.88657986403e-15 17:-2.88657986403e-15 18:-2.88657986403e-15 19:0.0 20:0.0 21:-1.11022302463e-15 22:-1.11022302463e-15 23:-1.11022302463e-15 24:0.0 25:0.0 26:-8.881784197e-16 27:-8.881784197e-16 28:-8.881784197e-16 29:0.0 30:0.0 
2 1:129.583297267 2:128.911286239 3:129.359436251 4:0.210270414354 5:0.0442136471525 6:0.201753076559 7:-0.17643317711 8:-2.27595720048e-15 9:0.115393513187 10:0.0133156628857 11:0.206947604674 12:-0.172918279084 13:-1.83186799063e-15 14:0.114643423192 15:0.0131431144812 16:0.35146956154 17:-0.349561099295 18:-1.28600833686e-15 19:0.211963520911 20:0.0449285341971 21:0.12753049104 22:-0.153598437679 23:1.38777878078e-16 24:0.10165004227 25:0.0103327310935 26:0.114702822965 27:-0.104408400276 28:-0.00688165748286 29:0.069515300682 30:0.0048323770289 
2 1:128.64694929 2:127.964244824 3:128.418662956 4:0.213362442265 5:0.0455235317695 6:0.202353465071 7:-0.17119133385 8:-5.7361522939e-16 9:0.112991529726 10:0.0127670857898 11:0.201675457991 12:-0.17615934437 13:-1.20274161001e-15 14:0.114884059997 15:0.0131983472413 16:0.300725208668 17:-0.291239519651 18:6.19874522082e-16 19:0.182355358934 20:0.0332534769321 21:0.0797489864609 22:-0.085408074207 23:-1.44328993201e-15 24:0.0509617630692 25:0.00259710129512 26:0.169510440319 27:-0.124874438039 28:0.00219724846581 29:0.0898620441497 30:0.00807518697876 
2 1:127.343182665 2:127.343182665 3:127.343182665 4:0.0 5:0.0 6:-5.88418203051e-15 7:-5.88418203051e-15 8:-5.88418203051e-15 9:0.0 10:0.0 11:-3.77475828373e-15 12:-3.77475828373e-15 13:-3.77475828373e-15 14:0.0 15:0.0 16:3.05311331772e-15 17:3.05311331772e-15 18:3.05311331772e-15 19:0.0 20:0.0 21:1.55431223448e-15 22:1.55431223448e-15 23:1.55431223448e-15 24:0.0 25:0.0 26:-3.44169137634e-15 27:-3.44169137634e-15 28:-3.44169137634e-15 29:0.0 30:0.0 
2 1:126.861326187 2:126.392136125 3:126.705029103 4:0.146808288156 5:0.0215526734714 6:0.140861584788 7:-0.123183533856 8:-2.64603154202e-15 9:0.0805663706302 10:0.00649094007653 11:0.144488342183 12:-0.120729474098 13:-2.20194233217e-15 14:0.0800426667677 15:0.00640682850329 16:0.245391843771 17:-0.244059378259 18:-1.7763568394e-15 19:0.147990394903 20:0.0219011569835 21:0.089040263391 22:-0.107240591923 23:-1.5358085174e-15 24:0.070970843628 25:0.00503686064527 26:0.0800841389786 27:-0.0728966961938 28:-0.00480469093973 29:0.0485347514303 30:0.0023556220964 
2 1:126.090714448 2:126.024957635 3:126.069081755 4:0.0206768875754 5:0.000427533679806 6:0.0202784571558 7:-0.0198860462224 8:-3.16413562018e-15 9:0.0132371402873 10:0.000175221882986 11:0.0240213589751 12:-0.0184767347651 13:-3.33066907388e-16 14:0.0131287311608 15:0.000172363581893 16:0.0576223488454 17:-0.0598409167177 18:-1.32301577101e-15 19:0.0356790480523 20:0.00127299446992 21:0.0726679051316 22:-0.0744421555247 23:-1.97989772725e-15 24:0.0444268470135 25:0.00197374473556 26:0.0115420160378 27:-0.0167180571562 28:0.00101553839412 29:0.00895723109719 30:8.02319889284e-05 
2 1:125.997581087 2:125.997581087 3:125.997581087 4:1.42108547152e-14 5:2.01948391737e-28 6:2.10942374679e-15 7:2.10942374679e-15 8:2.10942374679e-15 9:0.0 10:0.0 11:2.6645352591e-15 12:2.6645352591e-15 13:2.6645352591e-15 14:0.0 15:0.0 16:-3.83026943496e-15 17:-3.83026943496e-15 18:-3.83026943496e-15 19:0.0 20:0.0 21:1.11022302463e-16 22:1.11022302463e-16 23:1.11022302463e-16 24:0.0 25:0.0 26:6.38378239159e-16 27:6.38378239159e-16 28:6.38378239159e-16 29:0.0 30:0.0 
2 1:125.997581087 2:125.997581087 3:125.997581087 4:1.42108547152e-14 5:2.01948391737e-28 6:2.10942374679e-15 7:2.10942374679e-15 8:2.10942374679e-15 9:0.0 10:0.0 11:2.6645352591e-15 12:2.6645352591e-15 13:2.6645352591e-15 14:0.0 15:0.0 16:-3.83026943496e-15 17:-3.83026943496e-15 18:-3.83026943496e-15 19:0.0 20:0.0 21:1.11022302463e-16 22:1.11022302463e-16 23:1.11022302463e-16 24:0.0 25:0.0 26:6.38378239159e-16 27:6.38378239159e-16 28:6.38378239159e-16 29:0.0 30:0.0 
2 1:125.975631181 2:125.89675068 3:125.949240923 4:0.0246478038579 5:0.000607514235019 6:0.0233496090744 7:-0.0196479492773 8:-1.94289029309e-15 9:0.0129959824837 10:0.000168895560717 11:0.0231236331729 12:-0.0202951470666 13:-3.77475828373e-15 14:0.0132236266604 15:0.000174864302053 16:0.0336351658352 17:-0.0324177469362 18:-6.84637531852e-16 19:0.0204506620564 20:0.000418229578547 21:0.00993600988941 22:-0.00950252255562 23:2.31296463464e-16 24:0.00654514051558 25:4.28388643687e-05 26:0.0202482249617 27:-0.0148886938476 28:0.000222706677702 29:0.0106440175352 30:0.000113295109289 
2 1:125.75514808 2:125.584180394 3:125.697961755 4:0.0534263915984 5:0.00285437931922 6:0.0506331161953 7:-0.0427067104752 8:2.96059473233e-16 9:0.028220916837 10:0.000796420147121 11:0.0502930502645 12:-0.0440595726969 13:-3.64523226419e-15 14:0.0287170807275 15:0.00082467072551 16:0.0739678531952 17:-0.0714514915705 18:-1.21199346855e-15 19:0.0449169632975 20:0.00201753359187 21:0.0232912161289 22:-0.0246163470661 23:-9.15933995316e-16 24:0.0147255204485 25:0.00021684095248 26:0.0103216913881 27:-0.0104091405187 28:9.02279402021e-05 29:0.00707085220879 30:4.99969509586e-05 
2 1:125.581434605 2:125.581434605 3:125.581434605 4:0.0 5:0.0 6:9.99200722163e-16 7:9.99200722163e-16 8:9.99200722163e-16 9:0.0 10:0.0 11:4.77395900589e-15 12:4.77395900589e-15 13:4.77395900589e-15 14:0.0 15:0.0 16:-1.38777878078e-15 17:-1.38777878078e-15 18:-1.38777878078e-15 19:0.0 20:0.0 21:4.99600361081e-16 22:4.99600361081e-16 23:4.99600361081e-16 24:0.0 25:0.0 26:4.4408920985e-16 27:4.4408920985e-16 28:4.4408920985e-16 29:0.0 30:0.0 
2 1:125.625642235 2:125.591058223 3:125.602628649 4:0.01080647238 5:0.000116779845299 6:0.00861435860217 7:-0.0102372976919 8:-1.66533453694e-15 9:0.00569790016874 10:3.24660663329e-05 11:0.00889811309306 12:-0.010138221833 13:-1.7763568394e-15 14:0.00579770745874 15:3.36134117771e-05 16:0.0142130913126 17:-0.0147468509848 18:-1.95214215163e-15 19:0.00896629638645 20:8.03944708897e-05 21:0.00416624329411 22:-0.00435629953306 23:-1.02695629778e-15 24:0.0028696220001 25:8.23473042344e-06 26:0.0065277320351 27:-0.00887754077621 28:-9.76425151416e-05 29:0.00466671522415 30:2.17782309833e-05 
2 1:126.258126224 2:125.829575422 3:125.972919734 4:0.133919593779 5:0.017934457598 6:0.107049440312 7:-0.12691791734 8:-1.49880108324e-15 9:0.0707390786805 10:0.00500401725257 11:0.110440550094 12:-0.126065501709 13:-1.51730480032e-15 14:0.0719827723809 15:0.00518151951963 16:0.179101646953 17:-0.18540920613 18:-1.42478621494e-15 19:0.112589701431 20:0.0126764408683 21:0.0617037965844 22:-0.0583821985594 23:-6.93889390391e-16 24:0.0369112653439 25:0.00136244150929 26:0.0260917465722 27:-0.0258725449438 28:-0.000226167044747 29:0.0177239305734 30:0.00031413771497 
2 1:126.265008872 2:126.265008872 3:126.265008872 4:0.0 5:0.0 6:-2.22044604925e-16 7:-2.22044604925e-16 8:-2.22044604925e-16 9:0.0 10:0.0 11:2.44249065418e-15 12:2.44249065418e-15 13:2.44249065418e-15 14:0.0 15:0.0 16:-1.22124532709e-15 17:-1.22124532709e-15 18:-1.22124532709e-15 19:0.0 20:0.0 21:1.66533453694e-16 22:1.66533453694e-16 23:1.66533453694e-16 24:0.0 25:0.0 26:6.10622663544e-16 27:6.10622663544e-16 28:6.10622663544e-16 29:0.0 30:0.0 
2 1:126.265008872 2:126.265008872 3:126.265008872 4:0.0 5:0.0 6:-2.22044604925e-16 7:-2.22044604925e-16 8:-2.22044604925e-16 9:0.0 10:0.0 11:2.44249065418e-15 12:2.44249065418e-15 13:2.44249065418e-15 14:0.0 15:0.0 16:-1.22124532709e-15 17:-1.22124532709e-15 18:-1.22124532709e-15 19:0.0 20:0.0 21:1.66533453694e-16 22:1.66533453694e-16 23:1.66533453694e-16 24:0.0 25:0.0 26:6.10622663544e-16 27:6.10622663544e-16 28:6.10622663544e-16 29:0.0 30:0.0 
2 1:126.265008872 2:126.265008872 3:126.265008872 4:0.0 5:0.0 6:-2.22044604925e-16 7:-2.22044604925e-16 8:-2.22044604925e-16 9:0.0 10:0.0 11:2.44249065418e-15 12:2.44249065418e-15 13:2.44249065418e-15 14:0.0 15:0.0 16:-1.22124532709e-15 17:-1.22124532709e-15 18:-1.22124532709e-15 19:0.0 20:0.0 21:1.66533453694e-16 22:1.66533453694e-16 23:1.66533453694e-16 24:0.0 25:0.0 26:6.10622663544e-16 27:6.10622663544e-16 28:6.10622663544e-16 29:0.0 30:0.0 
2 1:126.265008872 2:126.265008872 3:126.265008872 4:0.0 5:0.0 6:-2.22044604925e-16 7:-2.22044604925e-16 8:-2.22044604925e-16 9:0.0 10:0.0 11:2.44249065418e-15 12:2.44249065418e-15 13:2.44249065418e-15 14:0.0 15:0.0 16:-1.22124532709e-15 17:-1.22124532709e-15 18:-1.22124532709e-15 19:0.0 20:0.0 21:1.66533453694e-16 22:1.66533453694e-16 23:1.66533453694e-16 24:0.0 25:0.0 26:6.10622663544e-16 27:6.10622663544e-16 28:6.10622663544e-16 29:0.0 30:0.0 
2 1:126.265008872 2:126.265008872 3:126.265008872 4:0.0 5:0.0 6:-2.22044604925e-16 7:-2.22044604925e-16 8:-2.22044604925e-16 9:0.0 10:0.0 11:2.44249065418e-15 12:2.44249065418e-15 13:2.44249065418e-15 14:0.0 15:0.0 16:-1.22124532709e-15 17:-1.22124532709e-15 18:-1.22124532709e-15 19:0.0 20:0.0 21:1.66533453694e-16 22:1.66533453694e-16 23:1.66533453694e-16 24:0.0 25:0.0 26:6.10622663544e-16 27:6.10622663544e-16 28:6.10622663544e-16 29:0.0 30:0.0 
2 1:126.265008872 2:126.265008872 3:126.265008872 4:0.0 5:0.0 6:-2.22044604925e-16 7:-2.22044604925e-16 8:-2.22044604925e-16 9:0.0 10:0.0 11:2.44249065418e-15 12:2.44249065418e-15 13:2.44249065418e-15 14:0.0 15:0.0 16:-1.22124532709e-15 17:-1.22124532709e-15 18:-1.22124532709e-15 19:0.0 20:0.0 21:1.66533453694e-16 22:1.66533453694e-16 23:1.66533453694e-16 24:0.0 25:0.0 26:6.10622663544e-16 27:6.10622663544e-16 28:6.10622663544e-16 29:0.0 30:0.0 
2 1:126.265008872 2:126.265008872 3:126.265008872 4:0.0 5:0.0 6:-2.22044604925e-16 7:-2.22044604925e-16 8:-2.22044604925e-16 9:0.0 10:0.0 11:2.44249065418e-15 12:2.44249065418e-15 13:2.44249065418e-15 14:0.0 15:0.0 16:-1.22124532709e-15 17:-1.22124532709e-15 18:-1.22124532709e-15 19:0.0 20:0.0 21:1.66533453694e-16 22:1.66533453694e-16 23:1.66533453694e-16 24:0.0 25:0.0 26:6.10622663544e-16 27:6.10622663544e-16 28:6.10622663544e-16 29:0.0 30:0.0 
2 1:126.026388526 2:125.976948587 3:126.010123763 4:0.015546131394 5:0.00024168220132 6:0.0152465673696 7:-0.014951529158 8:-3.09012075187e-15 9:0.00995248058671 10:9.90518698289e-05 11:0.0180607067446 12:-0.0138919237889 13:-3.0716170348e-15 14:0.00987097206573 15:9.74360895224e-05 16:0.0433239578789 17:-0.0449920110384 18:-1.3692750637e-15 19:0.0268256606326 20:0.000719616068373 21:0.0546361147046 22:-0.0559701031802 23:-2.31296463464e-16 24:0.0334027835948 25:0.00111574595188 26:0.00867798391903 27:-0.0125696438719 28:0.00076354302615 29:0.00673458667586 30:4.53546576946e-05 
2 1:125.916654119 2:125.817665054 3:125.883543647 4:0.0309334978087 5:0.000956881286681 6:0.0293162113708 7:-0.0247268792703 8:-6.71684929898e-15 9:0.0163397085789 10:0.000266986076442 11:0.0291193156342 12:-0.0255101768002 13:-2.14643118094e-15 14:0.0166269839152 15:0.000276456594118 16:0.042826856845 17:-0.0413699015 18:-3.18263933726e-15 19:0.0260065998127 20:0.000676343233818 21:0.0134854472018 22:-0.0142526885168 23:-2.40548322002e-16 24:0.00852597079643 25:7.26921780216e-05 26:0.00597618533433 27:-0.00602681775414 28:5.22413306775e-05 29:0.00409397274947 30:1.67606128734e-05 
2 1:125.816075262 2:125.816075262 3:125.816075262 4:1.42108547152e-14 5:2.01948391737e-28 6:2.10942374679e-15 7:2.10942374679e-15 8:2.10942374679e-15 9:0.0 10:0.0 11:6.66133814775e-16 12:6.66133814775e-16 13:6.66133814775e-16 14:0.0 15:0.0 16:-1.11022302463e-15 17:-1.11022302463e-15 18:-1.11022302463e-15 19:0.0 20:0.0 21:-8.881784197e-16 22:-8.881784197e-16 23:-8.881784197e-16 24:0.0 25:0.0 26:-1.11022302463e-15 27:-1.11022302463e-15 28:-1.11022302463e-15 29:0.0 30:0.0 
2 1:125.429767548 2:125.349728146 3:125.403436166 4:0.0251679732049 5:0.000633426875244 6:0.0246830024332 7:-0.0242053585992 8:-3.05311331772e-15 9:0.016112289185 10:0.000259605862782 11:0.0292388744112 12:-0.0224899402188 13:-2.49800180541e-15 14:0.0159803332521 15:0.000255371050847 16:0.0701381059629 17:-0.0728385538209 18:-6.01370805005e-16 19:0.0434286505686 20:0.00188604769021 21:0.0884516048434 22:-0.090611228055 23:-1.60057152717e-15 24:0.054076499238 25:0.00292426776984 26:0.0140489785665 27:-0.0203492722496 28:0.00123611655761 29:0.0109027701303 30:0.000118870396514 
2 1:125.316405326 2:125.316405326 3:125.316405326 4:0.0 5:0.0 6:8.881784197e-16 7:8.881784197e-16 8:8.881784197e-16 9:0.0 10:0.0 11:-3.99680288865e-15 12:-3.99680288865e-15 13:-3.99680288865e-15 14:0.0 15:0.0 16:-2.38697950294e-15 17:-2.38697950294e-15 18:-2.38697950294e-15 19:0.0 20:0.0 21:-3.05311331772e-15 22:-3.05311331772e-15 23:-3.05311331772e-15 24:0.0 25:0.0 26:-1.74860126378e-15 27:-1.74860126378e-15 28:-1.74860126378e-15 29:0.0 30:0.0 
2 1:125.316405326 2:125.316405326 3:125.316405326 4:0.0 5:0.0 6:8.881784197e-16 7:8.881784197e-16 8:8.881784197e-16 9:0.0 10:0.0 11:-3.99680288865e-15 12:-3.99680288865e-15 13:-3.99680288865e-15 14:0.0 15:0.0 16:-2.38697950294e-15 17:-2.38697950294e-15 18:-2.38697950294e-15 19:0.0 20:0.0 21:-3.05311331772e-15 22:-3.05311331772e-15 23:-3.05311331772e-15 24:0.0 25:0.0 26:-1.74860126378e-15 27:-1.74860126378e-15 28:-1.74860126378e-15 29:0.0 30:0.0 
2 1:125.28002285 2:125.149276597 3:125.236280386 4:0.0408543043316 5:0.00166907418242 6:0.0387025164858 7:-0.0325669298528 8:7.40148683083e-17 9:0.0215411412124 10:0.000464020764732 11:0.0383279562084 12:-0.0336396751408 13:-1.09171930755e-15 14:0.0219184666944 15:0.000480419182234 16:0.0557510644436 17:-0.0537331644925 18:-2.10942374679e-15 19:0.0338974448293 20:0.00114903676595 21:0.0164691659429 22:-0.0157506506723 23:-2.09092002971e-15 24:0.0108487216167 25:0.000117694760716 26:0.0335619006679 27:-0.0246783540252 28:0.00036914146347 29:0.0176427049728 30:0.000311265038756 
2 1:125.716701539 2:125.225360536 3:125.389707301 4:0.153541160474 5:0.0235748879597 6:0.122734058772 7:-0.14551361577 8:-2.70154269325e-15 9:0.0811035930214 10:0.00657779280098 11:0.126622025547 12:-0.144536306315 13:-9.43689570931e-16 14:0.0825295096377 15:0.00681111996105 16:0.205343176006 17:-0.212574903107 18:-2.09092002971e-15 19:0.129086065207 20:0.0166632122308 21:0.0707444838044 22:-0.066936213476 23:6.47630097698e-17 24:0.0423194123842 25:0.00179093266454 26:0.0299146445597 27:-0.0296633260524 28:-0.000259304479139 29:0.020320796917 30:0.000412934787342 
2 1:125.724592615 2:125.724592615 3:125.724592615 4:1.42108547152e-14 5:2.01948391737e-28 6:-6.66133814775e-16 7:-6.66133814775e-16 8:-6.66133814775e-16 9:0.0 10:0.0 11:-2.88657986403e-15 12:-2.88657986403e-15 13:-2.88657986403e-15 14:0.0 15:0.0 16:-1.38777878078e-15 17:-1.38777878078e-15 18:-1.38777878078e-15 19:0.0 20:0.0 21:-3.38618022511e-15 22:-3.38618022511e-15 23:-3.38618022511e-15 24:0.0 25:0.0 26:-5.55111512313e-17 27:-5.55111512313e-17 28:-5.55111512313e-17 29:0.0 30:0.0 
2 1:125.724592615 2:125.724592615 3:125.724592615 4:1.42108547152e-14 5:2.01948391737e-28 6:-6.66133814775e-16 7:-6.66133814775e-16 8:-6.66133814775e-16 9:0.0 10:0.0 11:-2.88657986403e-15 12:-2.88657986403e-15 13:-2.88657986403e-15 14:0.0 15:0.0 16:-1.38777878078e-15 17:-1.38777878078e-15 18:-1.38777878078e-15 19:0.0 20:0.0 21:-3.38618022511e-15 22:-3.38618022511e-15 23:-3.38618022511e-15 24:0.0 25:0.0 26:-5.55111512313e-17 27:-5.55111512313e-17 28:-5.55111512313e-17 29:0.0 30:0.0 
2 1:126.42724891 2:125.925769511 3:126.093507429 4:0.156709349363 5:0.0245578201776 6:0.125266569794 7:-0.148516163225 8:-4.88498130835e-15 9:0.0827770954323 10:0.00685204752821 11:0.129234761397 12:-0.147518687836 13:-2.33146835171e-15 14:0.0842324346033 15:0.00709510303919 16:0.209580254627 17:-0.216961202155 18:-1.23049718563e-15 19:0.131749644382 20:0.0173579687947 21:0.072204234967 22:-0.0683173842781 23:-5.18104078158e-16 24:0.0431926368125 25:0.00186560387482 26:0.0305319073458 27:-0.0302754030987 28:-0.000264655002523 29:0.0207400989647 30:0.000430151705067 
2 1:126.804179051 2:126.622197352 3:126.682819286 4:0.0569415763486 5:0.00324234311706 6:0.0477783964791 7:-0.0546350671717 8:-1.42478621494e-15 9:0.0312487544265 10:0.000976484653206 11:0.0468265562742 12:-0.0560417539857 13:-2.55351295664e-15 14:0.0310456288138 15:0.000963831068446 16:0.0946617244521 17:-0.0951785391879 18:-1.58206781009e-15 19:0.0574000724076 20:0.0032947683124 21:0.0415947112341 22:-0.0345354681241 23:-1.17498603439e-15 24:0.0275269997472 25:0.000757735715081 26:0.0282739676622 27:-0.0310617143707 28:0.00186356424022 29:0.0188248585201 30:0.000354375298303 
2 1:126.75161148 2:126.742001859 3:126.748450105 4:0.0030216954131 5:9.13064316958e-06 6:0.00296346927208 7:-0.00290612281153 8:-3.73775084957e-15 9:0.00193445971704 10:3.74213439686e-06 11:0.00351045242988 12:-0.00270016773486 13:-1.01770443924e-15 14:0.00191861693805 15:3.68109095498e-06 16:0.00842086056534 17:-0.00874507939851 18:-7.58652400161e-16 19:0.00521409305196 20:2.71867663545e-05 21:0.0106196000154 22:-0.0108788868281 23:-7.12393107468e-16 24:0.00649248584195 25:4.21523724079e-05 26:0.00168673630361 27:-0.00244315671014 28:0.000148409556134 29:0.00130899894975 30:1.71347825045e-06 
2 1:126.738001083 2:126.738001083 3:126.738001083 4:1.42108547152e-14 5:2.01948391737e-28 6:-1.55431223448e-15 7:-1.55431223448e-15 8:-1.55431223448e-15 9:0.0 10:0.0 11:-7.77156117238e-16 12:-7.77156117238e-16 13:-7.77156117238e-16 14:0.0 15:0.0 16:8.32667268469e-16 17:8.32667268469e-16 18:8.32667268469e-16 19:0.0 20:0.0 21:-5.05151476204e-15 22:-5.05151476204e-15 23:-5.05151476204e-15 24:0.0 25:0.0 26:-2.94209101526e-15 27:-2.94209101526e-15 28:-2.94209101526e-15 29:0.0 30:0.0 
2 1:127.221702744 2:126.983072979 3:127.062565576 4:0.0746666013937 5:0.00557510136368 6:0.0626510664772 7:-0.0716421118665 8:-6.10622663544e-16 9:0.0409760045371 10:0.00167903294782 11:0.0614029332549 12:-0.0734866783566 13:-2.75705384449e-15 14:0.0407096490878 15:0.00165727552885 16:0.124128443576 17:-0.124806134682 18:-1.15648231732e-15 19:0.0752678201283 20:0.00566524474686 21:0.054542496414 22:-0.0452858209716 23:-1.19348975147e-15 24:0.0360957256452 25:0.00130290140986 26:0.0370752130276 27:-0.0407307418278 28:0.00244366273676 29:0.0246847435134 30:0.000609336562323 
2 1:127.169990672 2:127.01331026 3:127.117571677 4:0.0489579555805 5:0.00239688141462 6:0.0463793500823 7:-0.0390267398065 8:-5.69914485974e-15 9:0.0258139320173 10:0.000666359086192 11:0.0459304939403 12:-0.0403122693736 13:-2.97909844941e-15 14:0.0262661018557 15:0.000689908106693 16:0.0668095609814 17:-0.0643914006973 18:1.68383825401e-15 19:0.0406211689416 20:0.00165007936618 21:0.0197359056254 22:-0.0188748693337 23:-2.19269047363e-15 24:0.0130006186546 25:0.000169016085402 26:0.0402190679532 27:-0.0295734263484 28:0.000442362479725 29:0.0211422218664 30:0.000446993545448 
2 1:126.868278437 2:126.868278437 3:126.868278437 4:0.0 5:0.0 6:4.55191440096e-15 7:4.55191440096e-15 8:4.55191440096e-15 9:0.0 10:0.0 11:-1.11022302463e-15 12:-1.11022302463e-15 13:-1.11022302463e-15 14:0.0 15:0.0 16:-5.88418203051e-15 17:-5.88418203051e-15 18:-5.88418203051e-15 19:0.0 20:0.0 21:1.05471187339e-15 22:1.05471187339e-15 23:1.05471187339e-15 24:0.0 25:0.0 26:4.99600361081e-16 27:4.99600361081e-16 28:4.99600361081e-16 29:0.0 30:0.0 
2 1:126.868278437 2:126.868278437 3:126.868278437 4:0.0 5:0.0 6:4.55191440096e-15 7:4.55191440096e-15 8:4.55191440096e-15 9:0.0 10:0.0 11:-1.11022302463e-15 12:-1.11022302463e-15 13:-1.11022302463e-15 14:0.0 15:0.0 16:-5.88418203051e-15 17:-5.88418203051e-15 18:-5.88418203051e-15 19:0.0 20:0.0 21:1.05471187339e-15 22:1.05471187339e-15 23:1.05471187339e-15 24:0.0 25:0.0 26:4.99600361081e-16 27:4.99600361081e-16 28:4.99600361081e-16 29:0.0 30:0.0 
2 1:126.868278437 2:126.868278437 3:126.868278437 4:0.0 5:0.0 6:4.55191440096e-15 7:4.55191440096e-15 8:4.55191440096e-15 9:0.0 10:0.0 11:-1.11022302463e-15 12:-1.11022302463e-15 13:-1.11022302463e-15 14:0.0 15:0.0 16:-5.88418203051e-15 17:-5.88418203051e-15 18:-5.88418203051e-15 19:0.0 20:0.0 21:1.05471187339e-15 22:1.05471187339e-15 23:1.05471187339e-15 24:0.0 25:0.0 26:4.99600361081e-16 27:4.99600361081e-16 28:4.99600361081e-16 29:0.0 30:0.0 
2 1:126.868278437 2:126.868278437 3:126.868278437 4:0.0 5:0.0 6:4.55191440096e-15 7:4.55191440096e-15 8:4.55191440096e-15 9:0.0 10:0.0 11:-1.11022302463e-15 12:-1.11022302463e-15 13:-1.11022302463e-15 14:0.0 15:0.0 16:-5.88418203051e-15 17:-5.88418203051e-15 18:-5.88418203051e-15 19:0.0 20:0.0 21:1.05471187339e-15 22:1.05471187339e-15 23:1.05471187339e-15 24:0.0 25:0.0 26:4.99600361081e-16 27:4.99600361081e-16 28:4.99600361081e-16 29:0.0 30:0.0 
2 1:126.868278437 2:126.868278437 3:126.868278437 4:0.0 5:0.0 6:4.55191440096e-15 7:4.55191440096e-15 8:4.55191440096e-15 9:0.0 10:0.0 11:-1.11022302463e-15 12:-1.11022302463e-15 13:-1.11022302463e-15 14:0.0 15:0.0 16:-5.88418203051e-15 17:-5.88418203051e-15 18:-5.88418203051e-15 19:0.0 20:0.0 21:1.05471187339e-15 22:1.05471187339e-15 23:1.05471187339e-15 24:0.0 25:0.0 26:4.99600361081e-16 27:4.99600361081e-16 28:4.99600361081e-16 29:0.0 30:0.0 
2 1:126.868278437 2:126.868278437 3:126.868278437 4:0.0 5:0.0 6:4.55191440096e-15 7:4.55191440096e-15 8:4.55191440096e-15 9:0.0 10:0.0 11:-1.11022302463e-15 12:-1.11022302463e-15 13:-1.11022302463e-15 14:0.0 15:0.0 16:-5.88418203051e-15 17:-5.88418203051e-15 18:-5.88418203051e-15 19:0.0 20:0.0 21:1.05471187339e-15 22:1.05471187339e-15 23:1.05471187339e-15 24:0.0 25:0.0 26:4.99600361081e-16 27:4.99600361081e-16 28:4.99600361081e-16 29:0.0 30:0.0 
2 1:126.868278437 2:126.868278437 3:126.868278437 4:0.0 5:0.0 6:4.55191440096e-15 7:4.55191440096e-15 8:4.55191440096e-15 9:0.0 10:0.0 11:-1.11022302463e-15 12:-1.11022302463e-15 13:-1.11022302463e-15 14:0.0 15:0.0 16:-5.88418203051e-15 17:-5.88418203051e-15 18:-5.88418203051e-15 19:0.0 20:0.0 21:1.05471187339e-15 22:1.05471187339e-15 23:1.05471187339e-15 24:0.0 25:0.0 26:4.99600361081e-16 27:4.99600361081e-16 28:4.99600361081e-16 29:0.0 30:0.0 
2 1:126.868278437 2:126.868278437 3:126.868278437 4:0.0 5:0.0 6:4.55191440096e-15 7:4.55191440096e-15 8:4.55191440096e-15 9:0.0 10:0.0 11:-1.11022302463e-15 12:-1.11022302463e-15 13:-1.11022302463e-15 14:0.0 15:0.0 16:-5.88418203051e-15 17:-5.88418203051e-15 18:-5.88418203051e-15 19:0.0 20:0.0 21:1.05471187339e-15 22:1.05471187339e-15 23:1.05471187339e-15 24:0.0 25:0.0 26:4.99600361081e-16 27:4.99600361081e-16 28:4.99600361081e-16 29:0.0 30:0.0 
2 1:127.003811062 2:126.980549526 3:126.988202112 4:0.00731446892499 5:5.35014556546e-05 6:0.0070347080335 7:-0.0071735237797 8:-5.55111512313e-16 9:0.00468265114535 10:2.1927221749e-05 11:0.00653616274602 12:-0.00849757890876 13:-4.73695157173e-15 14:0.00464430131228 15:2.15695346793e-05 16:0.0211687820122 17:-0.0203839614873 18:-8.60422844084e-16 19:0.012621497665 20:0.000159302203307 21:0.0263339843247 22:-0.0257063415367 23:-9.43689570931e-16 24:0.0157160399857 25:0.000246993912833 26:0.00591402884546 27:-0.00408299930693 28:-0.000359247686521 29:0.00316862914089 30:1.00402106325e-05 
2 1:127.013495542 2:127.013495542 3:127.013495542 4:0.0 5:0.0 6:-4.55191440096e-15 7:-4.55191440096e-15 8:-4.55191440096e-15 9:0.0 10:0.0 11:9.99200722163e-16 12:9.99200722163e-16 13:9.99200722163e-16 14:0.0 15:0.0 16:-4.21884749358e-15 17:-4.21884749358e-15 18:-4.21884749358e-15 19:0.0 20:0.0 21:2.99760216649e-15 22:2.99760216649e-15 23:2.99760216649e-15 24:0.0 25:0.0 26:2.22044604925e-15 27:2.22044604925e-15 28:2.22044604925e-15 29:0.0 30:0.0 
2 1:126.784578517 2:126.561678964 3:126.710325985 4:0.0697446608786 5:0.00486431772107 6:0.0669195423856 7:-0.0585211768525 8:-3.84877315203e-15 9:0.0382749112355 10:0.00146496883009 11:0.0686425170747 12:-0.0573553192041 13:1.48029736617e-16 14:0.0380261136455 15:0.00144598531898 16:0.116579051095 17:-0.115946032644 18:-1.88737914186e-15 19:0.0703062479333 20:0.00494296849846 21:0.0423006292951 22:-0.0509471148393 23:-2.31296463464e-15 24:0.0337163349785 25:0.00113679124438 26:0.0380458159751 27:-0.0346312556263 28:-0.00228257916788 29:0.0230575522802 30:0.000531650717153 
2 1:126.569257121 2:126.569257121 3:126.569257121 4:0.0 5:0.0 6:-3.33066907388e-15 7:-3.33066907388e-15 8:-3.33066907388e-15 9:0.0 10:0.0 11:-2.10942374679e-15 12:-2.10942374679e-15 13:-2.10942374679e-15 14:0.0 15:0.0 16:1.7763568394e-15 17:1.7763568394e-15 18:1.7763568394e-15 19:0.0 20:0.0 21:5.55111512313e-16 22:5.55111512313e-16 23:5.55111512313e-16 24:0.0 25:0.0 26:2.22044604925e-16 27:2.22044604925e-16 28:2.22044604925e-16 29:0.0 30:0.0 
2 1:126.569257121 2:126.569257121 3:126.569257121 4:0.0 5:0.0 6:-3.33066907388e-15 7:-3.33066907388e-15 8:-3.33066907388e-15 9:0.0 10:0.0 11:-2.10942374679e-15 12:-2.10942374679e-15 13:-2.10942374679e-15 14:0.0 15:0.0 16:1.7763568394e-15 17:1.7763568394e-15 18:1.7763568394e-15 19:0.0 20:0.0 21:5.55111512313e-16 22:5.55111512313e-16 23:5.55111512313e-16 24:0.0 25:0.0 26:2.22044604925e-16 27:2.22044604925e-16 28:2.22044604925e-16 29:0.0 30:0.0 
2 1:126.526039489 2:126.483957907 3:126.512021229 4:0.0131672122116 5:0.000173375477424 6:0.0126338533243 7:-0.0110483117242 8:5.36607795235e-16 9:0.00722598507567 10:5.22148603139e-05 11:0.0129591366231 12:-0.0108282074916 13:-6.29126380621e-16 14:0.00717901415884 15:5.15382442928e-05 16:0.022009155767 17:-0.0218896471454 18:-1.11947488316e-15 19:0.0132732351792 20:0.000176178772123 21:0.00798600718097 22:-0.0096183917766 23:-7.12393107468e-16 24:0.00636536377216 25:4.05178559519e-05 26:0.00718273379489 27:-0.00653809318506 28:-0.000430931972634 29:0.00435307420135 30:1.89492550024e-05 
2 1:126.4853886 2:126.4853886 3:126.4853886 4:0.0 5:0.0 6:2.10942374679e-15 7:2.10942374679e-15 8:2.10942374679e-15 9:0.0 10:0.0 11:-3.21964677141e-15 12:-3.21964677141e-15 13:-3.21964677141e-15 14:0.0 15:0.0 16:0.0 17:0.0 18:0.0 19:0.0 20:0.0 21:0.0 22:0.0 23:0.0 24:0.0 25:0.0 26:-5.55111512313e-16 27:-5.55111512313e-16 28:-5.55111512313e-16 29:0.0 30:0.0 
