18:18:49		x: -0.6183026	y: 3.821146	z: 8.729858
18:18:49		x: -1.0319009	y: 4.8662148	z: 9.117719
18:18:49		x: -0.46746787	y: 3.9803603	z: 10.511743
18:18:49		x: 0.94810385	y: 4.9877205	z: 8.597578
18:18:49		x: -0.3890578	y: 4.836886	z: 8.005013
18:18:50		x: -0.6428431	y: 4.799776	z: 8.785523
18:18:50		x: -1.2389994	y: 5.020641	z: 8.683769
18:18:50		x: -0.8535329	y: 5.067328	z: 8.822035
18:18:50		x: -0.85054016	y: 5.251083	z: 8.620323
