18:18:49		x: 0.35277468	y: 0.070554934	z: -0.310625
18:18:49		x: -0.090713486	y: 0.108123146	z: -0.310625
18:18:49		x: -0.06169739	y: -0.37995818	z: 0.6383542
18:18:49		x: 0.25961772	y: 0.051618114	z: 0.33658674
18:18:49		x: 0.26908615	y: 0.27885997	z: -0.12736541
18:18:50		x: -0.08582657	y: 0.15790866	z: -0.17745635
18:18:50		x: 0.003970624	y: -0.025961773	z: -0.14721853
18:18:50		x: 0.027794369	y: -0.01985312	z: -0.12461651
18:18:50		x: 0.03604105	y: -0.089491755	z: 0.025045475
