7 1:36.7572602039 2:16.968725229 3:23.5109817256 4:6.77052481139 5:45.8400062217 6:5.90195997247 7:-7.61905240392 8:-5.39251183389e-16 9:4.02981400051 10:16.2394008787 11:3.20173936587 12:-2.90557669178 13:0.191733981048 14:1.80273116059 15:3.24983963738 16:1.47548702027 17:-1.43282077677 18:0.165900669811 19:0.96892979584 20:0.938824949267 21:2.65672836854 22:-8.09498785027 23:-1.26367781261 24:2.79577318306 25:7.81634769112 26:9.96020084426 27:-8.07233492267 28:0.0465505653079 29:5.31113268154 30:28.2081303609 
7 1:33.2678287448 2:17.1971738734 3:22.5886834411 4:5.48945962405 5:30.1341669641 6:3.63479036612 7:-2.8925896208 8:-5.63041676774e-16 9:2.23763546844 10:5.00701248964 11:1.61480150566 12:-1.71409452526 13:0.29884312788 14:1.16583869112 15:1.35917985372 16:2.74420686364 17:-2.34438886173 18:0.0319981164557 19:1.33895949787 20:1.79281253692 21:1.24864653259 22:-9.36904007687 23:-1.61784107042 24:3.16310736569 25:10.0052482069 26:5.64565969566 27:-6.18718959599 28:0.498466995511 29:4.51646641002 30:20.3984688328 
7 1:31.9447789751 2:21.5761002699 3:25.0896048376 4:3.5470509889 5:12.5815707179 6:2.34444786073 7:-2.01574897938 8:-9.15933995316e-16 9:1.22364552797 10:1.49730837812 11:2.19050133092 12:-2.72457366757 13:1.58603289232e-16 14:1.56366355189 15:2.44504370351 16:0.862479718164 17:-0.963697544785 18:0.082591424161 19:0.565943672096 20:0.320292239986 21:3.65413338725 22:-5.80557002183 23:-0.638147394643 24:3.43821968042 25:11.8213545708 26:4.55665936037 27:-7.06661234737 28:0.0450763253044 29:3.82879623509 30:14.6596806098 
