18:50:19		x: 23.922476
18:50:20		x: 23.922476
18:50:21		x: 23.922476
18:50:22		x: 23.922476
18:50:23		x: 23.922476
18:50:24		x: 23.73503
18:50:25		x: 23.73503
18:50:26		x: 23.73503
18:50:27		x: 23.798698
18:50:28		x: 23.798698
