18:30:46		x: 1.0
18:30:47		x: 0.0
18:30:48		x: 1.0
18:30:48		x: 0.0
18:30:49		x: 1.0
18:30:49		x: 0.0
18:30:50		x: 1.0
18:30:50		x: 0.0
18:30:50		x: 1.0
18:30:50		x: 0.0
18:30:50		x: 1.0
18:30:51		x: 0.0
18:30:51		x: 1.0
18:30:51		x: 0.0
18:30:51		x: 1.0
18:30:51		x: 0.0
18:30:52		x: 1.0
18:30:52		x: 0.0
18:30:52		x: 1.0
18:30:52		x: 0.0
18:30:53		x: 1.0
18:30:53		x: 0.0
18:30:53		x: 1.0
18:30:53		x: 0.0
18:30:54		x: 1.0
18:30:54		x: 0.0
18:30:54		x: 1.0
18:30:54		x: 0.0
18:30:55		x: 1.0
18:30:55		x: 0.0
18:30:56		x: 1.0
18:30:58		x: 0.0
