18:30:44		x: 41.022533
18:30:45		x: 41.022533
18:30:46		x: 41.448586
18:30:47		x: 41.448586
18:30:48		x: 41.448586
18:30:49		x: 41.448586
18:30:49		x: 41.448586
18:30:50		x: 41.448586
18:30:51		x: 41.05327
18:30:52		x: 41.05327
18:30:53		x: 41.05327
18:30:54		x: 40.727283
18:30:55		x: 40.727283
18:30:56		x: 40.727283
18:30:57		x: 40.61039
18:30:58		x: 40.61039
18:30:59		x: 40.61039
