5 1:5307.09394467 2:5307.07389316 3:5307.08705629 4:0.00622146566895 5:3.87066350699e-05 6:0.00559671920814 7:-0.0032604888906 8:-2.48689957516e-14 9:0.00351652250357 10:1.23659305181e-05 11:0.0041817586595 12:-0.00403689936878 13:2.48689957516e-14 14:0.00317980903902 15:1.01111855246e-05 16:0.00900377481432 17:-0.00989872338756 18:-4.14483262527e-15 19:0.0072426604645 20:5.2456130604e-05 21:0.0432967012521 22:-0.0437098489916 23:-3.34547204754e-14 24:0.026259457665 25:0.000689559116862 26:0.0398939940353 27:-0.0250258010893 28:-0.000981892668238 29:0.0226688896332 30:0.000513878557202 
5 1:5306.89637898 2:5306.70700143 3:5306.83312687 4:0.0592035187782 5:0.00350505663572 6:0.0564371406749 7:-0.0481430907271 8:-4.85537536103e-14 9:0.0316819408366 10:0.00100374537517 11:0.0563496618776 12:-0.0483156505217 13:-3.13823041627e-14 14:0.0316752155183 15:0.00100331927813 16:0.0865575016237 17:-0.0845593966228 18:-1.18423789293e-15 19:0.0523137815707 20:0.00273673174222 21:0.0235284270235 22:-0.0296615195985 23:-6.12843109593e-14 24:0.0167089326136 25:0.000279188429087 26:0.025082138068 27:-0.0228206858846 28:-0.00163965176786 29:0.0150615667142 30:0.000226850791886 
5 1:5306.75305971 2:5306.67145368 3:5306.72568553 4:0.0254763170801 5:0.000649042731964 6:0.0240287369743 7:-0.0196291303432 8:-3.11454565842e-13 9:0.0131822224242 10:0.000173770988041 11:0.0228723739459 12:-0.0205010471339 13:5.56591809679e-14 14:0.0133327328693 15:0.000177761765763 16:0.028390519019 17:-0.0264831300546 18:-3.84877315203e-14 19:0.0177877789819 20:0.000316405081109 21:0.0235396575701 22:-0.0252671305727 23:-1.36187357687e-14 24:0.0155179622879 25:0.000240807153569 26:0.0687956260593 27:-0.0476738781818 28:-2.59965126729e-06 29:0.0349226105932 30:0.00121958873064 
5 1:5306.73368025 2:5306.66045972 3:5306.68472214 4:0.0229566713277 5:0.000527008758447 6:0.0204683645563 7:-0.022224970388 8:-2.09610107049e-13 9:0.0133787987852 10:0.000178992256935 11:0.0196485169101 12:-0.024378009812 13:-7.28306304154e-14 14:0.0133438980525 15:0.000178059615236 16:0.0504475272064 17:-0.0495235005864 18:-3.01980662698e-14 19:0.0301355626844 20:0.000908152138305 21:0.0425401401789 22:-0.04102756691 23:-5.29946457088e-14 24:0.0254231936692 25:0.00064633877634 26:0.0269535055749 27:-0.0393750320091 28:-0.000568254004701 29:0.0201553570827 30:0.000406238419131 
5 1:5306.86372577 2:5306.76082797 3:5306.79473161 4:0.0323423541941 5:0.00104602787482 6:0.0299937361277 7:-0.0312644983149 8:-9.94759830064e-14 9:0.0197976522252 10:0.00039194703363 11:0.026036457687 12:-0.0354895179802 13:1.65793305011e-14 14:0.0196081333845 15:0.000384478894823 16:0.127026056607 17:-0.123499144703 18:-1.4921397451e-13 19:0.0761994673558 20:0.00580635882531 21:0.0968053307289 22:-0.147612518152 23:0.00400285824188 24:0.0857662713309 25:0.007355853298 26:0.0151682484833 27:-0.025831951031 28:0.00303364969666 29:0.0153111342303 30:0.000234430831417 
