2 1:5306.95835025 2:5306.92727309 3:5306.93778777 4:0.00967797477757 5:9.36631957952e-05 6:0.00663500043196 7:-0.00887675737407 8:-1.50398212403e-13 9:0.00482034150416 10:2.32356922167e-05 11:0.00786297509877 12:-0.00781933501202 13:-1.58095758707e-13 14:0.00528885127388 15:2.79719477973e-05 16:0.00588509443557 17:-0.00889525216165 18:5.3290705182e-15 19:0.00519377242052 20:2.69752719562e-05 21:0.0222343717826 22:-0.0202627448241 23:-4.26325641456e-14 24:0.0134316673456 25:0.000180409687682 26:0.0375298414532 27:-0.0232318515202 28:-0.000256832103111 29:0.0198608791035 30:0.000394454518765 
2 1:5306.72403615 2:5306.54545322 3:5306.66436534 4:0.0558281019571 5:0.00311677696813 6:0.0529715756661 7:-0.0452246585493 8:-1.5750363976e-13 9:0.029754943386 10:0.000885356655902 11:0.0535536675851 12:-0.046623620242 13:-6.98700356831e-14 14:0.0304252720588 15:0.000925697179849 16:0.0833925908867 17:-0.0813153073047 18:-4.73695157173e-15 19:0.0504136017162 20:0.002541531238 21:0.0177828503198 22:-0.023978554932 23:-1.71714494475e-14 24:0.013702247937 25:0.000187751598527 26:0.0286345761843 27:-0.0306347074714 28:0.00140561516428 29:0.0217754601773 30:0.000474170665934 
2 1:5306.38223403 2:5306.34982274 3:5306.36073037 4:0.0101071199294 5:0.000102153873267 6:0.00744404365358 7:-0.00950826883672 8:-1.18423789293e-13 9:0.00516096358906 10:2.66355451676e-05 11:0.0077296532739 12:-0.0084615408667 13:-6.69094409507e-14 14:0.00503532134672 15:2.53544610648e-05 16:0.00650740323107 17:-0.00757232856941 18:-8.46730093447e-14 19:0.00544804246742 20:2.96811667268e-05 21:0.017002917654 22:-0.0148894825199 23:-4.11522667794e-14 24:0.0105867155034 25:0.00011207854515 26:0.0251779592343 27:-0.0210114674281 28:0.00117642024196 29:0.0165507790291 30:0.00027392828647 
2 1:5306.36286874 2:5306.32669418 3:5306.33872772 4:0.0113226475001 5:0.000128202346411 6:0.00964510397811 7:-0.0109487913877 8:-1.53950926081e-13 9:0.00630074091923 10:3.96993361313e-05 11:0.00907808902291 12:-0.0111706080129 13:-9.59232693276e-14 14:0.0061240929456 15:3.75045144064e-05 16:0.0193654970936 17:-0.0193255600973 18:-3.67113746809e-14 19:0.0116716004008 20:0.000136226255916 21:0.00959420613859 22:-0.00806062789774 23:-1.59872115546e-14 24:0.00625914270575 25:3.9176867411e-05 26:0.0172299128877 27:-0.0184079349752 28:0.00103298695756 29:0.0109697724953 30:0.000120335908599 
2 1:5306.3519149 2:5306.27440234 3:5306.30044371 4:0.024185836376 5:0.000584954681209 6:0.0182514232074 7:-0.022758150862 8:-8.28966525053e-14 9:0.0124096025765 10:0.000153998236107 11:0.0191523359198 12:-0.021110388594 13:-5.62512999143e-14 14:0.0124607011008 15:0.000155269071923 16:0.0210755103495 17:-0.0232249818184 18:-4.14483262527e-14 19:0.0151351242355 20:0.000229071985625 21:0.0288147900475 22:-0.024697546268 23:-3.90798504668e-14 24:0.0183804403503 25:0.00033784058747 26:0.0365209674884 27:-0.0288048115125 28:0.00134670049671 29:0.0214836306463 30:0.000461546385748 
2 1:5306.37187216 2:5306.35225524 3:5306.35876468 4:0.00615442322258 5:3.78769252026e-05 6:0.00543269552046 7:-0.00580596078345 8:5.92118946467e-14 9:0.0035644631214 10:1.27053973438e-05 11:0.00598655855153 12:-0.00688863003955 13:-1.55727282921e-13 14:0.00390354117587 15:1.52376337117e-05 16:0.0151402154321 17:-0.0149477432099 18:-7.57912251477e-14 19:0.00906482996863 20:8.21711423602e-05 21:0.018053532319 22:-0.0170614876477 23:-2.72374715375e-14 24:0.0106928802727 25:0.000114337688525 26:0.0371901032735 27:-0.0360503361985 28:-0.00153786639202 29:0.0257990259282 30:0.000665589738845 
2 1:5306.55698122 2:5306.40987671 3:5306.45893539 4:0.0460108017563 5:0.00211699387826 6:0.0380967845483 7:-0.0440359156732 8:-1.65793305011e-13 9:0.0249711567159 10:0.000623558667732 11:0.0376539505063 12:-0.0446112777124 13:-1.01844458792e-13 14:0.0248405295223 15:0.000617051906946 16:0.0717085188624 17:-0.072608620304 18:-4.73695157173e-14 19:0.0437882985643 20:0.00191741509115 21:0.0259106279612 22:-0.0170354987072 23:-5.3290705182e-14 24:0.0176609791926 25:0.000311910186042 26:0.0212301754616 27:-0.0271358838063 28:0.00164464347491 29:0.0169065472999 30:0.000285831341604 
2 1:5306.64155244 2:5306.58409664 3:5306.60323943 4:0.0179777728896 5:0.000323200318071 6:0.015063489532 7:-0.0172163271956 8:-2.14347058621e-13 9:0.00985156217062 10:9.70532772016e-05 11:0.0149316012154 12:-0.0177543621136 13:-7.69754630407e-14 14:0.00986681958575 15:9.73541287377e-05 16:0.0301246226826 17:-0.0303225628578 18:-3.43428988951e-14 19:0.0182827100621 20:0.000334257487214 21:0.00969520080144 22:-0.00883768359723 23:-4.14483262527e-14 24:0.0061672220968 25:3.80346283913e-05 26:0.0380457519318 27:-0.0553004132589 28:-0.000272294650415 29:0.028009121313 30:0.000784510876725 
2 1:5306.70778246 2:5306.69756238 3:5306.70447112 4:0.00323794639042 5:1.04842968272e-05 6:0.00323638515306 7:-0.00358513691518 8:-8.05281767195e-14 9:0.00257207863153 10:6.61558848677e-06 11:0.00449665140012 12:-0.00325632070205 13:-7.46069872548e-14 14:0.00250623146001 15:6.28119613112e-06 16:0.0135968655591 17:-0.0143898419144 18:4.73695157173e-15 19:0.00863887025058 20:7.46300792063e-05 21:0.0225062312719 22:-0.0222171161181 23:-3.46389583683e-14 24:0.0134844334159 25:0.000181829944547 26:0.0157243412771 27:-0.0145434517181 28:0.000834358305395 29:0.0109430070214 30:0.00011974940267 
2 1:5306.63415527 2:5306.5929062 3:5306.62041134 4:0.0129031321731 5:0.000166490819877 6:0.0124525644347 7:-0.0107795590568 8:-9.82917451135e-14 9:0.0070637740399 10:4.98969036868e-05 11:0.0123838653851 12:-0.0101530397881 13:-6.92779167366e-14 14:0.00680720612234 15:4.63380551921e-05 16:0.0199058477674 17:-0.0197507962099 18:-1.40924309259e-13 19:0.0120071364366 20:0.000144171325407 21:0.00484659325696 22:-0.0072825904992 23:-1.36187357687e-14 24:0.00450367409246 25:2.02830803311e-05 26:0.0249477328697 27:-0.0256400588996 28:-0.00141218729245 29:0.0158662973504 30:0.000251739391612 
2 1:5306.58262069 2:5306.52748223 3:5306.5459644 4:0.0172157885996 5:0.000296383377106 6:0.0133738810698 7:-0.016332372113 8:-8.28966525053e-15 9:0.00896854590378 10:8.04348156282e-05 11:0.0135112139091 12:-0.0153814316479 13:-4.38168020385e-14 14:0.00880738631916 15:7.75700537749e-05 16:0.0178373092422 17:-0.0190097568986 18:-4.26325641456e-14 19:0.0118441078163 20:0.000140282889964 21:0.0161472447358 22:-0.0142225074787 23:-5.03301104497e-14 24:0.0102772348643 25:0.000105621556456 26:0.0228206858847 27:-0.023639782669 28:0.00111653595171 29:0.016511451924 30:0.000272628044639 
2 1:5306.7723395 2:5306.58436714 3:5306.64733576 4:0.0587071802521 5:0.00344653301316 6:0.0460178207465 7:-0.0555767901539 8:-9.59232693276e-14 9:0.0306686370027 10:0.000940565295606 11:0.0473425531766 12:-0.0536373193688 13:-6.39488462184e-14 14:0.0308274912806 15:0.000950334218653 16:0.0678707686255 17:-0.071484257526 18:-1.18423789293e-13 19:0.043981046644 20:0.00193433246391 21:0.0342676759045 22:-0.033322380742 23:-7.1054273576e-15 24:0.0251983261988 25:0.000634955643222 26:0.0183628294141 27:-0.0261873585811 28:0.00179915839776 29:0.0154942246189 30:0.00024007099654 
2 1:5306.58716152 2:5306.51254825 3:5306.53775875 4:0.0232403283038 5:0.000540112859668 6:0.0161741230753 7:-0.0216806547808 8:-1.19608027186e-13 9:0.0117826421079 10:0.000138830655044 11:0.0172849341192 12:-0.0181297883786 13:-7.28306304154e-14 14:0.0113789693584 15:0.000129480943658 16:0.0136684634435 17:-0.0196846159142 18:-9.53311503811e-14 19:0.0111399009741 20:0.000124097393712 21:0.0630746381371 22:-0.0590466587093 23:-2.42768768051e-14 24:0.0379222649511 25:0.00143809817902 26:0.0339542588458 27:-0.0455661088709 28:0.00276418750988 29:0.0260438867859 30:0.000678284038915 
2 1:5306.55165126 2:5306.47985882 3:5306.50402928 4:0.0223906365081 5:0.000501340603238 6:0.0164674461074 7:-0.0207963588998 8:-1.66977542904e-13 9:0.0113055556519 10:0.000127815588598 11:0.0185352564047 12:-0.0195276516733 13:-1.83556873405e-14 14:0.0121453353264 15:0.000147509170191 16:0.018216720147 17:-0.0206403587514 18:-6.51330841113e-14 19:0.014042245608 20:0.000197184661716 21:0.0312374320499 22:-0.0287397776915 23:-2.69414120642e-14 24:0.0189829036349 25:0.000360350630411 26:0.0278378887242 27:-0.0272785423555 28:-0.00131936610059 29:0.0166906389728 30:0.00027857742932 
2 1:5306.60699199 2:5306.54860332 3:5306.56804161 4:0.018266121889 5:0.000333651208864 6:0.0153796591859 7:-0.0177889360389 8:-2.96059473233e-14 9:0.010079857021 10:0.000101603517563 11:0.0136915847538 12:-0.0172735131079 13:-2.36847578587e-14 14:0.00941847206968 15:8.87076161273e-05 16:0.0270252374719 17:-0.0271109208451 18:-5.62512999143e-14 19:0.0163648790922 20:0.000267809267702 21:0.0133530735669 22:-0.00994965873059 23:-8.31927119786e-14 24:0.00780918548252 25:6.09833779004e-05 26:0.06087115337 27:-0.0713373507682 28:0.00395438423083 29:0.04171539609 30:0.00174017427094 
2 1:5306.61669246 2:5306.58864425 3:5306.59788237 4:0.00880898741432 5:7.75982592656e-05 6:0.0083447582445 7:-0.00874624930485 8:-7.81597009336e-14 9:0.00549467658124 10:3.01914707324e-05 11:0.00711941509347 12:-0.00965902543048 13:-3.37507799486e-14 14:0.0053199148279 15:2.83014937761e-05 16:0.0222601764043 17:-0.0214345571173 18:-4.08562073062e-14 19:0.0132665077674 20:0.000176000228343 21:0.0209093621521 22:-0.0208449987786 23:-5.77315972805e-14 24:0.0125976533208 25:0.00015870086919 26:0.0320980466572 27:-0.0523736663983 28:0.000854224715618 29:0.0289314310869 30:0.000837027704736 
2 1:5306.61973936 2:5306.46334982 3:5306.56755494 4:0.0489079976424 5:0.00239199223339 6:0.046680435297 7:-0.0402419345134 8:-3.19744231092e-14 9:0.0264011276469 10:0.000697019541029 11:0.0473093255271 12:-0.0403228180886 13:-4.50010399315e-14 14:0.0264912158993 15:0.000701784519825 16:0.0761560262639 17:-0.074957496272 18:-8.11202956659e-14 19:0.0459424620061 20:0.00211070981519 21:0.0181292035881 22:-0.0286882738895 23:-7.57912251477e-14 24:0.0189369633446 25:0.000358608580713 26:0.0367759117996 27:-0.0463984815173 28:-0.00112899041586 29:0.0254943497226 30:0.00064996186778 
2 1:5306.50188867 2:5306.43546541 3:5306.45789022 4:0.0206960544939 5:0.000428326671614 6:0.0146119469903 7:-0.0192136347821 8:-1.42108547152e-13 9:0.0104180395911 10:0.000108535548922 11:0.0162311459342 12:-0.0168563959981 13:-1.43884903991e-13 14:0.0107058579315 15:0.000114615394049 16:0.0106062541226 17:-0.0173704083664 18:-1.10726242989e-13 19:0.0107509377066 20:0.000115582661572 21:0.0481820941283 22:-0.0459531927863 23:-4.61852778244e-14 24:0.028916576343 25:0.000836168387399 26:0.0192970850966 27:-0.0267784775653 28:0.000269902594471 29:0.0137537747687 30:0.000189166320387 
2 1:5306.50180751 2:5306.43869524 3:5306.48078407 4:0.0197492207926 5:0.000390031721914 6:0.0189136412415 7:-0.0165856362816 8:-1.30266168223e-13 9:0.010843303482 10:0.000117577230404 11:0.0195752892358 12:-0.0164535664752 13:-1.05397172471e-13 14:0.0108755167712 15:0.000118276865042 16:0.0337301067173 17:-0.0335590813994 18:-3.78956125739e-14 19:0.0203406731723 20:0.000413742985102 21:0.0133684987277 22:-0.0155157421346 23:-2.1612341546e-14 24:0.00989995189843 25:9.80090475912e-05 26:0.00604786722099 27:-0.00312114606967 28:-7.82492734285e-05 29:0.0030222061573 30:9.13373005719e-06 
2 1:5306.58588385 2:5306.42280126 3:5306.53100613 4:0.0508646976076 5:0.00258721746272 6:0.0475092614334 7:-0.0376107826879 8:-9.71075072205e-14 9:0.02582800218 10:0.000667085696609 11:0.0439416757056 12:-0.0409843961786 13:-1.04212934578e-13 14:0.0267526925105 15:0.000715706556562 16:0.0451657780104 17:-0.0398773474217 18:-7.75675819871e-14 19:0.0307641331382 20:0.000946431887746 21:0.0678358928224 22:-0.0743631531948 23:-1.68753899743e-14 24:0.045387355209 25:0.00206001201287 26:0.0153257276664 27:-0.00976981116328 28:8.04619170358e-05 29:0.00790071437277 30:6.24212876002e-05 
2 1:5306.54639688 2:5306.41550196 3:5306.50228208 4:0.0408091398128 5:0.00166538589226 6:0.03785110461 7:-0.0295715563152 8:-5.44749430749e-14 9:0.020535942188 10:0.000421724921551 11:0.0348679964874 12:-0.0333774834389 13:-1.28489811383e-13 14:0.0219391024432 15:0.000481324216015 16:0.0332003928217 17:-0.0283727364059 18:-1.19608027186e-13 19:0.0239891567348 20:0.000575479640846 21:0.0625609741542 22:-0.0676659093604 23:-2.63492931178e-14 24:0.0409394552993 25:0.00167603900021 26:0.0425562969889 27:-0.0370213221661 28:0.0016325922138 29:0.0246151647633 30:0.000605906336326 
2 1:5306.69454506 2:5306.46358301 3:5306.54079613 4:0.0721812112175 5:0.00521012725283 6:0.0580298757059 7:-0.06866487313 8:1.42108547152e-14 9:0.038315803462 10:0.00146810079494 11:0.0586528011119 12:-0.0678153197365 13:-6.69094409507e-14 14:0.0383500295553 15:0.00147072476689 16:0.0968143811559 17:-0.0998737644628 18:-2.36847578587e-14 19:0.0605573034157 20:0.00366718699699 21:0.0374607327709 22:-0.0344960321299 23:-6.48370246381e-14 24:0.0218482593497 25:0.000477346436612 26:0.0406903524758 27:-0.0391478150857 28:0.00248827397804 29:0.0300432138787 30:0.000902594700162 
2 1:5306.73766886 2:5306.6462595 3:5306.67693939 4:0.0285403488017 5:0.000814551509722 6:0.0219001416278 7:-0.0266023196835 8:-1.51582450295e-13 9:0.0146411461083 10:0.000214363159366 11:0.0245218149565 12:-0.0264162817128 13:2.6645352591e-14 14:0.0159675605173 15:0.000254962988874 16:0.0333569355793 17:-0.035588101961 18:-4.14483262527e-14 19:0.0221336942136 20:0.000489900419541 21:0.014175944402 22:-0.0142620998191 23:-7.96399982998e-14 24:0.0105635513586 25:0.000111588617305 26:0.0555671744276 27:-0.0633288785539 28:-0.00285723249249 29:0.0393971044698 30:0.00155213184061 
2 1:5306.79900463 2:5306.70145842 3:5306.73401484 4:0.0304992616806 5:0.000930204963064 6:0.0249982443578 7:-0.0292269140889 8:-1.3737159558e-13 9:0.0164359556579 10:0.000270140638389 11:0.0243744473506 12:-0.0289517622665 13:-4.79616346638e-14 14:0.0160999752829 15:0.000259209204111 16:0.0437317621721 17:-0.0445720076456 18:-3.5527136788e-15 19:0.0269127170544 20:0.000724294339253 21:0.0133440576171 22:-0.0109435480151 23:-2.84217094304e-14 24:0.00742864348683 25:5.51847440544e-05 26:0.0432795926512 27:-0.0493918117335 28:0.00183430794308 29:0.0320148172059 30:0.00102494852073 
2 1:5306.76865377 2:5306.53041169 3:5306.689142 4:0.074499472875 5:0.00555017145866 6:0.0711275452525 7:-0.0611515306066 8:-1.10134124043e-13 9:0.0401476421455 10:0.00161183316984 11:0.0717075767501 12:-0.0610867689155 13:-1.7763568394e-14 14:0.0401417611946 15:0.0016113609918 16:0.113963386401 17:-0.111985597604 18:-8.52651282912e-14 19:0.0687707818058 20:0.00472942043018 21:0.0254189363462 22:-0.0376695946741 23:-6.45409651649e-14 24:0.0230888593016 25:0.000533095423849 26:0.024835617761 27:-0.0280498110506 28:-0.00166649873821 29:0.0178012733743 30:0.000316885333748 
2 1:5306.55917643 2:5306.47843439 3:5306.50551352 4:0.0252118454631 5:0.000635637151656 6:0.0195053701517 7:-0.0236657105052 8:6.03961325396e-14 9:0.0130316406594 10:0.000169823658276 11:0.0210200131858 12:-0.0231439070162 13:-1.68161780797e-13 14:0.0136628735524 15:0.000186674113709 16:0.0289615092329 17:-0.03077734964 18:-1.21384384026e-13 19:0.0190776508672 20:0.000363956762611 21:0.016070828034 22:-0.0136742337869 23:-6.77976193704e-14 24:0.0106306574853 25:0.00011301087857 26:0.0265143149066 27:-0.0196396650387 28:-0.00127145407759 29:0.0170242797855 30:0.000289826102215 
2 1:5306.53952419 2:5306.52151319 3:5306.5336345 4:0.00567582942781 5:3.22150396936e-05 6:0.00566375921629 7:-0.00577825672765 8:-1.00660220899e-13 9:0.00392172519912 10:1.53799285374e-05 11:0.00692644150945 12:-0.00503088382996 13:-8.23045335589e-14 14:0.00384448001418 15:1.47800265795e-05 16:0.0180774534675 17:-0.0189909742802 18:-4.20404451991e-14 19:0.0113548938445 20:0.000128933614219 21:0.025180371121 22:-0.0253238058826 23:1.03620815632e-14 24:0.015215250554 25:0.000231503849422 26:0.0173908754753 27:-0.0109144901543 28:9.20309812929e-05 29:0.00875282038364 30:7.66118646682e-05 
2 1:5306.52162157 2:5306.40724592 3:5306.48331424 4:0.035722405559 5:0.00127609025892 6:0.0338804347979 7:-0.0280560483877 8:-2.13162820728e-13 9:0.0186968995716 10:0.000349574053591 11:0.032553722914 12:-0.0285549743685 13:-1.26713454544e-13 14:0.0186139763962 15:0.000346480117279 16:0.0431831603974 17:-0.0410369006712 18:-1.83556873405e-14 19:0.0265529019284 20:0.000705056600821 21:0.0197641715819 22:-0.02268945465 23:-8.26005930321e-14 24:0.0158901572653 25:0.000252497097915 26:0.0236276711402 27:-0.0264113275948 28:-0.00152607353698 29:0.0179140332162 30:0.00032091258607 
2 1:5306.58082076 2:5306.51329962 3:5306.53560949 4:0.0211844262188 5:0.000448779914221 6:0.0194362186277 7:-0.0208121827092 8:-2.33294864908e-13 9:0.0127298701786 10:0.000162049594765 11:0.0173441309733 12:-0.0226538359298 13:-1.91846538655e-13 14:0.012370354132 15:0.00015302566135 16:0.0488906663494 17:-0.0474876736438 18:-5.92118946467e-14 19:0.0291351571747 20:0.000848857383595 21:0.0486525250446 22:-0.0455987909082 23:-3.96719694133e-14 24:0.029031060179 25:0.000842802455119 26:0.0356886883673 27:-0.0414105251276 28:0.00222168225142 29:0.0251765808415 30:0.00063386022287 
2 1:5306.76040955 2:5306.5741704 3:5306.63653874 4:0.0581783416332 5:0.00338471943519 6:0.0458397212526 7:-0.0549056327565 8:-4.38168020385e-14 9:0.0304258853781 10:0.000925734501044 11:0.0481966499442 12:-0.0541515112423 13:-5.74355378073e-14 14:0.0313429166437 15:0.000982378423734 16:0.0728728645009 17:-0.0762598093676 18:-5.09222293961e-14 19:0.0466325593431 20:0.00217459559089 21:0.0223763620898 22:-0.0260699703212 23:-5.18104078158e-14 24:0.0182839057916 25:0.000334301210995 26:0.0318332650914 27:-0.0244591693406 28:-0.00138605153872 29:0.0200369639671 30:0.000401479925019 
2 1:5306.71029885 2:5306.68456057 3:5306.70182107 4:0.00809491518413 5:6.55276518382e-05 6:0.00782665536563 7:-0.00770954618988 8:-2.55795384874e-13 9:0.00514506934339 10:2.64717385483e-05 11:0.00959442182159 12:-0.00771033270356 13:3.25665420557e-14 14:0.00525311511464 15:2.75952184076e-05 16:0.0233809621695 17:-0.024167775161 18:-2.30926389122e-14 19:0.014409131445 20:0.000207623068998 21:0.0299626840981 22:-0.0302088055568 23:9.47390314347e-15 24:0.0181282596225 25:0.000328633796941 26:0.0235919545797 27:-0.029801809443 28:0.0016652263308 29:0.0169706724583 30:0.000288003723685 
2 1:5306.44942435 2:5306.22175325 3:5306.37334916 4:0.0711737174276 5:0.00506569805247 6:0.067512092256 7:-0.0576379157088 8:-1.04212934578e-13 9:0.0379223607504 10:0.00143810544488 11:0.068299444106 12:-0.0595174791703 13:-7.1054273576e-14 14:0.0388302880777 15:0.0015077912722 16:0.106405419045 17:-0.103744300502 18:-7.63833440942e-14 19:0.0643278356732 20:0.0041380704424 21:0.0237540342089 22:-0.0323310451233 23:-1.18423789293e-14 24:0.0186857411555 25:0.00034915692253 26:0.0316404527605 27:-0.0381359316799 28:0.00175447824868 29:0.0219382826597 30:0.000481288246059 
2 1:5306.52293172 2:5306.48523274 3:5306.49752241 4:0.0119156337521 5:0.000141982327714 6:0.0125271790073 7:-0.0116985590595 8:-6.51330841113e-14 9:0.0087762349941 10:7.70223006717e-05 11:0.0121238615519 12:-0.0158852082033 13:-7.22385114689e-14 14:0.00870927252605 15:7.58514279331e-05 16:0.0477504333958 17:-0.0454614868974 18:-6.51330841113e-14 19:0.0285683528123 20:0.000816150782409 21:0.0748161799765 22:-0.0742362992934 23:-9.17784367023e-15 24:0.0448899845725 25:0.00201511071492 26:0.0563325375263 27:-0.0535939238845 28:-0.00322265634842 29:0.0346771147673 30:0.00120250228858 
2 1:5306.60444727 2:5306.52359342 3:5306.5507449 4:0.025237066638 5:0.000636909532492 6:0.0192077787915 7:-0.0235907665115 8:8.28966525053e-15 9:0.0129254696211 10:0.000167067764926 11:0.0210813834539 12:-0.0228378378407 13:-1.13686837722e-13 14:0.0137236328652 15:0.000188338099019 16:0.0264629053408 17:-0.0285808213303 18:-7.16463925225e-14 19:0.0180502334709 20:0.000325810928353 21:0.0212236649442 22:-0.0184815157128 23:1.48029736617e-14 24:0.0135167126128 25:0.000182701519856 26:0.0301416668573 27:-0.0288690527785 28:-0.00145930910496 29:0.017891128286 30:0.000320092471347 
2 1:5306.61285925 2:5306.5489059 3:5306.57041592 4:0.0199484530149 5:0.000397940777686 6:0.0148337480049 7:-0.0187084067443 8:-1.40924309259e-13 9:0.0101741671417 10:0.000103513677027 11:0.0157944372648 12:-0.0171657405379 13:-1.27897692437e-13 14:0.0102896620097 15:0.000105877144274 16:0.015538523159 17:-0.0175333783596 18:-1.83556873405e-14 19:0.0118748346746 20:0.00014101169855 21:0.0308669081168 22:-0.0288174954395 23:-4.91458725567e-14 24:0.0187054942544 25:0.000349895515302 26:0.0190376637006 27:-0.0286678678622 28:0.000441684276256 29:0.0150153920885 30:0.000225461999573 
2 1:5306.51211758 2:5306.47560016 3:5306.49895773 4:0.0118381857157 5:0.00014014264104 6:0.0190419692294 7:-0.0162402275768 8:-2.72374715375e-14 9:0.0106523813699 10:0.000113473228849 11:0.0639525971435 12:-0.0652773897765 13:-9.59232693276e-14 14:0.0391146951506 15:0.00152995937672 16:0.031205239853 17:-0.0347789247866 18:0.00161626940412 19:0.0255518406067 20:0.00065289655839 21:0.0708818830429 22:-0.0708818830432 23:0.00438942915614 24:0.0477434369725 25:0.00227943577394 26:0.00491545036751 27:-0.00491545036748 28:1.42108547152e-14 29:0.0049154503675 30:2.41616523153e-05 
