3 1:5324.7559673 2:5324.72775912 3:5324.74657474 4:0.00883446036509 5:7.80476899423e-05 6:0.0083318834027 7:-0.00748774517555 8:-2.30926389122e-13 9:0.0048887113803 10:2.38994989599e-05 11:0.00928507728075 12:-0.00814704137277 13:-5.56591809679e-14 14:0.00530220947401 15:2.81134253063e-05 16:0.0178644212904 17:-0.0178386371341 18:-8.70414851306e-14 19:0.0107738651352 20:0.000116076169951 21:0.0126474980864 22:-0.0130731082099 23:-3.73034936274e-14 24:0.0078071959947 25:6.09523092996e-05 26:0.0288210797456 27:-0.0339128130071 28:0.00183700801261 29:0.0195501592678 30:0.000382208727395 
3 1:5324.61076892 2:5324.57599954 3:5324.58774959 4:0.0108294371837 5:0.000117276709715 6:0.00751983399833 7:-0.0100884408667 8:-6.75015598972e-14 9:0.00548324341728 10:3.00659583731e-05 11:0.00810499167623 12:-0.00845826550224 13:8.11202956659e-14 14:0.00534426672815 15:2.85611868616e-05 16:0.00643415385332 17:-0.00925456819183 18:-3.49350178415e-14 19:0.0052344424102 20:2.73993873457e-05 21:0.0291652667555 22:-0.0272178979407 23:-3.01980662698e-14 24:0.0175420310598 25:0.000307722853705 26:0.012772056417 27:-0.0195131554881 28:0.00119249358752 29:0.0117253512881 30:0.00013748386283 
3 1:5324.75718023 2:5324.65472974 3:5324.68894411 4:0.0320314628117 5:0.00102601460986 6:0.0260990395555 7:-0.0304862576731 8:-2.47505719623e-13 9:0.0171563633733 10:0.000294340804197 11:0.0264767489295 12:-0.0307381532826 13:7.69754630407e-15 14:0.0173303192362 15:0.000300339964829 16:0.0471459961752 17:-0.0481698538165 18:-5.15143483426e-14 19:0.0290944085342 20:0.000846484607953 21:0.020630646587 22:-0.0145676327913 23:-5.15143483426e-14 24:0.0126626815647 25:0.000160343504408 26:0.0701551462671 27:-0.0507502991285 28:0.000722943110704 29:0.0360887212886 30:0.00130239580425 
3 1:5324.74352866 2:5324.73949795 3:5324.74059797 4:0.00141912545968 5:2.01391707031e-06 6:0.0052480754904 7:-0.00575146740092 8:-1.03028696685e-13 9:0.00364079055747 10:1.32553558833e-05 11:0.00519358800804 12:-0.00589682368179 13:-6.09882514861e-14 14:0.0038260933751 15:1.4638990515e-05 16:0.0234030651403 17:-0.0211700726467 18:-7.34227493619e-14 19:0.0146241473178 20:0.000213865684773 21:0.0493369385978 22:-0.0497969760386 23:-2.78295904839e-14 24:0.0298785615661 25:0.000892728441259 26:0.0180971276485 27:-0.0212756300868 28:0.000391475386679 29:0.0128389816348 30:0.000164839449419 
3 1:5324.8214519 2:5324.80980878 3:5324.81748374 4:0.00361906670739 5:1.30976438325e-05 6:0.00322469165381 7:-0.00222094030914 8:-9.00020798629e-14 9:0.00179892078199 10:3.23611597987e-06 11:0.00269477245054 12:-0.00304420598512 13:-1.12502599829e-13 14:0.00222335617569 15:4.94331268397e-06 16:0.00422872515113 17:-0.0035838459786 18:-9.71075072205e-14 19:0.00235814321367 20:5.56083941618e-06 21:0.0116847172939 22:-0.0124542558156 23:-5.92118946467e-16 24:0.00743813499542 25:5.53258522101e-05 26:0.0160490233287 27:-0.0195981878257 28:0.000499579713603 29:0.0120499367641 30:0.000145200976019 
3 1:5324.79203765 2:5324.62042459 3:5324.73472205 4:0.0536495572434 5:0.00287827499241 6:0.051191754438 7:-0.0436452997485 8:-1.03028696685e-13 9:0.0287267382379 10:0.000825225489787 11:0.0509490976456 12:-0.0435476703854 13:-9.29626745953e-14 14:0.0285820746937 15:0.000816934993794 16:0.0778968892736 17:-0.0761133936199 18:-1.34411000848e-13 19:0.0470813607181 20:0.00221665452707 21:0.0231423880096 22:-0.0288369305686 23:-1.2730557349e-14 24:0.0162693298142 25:0.000264691092603 26:0.0371967954556 27:-0.0264113275948 28:-0.00226659142029 29:0.0236962030443 30:0.000561510038719 
3 1:5324.78151881 2:5324.66963596 3:5324.74393473 4:0.0349128417111 5:0.00121890651634 6:0.0328069457931 7:-0.0264022009329 8:8.76336040771e-14 9:0.0179063221305 10:0.000320636372242 11:0.0307250518252 12:-0.02797810254 13:-1.36187357687e-13 14:0.0182024985955 15:0.000331330955118 16:0.0348898035388 17:-0.0318238596362 18:-6.45409651649e-14 19:0.022540319181 20:0.000508065988783 21:0.0357152885211 22:-0.0404133729453 23:-6.27646083255e-14 24:0.0252770138486 25:0.000638927429101 26:0.00934951773062 27:-0.00730141341091 28:-0.000787236492968 29:0.00622951125655 30:3.88068104955e-05 
3 1:5325.12014893 2:5324.82691333 3:5324.92512846 4:0.0916012380262 5:0.00839078680794 6:0.0720566816175 7:-0.0863078050264 8:-1.40924309259e-13 9:0.0478276892211 10:0.00228748785623 11:0.0764514264922 12:-0.0854562474399 13:-6.03961325396e-14 14:0.0496941783686 15:0.00246951136373 16:0.115386727293 17:-0.120807196546 18:-1.20792265079e-13 19:0.0738974595293 20:0.00546083452489 21:0.0462517250518 22:-0.0476613943368 23:-2.84217094304e-14 24:0.0301073764516 25:0.000906454116801 26:0.149132875463 27:-0.0930651460931 28:-0.00212152690414 29:0.0833814992408 30:0.00695247441565 
3 1:5325.0454412 2:5324.84468777 3:5324.91203651 4:0.0626827233427 5:0.00392912380566 6:0.0483317341157 7:-0.0586944550676 8:-1.14871075615e-13 9:0.0323071703912 10:0.00104375325869 11:0.0527842592358 12:-0.0576599940145 13:-9.41469124882e-14 14:0.0343216570445 15:0.00117797614228 16:0.0721309392747 17:-0.0768192577714 18:-8.76336040771e-14 19:0.0477060600524 20:0.00227586816572 21:0.0412233335544 22:-0.0363914808195 23:-3.13823041627e-14 24:0.0263945678336 25:0.000696673211123 26:0.0972359736876 27:-0.0735960460752 28:-0.00485083947025 29:0.0657204770192 30:0.00431918109963 
3 1:5324.80053032 2:5324.79666346 3:5324.79835566 4:0.00156679398516 5:2.45484339192e-06 6:0.0146187734115 7:-0.0138224593779 8:-1.53950926081e-13 9:0.00886214785854 10:7.85376646666e-05 11:0.0125488225825 12:-0.0109600258155 13:-2.72374715375e-14 14:0.00812984158144 15:6.60943241393e-05 16:0.0537538316727 17:-0.0594239569063 18:-4.32246830921e-14 19:0.0371771483836 20:0.00138214036194 21:0.142311255356 22:-0.143061555603 23:-3.19744231092e-14 24:0.0859299966376 25:0.00738396432214 26:0.063147227732 27:-0.094258783158 28:0.0017973033753 29:0.051309206537 30:0.00263263467546 
3 1:5325.03124485 2:5324.80690768 3:5324.88222572 4:0.0700153205589 5:0.00490214511297 6:0.0533309353162 7:-0.0659172236705 8:-2.96059473233e-14 9:0.0360375945088 10:0.00129870821798 11:0.0560355489026 12:-0.0620000248689 13:-1.32042525062e-13 14:0.0364446919626 15:0.00132821557225 16:0.066787553911 17:-0.0726106444688 18:1.18423789293e-15 19:0.0463313800856 20:0.00214659678064 21:0.083666576827 22:-0.0788070812461 23:-8.34887714518e-14 24:0.0509059591102 25:0.00259141667293 26:0.131847722995 27:-0.190885393 28:0.000271611616884 29:0.0970021226037 30:0.00940941178963 
3 1:5325.14158224 2:5325.0403874 3:5325.10796997 4:0.0317246634578 5:0.00100645427151 6:0.0300479464122 7:-0.0276606194999 8:-8.40808903983e-14 9:0.0180906314551 10:0.000327270946443 11:0.0344744109384 12:-0.0297277948413 13:-1.00660220899e-13 14:0.0194351232137 15:0.000377724014333 16:0.0712284011685 17:-0.0718907677402 18:9.47390314347e-15 19:0.0431168498283 20:0.00185906273912 21:0.0691016235094 22:-0.0728811043175 23:-6.01000730664e-14 24:0.0432682513925 25:0.00187214157857 26:0.130152452752 27:-0.112864650356 28:0.00621134985802 29:0.0859000619585 30:0.00737882064447 
3 1:5324.69622836 2:5324.69069063 3:5324.69411177 4:0.00190683504396 5:3.63601988488e-06 6:0.00724140479947 7:-0.00683797341122 8:-8.28966525053e-15 9:0.00443761808952 10:1.96924543084e-05 11:0.00670911390571 12:-0.00606354114427 13:-1.62240591332e-13 14:0.00389514078918 15:1.51721217675e-05 16:0.0323127965026 17:-0.0343026622884 18:-8.34887714518e-14 19:0.0206899511485 20:0.000428074078528 21:0.0819323449739 22:-0.0821202684859 23:-7.6087284621e-14 24:0.0494311312835 25:0.00244343673997 26:0.178613197536 27:-0.155861682785 28:0.00874007310221 29:0.117232590419 30:0.0137434802564 
3 1:5325.07807552 2:5324.8871195 3:5324.95082762 4:0.0597066742089 5:0.00356488694509 6:0.0491087824016 7:-0.0574677684329 8:-2.48689957516e-13 9:0.0322957114629 10:0.0010430129789 11:0.0466177628098 12:-0.0562382924197 13:-8.94099609165e-14 14:0.0310435682671 15:0.000963703130756 16:0.0839335024989 17:-0.0853501950077 18:-2.84217094304e-14 19:0.0515331884202 20:0.00265566950876 21:0.0423712276434 22:-0.034138494739 23:-4.14483262527e-15 24:0.0241470266583 25:0.000583078896435 26:0.106521130918 27:-0.145486786197 28:0.00815319691151 29:0.0976382410376 30:0.00953322611292 
3 1:5324.7899856 2:5324.49876982 3:5324.5963573 4:0.0909370139155 5:0.00826954049987 6:0.070924393737 7:-0.0861972352383 8:-1.74082970261e-13 9:0.0474291195311 10:0.00224952137949 11:0.0721939168818 12:-0.082033802926 13:-1.172395514e-13 14:0.0470393128373 15:0.00221269695221 16:0.0989191419386 17:-0.104830990502 18:-9.00020798629e-14 19:0.06491281392 20:0.00421367341101 21:0.0672223955065 22:-0.057861162284 23:-4.29286236188e-14 24:0.0466089008488 25:0.00217238963833 26:0.0663659803014 27:-0.0877326080965 28:0.00538891421226 29:0.05140247831 30:0.00264221477641 
3 1:5324.91524431 2:5324.85390818 3:5324.87425943 4:0.0192225109592 5:0.000369504927576 6:0.0168975376083 7:-0.0185270102121 8:-1.00660220899e-13 9:0.0110338354852 10:0.000121745525515 11:0.0165252425669 12:-0.02018623435 13:-1.22568621919e-13 14:0.0110942879797 15:0.000123083225776 16:0.0404387751349 17:-0.0398773754765 18:8.28966525053e-15 19:0.0241985929636 20:0.000585571901418 21:0.0382755617164 22:-0.0348057675857 23:-2.36847578587e-15 24:0.022927420466 25:0.000525666609223 26:0.0676080957368 27:-0.0474809723258 28:3.35195167223e-05 29:0.0346322877557 30:0.00119939535519 
3 1:5324.35098003 2:5324.03511378 3:5324.2459296 4:0.0988869909814 5:0.00977863698535 6:0.0953059526484 7:-0.0845398983965 8:-1.65793305011e-14 9:0.0551925147689 10:0.00304621368652 11:0.0991352589892 12:-0.0814420149884 13:-1.30858287169e-13 14:0.054539310586 15:0.0029745363992 16:0.177246344514 17:-0.177810047279 18:-1.00660220899e-14 19:0.107066795089 20:0.0114632986107 21:0.0834103756499 22:-0.091749696519 23:-3.25665420557e-14 24:0.0564401042837 25:0.00318548537156 26:0.170945042112 27:-0.100789784113 28:-0.00260457523262 29:0.0922614579308 30:0.00851217661951 
3 1:5324.55933672 2:5324.41618343 3:5324.51034929 4:0.0444496464804 5:0.00197577107224 6:0.0402745789902 7:-0.025106952555 8:-1.26713454544e-13 9:0.0239892529843 10:0.000575484258747 11:0.02729309126 12:-0.0302481624493 13:-1.09542005096e-13 14:0.0224594127936 15:0.000504425223033 16:0.0549489557518 17:-0.0598424878237 18:-5.21064672891e-14 19:0.0413656365883 20:0.00171111589035 21:0.255016560214 22:-0.260498882594 23:-6.42449056916e-14 24:0.156064101955 25:0.0243560039192 26:0.138863507821 27:-0.117911799866 28:-0.00628071917042 29:0.0928750143184 30:0.00862576828465 
3 1:5324.45388763 2:5324.11316526 3:5324.33907991 4:0.106235528855 5:0.0112859875912 6:0.0985228188113 7:-0.0772235774179 8:-2.13162820728e-14 9:0.0534731218858 10:0.00285937476421 11:0.0912950809438 12:-0.0873388223252 13:-7.16463925225e-14 14:0.0573870278435 15:0.00329327096471 16:0.0895192875073 17:-0.0771351717568 18:-1.12502599829e-14 19:0.063629995853 20:0.00404877637225 21:0.16831208467 22:-0.177119232897 23:-6.51330841113e-15 24:0.106577325178 25:0.0113587262422 26:0.142566086902 27:-0.143699003428 28:0.00676619194548 29:0.108182885551 30:0.0117035367262 
3 1:5324.60773925 2:5324.52158981 3:5324.54910349 4:0.0274441501254 5:0.000753181376105 6:0.0338973269557 7:-0.0324411562259 8:-1.56319401867e-13 9:0.02556490538 10:0.00065356438709 11:0.0262988725925 12:-0.0412865267596 13:-3.78956125739e-14 14:0.0250037688018 15:0.000625188454294 16:0.147870097188 17:-0.137714106053 18:-8.11202956659e-14 19:0.0895965330181 20:0.00802753872886 21:0.257274451847 22:-0.256421285793 23:2.6645352591e-14 24:0.154698969132 25:0.0239317710504 26:0.0275663805523 27:-0.0384697071796 28:-0.000480334559738 29:0.0204239172371 30:0.000417136395308 
3 1:5324.98796323 2:5324.86129649 3:5324.94506205 4:0.0394341862962 5:0.00155505504884 6:0.0360872015235 7:-0.026615792071 8:-2.32110627015e-13 9:0.019643777358 10:0.000385877988892 11:0.0312740646822 12:-0.0318272387981 13:-1.65793305011e-14 14:0.0215643260203 15:0.000465020156712 16:0.0374941658476 17:-0.0264232867375 18:-6.39488462184e-14 19:0.0210917547451 20:0.000444862118228 21:0.093379394717 22:-0.101099836232 23:-6.48370246381e-14 24:0.060782325554 25:0.00369449109976 26:0.0817943271277 27:-0.134405932599 28:0.00101125506678 29:0.0717332341061 30:0.00514565687531 
3 1:5324.48919482 2:5324.17536646 3:5324.38455554 4:0.0981999782529 5:0.00964323572888 6:0.0931284623651 7:-0.0817205671864 8:-1.01844458792e-13 9:0.053431653918 10:0.00285494164041 11:0.0986475720801 12:-0.0855445769081 13:-1.14278956668e-13 14:0.0558597127678 15:0.0031203075105 16:0.172869726901 17:-0.171314223451 18:-7.87518198801e-14 19:0.1041982495 20:0.0108572751989 21:0.0964133587547 22:-0.113866804498 23:-1.03620815632e-14 24:0.0712870237932 25:0.00508183976129 26:0.24096370023 27:-0.384426194744 28:0.00570155650721 29:0.21047672735 30:0.044300452756 
3 1:5325.07301817 2:5324.95846707 3:5324.99683703 4:0.0357721633421 5:0.00127964767017 6:0.028020287377 7:-0.0340699687184 8:-7.69754630407e-14 9:0.0187428414119 10:0.000351294104192 11:0.0277114588908 12:-0.0320094635368 13:-1.17831670347e-13 14:0.0181222685955 15:0.000328416619048 16:0.0379626282655 17:-0.040163711296 18:-2.36847578587e-14 19:0.0248476012371 20:0.000617403287238 21:0.0299504646877 22:-0.0249687639124 23:-1.95399252334e-14 24:0.0200909451655 25:0.000403646077645 26:0.0596422907781 27:-0.0623851717197 28:0.00365374118305 29:0.0379389888295 30:0.0014393668734 
3 1:5325.11030972 2:5324.97872104 3:5325.02307844 4:0.0410245376571 5:0.00168301268998 6:0.0296616566266 7:-0.037969701617 8:-1.36187357687e-13 9:0.0205994200869 10:0.000424336107918 11:0.0338858681999 12:-0.0351695970609 13:-6.98700356831e-14 14:0.0223196441662 15:0.000498166515705 16:0.0289232921145 17:-0.0338311207022 18:-1.95399252334e-14 19:0.0244182071607 20:0.000596248840943 21:0.0635438265134 22:-0.0569368519186 23:-4.55931588779e-14 24:0.0389052742801 25:0.00151362036681 26:0.0921659280058 27:-0.0698348393444 28:-0.0018491036523 29:0.0546121607944 30:0.00298248810663 
3 1:5324.88866629 2:5324.88775414 3:5324.88813127 4:0.00028451330985 5:8.09478234817e-08 6:0.00128556314525 7:-0.00123785609878 8:-1.2908193033e-13 9:0.000766873706942 10:5.88095282398e-07 11:0.00211647184343 12:-0.0020945573626 13:-1.48029736617e-13 14:0.00126805034705 15:1.60795168265e-06 16:0.0037604381382 17:-0.00440131455707 18:-1.18423789293e-13 19:0.00299140068018 20:8.94847802936e-06 21:0.0122409663199 22:-0.012894395799 23:-7.19424519957e-14 24:0.00763079082573 25:5.8228968626e-05 26:0.0233741266571 27:-0.0209643745062 28:-0.00122932397216 29:0.0168163282358 30:0.000282788895334 
3 1:5324.76969464 2:5324.72278693 3:5324.75417997 4:0.0147246929084 5:0.000216816581247 6:0.0141691351669 7:-0.0134255231033 8:-1.14871075615e-13 9:0.00883140922425 10:7.79937888862e-05 11:0.0164842450978 12:-0.0135024746286 13:-2.54611146981e-14 14:0.00906370990516 15:8.2150837245e-05 16:0.0365744932392 17:-0.0374255046421 18:-1.06581410364e-13 19:0.0223328366122 20:0.000498755591148 21:0.0358925767078 22:-0.0351170821456 23:-1.74675089208e-14 24:0.0214188872892 25:0.000458768732709 26:0.0766045259448 27:-0.0614221014441 28:0.00278265291137 29:0.0467624476674 30:0.00218672651184 
3 1:5324.65408123 2:5324.35962048 3:5324.55554781 4:0.0919866126993 5:0.00846153691589 6:0.0877086947046 7:-0.0729995927412 8:-1.7763568394e-14 9:0.0485226949092 10:0.00235445192125 11:0.0838970101204 12:-0.0721904523917 13:-4.55931588779e-14 14:0.0472863677504 15:0.00223600057503 16:0.112934045049 17:-0.108152407687 18:2.84217094304e-14 19:0.0690418871855 20:0.00476678218613 21:0.0516441100465 22:-0.0535419428397 23:-1.21384384026e-14 24:0.0393829582332 25:0.0015510173992 26:0.128276191281 27:-0.135333604885 28:-0.00758966001254 29:0.0861570160006 30:0.00742303140613 
3 1:5324.65062434 2:5323.94800662 3:5324.41477206 4:0.219307462359 5:0.0480957630465 6:0.206210957343 7:-0.167521909969 8:-4.16851738313e-13 9:0.112893996772 10:0.0127450545071 11:0.195946101568 12:-0.177638128277 13:-5.62512999143e-14 14:0.115518031595 15:0.0133444156235 16:0.236954029255 17:-0.219211735246 18:3.5527136788e-14 19:0.149992577766 20:0.0224977733849 21:0.194291982691 22:-0.217993316007 23:-2.19084010193e-14 24:0.136474836815 25:0.0186253810837 26:0.161178351866 27:-0.120078989676 28:0.000180991080957 29:0.0833310853277 30:0.0069440697819 
3 1:5324.88085211 2:5324.46801415 3:5324.60489836 4:0.129409871184 5:0.0167469147598 6:0.114609868707 7:-0.125030300961 8:-4.85537536103e-14 9:0.0748719921602 10:0.00560581521003 11:0.11094494041 12:-0.136667975209 13:-6.33567272719e-14 14:0.0749322664402 15:0.00561484455387 16:0.278451825844 17:-0.273948453058 18:-7.1054273576e-14 19:0.166466669683 20:0.0277111521153 21:0.238994131557 22:-0.226303558336 23:-2.01320441799e-14 24:0.142644159108 25:0.0203473561277 26:0.0470428658884 27:-0.0293073860711 28:-0.00256910397447 29:0.0269539163093 30:0.000726513604409 
3 1:5325.08354866 2:5324.92012322 3:5325.02855359 4:0.0509811637604 5:0.00259907905837 6:0.0472487905969 7:-0.0377724050171 8:-1.01844458792e-13 9:0.0257396116205 10:0.000662527606373 11:0.0453317950347 12:-0.0431798118951 13:-4.02640883597e-14 14:0.0283069360011 15:0.000801282625768 16:0.0518354040926 17:-0.0465764479415 18:-1.45069141884e-13 19:0.0341776673336 20:0.00116811294437 21:0.0490405869153 22:-0.0557190502718 23:-3.61192557345e-14 24:0.0347035423126 25:0.00120433584905 26:0.109066196389 27:-0.0906597670532 28:0.0045523086478 29:0.0683161467987 30:0.00466709591342 
3 1:5324.75063163 2:5324.48450422 3:5324.57400733 4:0.0830066991943 5:0.00689011211114 6:0.0617069829459 7:-0.0781404980778 8:-1.9776772812e-13 9:0.042465673873 10:0.00180333345749 11:0.0641164644398 12:-0.0704874689866 13:-8.05281767195e-14 14:0.0417428909786 15:0.00174246894725 16:0.0599410935006 17:-0.0682784208789 18:1.89478062869e-14 19:0.0470758561614 20:0.00221613623332 21:0.152331602452 22:-0.148885207616 23:-6.66133814775e-14 24:0.0917791894627 25:0.00842341961843 26:0.258274349472 27:-0.39200375535 28:0.00337860046315 29:0.203377919768 30:0.041362578249 
3 1:5325.12932081 2:5324.49585773 3:5324.9180423 4:0.198143309571 5:0.0392607711278 6:0.189093427944 7:-0.163987083803 8:-7.34227493619e-14 9:0.107434099026 10:0.0115420856336 11:0.193640475635 12:-0.164954675332 13:-7.69754630407e-15 14:0.108389384655 15:0.0117482587059 16:0.320169266268 17:-0.316172763279 18:-9.53311503811e-14 19:0.193055368368 20:0.0372703752559 21:0.0925409092161 22:-0.117265146317 23:-3.0494125743e-14 24:0.0823500186469 25:0.00678152557115 26:0.0644310732285 27:-0.0855948571684 28:-0.000525049832436 29:0.0451325550011 30:0.00203694752093 
3 1:5324.76041341 2:5324.31683791 3:5324.61198404 4:0.138576135399 5:0.0192033453021 6:0.131871562337 7:-0.110050451466 8:-1.9776772812e-13 9:0.0730570358282 10:0.005337330484 11:0.127342952899 12:-0.110263138011 13:-9.00020798629e-14 14:0.0720864863185 15:0.00519646150974 16:0.174998558773 17:-0.167893349992 18:-8.52651282912e-14 19:0.106821994582 20:0.0114109385266 21:0.0845662556411 22:-0.0770150931316 23:-4.70734562441e-14 24:0.0551533551514 25:0.00304189258446 26:0.172910258401 27:-0.161898468107 28:-0.0101775281472 29:0.125583321446 30:0.0157711706255 
3 1:5324.82489377 2:5324.66314245 3:5324.77086397 4:0.0505619378588 5:0.00255650956004 6:0.0482987982724 7:-0.041043037224 8:-2.04873155477e-13 9:0.0270439658124 10:0.00073137608686 11:0.047672254346 12:-0.0406156236435 13:-3.43428988951e-14 14:0.026691376851 15:0.000712429598204 16:0.0715203365228 17:-0.0697699190897 18:-4.20404451991e-14 19:0.0432598011043 20:0.00187141039158 21:0.0256034252659 22:-0.0302798137342 23:-3.22704825824e-14 24:0.0171002216049 25:0.000292417578938 26:0.0592473482949 27:-0.0587897543982 28:-0.00344800336943 29:0.0443029765034 30:0.00196275372706 
3 1:5324.94408365 2:5324.90351332 3:5324.91739028 4:0.0126077128615 5:0.000158954423599 6:0.0073637156172 7:-0.0107674891879 8:-2.14347058621e-13 9:0.00601554815198 10:3.61868195688e-05 11:0.0125257249731 12:-0.0131712334398 13:-5.86197757002e-14 14:0.00985333404871 15:9.70881918755e-05 16:0.0134883613971 17:-0.0170124320442 18:-6.33567272719e-14 19:0.00932157532306 20:8.68917665035e-05 21:0.0337684429705 22:-0.0304842726553 23:-5.92118946467e-15 24:0.0201887107837 25:0.000407584043109 26:0.153898713895 27:-0.151936168176 28:-0.00596709559148 29:0.106199767806 30:0.0112783906821 
3 1:5324.78049736 2:5324.48931016 3:5324.58754645 4:0.0907677225616 5:0.00823877945902 6:0.0649711709693 7:-0.0835134917475 8:-1.21976502972e-13 9:0.045286180506 10:0.00205083814482 11:0.076622130092 12:-0.0780305151521 13:-1.16647432454e-13 14:0.0508406465484 15:0.00258477134146 16:0.0632173147068 17:-0.0762881332672 18:-5.86197757002e-14 19:0.0549551016555 20:0.00302006319796 21:0.142218249209 22:-0.128682817583 23:-4.17443857259e-14 24:0.0865146375832 25:0.00748478251615 26:0.207881381805 27:-0.229819505701 28:-0.00857350168927 29:0.152814172535 30:0.0233521713275 
3 1:5325.19283196 2:5324.93510262 3:5325.02067813 4:0.0807422247935 5:0.0065193068646 6:0.0703712840716 7:-0.0778804940483 8:-1.7763568394e-14 9:0.045924075971 10:0.00210902075379 11:0.0681971692627 12:-0.0834164974245 13:-8.76336040771e-14 14:0.0458231101791 15:0.00209975742649 16:0.161284443566 17:-0.159550374187 18:-1.36187357687e-14 19:0.0966596175071 20:0.00934308165661 21:0.11855147935 22:-0.110610598206 23:-3.13823041627e-14 24:0.0711406243657 25:0.00506098843514 26:0.0249244434348 27:-0.0436945907552 28:-0.000177797848298 29:0.021525953079 30:0.000463366655961 
3 1:5325.40702619 2:5325.0272367 3:5325.15466346 4:0.118550584593 5:0.0140542411074 6:0.0910090655827 7:-0.111986536754 8:-5.21064672891e-14 9:0.0613179931603 10:0.00375989628521 11:0.0939434442927 12:-0.105231294221 13:-1.71714494475e-13 14:0.0611218158263 15:0.00373587636991 16:0.116363935963 17:-0.125456109522 18:-5.92118946467e-15 19:0.0792376137554 20:0.00627859943365 21:0.117766361126 22:-0.101030561496 23:-6.03961325396e-14 24:0.0758670832387 25:0.00575581431915 26:0.0739089115525 27:-0.0987772361493 28:0.0062646914065 29:0.0570885509645 30:0.00325910265123 
3 1:5325.31833999 2:5325.04486342 3:5325.13678802 4:0.0853215611893 5:0.00727976880378 6:0.0639915325806 7:-0.0800441661257 8:1.65793305011e-14 9:0.0436101058141 10:0.00190184132911 11:0.0682520295993 12:-0.0744273440917 13:-9.94759830064e-14 14:0.0444353132216 15:0.0019744970611 16:0.0730080244952 17:-0.0809868728973 18:2.84217094304e-14 19:0.0532947030418 20:0.00284032537232 21:0.105753104229 22:-0.0921842355227 23:-3.58231962612e-14 24:0.0664901615092 25:0.00442094157752 26:0.10863151992 27:-0.0789658597831 28:0.00260185743798 29:0.0574982181658 30:0.00330604509224 
3 1:5325.01159303 2:5324.80750266 3:5324.87618131 4:0.0636534292718 5:0.00405175905806 6:0.0470404551069 7:-0.0594885573473 8:-1.25529216651e-13 9:0.0323339096175 10:0.00104548171115 11:0.0510583676089 12:-0.0548285380797 13:-1.14871075615e-13 14:0.0333213362246 15:0.00111031144779 16:0.0490378348349 17:-0.0556528940592 18:-9.35547935417e-14 19:0.0380699948419 20:0.00144932450726 21:0.0897226850631 22:-0.0788018452684 23:-4.41128615118e-14 24:0.0558419126523 25:0.00311831920867 26:0.123252488766 27:-0.084826232737 28:0.00143391918315 29:0.0628739126021 30:0.00395312888589 
3 1:5324.87047499 2:5324.64903993 3:5324.72352939 4:0.0690834085698 5:0.00477251733962 6:0.0514173586404 7:-0.0641452933662 8:-1.25529216651e-13 9:0.0349691489349 10:0.00122284137723 11:0.0582344291111 12:-0.0615269370039 13:-1.20200146133e-13 14:0.0381076865845 15:0.00145219577682 16:0.0642533886822 17:-0.0711772160045 18:-8.94099609165e-14 19:0.0465842067305 20:0.00217008831671 21:0.0787029265711 22:-0.0722857499261 23:-3.28626015289e-14 24:0.04802981094 25:0.00230686273893 26:0.127971042442 27:-0.111837596371 28:-0.00640098091409 29:0.0755870042002 30:0.00571339520395 
3 1:5324.74532259 2:5324.72000343 3:5324.73731559 4:0.00810268453803 5:6.56534967228e-05 6:0.0111529249653 7:-0.0107061392075 8:-1.16055313507e-13 9:0.0083757559697 10:7.01532880639e-05 11:0.0129855884183 12:-0.00778885012812 13:2.90138283769e-14 14:0.00827000172309 15:6.83929285e-05 16:0.0459750825433 17:-0.0496590322721 18:-6.33567272719e-14 19:0.0302387086219 20:0.000914379499121 21:0.091670511391 22:-0.092809701234 23:-2.93098878501e-14 24:0.0555650177932 25:0.00308747120236 26:0.0247679635972 27:-0.0262994736897 28:-0.00063391498349 29:0.016797625852 30:0.000282160234264 
3 1:5324.86792534 2:5324.70054113 3:5324.81147828 4:0.0521837831965 5:0.0027231472287 6:0.0480260597362 7:-0.0375720550442 8:-3.07901852163e-14 9:0.0260571586089 10:0.00067897551477 11:0.045261833935 12:-0.0443269896849 13:2.60532336445e-14 14:0.0293703343121 15:0.000862616537607 16:0.0453875718662 17:-0.0389404924775 18:-7.69754630407e-14 19:0.032450647827 20:0.00105304454439 21:0.0775432300823 22:-0.0820576581934 23:-4.29286236188e-14 24:0.0493475134048 25:0.00243517707923 26:0.116247479809 27:-0.130636968079 28:0.00661917319182 29:0.0770623104613 30:0.00593859969363 
3 1:5324.56072156 2:5324.54625545 3:5324.55582326 4:0.0045038898355 5:2.02850236503e-05 6:0.00412824421986 7:-0.00305143457287 8:3.19744231092e-14 9:0.00224622924997 10:5.04554584344e-06 11:0.00357636174582 12:-0.00362135327929 13:0.0 14:0.0024466048607 15:5.98587534442e-06 16:0.00430086777696 17:-0.00302132262376 18:-6.27646083255e-14 19:0.00242771721549 20:5.89381087838e-06 21:0.0176784008105 22:-0.0162462235974 23:-2.84217094304e-14 24:0.0103623484818 25:0.000107378266059 26:0.0874909139381 27:-0.0638202417391 28:0.000961410230643 29:0.0452136673973 30:0.00204427571951 
3 1:5324.48772994 2:5324.37076517 3:5324.40995993 4:0.0365354440909 5:0.00133483867492 6:0.0285910524196 7:-0.0342750799842 8:-1.69346018689e-13 9:0.018985340601 10:0.000360443157735 11:0.0310643582208 12:-0.0342466360551 13:-5.62512999143e-14 14:0.0201832908638 15:0.000407365230091 16:0.0464040709486 17:-0.04872930222 18:-4.4408920985e-14 19:0.0298607205485 20:0.000891662631676 21:0.0139978705505 22:-0.0154548778196 23:8.58572472377e-15 24:0.0103298452575 25:0.000106705703045 26:0.0541185844123 27:-0.0540994908141 28:-0.00274184482091 29:0.0330732082641 30:0.00109383710488 
3 1:5324.61603092 2:5324.55334281 3:5324.59491339 4:0.0195440001839 5:0.000381967943188 6:0.0182864776552 7:-0.0142171142445 8:-6.51330841113e-14 9:0.00991837482018 10:9.83741590735e-05 11:0.0163142187459 12:-0.0152067086792 13:-6.27646083255e-14 14:0.0099338207406 15:9.86807945064e-05 16:0.0148928699568 17:-0.0118481328121 18:-6.69094409507e-14 19:0.0105247063624 20:0.000110769444014 21:0.0270651134707 22:-0.0321491600265 23:-1.83556873405e-14 24:0.0205031902241 25:0.000420380809366 26:0.0749033289245 27:-0.101274998705 28:-0.00196105708368 29:0.0536172445542 30:0.00287480891358 
3 1:5324.5792907 2:5324.46717395 3:5324.5421166 4:0.0351406104883 5:0.00123486250549 6:0.0340424672513 7:-0.0311027123801 8:-2.62900812231e-13 9:0.0203099994735 10:0.000412496078614 11:0.0367940248275 12:-0.0296100536315 13:-1.54543045028e-13 14:0.0201315442353 15:0.000405279073297 16:0.0727474703221 17:-0.0739835200318 18:-1.14278956668e-13 19:0.044219328813 20:0.00195534904067 21:0.0625638146296 22:-0.0687558530929 23:-4.47049804582e-14 24:0.0412464967937 25:0.00170127349775 26:0.0752996739264 27:-0.0981320622179 28:-0.00146496242112 29:0.0519944830173 30:0.00270342626423 
3 1:5324.95140657 2:5324.73943656 3:5324.8103824 4:0.0662223554977 5:0.00438540036766 6:0.0524948710345 7:-0.062767926978 8:-9.11863177559e-14 9:0.0348146200801 10:0.00121205777132 11:0.0538956777307 12:-0.0614376062061 13:-6.33567272719e-14 14:0.0351245528557 15:0.00123373421332 16:0.0828457274647 17:-0.0863815605256 18:-6.27646083255e-14 19:0.0527042177957 20:0.00277773457346 21:0.026665995817 22:-0.0310255712423 23:-3.0494125743e-14 24:0.0217687099691 25:0.000473876733719 26:0.0237750031366 27:-0.0385453818908 28:0.000857003779102 29:0.0203863436563 30:0.000415603007674 
3 1:5324.69901451 2:5324.62551916 3:5324.65058115 4:0.0228389023799 5:0.000521615461917 6:0.0137155007262 7:-0.0209348941873 8:-5.80276567537e-14 9:0.0120470462717 10:0.000145131323872 11:0.0155296915619 12:-0.0145671173145 13:-2.36847578587e-15 14:0.0109496049752 15:0.000119893849114 16:0.0261927125901 17:-0.0255188981571 18:-1.11318361936e-13 19:0.0174777219334 20:0.00030547076398 21:0.112714379738 22:-0.10725163655 23:-1.83556873405e-14 24:0.0673908151808 25:0.00454152197073 26:0.0534979778187 27:-0.0818014780126 28:0.00486350675865 29:0.0495310647139 30:0.00245332637169 
3 1:5324.65804324 2:5324.45918518 3:5324.52588909 4:0.0620853673093 5:0.00385459283394 6:0.0478868303932 7:-0.0584184068863 8:-3.67113746809e-14 9:0.0320927235734 10:0.00102994290636 11:0.0507832601437 12:-0.0562686814466 13:-7.28306304154e-14 14:0.0330146386528 15:0.00108996636538 16:0.0673143247052 17:-0.0719038438282 18:-2.96059473233e-14 19:0.0448482311098 20:0.00201136383368 21:0.0487358414389 22:-0.0420415309961 23:-7.07582141028e-14 24:0.0315535239906 25:0.000995624876226 26:0.0281228481195 27:-0.0333229231978 28:-0.000799432550901 29:0.0209438560943 30:0.000438645108098 
3 1:5324.74541174 2:5324.64850589 3:5324.71300565 4:0.0302849698401 5:0.000917179398218 6:0.0287139996328 7:-0.0242793014484 8:-2.47505719623e-13 9:0.016028327771 10:0.000256907291133 11:0.0286111569851 12:-0.0250161539372 13:1.24344978758e-14 14:0.016311038632 15:0.000266049981256 16:0.0425657816472 17:-0.0412129335662 18:-4.38168020385e-14 19:0.0258174189721 20:0.000666539122382 21:0.0142559404825 22:-0.0163670142079 23:-7.9936057773e-15 24:0.00928675572779 25:8.62438319476e-05 26:0.026699350824 27:-0.03850542374 28:-0.000184544159522 29:0.0197639859898 30:0.000390615142205 
3 1:5324.5863332 2:5324.4923445 3:5324.55513133 4:0.0294429875105 5:0.000866889513544 6:0.0285085475706 7:-0.0256914679013 8:-2.48689957516e-13 9:0.0167633760248 10:0.000281010775748 11:0.0301447782276 12:-0.0243339641983 13:-2.36847578587e-15 14:0.0165018112547 15:0.000272309774687 16:0.0568684357644 17:-0.0575364871618 18:-9.29626745953e-14 19:0.0344674653362 20:0.00118800616671 21:0.0364789050714 22:-0.0393353749534 23:-7.37188088351e-14 24:0.0237238218613 25:0.000562819723708 26:0.0337952606003 27:-0.0300979153703 28:-0.00110774595098 29:0.0215332773367 30:0.00046368203286 
3 1:5324.54420041 2:5324.45439696 3:5324.48445711 4:0.0280590771982 5:0.000787311813216 6:0.0222457028346 7:-0.0264601181162 8:-1.2908193033e-13 9:0.014720126802 10:0.000216682133067 11:0.0235661402344 12:-0.0264540931829 13:-5.98040135931e-14 14:0.0153211471106 15:0.000234737548784 16:0.0372076944273 17:-0.0387178122191 18:-8.46730093447e-14 19:0.0235739065918 20:0.000555729072001 21:0.0102234280347 22:-0.0104546606736 23:-5.44749430749e-14 24:0.00681476700617 25:4.64410493484e-05 26:0.0288180930396 27:-0.0212301754617 28:-0.00141139708196 29:0.0180439295117 30:0.000325583392222 
3 1:5324.68639445 2:5324.58893478 3:5324.62169246 4:0.0304105318636 5:0.00092480044823 6:0.0228607655395 7:-0.0283941752072 8:-2.2618943755e-13 9:0.015499140875 10:0.000240223367863 11:0.0251391699369 12:-0.0270519368399 13:-3.01980662698e-14 14:0.0163873604306 15:0.000268545581882 16:0.0287652516244 17:-0.031585030701 18:1.7763568394e-15 19:0.020417232086 20:0.000416863366054 21:0.0332691884763 22:-0.0299698139094 23:-8.76336040771e-14 24:0.0205532709214 25:0.000422436945568 26:0.0300166506595 27:-0.0272785423555 28:-0.00139183345638 29:0.0178736242173 30:0.00031946644266 
3 1:5324.75789719 2:5324.69630192 3:5324.71696951 4:0.0192273317786 5:0.000369690287324 6:0.0147579576604 7:-0.0181282347152 8:-1.93030776548e-13 9:0.00993221585294 10:9.86489117495e-05 11:0.0154190988624 12:-0.0171690159022 13:-9.71075072205e-14 14:0.0100278192674 15:0.000100557159259 16:0.0193690572939 17:-0.0208533909292 18:-5.21064672891e-14 19:0.0131392169727 20:0.000172639022655 21:0.0187045590154 22:-0.0164890800186 23:-4.67773967709e-14 24:0.0118215254768 25:0.000139748464598 26:0.00790458474722 27:-0.0129544346482 28:0.000425610930693 29:0.00736923089974 30:5.43055640537e-05 
3 1:5324.73909125 2:5324.67266057 3:5324.71676616 4:0.0207357499048 5:0.000429971324115 6:0.0191779959248 7:-0.0156663433984 8:-1.70530256582e-13 9:0.010520717098 10:0.000110685488256 11:0.0191647228549 12:-0.0182424508506 13:4.73695157173e-15 14:0.0119442258718 15:0.000142664531676 16:0.0252760484919 17:-0.0234042973289 18:-9.23705556488e-14 19:0.0159281383364 20:0.000253705590865 21:0.0127360411015 22:-0.0140794804758 23:-4.79616346638e-14 24:0.00875712620317 25:7.66872593382e-05 26:0.0596902638111 27:-0.0695078352475 28:0.00363837905416 29:0.0406580076236 30:0.00165307358392 
3 1:5324.52775186 2:5324.4297813 3:5324.46281868 4:0.030537267676 5:0.000932524717113 6:0.0219322304522 7:-0.0283588771474 8:-1.00660220899e-13 9:0.015374837956 10:0.000236385642174 11:0.0244797652602 12:-0.0255894699346 13:-8.94099609165e-14 14:0.0160966464443 15:0.000259102026751 16:0.0181951675416 17:-0.0246764282441 18:-1.83556873405e-14 19:0.0169199500019 20:0.000286284708066 21:0.0559887092439 22:-0.0509772515227 23:-1.42108547152e-14 24:0.0340116741437 25:0.00115679397806 26:0.0510910701207 27:-0.0325301483083 28:0.000172269107661 29:0.0262916143595 30:0.00069124898563 
