3 1:-409.849209059 2:-524.434080378 3:-448.386626174 4:39.0673613864 5:1526.2587257 6:20.2882999909 7:-24.8266867745 8:2.24582257553e-14 9:15.5888358821 10:243.01180416 11:11.034974121 12:-10.2816993142 13:-1.7458612824 14:7.53494372981 15:56.7753770114 16:21.4040438136 17:-25.6408798672 18:0.899175098225 19:13.6484333488 20:186.279732876 21:47.8921889344 22:-45.3879387139 23:8.00920227692 24:29.1169642382 25:847.797606451 26:140.060456215 27:-133.030360635 28:-11.9850519557 29:94.5559932321 30:8940.83585611 
3 1:-409.422372582 2:-520.773771695 3:-446.854670027 4:37.9702015697 5:1441.73620725 6:19.8369442196 7:-24.2085525724 8:-1.14194368247e-15 9:15.217007353 10:231.557312781 11:10.6123675396 12:-9.68497977039 13:-1.78046205818 14:7.33955425941 15:53.8690567269 16:21.1877445302 17:-25.2280802235 18:1.02865157622 19:13.5324303926 20:183.126672332 21:48.0283116157 22:-45.5554362181 23:8.2726797287 24:29.4773926415 25:868.916676943 26:140.460386958 27:-133.096726284 28:-11.9832390751 29:94.6873137826 30:8965.68739136 
3 1:-409.03611859 2:-511.54370488 3:-443.491406769 4:34.9530198246 5:1221.71359486 6:18.1522088645 7:-22.2594526395 8:6.09036630652e-15 9:13.9982435425 10:195.950822275 11:10.1305789079 12:-9.2132424757 13:-1.72772830229 14:6.78168828229 15:45.9912959581 16:24.5670596067 17:-29.3585683513 18:0.96969774525 19:15.2087199998 20:231.305164031 21:39.8789008775 22:-36.2186185434 23:8.15741228389 24:25.5725106161 25:653.953299211 26:136.579341142 27:-133.044705508 28:-11.9591206424 29:95.9975888224 30:9215.53705972 
3 1:-347.490629958 2:-452.814571973 3:-382.823666445 4:35.9596843778 5:1293.09890055 6:17.6118698401 7:-23.7934663298 8:5.77315972805e-15 9:14.4529681782 10:208.888289159 11:9.76048894954 12:-13.0108861642 13:-2.2329943833 14:7.443951285 15:55.4124107335 16:16.418736236 17:-13.5582808602 18:1.86440082721 19:9.63679409286 20:92.8678003882 21:58.7026833192 22:-50.2646467738 23:11.2647521579 24:34.2863490956 25:1175.55373431 26:135.328742854 27:-133.915902035 28:-11.4535382295 29:92.7358129619 30:8599.93100571 
3 1:137.715846236 2:-416.136948791 3:-228.623439614 4:188.437425128 5:35508.6631891 6:113.089778554 7:-96.1022425704 8:0.0 9:71.7710860408 10:5151.08879148 11:63.6164428333 12:-42.8911604323 13:0.5232705597 14:40.4640915317 15:1637.34270348 16:102.420329234 17:-105.971702747 18:3.98909703557 19:55.931246605 20:3128.30434679 21:89.3175193453 22:-79.3826213322 23:8.15806572947 24:45.0454517956 25:2029.09272747 26:234.746641634 27:-194.90750049 28:-9.91702486244 29:134.824961147 30:18177.7701483 
3 1:439.356453692 2:347.986870035 3:377.86044951 4:31.0417132836 5:963.587963578 6:48.9412987615 7:-68.7700887395 8:-7.61295788314e-15 9:32.7533362369 10:1072.78103465 11:28.0035983437 12:-34.130401541 13:-2.88140334266 14:19.8421540551 15:393.711077548 16:10.8222911269 17:-12.1087199054 18:-1.42642502535 19:7.36513685273 20:54.2452408595 21:99.6063617319 22:-80.6663211273 23:16.2665387502 24:53.9716023714 25:2912.93386254 26:144.603957216 27:-188.726711544 28:-20.643508078 29:104.817766364 30:10986.7641454 
3 1:411.93604612 2:346.112405904 3:366.934624624 4:22.7795429661 5:518.907577743 6:38.7953553153 7:-54.0770648613 8:-6.2172489379e-15 9:26.0341261588 10:677.775724852 11:20.7440237103 12:-22.9471753061 13:0.818661560024 14:12.3422295835 15:152.330631092 16:27.9740527842 17:-26.1254573543 18:2.90725699979 19:15.8578813073 20:251.472399555 21:37.1149638947 22:-70.2885101442 23:-9.43211350628 24:37.5082153189 25:1406.86621641 26:139.996685595 27:-105.622850134 28:-10.5218128126 29:84.9338829308 30:7213.7644697 
3 1:406.442131342 2:311.26552048 3:342.253826282 4:32.7187949219 5:1070.51954114 6:37.3914237341 7:-50.1314351523 8:-3.48927236311e-15 9:25.1437970402 10:632.210529597 11:19.9125872494 12:-19.5711822616 13:1.19214651287 14:11.2757951887 15:127.143557136 16:26.0894432261 17:-21.2017074492 18:2.80606085586 19:14.066093281 20:197.854980191 21:37.2823212514 22:-72.0507750187 23:-10.0979052757 24:35.1671932961 25:1236.73148432 26:122.078443722 27:-103.189109859 28:-9.6156391082 29:78.877193202 30:6221.61160743 
3 1:423.874133252 2:274.08617309 3:322.670968457 4:51.4249812802 5:2644.52869967 6:65.1025527928 7:-88.2504336377 8:-9.32587340685e-15 9:43.2043145025 10:1866.61279163 11:33.6362157533 12:-35.676076471 13:1.5366064228 14:19.5363166685 15:381.667668974 16:27.6321051531 17:-28.816535584 18:1.79396722753 19:18.5009953672 20:342.286829577 21:36.0293083287 22:-79.5318388645 23:-11.6750180885 24:37.4635172666 25:1403.51512598 26:115.956489898 27:-106.883675348 28:-8.56145818593 29:75.6337004966 30:5720.45665082 
3 1:408.447882401 2:290.1319822 3:329.26024641 4:40.6578251394 5:1653.05874507 6:31.5565993667 7:-40.0266739755 8:-8.12048840869e-15 9:22.9413066765 10:526.303552026 11:16.6122176716 12:-11.5926256255 13:1.82930276308 14:10.9413041134 15:119.712135702 16:53.1586131198 17:-29.282810809 18:6.11147075186 19:24.6016348301 20:605.240436313 21:37.1274414283 22:-104.412094903 23:-14.5726892456 24:43.5599865858 25:1897.47243136 26:140.498210118 27:-127.952811192 28:-9.17973535269 29:90.0248443295 30:8104.47259654 
3 1:390.203916976 2:280.654214067 3:316.004060981 4:37.7419463176 5:1424.45451184 6:49.5536924224 7:-67.468783171 8:-1.54796810291e-14 9:33.2063049504 10:1102.65868846 11:25.5072777126 12:-26.0801083169 13:1.50605629593 14:14.6225701898 15:213.819558957 16:37.603692942 17:-30.6394387892 18:4.06165147533 19:23.0049399913 20:529.227264001 21:40.5352226302 22:-94.8173191616 23:-13.26894104 24:43.4096311317 25:1884.39607499 26:139.136677559 27:-131.210308198 28:-11.1663771354 29:92.1978825423 30:8500.44954529 
3 1:448.069502298 2:219.355718275 3:294.700405112 4:78.3697850814 5:6141.82321371 6:73.7614386952 7:-96.5487879634 8:1.71291552371e-15 9:50.0979769313 10:2509.80729261 11:39.4619805039 12:-36.013208026 13:2.19983304922 14:22.2512753641 15:495.119255328 16:44.3303180327 17:-29.3148157289 18:5.03449727152 19:24.1052168307 20:581.061478453 21:37.7908833946 22:-112.829447155 23:-16.2265713549 24:44.9278338938 25:2018.51025839 26:131.452271932 27:-132.250028419 28:-10.4053816951 29:91.9518848038 30:8455.14911897 
3 1:402.203010929 2:300.47978679 3:333.628462169 4:35.0443254285 5:1228.10474474 6:36.4624158291 7:-48.1705209758 8:-6.85166209483e-15 9:25.1094985209 10:630.486915971 11:19.2027450174 12:-17.2253576281 13:1.95353437598 14:11.2155402828 15:125.788343834 16:37.553202056 17:-28.0429219284 18:4.09278328095 19:19.1759121052 20:367.715605065 21:33.9768158246 22:-111.670797134 23:-16.058291132 24:44.8513288289 25:2011.64169772 26:138.520852594 27:-122.499052634 28:-9.77678189604 29:89.4347162405 30:7998.56846901 
3 1:421.166767087 2:263.90979076 3:315.480766616 4:53.9356309257 5:2909.05228336 6:55.1303881161 7:-72.912310198 8:-6.2172489379e-15 9:37.1612242981 10:1380.95659133 11:29.1239577588 12:-27.6724804252 13:1.70391076427 14:16.4126970811 15:269.376625477 16:30.6635984058 17:-23.6800882054 18:3.35797730232 19:18.1271994231 20:328.595358924 21:35.3716802774 22:-92.2771287094 23:-13.373622337 24:40.8019288962 25:1664.79740165 26:125.600290641 27:-114.087461629 28:-9.34112896866 29:81.6184417275 30:6661.57003002 
3 1:438.253843527 2:271.492414973 3:326.287316138 4:57.194707304 5:3271.23454359 6:55.6404274792 7:-73.0847779483 8:-6.47101420067e-15 9:37.7629604848 10:1426.04118458 11:29.6643514637 12:-27.3319658542 13:1.89925332338 14:16.7536950423 15:280.686297572 16:35.9777287801 17:-25.9269390988 18:3.98234758902 19:19.1742751393 20:367.652827118 21:40.2573293805 22:-100.616795401 23:-14.4740527101 24:44.2004121657 25:1953.67643562 26:125.187227681 27:-119.807455142 28:-8.2994598726 29:83.9987998206 30:7055.7983713 
3 1:439.620484891 2:290.713834913 3:339.451466712 4:51.1201323951 5:2613.26793609 6:53.5997787953 7:-71.1277699172 8:-1.73194791842e-14 9:36.1825339764 10:1309.17576495 11:28.6749061538 12:-27.2976973815 13:1.7090416112 14:16.1570807607 15:261.051258708 16:35.584224226 17:-27.4070750175 18:3.87551573928 19:18.8375442304 20:354.853072631 21:41.2464896321 22:-97.6351532319 23:-13.9109125056 24:46.1866026025 25:2133.20225996 26:152.839363608 27:-151.209154495 28:-9.55539031423 29:100.392830788 30:10078.7204736 
3 1:406.309732212 2:287.770705167 3:326.056475644 4:40.8328684064 5:1667.32314229 6:52.2981262545 7:-70.9414411484 8:1.52259157663e-15 9:35.0625018025 10:1229.37903265 11:26.9931044651 12:-27.4450625323 13:1.77200828011 14:15.5176600242 15:240.797772627 16:35.6969492989 17:-30.9117200134 18:3.79796141459 19:22.5206810898 20:507.181076748 21:38.3306758221 22:-108.573656599 23:-15.5273559811 24:46.4551731879 25:2158.08311592 26:149.673150743 27:-112.836022307 28:-9.36018843597 29:86.5200549112 30:7485.71990183 
3 1:401.336240678 2:251.133033694 3:299.926165983 4:51.6157174642 5:2664.18228935 6:61.9955659049 7:-83.5352374335 8:-8.24737104007e-16 9:41.4013751942 10:1714.07386797 11:32.6176440318 12:-33.2827022897 13:1.85203848619 14:18.6770710864 15:348.832984366 16:29.2522582798 17:-27.3727013974 18:3.07917893102 19:19.4071457279 20:376.637305305 21:31.5198308591 22:-98.512474287 23:-14.1999981799 24:40.1541194676 25:1612.35331022 26:126.226821584 27:-118.174546742 28:-8.47019610402 29:83.4209415022 30:6959.05348112 
3 1:386.952091243 2:248.4027368 3:293.979923298 4:47.5367123247 5:2259.73901864 6:43.4274350661 7:-56.3721619797 8:-7.29575130468e-15 9:29.8250415232 10:889.533101863 11:22.72142213 12:-19.9322448995 13:2.02933415394 14:13.1412710981 15:172.693006074 16:29.8806548088 17:-22.510831017 18:3.2600107177 19:16.7724262837 20:281.314283442 21:37.8957070362 22:-101.859558667 23:-15.0878757617 24:43.2028345832 25:1866.48491602 26:135.471758777 27:-127.15665478 28:-10.1361430648 29:88.7354939612 30:7873.98788855 
3 1:435.614155709 2:239.226721936 3:303.678545934 4:67.2919703888 5:4528.20927881 6:69.1011998909 7:-91.4350264549 8:-5.3290705182e-15 9:46.3702759711 10:2150.20249363 11:37.2069221172 12:-36.3534719819 13:1.83119606205 14:20.9398878192 15:438.478901879 16:24.3687738894 17:-22.2147142916 18:2.58629869371 19:14.8943500724 20:221.841664078 21:40.0471924728 22:-91.8279359273 23:-13.4262494887 24:41.9312680017 25:1758.23123623 26:126.544226804 27:-131.261722477 28:-10.1069894993 29:89.4132511934 30:7994.72948898 
3 1:441.358215017 2:233.982616922 3:302.463123148 4:71.03255423 5:5045.62376044 6:60.7945775965 7:-78.065837977 8:-6.85166209483e-15 9:41.8774503709 10:1753.72084957 11:32.3517985069 12:-28.3125066627 13:2.71965969316 14:18.5883830461 15:345.527984269 16:25.5364825515 17:-21.1860097849 18:2.73619067567 19:15.1216000287 20:228.662787427 21:41.0225063412 22:-122.502770714 23:-18.6530662383 24:49.6649433875 25:2466.60660168 26:134.546375289 27:-135.659708476 28:-11.0464639488 29:92.8133458524 30:8614.31716832 
3 1:417.902505924 2:261.51500835 3:312.321703492 4:53.7412202423 5:2888.11875313 6:63.4447994286 7:-85.169707447 8:-1.37667655054e-14 9:42.3782538976 10:1795.91640341 11:33.0460029412 12:-33.6442893567 13:2.23615348101 14:19.0718621326 15:363.735925204 16:24.3413323648 17:-27.0510008305 18:2.42977200189 19:18.7509221081 20:351.597079903 21:36.9713705083 22:-113.657871967 23:-16.9082627907 24:46.4717326226 25:2159.62193295 26:128.942867313 27:-127.457623516 28:-10.1688437658 29:87.4555051215 30:7648.46537606 
3 1:400.459851441 2:233.835303705 3:288.557457401 4:57.1735217691 5:3268.81159148 6:54.3877456249 7:-71.014758988 8:6.34413156929e-16 9:37.0880630412 10:1375.52442015 11:28.4917849791 12:-25.8185951136 13:2.42282044829 14:16.3425620276 15:267.079333627 16:32.2773262929 17:-25.57167295 18:3.50022049806 19:19.1142128859 20:365.353134248 21:37.2763098087 22:-118.073634978 23:-17.5456523845 24:46.7391969077 25:2184.55252758 26:123.253309114 27:-119.860828224 28:-9.011422487 29:83.1283077351 30:6910.31554691 
3 1:412.939672211 2:243.498012659 3:299.207934026 4:58.0968513331 5:3375.24413482 6:55.4660679319 7:-72.573662476 8:-4.06024420434e-15 9:37.6787218603 10:1419.68608103 11:29.6395831644 12:-27.3177160604 13:2.04646549593 14:16.7693832998 15:281.212216255 16:29.7703752276 17:-23.1101958653 18:3.2487374706 19:16.4206545566 20:269.637896068 21:34.7217929955 22:-100.973709111 23:-14.7823393557 24:42.0806333931 25:1770.77970676 26:122.034702415 27:-115.593589518 28:-8.77348531649 29:82.1220529011 30:6744.03157269 
3 1:450.541267497 2:272.086159673 3:330.844273122 4:61.1460133484 5:3738.8349484 6:57.7300444124 7:-75.4936913433 8:-6.34413156929e-17 9:39.1704016521 10:1534.32036559 11:31.2851435481 12:-28.9902438453 13:1.84590883242 14:17.5952354655 15:309.592311087 16:28.6420207229 17:-21.603641369 18:3.14927259795 19:14.8539218498 20:220.638994321 21:36.9427825825 22:-91.1175353169 23:-13.1965697273 24:39.9894390122 25:1599.15523251 26:125.553161937 27:-107.952838682 28:-9.68919648753 29:80.7970860021 30:6528.16910642 
3 1:383.423200722 2:338.616087816 3:352.946108961 4:15.5591534577 5:242.08725632 6:19.7028059416 7:-26.5531881812 8:2.28388736494e-15 9:13.7704086924 10:189.624155556 11:9.86997897432 12:-8.97530753963 13:1.39134808134 14:6.12455420024 15:37.5101641517 16:28.6117659621 17:-22.7691670113 18:3.05844879923 19:15.3516757478 20:235.673948265 21:32.079068144 22:-86.7183062298 23:-12.4784633582 24:37.2075215353 25:1384.3996588 26:119.362823128 27:-94.1041833089 28:-8.96124197217 29:74.719164498 30:5582.95354328 
3 1:377.628394616 2:311.859143084 3:333.560604183 4:22.5993018741 5:510.728445199 6:19.2207316826 7:-24.8174931063 8:-1.00237278795e-14 9:13.6095376629 10:185.219515399 11:10.1064241796 12:-7.71568989343 13:0.835467225568 14:6.25067431606 15:39.0709294054 16:29.8118065767 17:-17.4647468684 18:3.38538466206 19:13.9981452717 20:195.948071046 21:31.5829619169 22:-59.2872191459 23:-8.2484388285 24:30.6845354274 25:941.540714397 26:105.167679732 27:-87.8380245222 28:-8.52567794645 29:68.4326962514 30:4683.03391623 
3 1:383.430927196 2:315.827226536 3:337.890876778 4:23.2523324862 5:540.67096605 6:25.7828611889 7:-34.575526725 8:-1.33226762955e-15 9:17.4836353657 10:305.677505599 11:13.340347303 12:-12.3759824184 13:0.715600797005 14:7.55353921132 15:57.055954617 16:29.3903508243 17:-18.9000382145 18:3.31120959165 19:15.5276713584 20:241.108577815 21:28.99209443 22:-53.2423312371 23:-7.21043023651 24:27.8322134891 25:774.632107702 26:101.105584533 27:-81.8596000269 28:-8.6856060884 29:65.405099084 30:4277.82698619 
3 1:396.355696959 2:327.238557684 3:349.745862238 4:23.7637068357 5:564.713762574 6:27.8543801934 7:-37.5904008697 8:-7.1054273576e-15 9:18.731252434 10:350.859817746 11:14.2066705018 12:-13.7305481244 13:0.673947179893 14:8.02069913428 15:64.3316146026 16:27.4991142795 17:-19.0872340486 18:3.07404429203 19:15.7910505149 20:249.357276364 21:34.6044481575 22:-48.8062597652 23:-6.57908721871 24:28.7374760733 25:825.842531063 26:108.29211492 27:-88.2873230633 28:-8.96335707056 29:69.1397503824 30:4780.30508294 
3 1:397.694423563 2:341.177013855 3:359.146564446 4:19.545728394 5:382.035498454 6:31.9414537572 7:-44.5026052472 8:-5.07530525543e-15 9:21.4796196025 10:461.37405827 11:16.3931858039 12:-17.6101045807 13:0.588978343391 14:9.51057674541 15:90.4510700303 16:32.2371069883 17:-23.8203777297 18:3.55873118421 19:18.4399862528 20:340.033093002 21:33.25661576 22:-52.1253366526 23:-6.66304544524 24:28.1356833531 25:791.616677744 26:114.023040002 27:-77.5532007168 28:-10.1794782051 29:72.5344492467 30:5261.24632752 
3 1:457.109699563 2:343.702297538 3:380.098414772 4:38.9893742495 5:1520.17130436 6:60.061554031 7:-83.2115329385 8:-1.59872115546e-14 9:39.8457041528 10:1587.68013943 11:31.8602399209 12:-35.8755013388 13:0.512371989241 14:19.1456655964 15:366.55651113 16:21.9635733185 17:-22.7513926809 18:2.29252730079 19:16.073296558 20:258.350862242 21:38.4096335215 22:-39.7972952326 23:-4.83748741621 24:25.8557757761 25:668.521140984 26:101.160090573 27:-77.4204421851 28:-9.07782841705 29:64.9334864837 30:4216.35766693 
3 1:429.053297356 2:363.32363452 3:384.230135108 4:22.7236895768 5:516.366067982 6:35.4647598426 7:-48.9921018468 8:-2.41076999633e-15 9:23.7535276065 10:564.230073753 11:18.131698683 12:-19.5937434952 13:1.14951828996 14:10.7647223915 15:115.879248166 16:25.7321873963 17:-23.5067015763 18:2.70714192449 19:16.5082710906 20:272.523014402 21:36.1732736898 22:-69.0907944232 23:-9.62475310254 24:31.2385944713 25:975.849784544 26:106.971460495 27:-80.1167709535 28:-8.65111985235 29:66.8277287471 30:4465.9453295 
3 1:440.315279004 2:339.264144365 3:371.908072686 4:34.7437845534 5:1207.13056509 6:46.4188960548 7:-63.3024516 8:-1.281514577e-14 9:30.8593910116 10:952.302013609 11:24.650370762 12:-26.3600332124 13:1.06363222388 14:14.3706373641 15:206.515218251 16:19.1121947118 17:-19.7039159026 18:1.96854292484 19:12.8404990713 20:164.878416401 21:31.1075041962 22:-59.7897966001 23:-8.31557928631 24:27.1547494574 25:737.380418093 26:92.5787500754 27:-73.7044642196 28:-7.52950445823 29:58.6973272418 30:3445.37622533 
3 1:497.042420366 2:326.265155574 3:381.906949753 4:58.5578252841 5:3429.018902 6:69.979939731 7:-94.3489448316 8:-1.30689110327e-14 9:46.4688497218 10:2159.35399446 11:37.6759067609 12:-39.6374792381 13:1.38821777271 14:21.7198054897 15:471.74995051 16:16.1885037489 17:-20.1923002753 18:1.59654056362 19:12.5799454014 20:158.255026303 21:38.0108017613 22:-64.2665138254 23:-9.03400171881 24:31.42055448 25:987.251243828 26:102.953391133 27:-93.7077528058 28:-6.85459610622 29:66.426084607 30:4412.42471622 
3 1:482.987716225 2:375.622057959 3:410.173593419 4:37.0026008501 5:1369.19246967 6:50.5082934768 7:-68.9909225922 8:2.09356341786e-15 9:33.7879885583 10:1141.62817082 11:27.3060330901 12:-28.7616331493 13:1.46709076127 14:15.8573256672 15:251.454777317 16:32.9440583614 17:-29.2374828084 18:3.49025174719 19:17.8278409864 20:317.831914236 21:46.9243894917 22:-84.5298229898 23:-11.3694300246 24:38.6498511083 25:1493.81099069 26:126.424440219 27:-91.6098894579 28:-6.80958280681 29:76.8928569859 30:5912.51145545 
3 1:443.086667862 2:347.51423265 3:377.865024853 4:32.9594243059 5:1086.32365058 6:53.667180895 7:-74.1624290214 8:-2.28388736494e-15 9:35.5524238997 10:1263.97484514 11:28.2499290034 12:-32.725593322 13:1.51788734651 14:17.9196078612 15:321.1123459 16:20.0326532773 17:-18.6577324088 18:-0.451358283182 19:10.5773016238 20:111.879309641 21:32.8057242835 22:-75.9800689786 23:-11.2951291726 24:34.7066176042 25:1204.54930552 26:115.516283627 27:-94.5579558691 28:-7.85479526098 29:71.368100514 30:5093.40577098 
3 1:430.531644948 2:314.556387587 3:352.126394232 4:39.8654846054 5:1589.25686283 6:49.7608828924 7:-67.2347779395 8:2.91830052187e-15 9:33.1381331924 10:1098.13587147 11:26.5324682967 12:-27.8308038384 13:1.5386955336 14:15.4459761573 15:238.578179451 16:15.96822865 17:-20.1770234075 18:1.52514685336 19:11.8874345725 20:141.311100715 21:30.4922786755 22:-78.9866442353 23:-11.4367154277 24:33.6202567702 25:1130.3216653 26:103.979272697 27:-82.4922480595 28:-6.70612419203 29:63.2128452888 30:3995.8638095 
3 1:487.585354134 2:311.80383474 3:369.557881989 4:60.2058948314 5:3624.74977245 6:60.959322377 7:-80.5434263276 8:-1.01506105109e-14 9:40.9122000404 10:1673.80811215 11:32.9657326668 12:-32.1717614384 13:1.52967602367 14:18.5306658391 15:343.385576442 16:20.469169051 17:-17.837075653 18:2.21011729191 19:12.1990691231 20:148.81728747 21:31.5597435766 22:-69.4814076699 23:-9.97484162399 24:31.4723475326 25:990.508659215 26:101.107773313 27:-93.4534309858 28:-6.77041740621 29:68.1009246663 30:4637.7359404 
3 1:470.672681464 2:361.10113028 3:396.573965309 4:37.7041241569 5:1421.60097844 6:46.562060908 7:-62.8229803614 8:-4.56777472989e-15 9:31.1541905538 10:970.583589065 11:25.4353779611 12:-26.264588009 13:1.6157108447 14:14.7402281012 15:217.274324474 16:21.4299793575 17:-22.6894975193 18:2.156464286 19:12.9121548882 20:166.723743857 21:33.0543362073 22:-85.5203863675 23:-12.0611505835 24:35.2807346751 25:1244.73023922 26:110.926661766 27:-87.0718013497 28:-6.92530330595 29:69.7906947137 30:4870.74106861 
3 1:456.512272586 2:350.866537186 3:384.557159258 4:36.3855256588 5:1323.90647747 6:57.2693259696 7:-78.999616318 8:-8.31081235577e-15 9:37.912058243 10:1437.32416022 11:30.7317884478 12:-35.4399429866 13:1.39090563967 14:19.2854866393 15:371.929994916 16:20.7807640545 17:-17.3319910079 18:-0.555430847032 19:9.82309177395 20:96.4931319994 21:29.5975111096 22:-68.7902744452 23:-10.0464378516 24:30.0513536037 25:903.083853415 26:99.0770334072 27:-65.3709714167 28:-6.485486058 29:56.9170174311 30:3239.54687325 
3 1:452.225065318 2:381.645503604 3:404.388477755 4:24.3194927739 5:591.43772878 6:32.5234905128 7:-44.3262628572 8:-1.47818265564e-14 9:21.7754262517 10:474.169188444 11:18.0286662533 12:-18.9273324873 13:0.926746526891 14:10.4413265443 15:109.021300005 16:19.8191456014 17:-18.5056696063 18:2.06185962585 19:10.8655160569 20:118.059439183 21:28.5283896996 22:-57.2168112751 23:-7.63559879398 24:26.8262932834 25:719.650011325 26:83.7648976509 27:-67.1151837492 28:-5.61993605785 29:56.8030532813 30:3226.58686207 
3 1:452.467348441 2:374.962154165 3:399.882168069 4:26.6857632057 5:712.12995787 6:37.4565368815 7:-51.255624122 8:-4.4408920985e-15 9:24.9245918361 10:621.235278195 11:20.7850112199 12:-22.6429889469 13:0.926810841459 14:12.3268211403 15:151.950519426 16:15.6465419419 17:-16.6529917385 18:1.25127000206 19:9.4565972134 20:89.4272308565 21:26.8132203302 22:-52.8268548785 23:-7.10135310963 24:24.6610106216 25:608.165444881 26:103.44683675 27:-82.4160174319 28:-7.12264053939 29:69.1433666619 30:4780.80515334 
3 1:498.925434327 2:-333.934750069 3:222.73589099 4:284.101609784 5:80713.724682 6:338.554724943 7:-259.005251626 8:-4.06024420434e-15 9:174.195393563 10:30344.0351384 11:138.885493995 12:-142.08852207 13:-1.32494727152 14:80.3751686089 15:6460.1677289 16:52.8267263829 17:-57.7413182974 18:-0.168902391401 19:29.5064591908 20:870.631133977 21:45.1492779264 22:-55.4747116131 23:-8.06033168013 24:34.1723580625 25:1167.75005555 26:110.053542214 27:-94.1024419236 28:-8.96779905685 29:69.276490495 30:4799.2321353 
3 1:-416.557771482 2:-465.675368307 3:-450.187179638 4:16.972606438 5:288.069369299 6:30.6598909058 7:-42.8745459521 8:1.66850660272e-14 9:20.4436180854 10:417.941520421 11:17.1083523462 12:-19.8736402085 13:0.478478590724 14:10.68464469 15:114.161632152 16:14.2049962305 17:-13.949584021 18:0.797772311684 19:7.96044496817 20:63.3686840912 21:16.6876766115 22:-35.5394742548 23:-4.70839817243 24:17.3247273116 25:300.146176422 26:59.8196338622 27:-48.9535263781 28:-5.26647584229 29:37.5025613644 30:1406.44210889 
3 1:-409.945783602 2:-470.69452553 3:-450.827406028 4:20.8486970027 5:434.668166709 6:22.3949079297 7:-29.8037820353 8:5.64627709667e-15 9:15.04816818 10:226.447365573 11:11.903790366 12:-11.5774834259 13:0.676752769938 14:6.71762376529 15:45.1264690519 16:12.3060001168 17:-10.0008085383 18:1.33257450824 19:7.10711329395 20:50.5110593731 21:13.9885551348 22:-36.7862993626 23:-5.2658780091 24:16.3419380478 25:267.058939159 26:51.9706540075 27:-46.9207981399 28:-3.95889540196 29:34.2566570831 30:1173.51855451 
3 1:-408.842424947 2:-461.401668938 3:-444.271503061 4:18.0581427389 5:326.096519177 6:20.5187508788 7:-27.5072958678 8:2.53765262771e-16 9:13.7742425923 10:189.72975899 11:10.8361647857 12:-10.6643600232 13:0.612351177552 14:6.12929187483 15:37.5682188869 16:13.9595179678 17:-11.0226704877 18:1.51623858118 19:7.78682465346 20:60.6346381837 21:18.4669013214 22:-34.7752238749 23:-4.85191566168 24:17.270699011 25:298.27704433 26:60.7202735144 27:-52.5167432994 28:-4.21859983239 29:39.6432975437 30:1571.59104014 
3 1:-404.110098931 2:-464.01730625 3:-444.503675606 4:20.5760009127 5:423.371813559 6:23.8267751685 7:-32.007564658 8:6.34413156929e-16 9:15.9443449273 10:254.222135161 11:12.6545612857 12:-12.6892782777 13:0.650900018627 14:7.17566808586 15:51.4902124785 16:13.2576856489 17:-11.3684508803 18:1.41587286563 19:7.72895357889 20:59.7367234247 21:18.2716996142 22:-38.0684351697 23:-5.35729848467 24:18.5999930257 25:345.959740557 26:61.8615903275 27:-54.6755289321 28:-4.82825040412 29:40.6893836253 30:1655.62593981 
3 1:-406.15462231 2:-464.734854381 3:-445.635031657 4:20.1241875287 5:404.982923692 6:22.5221914567 7:-30.103661888 8:8.31081235577e-15 9:15.1254196708 10:228.778320217 11:11.9735688964 12:-11.7863199221 13:0.728227314081 14:6.78790350213 15:46.0756339542 16:13.0531082595 17:-11.2407383139 18:1.38827476623 19:7.45880361081 20:55.6337513046 21:17.569445141 22:-41.1896133366 23:-5.88915089134 24:19.0065388223 25:361.248518003 26:61.1797128782 27:-53.8466859337 28:-4.75291936792 29:39.8853984036 30:1590.84500581 
3 1:-405.520410907 2:-466.322930639 3:-446.446945192 4:20.8759217002 5:435.804106832 6:22.3484861688 7:-29.7155668519 8:1.10387889306e-14 9:15.0482337165 10:226.449337987 11:11.8918101558 12:-11.4822798847 13:0.733485124943 14:6.71910431948 15:45.146362856 16:13.3623201046 17:-10.9180336773 18:1.43921792247 19:7.45964926278 20:55.6463671237 21:17.2119559675 22:-40.6690819004 23:-5.82195595354 24:18.582683016 25:345.316108074 26:59.884525289 27:-53.0731633114 28:-4.521158784 29:39.196776157 30:1536.3872611 
3 1:-403.48578626 2:-464.837447569 3:-444.802359095 4:21.0660822173 5:443.779819988 6:23.0711426788 7:-30.767510577 8:7.67639919884e-15 9:15.5005243357 10:240.266254683 11:12.2802019445 12:-12.0089911108 13:0.723497280814 14:6.94368030436 15:48.2146961691 16:13.2589605802 17:-11.0673837692 18:1.42281929921 19:7.50253450642 20:56.28802402 21:17.7385174794 22:-40.1614429519 23:-5.73000769649 24:18.5218196859 25:343.057804476 26:59.4567821386 27:-53.3497263087 28:-4.56742921971 29:39.378158997 30:1550.639406 
3 1:-403.287781523 2:-462.515128887 3:-443.190446703 4:20.3429251706 5:413.834604495 6:22.5565533476 7:-30.1260662149 8:1.96668078648e-15 9:15.1547016889 10:229.66498328 11:11.9793186864 12:-11.7357036161 13:0.714989242126 14:6.77931136588 15:45.9590625956 16:13.5055292175 17:-11.2493593379 18:1.44886554565 19:7.64941644596 20:58.5135719637 21:17.6002496294 22:-40.4181466546 23:-5.7611365431 24:18.6990587539 25:349.65479828 26:60.2276961791 27:-53.9768028279 28:-4.66872504261 29:39.6969557465 30:1575.84829554 
3 1:-403.185278197 2:-463.772517842 3:-443.99696528 4:20.8076386709 5:432.957827061 6:22.9245715949 7:-30.5910306438 8:5.96348367513e-15 9:15.4039790345 10:237.282570095 11:12.1700044356 12:-11.9032574495 13:0.732670696011 14:6.88706835424 15:47.4317105159 16:13.438828422 17:-11.2311520362 18:1.4412408086 19:7.66819854766 20:58.8012689664 21:17.3034753942 22:-40.9166411211 23:-5.84741048753 24:18.7148767353 25:350.246611218 26:60.1143948578 27:-53.5904728087 28:-4.59427125516 29:39.4433993203 30:1555.78174994 
3 1:-402.008931871 2:-464.163043499 3:-443.854742347 4:21.3403369588 5:455.409981516 6:23.0904709631 7:-30.7440648073 8:1.20538499816e-15 9:15.5296577941 10:241.170271201 11:12.2805881761 12:-11.9331890053 13:0.742521452143 14:6.94146197372 15:48.1838943325 16:13.4050872163 17:-11.1025255355 18:1.44049580646 19:7.58092747879 20:57.4704614386 21:17.2624670207 22:-41.0641341761 23:-5.87954414075 24:18.7422402319 25:351.271568911 26:59.7510549336 27:-53.5055272293 28:-4.53738520282 29:39.2321166969 30:1539.15898052 
3 1:-400.743470751 2:-462.906541419 3:-442.598060162 4:21.3435951903 5:455.549055647 6:23.1519768222 7:-30.8344728855 8:4.94842262404e-15 9:15.5664274605 10:242.313663883 11:12.2896074878 12:-11.9563427132 13:0.746119566751 14:6.94961159881 15:48.2971013743 16:13.3536156325 17:-11.0901519677 18:1.43473807702 19:7.63613730345 20:58.3105929171 21:17.3233246326 22:-41.0358267112 23:-5.8812328936 24:18.6468928408 25:347.706612616 26:59.4575369097 27:-53.2241680477 28:-4.5029473354 29:39.0201823232 30:1522.57462854 
3 1:-405.799182791 2:-460.111047682 3:-442.38576843 4:18.6625250244 5:348.289840285 6:20.285176834 7:-27.0112787314 8:1.19269673503e-14 9:13.6835225266 10:187.238788737 11:10.7791008797 12:-10.3776613512 13:0.72322874864 14:6.10807372609 15:37.3085646434 16:13.5172186326 17:-10.9975316136 18:1.45384772801 19:7.40614114166 20:54.8509266102 21:16.3922884789 22:-40.9763563402 23:-5.86244772044 24:18.3950798237 25:338.37896172 26:58.9394384677 27:-52.8127371208 28:-4.49215803587 29:39.0479561286 30:1524.74287782 
3 1:-414.709486476 2:-460.239649232 3:-445.489252329 4:15.673513165 5:245.659014934 6:19.1348423509 7:-25.8193130011 8:3.04518315326e-15 9:12.8512606179 10:165.154899468 11:10.2658296 12:-10.3505588059 13:0.655645070749 14:5.87508446924 15:34.5166175207 16:13.0333567064 17:-11.4558343921 18:1.37402682519 19:7.07242422966 20:50.0191844842 21:19.9160778274 22:-38.5066545114 23:-5.36340309952 24:18.4215567879 25:339.35375449 26:62.0482163144 27:-49.6219589512 28:-4.67395929429 29:40.7785542991 30:1662.89049073 
3 1:-419.843196032 2:-455.455062607 3:-444.049915995 4:12.2847709601 5:150.915597542 6:18.057003132 7:-24.8510249578 8:9.7699626167e-15 9:12.0728883017 10:145.754631945 11:9.62023599597 12:-10.3224028817 13:0.44722736879 14:5.62172699733 15:31.6038144325 16:12.0702581339 17:-11.2688016347 18:1.25409333732 19:6.89863463962 20:47.591159891 21:20.7543477931 22:-31.764600077 23:-4.28302764245 24:17.7781875748 25:316.063953443 26:65.2852848972 27:-51.833659685 28:-5.38306454915 29:42.3227400697 30:1791.21432701 
3 1:-411.740110699 2:-461.268822355 3:-444.415474606 4:16.957725047 5:287.564438771 6:11.9162471733 7:-9.79581560261 8:5.96348367513e-15 9:6.26808705658 10:39.2889153488 11:7.7834606166 12:-7.98342301609 13:1.22441739287e-14 14:4.7582245803 15:22.6407011566 16:18.4827306002 17:-27.644639742 18:4.82153999266e-15 19:14.9891484625 20:224.674571631 21:10.9788863918 22:-32.2208860642 23:-4.61952618124 24:14.2008885733 25:201.665236272 26:61.9430576097 27:-48.3892645011 28:-7.29324308185 29:39.5764303468 30:1566.293839 
