15:11:54		x: 1003.97
15:11:55		x: 1003.89
15:11:55		x: 1003.89
15:11:55		x: 1003.88
15:11:55		x: 1003.94
15:11:55		x: 1003.9
15:11:55		x: 1003.93
15:11:56		x: 1003.93
15:11:56		x: 1003.9
15:11:56		x: 1003.94
15:11:56		x: 1003.93
15:11:56		x: 1003.92
15:11:56		x: 1003.92
15:11:57		x: 1003.93
15:11:57		x: 1003.95
15:11:57		x: 1003.91
15:11:57		x: 1003.96
15:11:57		x: 1003.88
15:11:58		x: 1003.94
15:11:58		x: 1003.88
15:11:58		x: 1003.89
15:11:58		x: 1003.9
15:11:58		x: 1003.95
15:11:58		x: 1003.98
15:11:59		x: 1003.97
15:11:59		x: 1003.94
15:11:59		x: 1003.89
15:11:59		x: 1003.92
15:11:59		x: 1003.91
15:12:00		x: 1003.89
15:12:00		x: 1003.87
15:12:00		x: 1003.96
15:12:00		x: 1003.9
15:12:00		x: 1003.87
15:12:00		x: 1003.89
15:12:01		x: 1003.96
15:12:01		x: 1003.87
15:12:01		x: 1003.9
15:12:01		x: 1003.91
15:12:01		x: 1003.89
15:12:02		x: 1003.86
15:12:02		x: 1003.95
15:12:02		x: 1003.94
15:12:02		x: 1003.88
15:12:02		x: 1003.91
15:12:02		x: 1003.99
15:12:03		x: 1003.88
15:12:03		x: 1003.97
15:12:03		x: 1003.89
15:12:03		x: 1003.89
15:12:03		x: 1003.91
15:12:04		x: 1003.94
15:12:04		x: 1003.96
15:12:04		x: 1003.99
15:12:04		x: 1003.98
15:12:04		x: 1003.93
15:12:04		x: 1003.95
15:12:05		x: 1003.86
15:12:05		x: 1004.01
15:12:05		x: 1003.98
15:12:05		x: 1003.87
15:12:05		x: 1003.89
15:12:06		x: 1003.87
15:12:06		x: 1003.95
15:12:06		x: 1003.92
15:12:06		x: 1003.91
15:12:06		x: 1003.85
15:12:06		x: 1003.87
15:12:07		x: 1003.93
15:12:07		x: 1003.92
15:12:07		x: 1003.9
15:12:07		x: 1003.88
15:12:07		x: 1003.96
15:12:07		x: 1003.88
15:12:08		x: 1003.92
15:12:08		x: 1003.91
15:12:08		x: 1003.93
15:12:08		x: 1003.92
15:12:08		x: 1004.0
15:12:09		x: 1003.87
15:12:09		x: 1003.98
15:12:09		x: 1004.0
15:12:09		x: 1003.96
15:12:09		x: 1003.97
15:12:09		x: 1003.97
15:12:10		x: 1003.97
15:12:10		x: 1003.96
15:12:10		x: 1003.99
15:12:10		x: 1003.96
15:12:10		x: 1003.97
15:12:11		x: 1003.93
15:12:11		x: 1003.94
15:12:11		x: 1003.97
15:12:11		x: 1003.99
15:12:11		x: 1004.01
15:12:11		x: 1003.97
15:12:12		x: 1003.95
15:12:12		x: 1003.99
15:12:12		x: 1004.05
15:12:12		x: 1003.99
15:12:12		x: 1004.02
15:12:13		x: 1004.01
15:12:13		x: 1003.97
15:12:13		x: 1003.98
15:12:13		x: 1003.99
15:12:13		x: 1004.04
15:12:13		x: 1004.0
15:12:14		x: 1003.92
15:12:14		x: 1004.04
15:12:14		x: 1004.03
15:12:14		x: 1004.03
15:12:14		x: 1004.03
15:12:15		x: 1004.03
15:12:15		x: 1004.01
15:12:15		x: 1003.99
15:12:15		x: 1003.99
15:12:15		x: 1004.08
15:12:15		x: 1004.01
15:12:16		x: 1004.05
15:12:16		x: 1003.96
