7 1:0.73345979356 2:-22.5294838184 3:-7.04574490339 4:7.92895349336 5:62.8683034998 6:7.18889019239 7:-5.71739814961 8:-7.93016446161e-17 9:3.99880333343 10:15.9904280994 11:2.65707611846 12:-3.16346004051 13:-0.0549231376969 14:1.8524343208 15:3.43151291289 16:1.21647522594 17:-1.61737964337 18:-0.176205855719 19:0.903438840385 20:0.816201738316 21:1.20985850908 22:-1.25478873137 23:-0.0226314527484 24:0.600584718915 25:0.360702004594 26:1.3483520445 27:-1.39789958792 28:-0.0831159337995 29:0.926732183555 30:0.858832540037 
7 1:5.67016659032 2:-17.501218483 3:-9.68437416467 4:7.88730324956 5:62.2095525506 6:4.61796847048 7:-5.36469980664 8:-1.11022302463e-16 9:3.34368858643 10:11.180253363 11:2.88403049763 12:-1.79837456733 13:-0.0311965089241 14:1.82900930247 15:3.34527502853 16:2.72515326522 17:-1.79727674305 18:0.386093698915 19:1.26487982169 20:1.59992096331 21:3.36597252863 22:-0.877208164785 23:0.583948959649 24:1.23943695428 25:1.53620396363 26:4.00999247176 27:-3.71275568778 28:-0.213952218225 29:2.05334963688 30:4.21624473128 
7 1:4.1792899736 2:-0.653963397653 3:2.3578570868 4:1.63596077097 5:2.67636764414 6:3.26032003581 7:-5.13113164959 8:5.35286101159e-17 9:2.54780131798 10:6.49129155588 11:3.40500208837 12:-3.09858935356 13:0.00597462857609 14:2.08634451555 15:4.35283343756 16:3.073777116 17:-3.2196504308 18:-0.44521472335 19:1.97933021425 20:3.91774809704 21:1.37206673721 22:-1.62370592931 23:-0.172718824896 24:0.923691057991 25:0.853205170612 26:2.24590539838 27:-2.99153066966 28:-0.0312639904099 29:1.29597398023 30:1.67954855744 
7 1:-0.67543087152 2:-1.07412382451 3:-0.814363372906 4:0.133963609792 5:0.0179462487485 6:0.110777958079 7:-0.0891489123301 8:3.17206578464e-17 9:0.0763390978493 10:0.00582765786044 11:0.0404290836122 12:-0.0555232298056 13:-0.00835306476656 14:0.0355046451195 15:0.00126057982506 16:0.40971057628 17:-0.332082411543 18:0.0430343667656 19:0.256365157751 20:0.0657230941087 21:1.31836923268 22:-1.68623028376 23:-0.0615789280212 24:0.83066907081 25:0.690011105201 26:0.782361271077 27:-0.887930287018 28:-0.0298870297982 29:0.542360157157 30:0.294154540071 
7 1:-2.52603782185 2:-5.15229093921 3:-3.37966601249 4:0.898041302228 5:0.806478180508 6:1.7307175744 7:-1.25578292926 8:2.77555756156e-17 9:0.830189167082 10:0.68921405314 11:0.729867652855 12:-0.643175276211 13:0.00821695412431 14:0.39157187099 15:0.153328530151 16:0.760391565358 17:-0.83054960002 18:-0.0212974425631 19:0.417775866504 20:0.174536674633 21:0.742004627411 22:-0.765007762413 23:-0.0862176497123 24:0.453813230093 25:0.205946447807 26:1.97749160895 27:-1.98188447973 28:-0.0413098562057 29:1.11946925383 30:1.25321141026 
7 1:-2.48045529265 2:-2.74827587571 3:-2.6029778205 4:0.0828533430269 5:0.00686467645073 6:0.136587688362 7:-0.115250769799 8:1.01109596886e-16 9:0.0964967063876 10:0.00931161434365 11:0.20105121797 12:-0.367867668681 13:-0.0488074647897 14:0.160943084884 15:0.0259026765721 16:1.13912363563 17:-0.6438441088 18:0.140526593748 19:0.523762974115 20:0.274327653053 21:1.15158218507 22:-0.554529166262 23:0.240364412185 24:0.500731982185 25:0.250732517983 26:2.61433461042 27:-1.72979428868 28:-0.188513571876 29:1.21800015151 30:1.48352436907 
7 1:-0.828091039001 2:-2.43104353383 3:-1.87507043617 4:0.544434052055 5:0.296408437037 6:0.340822293519 7:-0.369209266239 8:2.9738116731e-17 9:0.199849949406 10:0.0399400022775 11:0.32563717697 12:-0.350929138461 13:-0.000268181715692 14:0.190553799508 15:0.036310750507 16:0.377885017213 17:-0.216199225584 18:0.0527442119765 19:0.168554536688 20:0.028410631838 21:0.195673060343 22:-0.173028094976 23:0.0344918715004 24:0.121384955028 25:0.0147343073073 26:0.419770556723 27:-0.389881377839 28:0.038850357009 29:0.273294868167 30:0.0746900849663 
7 1:2.16835135898 2:-1.18275472771 3:-0.0377222242132 4:1.13933972159 5:1.2980950012 6:0.707748727325 7:-0.622166970029 8:2.57730345002e-17 9:0.378083339553 10:0.142947011648 11:0.459783791779 12:-0.431126000366 13:0.0108586551073 14:0.256579318753 15:0.0658329468118 16:0.700059316267 17:-0.706800733775 18:0.0241812706705 19:0.389832394921 20:0.151969296129 21:0.248304945875 22:-0.279126058362 23:-0.00531791116021 24:0.135418426526 25:0.0183381502428 26:0.630084338098 27:-0.725339780332 28:0.0408759231586 29:0.33563235775 30:0.112649079569 
7 1:2.659972755 2:-0.517659479999 3:1.57246035734 4:1.08200632737 5:1.17073769247 6:0.61910904062 7:-0.694250662403 8:-1.30847713617e-16 9:0.362174828337 10:0.131170606281 11:0.571673816509 12:-0.539493539482 13:-0.0180754576537 14:0.305209407497 15:0.0931527824248 16:0.313021730732 17:-0.716875273705 18:-0.0948497570155 19:0.278454406336 20:0.077536856408 21:0.646983482976 22:-0.152368687674 23:0.0926353264291 24:0.224474806117 25:0.0503889385811 26:0.345317595198 27:-0.42303828791 28:0.0724601700516 29:0.211752176831 30:0.0448389843926 
7 1:0.491093611819 2:-0.0306504361315 3:0.154970474829 4:0.176025919335 5:0.0309851242778 6:0.173619337234 7:-0.161737332804 8:-2.47817639425e-18 9:0.105361580676 10:0.0111010626826 11:0.0998927799088 12:-0.0918812861004 13:-0.00910065464313 14:0.0608956891992 15:0.00370828496304 16:0.753564475062 17:-0.837322656771 18:-0.0135808306254 19:0.425656627624 20:0.18118356464 21:0.449090577666 22:-0.546471777497 23:0.0728485290865 24:0.345343220024 25:0.119261939617 26:0.335182138422 27:-0.359378153177 28:-0.0374354831262 29:0.25385740812 30:0.0644435836575 
7 1:2.02292811591 2:1.54360033238 3:1.68188372885 4:0.166910780102 5:0.0278592085142 6:0.69157848984 7:-1.01495696165 8:-2.27992228271e-17 9:0.476506751823 10:0.227058684533 11:0.38087417853 12:-0.514154697524 13:-0.0226880813511 14:0.287365496446 15:0.0825789285476 16:0.14259307616 17:-0.145617515059 18:0.00140322145938 19:0.0885503361475 20:0.00784116203184 21:0.925142309663 22:-0.231376174887 23:0.16090194973 24:0.30784901053 25:0.094771013284 26:0.246173344494 27:-0.366176130005 28:0.00308030915451 29:0.187813933467 30:0.0352740736045 
7 1:0.870910515712 2:-0.468321717371 3:0.405601428911 4:0.454651324031 5:0.206707826443 6:0.292117199342 7:-0.273900047662 8:-3.3207563683e-17 9:0.157517082511 10:0.0248116312828 11:0.304009033649 12:-0.301628798687 13:0.00750546384274 14:0.174051926306 15:0.0302940730509 16:0.284024893784 17:-0.432348879989 18:-0.0596297571605 19:0.192092281895 20:0.0368994447636 21:0.219968122619 22:-0.403522243857 23:-0.0695510926529 24:0.200129636721 25:0.0400518714939 26:0.633306021428 27:-0.639542889064 28:0.0773725435454 29:0.385298484877 30:0.148454922449 
7 1:0.469894613515 2:-1.714751557 3:-0.974646957106 4:0.744571188087 5:0.55438625413 6:0.475811931733 7:-0.364592806956 8:7.73191035007e-17 9:0.268199101586 10:0.0719307580916 11:0.278230280039 12:-0.281317683697 13:0.0212343485129 14:0.164329969819 15:0.0270043389808 16:0.268107131848 17:-0.13552482307 18:0.0359450741791 19:0.115471377022 20:0.0133336389113 21:0.234577272031 22:-0.536737004786 23:-0.0852693149255 24:0.216535595855 25:0.0468876642723 26:0.591860065499 27:-0.333301926798 28:0.0634794351021 29:0.243511619438 30:0.0592979088015 
7 1:7.34880080006 2:-2.1811738712 3:1.02236387741 4:3.24572078908 5:10.5347034407 6:1.96621151349 7:-2.17680046374 8:2.37904933848e-17 9:1.39809729749 10:1.95467605325 11:1.10894407655 12:-0.831438009297 13:0.053917189484 14:0.661084519524 15:0.437032741954 16:0.965071456192 17:-1.01948712944 18:-0.0696730204498 19:0.633425472229 20:0.401227828868 21:1.10337929663 22:-0.858143727541 23:-0.158620097228 24:0.610005196509 25:0.372106339768 26:2.89985807001 27:-2.93185401338 28:-0.124065359816 29:1.5983762058 30:2.55480649527 
7 1:15.4219246865 2:9.44435054071 3:11.3678292453 4:2.04637431031 5:4.18764781789 6:3.43485258705 7:-4.81921544637 8:-2.85485920618e-16 9:2.2816582606 10:5.20596441817 11:1.81560432311 12:-2.14911528199 13:-0.0636625313859 14:1.15903994186 15:1.34337358683 16:1.63514578482 17:-1.58522839449 18:0.0817251904638 19:0.888213678655 20:0.788923538949 21:3.1824808967 22:-0.971071257398 23:0.551755640474 24:1.13649111274 25:1.29161204933 26:2.76436010017 27:-3.34003567892 28:0.282325340677 29:2.14680164552 30:4.60875730519 
7 1:10.3240324177 2:1.68485657176 3:7.38081427906 4:2.9290494595 5:8.57933073622 6:1.36834617716 7:-1.60287960477 8:1.58603289232e-17 9:1.06231323474 10:1.1285094087 11:0.714897756712 12:-1.14058223598 13:0.0548018936958 14:0.657071670249 15:0.431743179844 16:1.14515955702 17:-1.04833537993 18:-0.0196485381806 19:0.570291909903 20:0.325232862501 21:0.313895380123 22:-4.1823785791 23:-0.615623275954 24:1.33421390213 25:1.78012673664 26:2.29122470667 27:-0.881701609108 28:0.140954079831 29:0.861348392295 30:0.74192105291 
7 1:2.27595354739 2:-0.0742812760168 3:1.47645616414 4:0.800333033067 5:0.640532963819 6:0.438977878417 7:-0.514732565417 8:-4.06420928657e-17 9:0.27544523273 10:0.0758700762339 11:0.333047202258 12:-0.303385404685 13:-0.0248492525877 14:0.18125615003 15:0.0328537919237 16:0.140175230228 17:-0.136955245445 18:-0.0208668190283 19:0.0804915479869 20:0.00647888929733 21:0.679323837112 22:-0.131463890923 23:0.114130521767 24:0.227639093671 25:0.0518195569675 26:0.501756877402 27:-0.178804211347 28:0.0199068589306 29:0.16208349916 30:0.0262710606999 
