17:21:36		x: 3.903	y: -37.266	z: -8.056
17:21:37		x: 3.408	y: -36.813	z: -8.393
17:21:37		x: 4.206	y: -36.813	z: -6.935
17:21:37		x: 6.015	y: -37.689	z: -3.152
17:21:37		x: 4.383	y: -37.319	z: -5.697
17:21:37		x: 0.698	y: -37.319	z: -4.994
17:21:38		x: 7.705	y: -36.137	z: 5.48
17:21:38		x: 6.727	y: -36.798	z: -1.75
17:21:38		x: -7.295	y: -35.961	z: 9.1
17:21:38		x: -7.295	y: -31.936	z: 20.307
17:21:38		x: -11.425	y: -33.433	z: 16.78
17:21:38		x: -9.678	y: -34.205	z: 16.285
17:21:39		x: -6.951	y: -34.205	z: 17.018
17:21:39		x: -10.951	y: -34.205	z: 17.018
17:21:39		x: -10.632	y: -34.205	z: 16.648
17:21:39		x: -9.135	y: -34.205	z: 15.641
17:21:39		x: -7.467	y: -35.755	z: 8.332
17:21:40		x: -3.768	y: -35.755	z: 4.244
17:21:40		x: 3.903	y: -34.748	z: -1.625
17:21:40		x: 15.837	y: -26.753	z: -16.87
17:21:40		x: 18.763	y: -28.985	z: -6.561
17:21:40		x: 17.776	y: -17.588	z: 20.455
17:21:40		x: 21.286	y: 1.515	z: 15.866
17:21:41		x: 23.483	y: -0.99	z: 15.866
17:21:41		x: 19.486	y: -2.526	z: 20.381
17:21:41		x: 11.741	y: -1.234	z: 25.311
17:21:41		x: 13.796	y: 6.472	z: 22.68
17:21:41		x: 8.685	y: 0.025	z: 27.903
17:21:42		x: 5.331	y: 2.653	z: 27.409
17:21:42		x: 11.952	y: 3.372	z: 25.631
17:21:42		x: 13.038	y: 6.095	z: 24.592
17:21:42		x: 11.871	y: 6.556	z: 24.09
17:21:42		x: 2.989	y: 11.512	z: 22.509
17:21:42		x: 1.861	y: 13.484	z: 19.906
17:21:43		x: 1.861	y: 11.293	z: 21.707
17:21:43		x: 1.861	y: 11.293	z: 21.089
17:21:43		x: 1.506	y: 11.293	z: 21.089
17:21:43		x: 1.506	y: 11.293	z: 21.089
17:21:43		x: 1.506	y: 11.293	z: 21.089
17:21:44		x: 2.07	y: 11.293	z: 20.619
17:21:44		x: 2.07	y: 10.868	z: 21.258
17:21:44		x: 2.07	y: 11.265	z: 21.258
17:21:44		x: 2.435	y: 11.265	z: 21.258
17:21:44		x: 2.435	y: 11.265	z: 21.258
17:21:46		x: 2.435	y: 11.265	z: 21.258
17:21:46		x: 2.435	y: 10.931	z: 21.612
17:21:47		x: 2.435	y: 10.931	z: 21.289
17:21:47		x: 2.435	y: 10.931	z: 21.289
17:21:47		x: 2.786	y: 11.347	z: 21.289
17:21:47		x: 2.415	y: 11.347	z: 21.289
17:21:47		x: 2.415	y: 11.347	z: 21.289
17:21:47		x: 2.098	y: 11.347	z: 21.289
17:21:47		x: 2.098	y: 11.347	z: 20.976
17:21:47		x: 2.098	y: 11.347	z: 20.976
17:21:47		x: 2.098	y: 11.347	z: 20.976
17:21:48		x: 2.548	y: 11.347	z: 20.976
17:21:48		x: 2.548	y: 11.698	z: 20.976
17:21:48		x: 2.88	y: 11.698	z: 20.976
17:21:48		x: 2.88	y: 11.698	z: 20.976
17:21:48		x: 2.88	y: 11.698	z: 20.976
17:21:48		x: 3.317	y: 11.698	z: 20.976
17:21:48		x: 3.317	y: 12.017	z: 20.64
17:21:49		x: 3.317	y: 12.017	z: 20.64
17:21:49		x: 3.317	y: 12.017	z: 20.64
17:21:49		x: 3.317	y: 12.017	z: 20.64
17:21:50		x: 3.627	y: 12.017	z: 20.64
17:21:50		x: 3.627	y: 12.017	z: 20.64
17:21:50		x: 3.627	y: 12.017	z: 20.64
17:21:50		x: 3.627	y: 12.017	z: 20.64
17:21:50		x: 4.98	y: 12.017	z: 20.64
17:21:50		x: 6.689	y: 12.017	z: 20.64
17:21:51		x: 7.469	y: 5.213	z: 21.932
17:21:51		x: 13.468	y: -1.472	z: 23.495
17:21:51		x: 19.891	y: -2.696	z: 23.495
17:21:51		x: 22.99	y: 2.523	z: 23.495
17:21:51		x: 21.301	y: 3.222	z: 24.366
17:21:52		x: 19.866	y: 3.874	z: 24.832
17:21:52		x: 18.431	y: 3.121	z: 25.424
17:21:52		x: 22.273	y: 1.486	z: 24.385
17:21:52		x: 25.274	y: 2.748	z: 22.669
17:21:52		x: 22.63	y: 3.144	z: 24.44
17:21:52		x: 23.529	y: 1.115	z: 23.779
17:21:53		x: 22.822	y: -0.163	z: 24.516
17:21:52		x: 23.794	y: 1.629	z: 24.516
17:21:52		x: 25.781	y: 4.571	z: 23.991
17:21:52		x: 27.091	y: 5.517	z: 23.689
17:21:52		x: 25.704	y: 6.475	z: 24.552
17:21:52		x: 16.68	y: 5.337	z: 28.411
17:21:52		x: 3.671	y: 4.679	z: 31.863
17:21:53		x: -2.078	y: 5.798	z: 31.863
17:21:53		x: -5.882	y: 1.319	z: 32.444
17:21:53		x: -5.14	y: 0.097	z: 33.044
17:21:53		x: -2.676	y: 4.806	z: 33.46
17:21:53		x: -1.719	y: 4.806	z: 33.46
17:21:53		x: 0.489	y: 5.39	z: 35.055
17:21:54		x: 4.235	y: 7.829	z: 34.239
17:21:54		x: 5.575	y: 12.486	z: 32.553
17:21:54		x: 3.433	y: 13.722	z: 32.553
17:21:54		x: 1.498	y: 12.431	z: 33.445
17:21:54		x: 0.1	y: 7.015	z: 35.552
17:21:55		x: -3.401	y: 3.794	z: 35.876
17:21:55		x: -5.303	y: 5.83	z: 35.392
17:21:55		x: -1.663	y: 12.796	z: 34.23
17:21:55		x: 0.941	y: 18.63	z: 29.568
17:21:55		x: 0.445	y: 23.13	z: 25.77
17:21:56		x: -5.596	y: 27.401	z: 21.932
17:21:56		x: -10.346	y: 32.162	z: 13.465
17:21:56		x: -9.89	y: 30.856	z: 16.323
17:21:56		x: -9.89	y: 32.435	z: 12.722
17:21:56		x: -9.89	y: 31.748	z: 15.126
17:21:56		x: -10.887	y: 31.748	z: 15.126
17:21:57		x: -10.362	y: 31.748	z: 15.647
17:21:57		x: -10.362	y: 31.748	z: 15.043
17:21:57		x: -0.163	y: 37.001	z: 10.989
17:21:57		x: 0.337	y: 39.656	z: 6.636
17:21:57		x: 10.984	y: 36.465	z: -11.247
17:21:57		x: 4.11	y: 31.829	z: -23.263
17:21:58		x: 4.11	y: 30.043	z: -25.616
17:21:58		x: 6.506	y: 30.792	z: -24.18
17:21:58		x: 9.19	y: 29.689	z: -26.345
17:21:58		x: 20.001	y: 21.708	z: -27.999
17:21:58		x: 16.873	y: 13.827	z: -34.396
17:21:59		x: 12.348	y: 2.944	z: -37.992
17:21:59		x: 8.491	y: -2.256	z: -39.012
17:21:59		x: -1.608	y: -4.678	z: -37.998
17:21:59		x: -11.805	y: -12.292	z: -34.922
17:21:59		x: -17.468	y: -12.292	z: -32.171
17:21:59		x: -16.525	y: -12.292	z: -33.163
17:22:00		x: -5.467	y: -18.019	z: -35.093
17:22:00		x: 2.056	y: -17.131	z: -35.093
17:22:00		x: 16.273	y: -12.545	z: -34.095
17:22:00		x: 14.295	y: -15.473	z: -34.095
17:22:00		x: 18.005	y: -21.52	z: -28.498
17:22:00		x: 14.286	y: -23.445	z: -28.498
17:22:01		x: 13.114	y: -23.445	z: -29.339
17:22:01		x: 15.406	y: -23.12	z: -28.558
17:22:01		x: 16.801	y: -23.12	z: -27.951
17:22:01		x: 16.801	y: -23.872	z: -27.317
17:22:01		x: 15.258	y: -23.341	z: -27.63
17:22:02		x: 16.528	y: -23.77	z: -27.075
17:22:02		x: 15.83	y: -23.77	z: -27.075
17:22:02		x: 15.83	y: -23.77	z: -27.825
17:22:02		x: 14.741	y: -23.77	z: -27.244
17:22:02		x: 14.741	y: -25.038	z: -27.659
17:22:02		x: 14.741	y: -25.466	z: -27.14
17:22:03		x: 15.19	y: -26.049	z: -25.801
17:22:03		x: 24.066	y: -26.049	z: -18.112
