18:33:09		x: 941.04
18:33:09		x: 941.06
18:33:09		x: 941.02
18:33:09		x: 941.06
18:33:10		x: 941.05
18:33:10		x: 941.06
18:33:10		x: 941.07
18:33:10		x: 941.0
18:33:10		x: 940.97
18:33:10		x: 941.06
18:33:11		x: 941.04
18:33:11		x: 940.99
18:33:11		x: 941.09
18:33:11		x: 941.12
18:33:11		x: 941.08
18:33:12		x: 941.07
18:33:12		x: 941.15
18:33:12		x: 941.11
18:33:12		x: 941.09
18:33:12		x: 941.05
18:33:12		x: 941.11
18:33:13		x: 941.07
18:33:13		x: 941.06
18:33:13		x: 941.05
18:33:13		x: 941.04
18:33:13		x: 941.08
18:33:14		x: 941.02
18:33:14		x: 941.04
18:33:14		x: 941.03
18:33:14		x: 941.05
18:33:14		x: 941.04
18:33:14		x: 941.04
18:33:15		x: 941.06
18:33:15		x: 941.09
18:33:15		x: 941.07
18:33:15		x: 941.09
18:33:15		x: 941.06
18:33:16		x: 941.07
18:33:16		x: 941.01
18:33:16		x: 941.11
18:33:16		x: 941.07
18:33:16		x: 941.04
18:33:16		x: 941.02
18:33:17		x: 941.08
18:33:17		x: 941.1
18:33:17		x: 941.01
18:33:17		x: 941.06
18:33:17		x: 941.07
18:33:18		x: 941.04
18:33:18		x: 940.99
18:33:18		x: 941.0
18:33:18		x: 941.02
18:33:18		x: 941.05
18:33:18		x: 941.03
18:33:19		x: 941.0
18:33:19		x: 940.95
18:33:19		x: 941.06
18:33:19		x: 941.08
18:33:19		x: 941.04
18:33:19		x: 941.08
18:33:20		x: 941.01
18:33:20		x: 941.03
18:33:20		x: 941.08
18:33:20		x: 941.15
18:33:20		x: 941.05
18:33:21		x: 941.19
18:33:21		x: 941.14
18:33:21		x: 941.21
18:33:21		x: 941.21
18:33:21		x: 941.28
18:33:21		x: 941.25
18:33:22		x: 941.25
18:33:22		x: 941.27
18:33:22		x: 941.3
18:33:22		x: 941.36
18:33:22		x: 941.36
18:33:23		x: 941.32
18:33:23		x: 941.34
18:33:23		x: 941.36
18:33:23		x: 941.38
18:33:23		x: 941.42
18:33:23		x: 941.46
18:33:24		x: 941.44
18:33:24		x: 941.45
18:33:24		x: 941.43
18:33:24		x: 941.46
18:33:24		x: 941.46
18:33:25		x: 941.43
18:33:25		x: 941.48
18:33:25		x: 941.47
18:33:25		x: 941.46
18:33:25		x: 941.41
18:33:25		x: 941.41
18:33:26		x: 941.45
18:33:26		x: 941.44
18:33:26		x: 941.47
18:33:26		x: 941.49
18:33:26		x: 941.48
18:33:27		x: 941.42
18:33:27		x: 941.43
18:33:27		x: 941.49
18:33:27		x: 941.45
18:33:27		x: 941.43
18:33:27		x: 941.42
18:33:28		x: 941.45
18:33:28		x: 941.42
18:33:28		x: 941.42
18:33:28		x: 941.46
18:33:28		x: 941.42
18:33:29		x: 941.49
18:33:29		x: 941.5
18:33:29		x: 941.49
18:33:29		x: 941.43
18:33:29		x: 941.45
18:33:29		x: 941.54
18:33:30		x: 941.54
18:33:30		x: 941.48
18:33:30		x: 941.47
18:33:30		x: 941.46
18:33:30		x: 941.44
18:33:30		x: 941.45
18:33:31		x: 941.4
18:33:31		x: 941.51
18:33:31		x: 941.49
18:33:31		x: 941.46
18:33:31		x: 941.4
18:33:32		x: 941.49
18:33:32		x: 941.41
18:33:32		x: 941.47
18:33:32		x: 941.41
18:33:32		x: 941.44
18:33:32		x: 941.39
18:33:33		x: 941.36
18:33:33		x: 941.45
18:33:33		x: 941.42
18:33:33		x: 941.46
18:33:33		x: 941.46
18:33:34		x: 941.47
18:33:34		x: 941.45
18:33:34		x: 941.42
18:33:34		x: 941.4
