13:03:52		x: 41.927975
13:03:52		x: 41.927975
13:03:53		x: 41.927975
13:03:54		x: 41.927975
13:03:55		x: 41.927975
13:03:56		x: 41.927975
13:03:57		x: 42.382774
13:03:58		x: 42.382774
13:03:59		x: 42.382774
