8 1:-34.8182773476 2:-123.788043655 3:-64.5353960948 4:30.4279093573 5:925.857667856 6:21.8516064807 7:-20.061612126 8:2.85485920618e-15 9:13.9499271404 10:194.600467222 11:8.1130409827 12:-9.56953811509 13:-1.27585435849 14:6.75542137517 15:45.6357179561 16:10.5710802481 17:-11.7655276658 18:-1.31931557593 19:7.07484215908 20:50.0533915759 21:52.8587121396 22:-14.0706459569 23:8.45333154409 24:17.7047637324 25:313.458658821 26:35.5292450758 27:-38.8316351028 28:-0.810199786393 29:24.9600445648 30:623.003824679 
8 1:-46.1813477317 2:-51.7144256025 3:-48.0762704336 4:1.95950442845 5:3.83965760513 6:3.82668325855 7:-5.2129502708 8:1.90323947079e-16 9:2.96327135196 10:8.78097710532 11:3.29950610578 12:-6.04547293621 13:-0.902676090738 14:2.91168092537 15:8.47788581119 16:5.81146700944 17:-1.86142116841 18:0.735460295398 19:2.30150761229 20:5.29693728944 21:33.6478847108 22:-24.3527282097 23:5.96876542972 24:17.5634215823 25:308.473777679 26:45.3907039314 27:-45.0996646904 28:-3.52521820504 29:28.8775878578 30:833.915080487 
8 1:-55.2853781583 2:-89.1845585292 3:-66.3568891496 4:11.5868818863 5:134.255831847 6:20.808631709 7:-15.1629532922 8:2.15700473356e-15 9:10.0275014764 10:100.550785859 11:8.27873649876 12:-7.58418448796 13:0.167367888909 14:4.54550769606 15:20.6616402149 16:11.3589342004 17:-12.8609997633 18:-0.552868471825 19:6.68986597656 20:44.7543067843 21:17.9650989827 22:-16.0588351661 23:-1.20623977262 24:9.08945150882 25:82.6181287311 26:58.3274732137 27:-53.0216119787 28:-0.417025505652 29:34.1299539973 30:1164.85375986 
8 1:8.45480029279 2:-122.750547659 3:-35.3221613895 4:44.8590480229 5:2012.33418952 6:36.6399375676 7:-29.8293055759 8:-3.17206578464e-16 9:21.7649227533 10:473.711862457 11:11.8205121584 12:-16.4094262075 13:-1.37294207825 14:10.284215807 15:105.765094766 16:9.11224328004 17:-21.0319059064 18:-2.50867620687 19:9.13142752848 20:83.3829687079 21:56.2701372617 22:-13.9694326354 23:8.38978211713 24:20.2638166184 25:410.622263944 26:44.4144262657 27:-42.3173495061 28:0.691442535174 29:28.7263509448 30:825.203238604 
8 1:-77.1575315835 2:-81.9711221796 3:-80.3214624564 4:1.52794792366 5:2.33462485741 6:10.0164679605 7:-14.9007714371 8:-6.97854472622e-16 9:7.22998244022 10:52.2726460859 11:7.69968491346 12:-8.38973226953 13:-0.689775500547 14:5.14019410072 15:26.4215953931 16:5.16080922021 17:-11.9338617786 18:-1.3720843623 19:4.66631217573 20:21.7744693213 21:37.7792694513 22:-13.5895870358 23:5.73346363805 24:14.1805900428 25:201.089133961 26:30.7670590979 27:-43.0108137685 28:1.7176646943 29:25.3577277781 30:643.014358068 
8 1:-58.6154073156 2:-80.4699806794 3:-72.873017765 4:7.41506405812 5:54.9831749859 6:4.76136216102 7:-5.73727300956 8:-6.97854472622e-16 9:3.17372340132 10:10.0725202281 11:3.75764086964 12:-4.76452899587 13:0.173134625436 14:2.46123441405 15:6.05767484091 16:4.26010198605 17:-3.89127614579 18:0.168625308199 19:2.65823466173 20:7.0662115168 21:17.6425613271 22:-14.712401774 23:0.211562265522 24:10.7773336183 25:116.15091992 26:31.7417608233 27:-42.4325859206 28:3.68071975766 29:27.9304395552 30:780.109453747 
8 1:-30.7313296335 2:-95.8861330894 3:-52.2485964292 4:22.2845270992 5:496.600148034 6:27.8106695662 7:-21.1580010954 8:6.34413156929e-16 9:14.2534221719 10:203.160043609 11:11.1207375458 12:-11.7092303482 13:-0.279563135052 14:6.5744711749 15:43.2236712296 16:5.68333316732 17:-8.94037622995 18:-1.02180022658 19:4.16140867275 20:17.3173221416 21:18.4259111257 22:-12.0010108267 23:2.23049575249 24:11.5676554982 25:133.810653725 26:35.4208846641 27:-43.0935322209 28:3.77135494071 29:27.3676413196 30:748.987791397 
8 1:-40.1594136535 2:-100.145766287 3:-59.52044746 4:20.6057509998 5:424.596974267 6:38.3444053843 7:-28.1078022621 8:-1.90323947079e-16 9:18.6060371582 10:346.184618732 11:16.4339849926 12:-14.8831579388 13:-0.636280056279 14:8.9112728235 15:79.4107833349 16:8.30621308696 17:-7.17615781822 18:-0.162235397192 19:5.06925745257 20:25.6973711204 21:29.1428763638 22:-14.1492086646 23:4.2589128691 24:13.8758193845 25:192.538363591 26:38.5285382482 27:-46.2227721905 28:2.84225976875 29:28.2871537304 30:800.16306617 
8 1:-50.6082519656 2:-77.5247274424 3:-59.0149575842 4:9.33436208786 5:87.1303155874 6:24.8558708286 7:-17.7472512111 8:1.11022302463e-15 9:11.8672445721 10:140.831493734 11:9.72189343733 12:-8.45983597013 13:-0.557036218853 14:5.28863002691 15:27.9696075615 16:15.5210913676 17:-15.5347703681 18:-0.953964427457 19:9.82623353031 20:96.5548653922 21:33.5554053614 22:-14.7786321682 23:4.93971724931 24:15.580788485 25:242.760969813 26:52.3497614778 27:-49.5243619632 28:3.72855195079 29:32.8744052648 30:1080.72652151 
8 1:-7.71418952448 2:-104.354824508 3:-39.8653590599 4:33.0638623824 5:1093.21899564 6:30.4629168336 7:-24.255629316 8:2.09356341786e-15 9:17.238148099 10:297.153749884 11:10.1191171424 12:-13.183766593 13:-0.914949226158 14:7.98695795853 15:63.7914974313 16:9.43830623401 17:-19.400190325 18:-2.28062301671 19:8.97864609127 20:80.6160856322 21:45.9190484519 22:-15.9436590612 23:6.74486180091 24:18.4487554735 25:340.356578522 26:51.9178550709 27:-46.7831357733 28:3.3130617863 29:34.588977927 30:1196.39739403 
8 1:-5.31441250982 2:-158.917114866 3:-56.157342552 4:52.5343974023 5:2759.86291043 6:58.2765831636 7:-45.1835464922 8:2.53765262771e-16 9:30.878075966 10:953.455575363 11:22.3144686573 12:-24.7071098394 13:-1.29957544706 14:13.8919190814 15:192.985415765 16:9.32566777898 17:-13.7188693279 18:-1.56309546126 19:7.35503246133 20:54.0965025072 21:53.2553969054 22:-21.1958014459 23:8.03408133062 24:20.7196259871 25:429.302901045 26:59.0495261053 27:-51.2534469339 28:3.03787113649 29:38.28662753 30:1465.86584762 
8 1:-64.7973768132 2:-87.5141357584 3:-72.3677962388 4:7.87649828207 5:62.0392251874 6:5.92464987418 7:-7.30011066804 8:3.04518315326e-15 9:4.16860095734 10:17.3772339416 11:6.24215863817 12:-8.47102838771 13:-1.36871245132 14:4.09137968962 15:16.7393877647 16:7.7969341168 17:-9.85050393057 18:-1.02410520611 19:4.83885580951 20:23.4145255452 21:62.381341286 22:-9.10464569945 23:9.66082536596 24:20.6400828817 25:426.013021364 26:44.2542072526 27:-44.2017722427 28:2.37011964121 29:29.8239636816 30:889.46880968 
8 1:15.884911356 2:-91.6534133609 3:-55.8352776953 4:36.6344215047 5:1342.08083898 6:30.326246669 7:-39.0253816987 8:1.01506105109e-15 9:20.6469453983 10:426.296354281 11:16.5129382678 12:-15.6656345156 13:0.140318829241 14:9.35186601075 15:87.4573978831 16:8.53391358434 17:-7.20245371845 18:-0.675338643042 19:5.7197735264 20:32.7158091933 21:16.9799808413 22:-16.9429280677 23:1.82406222683 24:10.8269496423 25:117.222838556 26:42.1985019291 27:-55.8434549924 28:3.50178213455 29:33.2595735116 30:1106.19923017 
8 1:-14.4890318571 2:-20.7559953205 3:-18.6463301596 4:2.16202098954 5:4.67433475923 6:1.74049876085 7:-2.29640660957 8:1.90323947079e-16 9:1.24947786549 10:1.56119493634 11:3.82293464225 12:-1.32308679378 13:0.561204765308 14:1.66504830519 15:2.77238585862 16:7.2902275143 17:-8.41824124593 18:-0.989383404934 19:4.88056245525 20:23.8198898796 21:18.3572238239 22:-19.3502955707 23:-2.74890185539 24:11.4827457623 25:131.853450242 26:50.9261620667 27:-52.0209148907 28:4.66806076774 29:35.8432135333 30:1284.73595639 
8 1:-0.672505411157 2:-45.3656709308 3:-30.0076044663 4:15.1838483668 5:230.549251226 6:9.73728312615 7:-10.26522678 8:-1.58603289232e-16 9:5.46563499694 10:29.8731659198 11:6.26272860888 12:-8.04790220945 13:0.542895707177 14:4.10720113407 15:16.8691011557 16:6.56148182713 17:-6.61472579631 18:-0.18941342983 19:3.68903699055 20:13.6089939176 21:16.6483492953 22:-17.757226549 23:-1.94401843574 24:9.93345673169 25:98.6735626403 26:43.7910570364 27:-47.0637152649 28:4.4962146274 29:32.2214973832 30:1038.22489362 
8 1:10.2625162091 2:-28.7740722043 3:-15.7525598591 4:13.3076706995 5:177.094099446 6:9.13099290424 7:-11.1699590699 8:5.70971841236e-16 9:6.53862562066 10:42.7536250072 11:4.71311951566 12:-4.07845280267 13:0.482856255093 14:2.75254266539 15:7.5764911248 16:4.80338475888 17:-8.71505777787 18:-0.979720122894 19:3.97047465528 20:15.7646689882 21:15.4805008261 22:-14.8001513853 23:-1.46071023345 24:9.79144829126 25:95.8724596405 26:36.0526973409 27:-46.6439965436 28:4.17437577644 29:30.5914171669 30:935.834804279 
8 1:14.6972453063 2:-128.819791448 3:-32.8353457959 4:48.9842272997 5:2399.45452415 6:60.7576332304 7:-46.1866675987 8:-1.14194368247e-15 9:30.9703889133 10:959.164989439 11:25.4168512595 12:-25.8805903949 13:-0.0476212464683 14:14.6996849146 15:216.080736588 16:3.16790783555 17:-7.0572167588 18:-0.896865396773 19:3.06148472748 20:9.37268873661 21:18.8270317664 22:-15.1155776157 23:-0.969176310102 24:11.6034497926 25:134.640047088 26:35.7719708357 27:-38.8326809816 28:4.16855928459 29:24.8921833498 30:619.620791919 
8 1:-63.5924354873 2:-187.210959907 3:-105.071206086 4:42.1748055147 5:1778.7142202 6:28.3767913278 7:-26.467500151 8:1.64947420801e-15 9:18.3394437278 10:336.335196244 11:9.83703965463 12:-13.0789080743 13:-1.13100547739 14:8.76773935536 15:76.8732534036 16:6.00371293591 17:-8.23815022503 18:-1.08447739867 19:4.75735632199 20:22.6324391743 21:35.110556866 22:-8.65856869419 23:5.76464571625 24:12.2233124129 25:149.409366343 26:40.1543716439 27:-25.9903391066 28:2.71307370039 29:21.2935573342 30:453.415583947 
8 1:-137.678139186 2:-218.807089872 3:-164.688862464 4:27.7345499769 5:769.205262421 6:25.2169537182 7:-20.1432651701 8:4.98014328189e-15 9:14.2784724345 10:203.874775064 11:8.77878362218 12:-11.0876252354 13:-0.741002877262 14:6.55858035308 15:43.0149762479 16:5.03707785324 17:-10.287962591 18:-1.2307929376 19:4.7248932009 20:22.3246157599 21:31.3691899694 22:-10.0495927136 23:4.74166952224 24:11.0797175392 25:122.760140748 26:24.4006740197 27:-24.4037741018 28:0.909569419115 29:16.0538224174 30:257.725214208 
8 1:-179.998180776 2:-200.551779609 3:-186.568787581 4:7.09996435886 5:50.4094938971 6:13.651233222 7:-10.00854094 8:1.3639882874e-15 9:6.69923169258 10:44.8797052709 11:4.94487633327 12:-4.74589400833 13:-0.483863476445 14:2.87679905031 15:8.27597277587 16:9.13176133204 17:-9.21295936117 18:-0.637243684218 19:5.82281843066 20:33.9052144764 21:24.3163594622 22:-8.15914290186 23:3.68849412689 24:9.67165360358 25:93.5408834277 26:31.2782214686 27:-24.4218778672 28:0.886563025548 29:18.9685980203 30:359.807710856 
