9 1:-107.739493339 2:-157.035155786 3:-124.302324224 4:16.8925740425 5:285.359057781 6:8.58851751587 7:-12.1536138906 8:3.23550710034e-15 9:6.79515240316 10:46.1740961822 11:7.70045408958 12:-6.18750467355 13:-1.04119566176 14:4.46179387348 15:19.9076045694 16:4.7328955568 17:-10.1598435794 18:-1.17264871228 19:4.02858143137 20:16.2294683492 21:49.9356978991 22:-22.475880793 23:7.81000277768 24:18.9761916764 25:360.09585054 26:41.0570543011 27:-43.6667022501 28:0.923849934647 29:26.4920207257 30:701.82716213 
9 1:-11.1044880123 2:-130.962918128 3:-90.3927322663 4:40.75565492 5:1661.02340796 6:23.6366489385 7:-23.8872986426 8:6.34413156929e-16 9:16.1193806304 10:259.834431908 11:15.1843532797 12:-9.62290084526 13:-0.256563622203 14:9.1979892735 15:84.6030066754 16:8.78286843179 17:-9.53487783747 18:1.38103073134 19:5.17501253091 20:26.7807546951 21:23.4857500318 22:-3.68627074974 23:3.60567273367 24:7.67486634425 25:58.9035734021 26:16.4460292169 27:-12.8851257233 28:-0.786964473383 29:8.18015030985 30:66.9148590917 
9 1:570.380620815 2:-42.9820372873 3:163.095118141 4:209.018600089 5:43688.7751833 6:127.366595258 7:-154.571724588 8:-7.1054273576e-15 9:93.6413484831 10:8768.70214574 11:76.8527049632 12:-57.8926716377 13:1.42459378597 14:47.2947983663 15:2236.79795251 16:43.0394567776 17:-28.5151799623 18:6.16243732813 19:23.691765723 20:561.299763073 21:16.4216703546 22:-13.3745665324 23:0.337046700985 24:9.68089881097 25:93.7198017883 26:68.9140779195 27:-55.4149821435 28:1.36051436362 29:33.2231092652 30:1103.77498925 
9 1:709.60420209 2:504.637585254 3:573.283603911 4:69.9621116585 5:4894.69706772 6:43.7390624938 7:-53.1526207411 8:-1.59872115546e-14 9:32.2019511562 10:1036.96565826 11:23.4824077219 12:-16.1412884557 13:1.53636076752 14:15.3181124601 15:234.644569341 16:26.7760168042 17:-22.1807723832 18:3.23054130282 19:15.7293904907 20:247.413725209 21:13.6231428356 22:-51.6756747607 23:-8.19829712828 24:17.4844726368 25:305.706783386 26:68.2317286994 27:-49.5835079716 28:2.29012707143 29:42.4948810052 30:1805.81491165 
9 1:742.11542961 2:577.566766432 3:632.310305359 4:56.2305633174 5:3161.87625099 6:40.5580483804 7:-50.4306138874 8:-5.20218788682e-15 9:28.7488055132 10:826.493818435 11:20.9320814716 12:-16.6663391538 13:2.02206549776 14:12.5237251329 15:156.843691205 16:23.0520676126 17:-20.9561416489 18:0.475983145292 19:11.3433608567 20:128.671835525 21:18.1612629738 22:-66.7428879616 23:-11.3536179796 24:24.3155993924 25:591.248373811 26:84.5996137986 27:-65.4495013868 28:3.05634904439 29:53.5317582363 30:2865.64913987 
9 1:712.452597052 2:610.573688478 3:644.747364316 4:34.8153038466 5:1212.10538193 6:23.3886567633 7:-17.7265140102 8:7.61295788314e-16 9:14.1591391105 10:200.481220349 11:10.5670969977 12:-10.9375508338 13:1.93597048891 14:7.53532200625 15:56.7810777379 16:11.300954735 17:-10.1233398734 18:-0.138592443893 19:5.67564119089 20:32.2129029277 21:33.8977164883 22:-66.4962734286 23:-11.5646577613 24:29.1385143584 25:849.053019013 26:95.1968076842 27:-97.5707782491 28:3.98082423279 29:65.3160210846 30:4266.18261033 
9 1:661.529367732 2:595.425554287 3:617.846974725 4:22.5422081741 5:508.151149366 6:15.346863856 7:-14.2001384768 8:-4.94842262404e-15 9:8.14844607743 10:66.3971734767 11:9.166901728 12:-10.8484401357 13:1.62654346228 14:6.02671217465 15:36.3212596361 16:17.7222523904 17:-14.4962991863 18:-0.954071719394 19:9.72004468954 20:94.4792687667 21:33.213537908 22:-45.2147194268 23:-8.76564232368 24:24.6424752799 25:607.251587921 26:104.217232849 27:-97.9585049894 28:7.62471027775 29:69.2738303822 30:4798.86357582 
9 1:685.508421191 2:572.305608951 3:610.378582382 4:38.6061358343 5:1490.43372406 6:24.3574862659 7:-22.0631299853 8:-1.23076152444e-14 9:15.7410120445 10:247.779460186 11:12.0169456018 12:-11.388930218 13:1.31780024086 14:7.78985845831 15:60.6818948005 16:24.8184974556 17:-20.3886118509 18:0.765631142841 19:12.36379199 20:152.863352372 21:20.7274759942 22:-32.2146171585 23:-6.06637299201 24:16.1283506753 25:260.123695506 26:85.2703797534 27:-74.1504641888 28:7.73891622943 29:58.4038278319 30:3411.00710542 
9 1:722.844397462 2:588.862082743 3:633.498661861 4:45.7689487285 5:2094.79666772 6:32.6124748997 7:-40.5815362702 8:-5.20218788682e-15 9:23.1360669165 10:535.277592366 11:16.7685109139 12:-13.0556322162 13:1.40181559083 14:10.1183869393 15:102.381754252 16:22.8946090265 17:-20.191991764 18:1.16981113073 19:11.6318074701 20:135.298945022 21:11.7384471037 22:-41.2590018597 23:-6.9786765028 24:15.0827812223 25:227.490289401 26:72.484799051 27:-51.6450612167 28:5.20836826478 29:47.4029588045 30:2247.04050342 
9 1:731.834072159 2:604.678061958 3:646.506602641 4:43.5427521904 5:1895.97126832 6:41.8636387054 7:-54.7659740264 8:-2.38539347005e-14 9:28.2202174901 10:796.380675186 11:20.8587574478 12:-19.6115461485 13:1.57238375256 14:11.9012818489 15:141.640509646 16:31.2866898853 17:-29.2803529852 18:1.0999419499 19:16.311000857 20:266.048748957 21:17.046758127 22:-56.5342364474 23:-9.19604352688 24:19.2335163462 25:369.92815104 26:78.0211158392 27:-67.3271012436 28:3.43525137041 29:49.8921729375 30:2489.22892043 
9 1:696.624769658 2:558.09701119 3:604.000400616 4:47.4150046009 5:2248.1826613 6:35.6169136131 7:-44.4205160152 8:-2.41076999633e-14 9:25.188296754 10:634.450293366 11:17.3647903594 12:-13.6775603417 13:2.40668278548 14:10.9480975594 15:119.860840169 16:28.9708023851 17:-26.8399321202 18:0.34797039882 19:14.4846861869 20:209.806133932 21:24.1484312784 22:-89.5388669744 23:-15.0855794275 24:30.5108182127 25:930.910028008 26:92.3899884688 27:-70.0234275232 28:3.05548228415 29:58.3912396571 30:3409.5368687 
9 1:698.588561935 2:536.35518045 3:590.397973988 4:55.4567833234 5:3075.45481658 6:37.2817183739 7:-45.5931748902 8:-1.91592773392e-14 9:27.0761374034 10:733.117216688 11:18.921872045 12:-13.7683480031 13:2.29087677263 14:12.0652879326 15:145.571172897 16:26.0357791407 17:-23.4936905045 18:0.83454814372 19:12.9669134097 20:168.140843375 21:21.8550856484 22:-79.5386988757 23:-13.4956114582 24:28.8545202214 25:832.583337208 26:99.2692466875 27:-80.0180744689 28:3.56610380926 29:65.4484138648 30:4283.49487742 
9 1:657.539545587 2:544.357489572 3:582.060017573 4:38.7114570231 5:1498.57690485 6:25.5942595545 7:-28.8308358649 8:-2.25851083867e-14 9:18.1442889005 10:329.215219704 11:11.9793971239 12:-8.90153082368 13:2.14864079347 14:8.41479340738 15:70.8087480889 16:22.2670142445 17:-20.2159558006 18:0.0715490288288 19:10.9284273266 20:119.430523833 21:19.0729107647 22:-71.4581081671 23:-12.3678768354 24:26.0616976138 25:679.212082514 26:90.7507420468 27:-74.008057864 28:5.81907541502 29:61.1064805183 30:3734.00196134 
9 1:653.033050715 2:527.589904597 3:569.343775532 4:42.8791366398 5:1838.62035897 6:29.6550802179 7:-36.4871133585 8:1.7763568394e-15 9:21.3246852428 10:454.742200703 11:14.7509397828 12:-11.0023279386 13:1.79730352962 14:9.32094799365 15:86.8800715003 16:23.8455798549 17:-21.3813030556 18:0.596027711665 19:11.8007232494 20:139.257069209 21:13.1600562494 22:-57.3461260068 23:-9.85085305282 24:20.3283561065 25:413.242061994 26:77.2085928662 27:-65.8247759185 28:5.87415354124 29:52.9660320646 30:2805.40055266 
9 1:658.301557948 2:528.61681835 3:571.816128082 4:44.3164816033 5:1963.9505417 6:30.2233818104 7:-37.0912397669 8:-2.46152304888e-14 9:21.7971139861 10:475.114178123 11:15.3216602374 12:-11.4702125294 13:1.7625488787 14:9.57909448298 15:91.7590511138 16:20.4820904412 17:-18.3644626581 18:0.48391652276 19:10.0909816736 20:101.827911138 21:12.6029637197 22:-55.5483526076 23:-9.543325638 24:19.6535577551 25:386.262332434 26:70.9409180101 27:-61.8910032927 28:5.07164045371 29:49.0264419566 30:2403.59201092 
9 1:669.752576158 2:548.079181414 3:588.333588673 4:41.6218147361 5:1732.37546192 6:34.8558623528 7:-44.5777725469 8:-7.9936057773e-15 9:23.9427334566 10:573.254485374 11:17.7266818848 12:-15.5666308702 13:1.53510106334 14:10.2321366524 15:104.696620472 16:21.732718545 17:-20.3239462089 18:0.618108981216 19:11.0343467267 20:121.756807685 21:12.9870762821 22:-50.6581061743 23:-8.43978852326 24:17.1857562227 25:295.350216947 26:64.5642638898 27:-45.7063138914 28:4.46307241928 29:43.4651388999 30:1889.21829958 
9 1:637.549566585 2:557.794097076 3:584.411166975 4:27.2925572101 5:744.883679064 6:18.4605269185 7:-17.6331389405 8:-2.6645352591e-15 9:12.1125317754 10:146.713426011 11:9.48847566496 12:-8.34343279 13:1.70816742516 14:6.17754781828 15:38.1620970471 16:21.0924105276 17:-18.8533557926 18:0.690325558197 19:10.5694747294 20:111.713796056 21:11.5049564851 22:-58.0970707188 23:-9.82074286073 24:19.9853057238 25:399.412444875 26:50.4497431803 27:-44.4637548634 28:3.2754307728 29:34.1116941599 30:1163.60767846 
9 1:654.655149597 2:65.392864433 3:458.592559564 4:200.95819797 5:40384.1973312 6:216.372559223 7:-167.775137247 8:-6.09036630652e-15 9:114.168722938 10:13034.4972972 11:93.4818312927 12:-98.7225497643 13:-0.68037758483 14:55.557076906 15:3086.58879434 16:44.8916933656 17:-37.0314338869 18:-0.316421201526 19:25.0014204368 20:625.071023858 21:36.4999677259 22:-40.7538839816 23:-7.14991427325 24:25.4921578961 25:649.850114198 26:35.3668220051 27:-35.9145535571 28:2.19324256095 29:17.9439504853 30:321.985359017 
9 1:-19.3020786186 2:-221.724120097 3:-88.2256670749 4:68.8497256903 5:4740.28472763 6:31.9089854908 7:-41.4207548997 8:-3.80647894157e-16 9:23.7095276247 10:562.141700189 11:25.542205042 12:-30.5028142669 13:0.0219038884267 14:16.6224740582 15:276.306643817 16:18.9374568639 17:-33.0208494125 18:-4.55512174488 19:13.6430378015 20:186.132480454 21:8.17864923831 22:-19.3385455669 23:-3.52321293172 24:8.11014602994 25:65.774468627 26:16.070045149 27:-20.4334375195 28:2.63083152224 29:11.6631240516 30:136.028462643 
9 1:-224.490914539 2:-235.46818993 3:-228.078473437 4:3.80311796194 5:14.4637062324 6:5.24638997255 7:-3.90948470906 8:2.75969723264e-15 9:2.85527667315 10:8.15260488025 11:1.64548179305 12:-2.17358147103 13:-0.112965051201 14:1.37926539999 15:1.9023730436 16:6.19757642876 17:-11.8007451761 18:-1.36656862146 19:5.00016771983 20:25.0016772264 21:12.9491968898 22:-10.9620496719 23:1.49205577847 24:7.62103442699 25:58.0801657373 26:17.0141940598 27:-24.4148132355 28:1.85527231851 29:15.6275114827 30:244.219115141 
9 1:-220.121894444 2:-222.686770531 3:-221.761220045 4:0.838939144404 5:0.703818888013 6:1.20974090798 7:-1.31245740698 8:2.37904933848e-15 9:0.729967034693 10:0.532851871738 11:1.96903670032 12:-1.41470780032 13:7.48607525176e-15 14:1.03371141954 15:1.06855929889 16:3.84783374121 17:-4.54075912252 18:-0.540264806563 19:2.6488188907 20:7.01624151573 21:11.5027052485 22:-5.48308440123 23:1.46234523172 24:6.11078799595 25:37.3417299314 26:18.2198039308 27:-25.3986115524 28:-0.0340056935404 29:17.7392756956 30:314.681902205 
