9 1:136.878043038 2:136.072172265 3:136.608490418 4:0.251829855124 5:0.0634182759319 6:0.23866351319 7:-0.20130172355 8:-5.92118946467e-16 9:0.133021699312 10:0.0176947724879 11:0.237060583411 12:-0.207678555058 13:-3.97829917157e-15 14:0.135360410143 15:0.018322440634 16:0.348653786953 17:-0.336792701739 18:-1.11022302463e-15 19:0.211719938806 20:0.044825332488 21:0.109785134424 22:-0.116031252156 23:-1.34151948809e-15 24:0.0694099970115 25:0.00481774768514 26:0.0486521730018 27:-0.0490643719398 28:0.000425297094362 29:0.0333290651693 30:0.00111082658506 
9 1:136.018169212 2:135.978188018 3:136.004850635 4:0.0125100061522 5:0.000156500253927 6:0.0120032684423 7:-0.010496864896 8:-4.36687723019e-15 9:0.00686531942371 10:4.71326107896e-05 11:0.0123123160983 12:-0.0102877465753 13:-2.0169051614e-15 14:0.00682069293413 15:4.65218521017e-05 16:0.020910627825 17:-0.0207970841555 18:-2.44249065418e-15 19:0.0126107372679 20:0.000159030694441 21:0.00758740706537 22:-0.0091383155649 23:-1.96139401017e-15 24:0.00604765372282 25:3.65741155512e-05 26:0.00682422691453 27:-0.00621176181065 28:-0.000409423159755 29:0.00413580218536 30:1.71048597164e-05 
9 1:135.613087647 2:135.4518816 3:135.506517063 4:0.050172957503 5:0.0025173256646 6:0.033440484929 7:-0.0461614639526 8:-1.62832710278e-15 9:0.025252669183 10:0.000637697300865 11:0.038493824733 12:-0.0381739329642 13:-1.73934940525e-15 14:0.0259916251192 15:0.000675564576335 16:0.0371391804612 17:-0.048050863356 18:-2.55351295664e-15 19:0.0262817238454 20:0.000690729008287 21:0.161834242332 22:-0.156263555848 23:-1.4155343564e-15 24:0.0969134591368 25:0.00939221856185 26:0.0539037268961 27:-0.0751655094988 28:0.00113352010076 29:0.0391295756482 30:0.0015311236904 
9 1:135.794004431 2:135.776137857 3:135.788139336 4:0.00563140576095 5:3.17127308445e-05 6:0.00540237452381 7:-0.00548834064814 8:-2.22044604925e-15 9:0.00372146466414 10:1.38492992464e-05 11:0.0069178900649 12:-0.00539532601481 13:-4.6814404205e-15 14:0.00378262781198 15:1.4308273164e-05 16:0.0229778948956 17:-0.0235838999429 18:-8.881784197e-16 19:0.014133654093 20:0.00019976017802 21:0.0178208230222 22:-0.0131382651438 23:-7.95753725013e-06 24:0.00914220533855 25:8.35799184521e-05 26:0.00385222978849 27:-0.00254258996224 28:6.52749889601e-06 29:0.00214979365689 30:4.6216127672e-06 
