18:13:14		x: -0.37469256	y: 5.482722	z: 7.5890207
18:13:15		x: 4.5621514	y: 2.4600422	z: 7.8888946
18:13:15		x: -0.9816227	y: -3.3159695	z: 12.574945
18:13:15		x: 0.040102877	y: 0.5835867	z: 10.03769
18:13:15		x: 5.109825	y: -4.8895583	z: 11.787253
18:13:15		x: 9.341577	y: -0.8583213	z: 5.1876364
18:13:16		x: 8.41502	y: -2.5659857	z: 6.294955
18:13:16		x: 6.555923	y: 1.3976152	z: 6.273407
18:13:16		x: 9.139865	y: 1.270124	z: 6.1465144
18:13:16		x: 11.88781	y: 0.3824737	z: 5.8215013
18:13:16		x: 4.4562078	y: 2.878429	z: 5.088876
18:13:16		x: 5.053561	y: 3.0442274	z: 6.395511
18:13:17		x: 6.4242415	y: 1.1115081	z: 8.157643
18:13:17		x: 5.756858	y: 4.9063177	z: 7.177817
18:13:17		x: 5.222951	y: 4.0599675	z: 6.63134
18:13:17		x: 6.573281	y: 6.037578	z: 8.930372
18:13:17		x: 4.9242744	y: 8.337209	z: 7.877522
18:13:18		x: 1.228824	y: 6.9252286	z: 4.2898107
18:13:18		x: -0.4890157	y: 6.7318964	z: 1.6304513
18:13:18		x: -3.1573534	y: 8.479065	z: 5.985504E-4
18:13:18		x: -2.1200657	y: 9.837176	z: 0.84814596
18:13:18		x: -2.9352913	y: 9.188946	z: 0.23582886
18:13:18		x: -2.52289	y: 9.128492	z: 0.86131406
18:13:19		x: -3.7547069	y: 10.180145	z: 1.0911574
18:13:19		x: -2.1230583	y: 9.376891	z: 0.96905315
18:13:19		x: -2.1733365	y: 9.660006	z: 0.98700964
18:13:19		x: -3.0538042	y: 9.415198	z: 0.7212533
18:13:19		x: -2.4827871	y: 9.914988	z: 0.6745663
18:13:19		x: -3.198055	y: 11.368867	z: 0.54887074
18:13:20		x: -4.31495	y: 10.15381	z: -2.0614076
18:13:20		x: -4.0378213	y: 7.1065893	z: -2.545635
18:13:20		x: -4.4699745	y: 0.6003461	z: 6.8228765
18:13:20		x: -10.502765	y: 5.29358	z: 8.380304
18:13:20		x: -0.24839842	y: 3.0735564	z: 6.7564373
18:13:21		x: 0.017357962	y: 2.991555	z: 9.598953
18:13:21		x: -0.39264908	y: 3.8786068	z: 8.763377
18:13:21		x: -1.8734628	y: 4.9063177	z: 5.7502737
18:13:21		x: -0.25677812	y: 3.6990416	z: 9.375095
18:13:21		x: -0.5919664	y: 3.739743	z: 9.502586
18:13:21		x: -0.33758244	y: 4.0653543	z: 8.813056
18:13:22		x: 0.033518825	y: 4.0934863	z: 8.902241
18:13:22		x: 0.08259996	y: 4.3209357	z: 8.670602
18:13:22		x: -0.037708677	y: 4.040814	z: 8.895657
18:13:22		x: -0.08619126	y: 4.086902	z: 8.754398
18:13:22		x: 0.20350714	y: 4.055179	z: 9.09617
