17:52:46		x: 43.914806
17:52:47		x: 43.914806
17:52:48		x: 43.730186
17:52:49		x: 43.730186
17:52:50		x: 43.730186
17:52:51		x: 43.351986
17:52:52		x: 43.351986
17:52:53		x: 43.351986
17:52:54		x: 43.137646
17:52:55		x: 43.137646
17:52:56		x: 43.137646
17:52:57		x: 42.80338
17:52:58		x: 42.80338
17:52:59		x: 42.80338
17:53:00		x: 42.549717
17:53:01		x: 42.549717
17:53:02		x: 42.549717
17:53:03		x: 42.10347
17:53:04		x: 42.10347
