17:52:46		x: 0.012217305	y: -0.27763826	z: -0.070554934
17:52:46		x: 0.5858198	y: -0.076052725	z: -0.41386122
17:52:46		x: -0.29932398	y: -0.11362094	z: -0.020158553
17:52:47		x: 0.05131268	y: 0.3933972	z: -0.39858958
17:52:47		x: -1.282817	y: -0.4269948	z: 0.11178834
17:52:47		x: 0.88789266	y: -1.3848315	z: -0.7538077
17:52:47		x: 1.1236867	y: -1.5112807	z: -1.491733
17:52:47		x: -0.49571714	y: 0.8970556	z: -0.9092729
17:52:47		x: -0.40194935	y: 0.6808093	z: -1.110553
17:52:48		x: 0.5571091	y: 0.086132	z: 0.13255776
17:52:48		x: 2.1297817	y: 0.11453723	z: -0.63071835
17:52:48		x: 1.9281962	y: -0.15760323	z: -0.18600847
17:52:48		x: 1.0601566	y: -0.13805555	z: -0.24312437
17:52:48		x: 0.3747658	y: -0.59742624	z: -0.6780604
17:52:49		x: 1.7638733	y: -0.21868975	z: 0.01863139
17:52:49		x: 0.28344148	y: 1.7895297	z: -0.36041048
17:52:49		x: -0.23487769	y: -0.004276057	z: 0.82436264
17:52:49		x: -0.040927973	y: -0.4071417	z: -0.25503623
17:52:49		x: 0.69058317	y: 0.5656612	z: -0.3191771
17:52:49		x: -0.38240165	y: -1.382999	z: -1.2269229
17:52:50		x: -0.36560285	y: 0.72112644	z: 0.68752885
17:52:50		x: -0.183565	y: 1.6615535	z: -0.15851954
17:52:50		x: -0.0076358155	y: -0.3747658	z: -0.04734206
17:52:50		x: 0.05222898	y: -0.1518	z: 0.0015271631
17:52:50		x: -0.03176499	y: -0.18325958	z: 0.036957346
17:52:51		x: 0.040011674	y: 0.33475417	z: 0.06047566
17:52:51		x: 0.014049901	y: 0.33322698	z: 0.0125227375
17:52:51		x: 0.010079277	y: 0.03756821	z: 0.016187929
17:52:51		x: -0.06505715	y: -0.062308256	z: -0.014966198
17:52:51		x: 0.004581489	y: -0.11178834	z: 0.016493361
17:52:51		x: -0.021991149	y: -0.10873401	z: 0.008552114
17:52:52		x: 0.0033597588	y: 0.020463986	z: 0.008857546
17:52:52		x: -0.01282817	y: -0.024129177	z: 0.0030543262
17:52:52		x: -0.027794369	y: 0.032070424	z: 0.0
17:52:52		x: 0.013439035	y: 0.103847094	z: 0.011301007
17:52:52		x: 0.0125227375	y: 0.1685988	z: 0.015882496
17:52:52		x: -0.008857546	y: -0.0012217305	z: 0.015882496
17:52:53		x: -0.00580322	y: -0.004581489	z: 0.009162978
17:52:53		x: 0.002443461	y: -0.0571159	z: 0.008857546
17:52:53		x: -0.020463986	y: -0.043676864	z: 0.011301007
17:52:53		x: 0.0	y: -0.02687807	z: 0.009162978
17:52:53		x: -0.015271631	y: -0.047036625	z: 0.010995574
17:52:54		x: -0.011911872	y: -0.018936822	z: 0.0125227375
17:52:54		x: -0.005192355	y: 0.045814894	z: 0.01160644
17:52:54		x: -0.01160644	y: -0.006414085	z: 0.009162978
17:52:54		x: -0.004886922	y: -0.05375614	z: 0.013439035
17:52:54		x: 0.0076358155	y: -0.018020526	z: 0.016493361
17:52:54		x: 0.0018325958	y: -0.01740966	z: 0.0106901415
17:52:55		x: -0.005192355	y: 0.021685716	z: 0.0106901415
17:52:55		x: -0.014966198	y: -0.022602014	z: 0.009162978
17:52:55		x: 0.0027488936	y: -0.003970624	z: 0.010079277
17:52:55		x: -0.007330383	y: -0.014049901	z: 0.007330383
17:52:55		x: -0.0070249503	y: -0.01282817	z: 0.01282817
17:52:56		x: -0.0106901415	y: -6.1086525E-4	z: 9.162979E-4
17:52:56		x: -0.0070249503	y: -0.011911872	z: 0.009773844
17:52:56		x: 0.007330383	y: 0.0015271631	z: 0.007941248
17:52:56		x: -0.0061086523	y: -0.018325957	z: 0.01160644
17:52:56		x: -0.004276057	y: -0.0021380284	z: 0.008857546
17:52:56		x: -0.010079277	y: -0.014049901	z: 0.009468411
17:52:57		x: -0.003970624	y: 0.004276057	z: 0.011301007
17:52:57		x: -0.0033597588	y: -0.018020526	z: 0.01160644
17:52:57		x: -0.0015271631	y: -0.008552114	z: 0.008246681
17:52:57		x: -6.1086525E-4	y: -0.01985312	z: 0.009162978
17:52:57		x: -9.162979E-4	y: -0.005192355	z: 0.011301007
17:52:58		x: 0.004276057	y: -0.017715093	z: 0.0067195175
17:52:58		x: -0.0027488936	y: -0.010995574	z: -0.0030543262
17:52:58		x: 0.019547688	y: -0.036957346	z: 0.0106901415
17:52:58		x: -0.023823744	y: -0.018325957	z: 0.013439035
17:52:58		x: -0.010995574	y: -0.03390302	z: 0.010995574
17:52:58		x: -0.02076942	y: -0.0030543262	z: 0.0106901415
17:52:59		x: -0.028710667	y: 0.037873644	z: 0.011301007
17:52:59		x: 0.0030543262	y: 0.04184427	z: 0.010995574
17:52:59		x: -0.009773844	y: -0.005192355	z: 0.009773844
17:52:59		x: 0.007941248	y: -0.046120327	z: 0.008857546
17:52:59		x: -0.05131268	y: -0.06047566	z: 0.04520403
17:53:00		x: 0.094989546	y: -0.2837469	z: -0.30879238
17:53:00		x: 0.23793201	y: -0.12370021	z: -0.40866885
17:53:00		x: 0.089186326	y: -0.19028452	z: -0.7974846
17:53:00		x: -0.1142318	y: -0.19639318	z: -0.080634214
17:53:00		x: -0.028405234	y: -0.065973446	z: 0.007330383
17:53:00		x: -0.14019357	y: 0.0018325958	z: 0.19120082
17:53:01		x: -0.044898596	y: 0.1740966	z: -0.004886922
17:53:01		x: -0.0852157	y: -0.07971791	z: -0.6081163
17:53:01		x: -0.7360926	y: -0.22510384	z: -0.09590584
17:53:01		x: -2.1276436	y: -0.59406644	z: -0.26267207
17:53:01		x: -2.5515842	y: -3.4205399	z: -0.33200526
17:53:02		x: -2.9208522	y: -2.4043655	z: 0.093462385
17:53:02		x: -1.073901	y: 2.0302107	z: 1.5357152
17:53:02		x: 0.20555615	y: -1.4697418	z: 2.094046
17:53:02		x: -0.55955255	y: 1.6536123	z: 0.9068295
17:53:02		x: -0.5381723	y: -0.64599	z: -0.43799037
17:53:02		x: 1.7336355	y: -0.90408057	z: -0.41416663
17:53:03		x: 0.46944994	y: -0.41325033	z: 0.025350908
17:53:03		x: 0.31948254	y: -0.42424592	z: -0.13133603
17:53:03		x: 0.1591304	y: -1.0005972	z: -0.17654006
17:53:03		x: 0.52626044	y: -0.23335053	z: -0.116675265
17:53:03		x: 0.23365596	y: -0.10445796	z: 0.0870483
17:53:04		x: -0.17562376	y: -0.036957346	z: 0.10415252
17:53:04		x: 0.016493361	y: -0.017104227	z: 0.05222898
17:53:04		x: -0.064446285	y: 0.12736541	z: 0.042760566
17:53:04		x: -0.043066	y: 0.11728613	z: 0.011911872
