17:27:55		x: 1001.02
17:27:55		x: 1001.06
17:27:55		x: 1001.09
17:27:55		x: 1001.03
17:27:55		x: 1001.04
17:27:56		x: 1001.04
17:27:56		x: 1001.06
17:27:56		x: 1001.09
17:27:56		x: 1001.07
17:27:56		x: 1001.14
17:27:57		x: 1001.09
17:27:57		x: 1001.12
17:27:57		x: 1001.08
17:27:57		x: 1001.09
17:27:57		x: 1001.12
17:27:57		x: 1001.11
17:27:58		x: 1001.18
17:27:58		x: 1001.14
17:27:58		x: 1001.14
17:27:58		x: 1001.14
17:27:58		x: 1001.11
17:27:58		x: 1001.15
17:27:59		x: 1001.1
17:27:59		x: 1001.08
17:27:59		x: 1001.12
17:27:59		x: 1001.15
17:27:59		x: 1001.15
17:28:00		x: 1001.18
17:28:00		x: 1001.23
17:28:00		x: 1001.22
17:28:00		x: 1001.25
17:28:00		x: 1001.17
17:28:00		x: 1001.28
17:28:01		x: 1001.26
17:28:01		x: 1001.23
17:28:01		x: 1001.27
17:28:01		x: 1001.27
17:28:01		x: 1001.27
17:28:02		x: 1001.31
17:28:02		x: 1001.35
17:28:02		x: 1001.39
17:28:02		x: 1001.36
17:28:02		x: 1001.35
17:28:02		x: 1001.37
17:28:03		x: 1001.38
17:28:03		x: 1001.37
17:28:03		x: 1001.37
17:28:03		x: 1001.39
17:28:03		x: 1001.36
17:28:04		x: 1001.38
17:28:04		x: 1001.32
17:28:04		x: 1001.35
17:28:04		x: 1001.38
17:28:04		x: 1001.37
17:28:04		x: 1001.37
17:28:05		x: 1001.39
17:28:05		x: 1001.37
17:28:05		x: 1001.43
17:28:05		x: 1001.47
17:28:05		x: 1001.47
17:28:05		x: 1001.46
17:28:06		x: 1001.44
17:28:06		x: 1001.47
17:28:06		x: 1001.54
17:28:06		x: 1001.54
17:28:06		x: 1001.46
17:28:07		x: 1001.55
17:28:08		x: 1001.51
17:28:08		x: 1001.5
17:28:08		x: 1001.58
17:28:08		x: 1001.53
17:28:08		x: 1001.62
17:28:08		x: 1001.62
17:28:08		x: 1001.62
17:28:08		x: 1001.57
17:28:08		x: 1001.58
17:28:08		x: 1001.55
17:28:09		x: 1001.61
17:28:09		x: 1001.53
17:28:09		x: 1001.61
17:28:09		x: 1001.7
17:28:09		x: 1001.61
17:28:10		x: 1001.67
17:28:10		x: 1001.64
17:28:10		x: 1001.57
17:28:10		x: 1001.62
17:28:10		x: 1001.67
17:28:10		x: 1001.57
17:28:10		x: 1001.65
17:28:10		x: 1001.64
17:28:11		x: 1001.69
17:28:11		x: 1001.71
17:28:11		x: 1001.62
17:28:12		x: 1001.73
17:28:12		x: 1001.71
17:28:12		x: 1001.8
17:28:12		x: 1001.75
17:28:12		x: 1001.73
17:28:13		x: 1001.67
17:28:13		x: 1001.76
17:28:13		x: 1001.76
17:28:13		x: 1001.83
17:28:13		x: 1001.76
17:28:13		x: 1001.77
17:28:14		x: 1001.86
17:28:14		x: 1001.82
17:28:14		x: 1001.79
17:28:14		x: 1001.79
17:28:14		x: 1001.85
17:28:15		x: 1001.77
17:28:15		x: 1001.76
17:28:15		x: 1001.77
17:28:15		x: 1001.75
17:28:15		x: 1001.76
17:28:15		x: 1001.74
17:28:16		x: 1001.8
17:28:16		x: 1001.78
17:28:16		x: 1001.77
17:28:16		x: 1001.85
17:28:16		x: 1001.86
17:28:17		x: 1001.83
17:28:17		x: 1001.82
17:28:17		x: 1001.88
17:28:17		x: 1001.83
17:28:17		x: 1001.86
17:28:17		x: 1001.91
17:28:18		x: 1001.84
17:28:18		x: 1001.84
17:28:18		x: 1001.89
17:28:18		x: 1001.93
17:28:18		x: 1001.87
17:28:19		x: 1001.92
17:28:19		x: 1001.93
17:28:19		x: 1001.99
17:28:19		x: 1001.98
17:28:19		x: 1001.92
17:28:19		x: 1001.95
17:28:20		x: 1001.96
17:28:20		x: 1002.01
17:28:20		x: 1001.92
17:28:20		x: 1001.96
17:28:20		x: 1001.95
17:28:21		x: 1001.96
17:28:21		x: 1001.98
17:28:21		x: 1002.02
17:28:21		x: 1002.01
17:28:21		x: 1001.99
17:28:21		x: 1001.93
17:28:22		x: 1002.02
17:28:22		x: 1002.02
17:28:22		x: 1002.0
17:28:22		x: 1001.94
17:28:22		x: 1002.0
17:28:22		x: 1001.94
17:28:23		x: 1001.93
17:28:23		x: 1001.97
17:28:23		x: 1001.98
17:28:23		x: 1002.02
17:28:23		x: 1002.03
17:28:24		x: 1001.97
17:28:24		x: 1002.0
17:28:24		x: 1001.97
17:28:24		x: 1002.01
17:28:24		x: 1002.02
