17:27:55		x: 46.71371
17:27:56		x: 47.017105
17:27:57		x: 47.017105
17:27:58		x: 47.017105
17:27:59		x: 47.385155
17:28:00		x: 47.385155
17:28:01		x: 47.385155
17:28:02		x: 47.815514
17:28:03		x: 47.815514
17:28:04		x: 47.815514
17:28:05		x: 47.886932
17:28:06		x: 47.886932
17:28:08		x: 47.886932
17:28:08		x: 48.450905
17:28:09		x: 48.450905
17:28:10		x: 48.450905
17:28:11		x: 48.841682
17:28:12		x: 48.841682
17:28:13		x: 48.841682
17:28:14		x: 48.841682
17:28:15		x: 48.841682
17:28:16		x: 48.841682
17:28:17		x: 49.314705
17:28:18		x: 49.314705
17:28:19		x: 49.314705
17:28:20		x: 49.509953
17:28:21		x: 49.509953
17:28:22		x: 49.509953
17:28:22		x: 49.801216
17:28:23		x: 49.801216
