17:27:55		x: -211.605	y: -47.662	z: -50.364
17:27:55		x: -210.012	y: -45.291	z: -50.364
17:27:55		x: -208.879	y: -42.529	z: -50.958
17:27:55		x: -208.125	y: -37.734	z: -52.163
17:27:55		x: -208.125	y: -38.697	z: -52.163
17:27:56		x: -208.125	y: -40.849	z: -53.602
17:27:56		x: -208.125	y: -42.082	z: -53.602
17:27:56		x: -207.02	y: -42.887	z: -53.602
17:27:56		x: -205.484	y: -42.214	z: -54.402
17:27:56		x: -207.691	y: -36.747	z: -53.817
17:27:57		x: -200.137	y: -34.649	z: -52.908
17:27:57		x: -180.035	y: -43.038	z: -53.598
17:27:57		x: -11.36	y: 71.464	z: -55.166
17:27:57		x: 15.829	y: 85.462	z: -58.697
17:27:57		x: 16.589	y: 81.083	z: -62.617
17:27:57		x: -6.492	y: 68.795	z: -66.142
17:27:58		x: 5.05	y: 77.42	z: -70.17
17:27:58		x: 3.678	y: 96.33	z: -69.561
17:27:58		x: 0.857	y: 92.144	z: -72.506
17:27:58		x: -6.278	y: 75.909	z: -71.818
17:27:58		x: -3.523	y: 71.647	z: -74.241
17:27:58		x: 5.224	y: 64.149	z: -74.241
17:27:59		x: 9.28	y: 67.745	z: -73.414
17:27:59		x: 12.667	y: 74.975	z: -73.979
17:27:59		x: 4.238	y: 67.903	z: -71.89
17:27:59		x: 6.933	y: 64.53	z: -69.552
17:27:59		x: 14.689	y: 67.965	z: -67.68
17:28:00		x: 8.036	y: 69.09	z: -68.983
17:28:00		x: 14.947	y: 68.64	z: -66.227
17:28:00		x: 13.003	y: 56.108	z: -57.093
17:28:00		x: 14.794	y: 59.065	z: -58.303
17:28:00		x: 13.702	y: 60.054	z: -57.867
17:28:00		x: 8.688	y: 62.203	z: -60.351
17:28:01		x: -0.21	y: 62.992	z: -60.87
17:28:01		x: 5.998	y: 55.314	z: -57.572
17:28:01		x: 5.258	y: 53.324	z: -58.283
17:28:01		x: 5.793	y: 46.653	z: -51.004
17:28:01		x: 3.218	y: 46.653	z: -51.004
17:28:02		x: -0.736	y: 43.304	z: -44.195
17:28:02		x: -0.253	y: 45.469	z: -47.045
17:28:02		x: 1.161	y: 45.469	z: -45.309
17:28:02		x: 0.502	y: 47.79	z: -47.917
17:28:02		x: 3.054	y: 46.972	z: -45.707
17:28:02		x: 8.912	y: 45.133	z: -37.327
17:28:03		x: 10.461	y: 44.062	z: -34.199
17:28:03		x: 11.935	y: 41.654	z: -32.495
17:28:03		x: 15.103	y: 40.24	z: -38.267
17:28:03		x: 15.84	y: 36.622	z: -40.078
17:28:03		x: 14.204	y: 36.277	z: -14.216
17:28:03		x: 4.432	y: 38.851	z: -0.015
17:28:04		x: -7.984	y: 41.56	z: 6.947
17:28:04		x: -18.548	y: 39.404	z: 6.526
17:28:04		x: -27.252	y: 37.968	z: -1.057
17:28:04		x: -30.389	y: 40.785	z: 0.842
17:28:04		x: -27.845	y: 41.149	z: 1.782
17:28:05		x: -27.438	y: 33.251	z: -12.986
17:28:05		x: -26.637	y: 36.007	z: -7.821
17:28:05		x: -22.241	y: 36.683	z: -7.116
17:28:05		x: -20.086	y: 43.637	z: 0.955
17:28:05		x: -10.218	y: 36.427	z: -9.823
17:28:05		x: -6.263	y: 38.169	z: -9.375
17:28:06		x: -7.203	y: 38.169	z: -12.435
17:28:06		x: -7.693	y: 42.57	z: -7.057
17:28:06		x: -0.782	y: 37.872	z: -16.841
17:28:06		x: -2.221	y: 39.349	z: -12.959
17:28:06		x: -1.51	y: 38.41	z: -14.225
17:28:07		x: -2.789	y: 39.575	z: -11.16
17:28:08		x: 1.164	y: 36.657	z: -16.889
17:28:08		x: 2.63	y: 38.285	z: -10.516
17:28:08		x: 3.141	y: 39.68	z: -8.16
17:28:08		x: 7.446	y: 38.468	z: -13.334
17:28:08		x: 5.828	y: 38.859	z: -12.512
17:28:08		x: -0.903	y: 39.88	z: -11.543
17:28:08		x: -10.452	y: 43.598	z: -10.438
17:28:08		x: -8.096	y: 45.994	z: -6.986
17:28:08		x: -15.686	y: 45.994	z: -5.474
17:28:08		x: -20.774	y: 45.994	z: -6.13
17:28:09		x: -19.311	y: 40.4	z: -13.45
17:28:09		x: -21.176	y: 39.405	z: -11.225
17:28:09		x: -29.348	y: 46.797	z: -5.503
17:28:09		x: -34.3	y: 53.244	z: -5.067
17:28:09		x: -38.056	y: 51.26	z: -15.26
17:28:10		x: -34.671	y: 46.722	z: -26.741
17:28:10		x: -29.051	y: 45.616	z: -40.115
17:28:10		x: -24.053	y: 44.625	z: -40.115
17:28:10		x: -22.163	y: 43.551	z: -37.145
17:28:10		x: -17.945	y: 42.135	z: -35.607
17:28:10		x: -13.665	y: 44.406	z: -44.317
17:28:10		x: -12.188	y: 46.664	z: -39.265
17:28:10		x: -13.172	y: 50.729	z: -37.727
17:28:11		x: -17.861	y: 54.699	z: -28.125
17:28:11		x: -19.052	y: 57.412	z: -28.125
17:28:11		x: -25.968	y: 60.603	z: -28.125
17:28:12		x: -30.238	y: 61.23	z: -26.921
17:28:12		x: -35.978	y: 58.14	z: -28.565
17:28:12		x: -35.978	y: 51.501	z: -34.825
17:28:12		x: -37.713	y: 48.547	z: -37.382
17:28:12		x: -37.364	y: 47.196	z: -40.06
17:28:13		x: -33.918	y: 42.092	z: -41.914
17:28:13		x: -27.734	y: 40.6	z: -52.954
17:28:13		x: -21.202	y: 41.665	z: -57.002
17:28:13		x: -12.193	y: 43.74	z: -57.662
17:28:13		x: -0.593	y: 41.809	z: -52.165
17:28:13		x: 8.059	y: 45.602	z: -52.961
17:28:14		x: 15.19	y: 46.403	z: -49.667
17:28:14		x: 21.832	y: 51.246	z: -49.18
17:28:14		x: 24.682	y: 50.071	z: -40.577
17:28:14		x: 26.031	y: 54.103	z: -17.851
17:28:14		x: 20.111	y: 60.342	z: -4.902
17:28:15		x: 8.644	y: 65.081	z: 2.883
17:28:15		x: -4.837	y: 62.606	z: -0.166
17:28:15		x: -10.755	y: 59.097	z: -5.339
17:28:15		x: -15.454	y: 62.847	z: -10.093
17:28:15		x: -15.841	y: 66.065	z: -11.631
17:28:15		x: -14.892	y: 61.839	z: -15.007
17:28:16		x: -16.325	y: 55.484	z: -18.75
17:28:16		x: -17.9	y: 52.597	z: -17.152
17:28:16		x: -15.586	y: 50.465	z: -16.54
17:28:16		x: -15.226	y: 49.639	z: -12.008
17:28:16		x: -10.523	y: 46.11	z: -12.713
17:28:17		x: -9.082	y: 40.292	z: -17.672
17:28:17		x: -10.876	y: 40.292	z: -13.278
17:28:17		x: -8.618	y: 39.808	z: -13.278
17:28:17		x: -8.081	y: 45.826	z: -3.686
17:28:17		x: -1.672	y: 41.677	z: -10.99
17:28:17		x: 0.587	y: 43.772	z: -10.516
17:28:18		x: -1.937	y: 46.923	z: -9.194
17:28:18		x: -3.359	y: 50.793	z: -7.562
17:28:18		x: -10.044	y: 58.271	z: -4.339
17:28:18		x: -8.503	y: 52.626	z: -9.364
17:28:18		x: -13.583	y: 54.336	z: -10.362
17:28:19		x: -14.666	y: 54.336	z: -11.437
17:28:19		x: -19.842	y: 59.768	z: -8.671
17:28:19		x: -15.664	y: 53.025	z: -9.698
17:28:19		x: -18.727	y: 48.68	z: -13.807
17:28:19		x: -20.3	y: 48.112	z: -12.817
17:28:19		x: -19.866	y: 46.18	z: -14.741
17:28:20		x: -22.433	y: 48.928	z: -11.608
17:28:20		x: -17.536	y: 42.742	z: -18.22
17:28:20		x: -15.892	y: 40.896	z: -23.649
17:28:20		x: -14.527	y: 40.243	z: -26.458
17:28:20		x: -11.505	y: 40.243	z: -30.186
17:28:20		x: -5.082	y: 41.094	z: -25.581
17:28:21		x: 6.62	y: 41.094	z: -39.468
17:28:21		x: 4.789	y: 40.676	z: -39.468
17:28:21		x: 13.928	y: 49.055	z: -52.838
17:28:21		x: 9.921	y: 53.474	z: -59.344
17:28:21		x: 7.505	y: 52.067	z: -60.359
17:28:22		x: -191.337	y: -66.401	z: -55.551
17:28:22		x: -195.295	y: -59.599	z: -50.205
17:28:22		x: -198.794	y: -53.955	z: -51.696
17:28:22		x: -197.686	y: -51.487	z: -50.736
17:28:22		x: -198.538	y: -50.051	z: -51.164
17:28:22		x: -201.733	y: -50.505	z: -50.231
17:28:23		x: -202.47	y: -51.325	z: -50.231
17:28:23		x: -200.92	y: -51.325	z: -52.136
17:28:23		x: -203.578	y: -47.273	z: -54.406
17:28:23		x: -205.21	y: -47.618	z: -55.499
17:28:23		x: -204.763	y: -46.63	z: -60.15
17:28:24		x: -204.06	y: -42.201	z: -64.257
17:28:24		x: -200.842	y: -40.045	z: -67.378
17:28:24		x: -200.004	y: -41.799	z: -71.598
17:28:24		x: -194.244	y: -37.019	z: -72.702
17:28:24		x: -188.371	y: -37.019	z: -73.26
