18:00:29		x: 24.974798
18:00:30		x: 24.974798
18:00:31		x: 24.974798
18:00:32		x: 24.935263
18:00:33		x: 24.935263
18:00:34		x: 24.935263
18:00:35		x: 24.954283
18:00:36		x: 24.954283
18:00:37		x: 24.954283
18:00:38		x: 25.097725
18:00:39		x: 25.097725
18:00:40		x: 25.097725
18:00:41		x: 25.097725
18:00:42		x: 25.097725
18:00:43		x: 25.097725
