18:52:49		x: 9.0
18:52:49		x: 9.0
18:52:49		x: 8.0
18:52:49		x: 8.0
18:52:50		x: 10.0
18:52:50		x: 7.0
18:52:50		x: 1.0
18:52:50		x: 0.0
18:52:50		x: 0.0
18:52:50		x: 0.0
18:52:51		x: 0.0
18:52:51		x: 0.0
18:52:51		x: 0.0
18:52:51		x: 0.0
18:52:51		x: 0.0
18:52:52		x: 0.0
18:52:52		x: 0.0
18:52:52		x: 0.0
18:52:52		x: 0.0
18:52:52		x: 0.0
18:52:52		x: 0.0
18:52:53		x: 0.0
18:52:53		x: 0.0
18:52:53		x: 0.0
18:52:53		x: 0.0
18:52:53		x: 0.0
18:52:53		x: 0.0
18:52:54		x: 0.0
18:52:54		x: 0.0
18:52:54		x: 0.0
18:52:54		x: 0.0
18:52:54		x: 0.0
18:52:55		x: 0.0
18:52:55		x: 0.0
18:52:55		x: 0.0
18:52:55		x: 0.0
18:52:55		x: 0.0
18:52:55		x: 0.0
18:52:56		x: 0.0
18:52:56		x: 0.0
18:52:56		x: 0.0
18:52:56		x: 0.0
18:52:56		x: 0.0
18:52:57		x: 0.0
18:52:57		x: 0.0
18:52:57		x: 0.0
18:52:57		x: 0.0
18:52:57		x: 0.0
18:52:57		x: 0.0
18:52:58		x: 0.0
18:52:58		x: 0.0
18:52:58		x: 0.0
18:52:58		x: 0.0
18:52:58		x: 0.0
18:52:59		x: 1.0
18:52:59		x: 0.0
18:52:59		x: 0.0
18:52:59		x: 0.0
18:52:59		x: 0.0
18:52:59		x: 0.0
18:53:00		x: 0.0
18:53:00		x: 0.0
18:53:00		x: 5.0
18:53:00		x: 2.0
18:53:00		x: 2.0
18:53:01		x: 2.0
18:53:01		x: 2.0
18:53:01		x: 2.0
18:53:01		x: 2.0
18:53:01		x: 2.0
18:53:01		x: 2.0
18:53:02		x: 2.0
18:53:02		x: 2.0
18:53:02		x: 2.0
18:53:02		x: 2.0
18:53:02		x: 2.0
