18:50:37		x: 23.86192
18:50:38		x: 23.917816
18:50:39		x: 23.917816
18:50:40		x: 23.917816
18:50:41		x: 23.974604
18:50:42		x: 23.974604
18:50:43		x: 23.974604
18:50:44		x: 24.029108
18:50:45		x: 24.029108
18:50:46		x: 24.029108
