1 1:5688.82917718 2:5688.77099428 3:5688.7906612 4:0.0181196827684 5:0.000328322903627 6:0.0124853753187 7:-0.0170667800065 8:-7.22385114689e-14 9:0.00931778415847 10:8.68211016239e-05 11:0.0123836321566 12:-0.0133714300002 13:-8.28966525053e-14 14:0.00810781500141 15:6.5736664097e-05 16:0.0118968303851 17:-0.0150952143308 18:-1.06581410364e-13 19:0.00824330176071 20:6.79520239182e-05 21:0.0582901246432 22:-0.0541439523488 23:-5.65473593876e-14 24:0.0351036914591 25:0.00123226915406 26:0.0655947116063 27:-0.0841985932527 28:0.00482437950744 29:0.0488035011082 30:0.00238178172042 
1 1:5688.6634324 2:5688.62133482 3:5688.6493016 4:0.0131448420536 5:0.000172786872615 6:0.0122116910802 7:-0.0100820671879 8:5.09222293961e-14 9:0.00672976908914 10:4.52897919931e-05 11:0.0122826435434 12:-0.0115052154935 13:-1.48029736617e-14 14:0.00750189780469 15:5.6278470672e-05 16:0.0169683304207 17:-0.0159251501662 18:-3.31586610021e-14 19:0.0105296137252 20:0.000110872765203 21:0.00613274257872 22:-0.00681626992042 23:-7.34227493619e-14 24:0.00433110599515 25:1.87584791412e-05 26:0.0316404527605 27:-0.0408112463176 28:0.00213265935325 29:0.0247097761997 30:0.00061057303984 
1 1:5688.99851423 2:5688.73818533 3:5688.82512132 4:0.0813950339782 5:0.0066251515563 6:0.0663624251112 7:-0.0774387340724 8:-6.39488462184e-14 9:0.0436107141802 10:0.0019018943913 11:0.0675100361367 12:-0.0782868622496 13:-6.15803704325e-14 14:0.0441720136397 15:0.00195116678899 16:0.120796675009 17:-0.123394588732 18:-1.2730557349e-13 19:0.0745160160631 20:0.00555263664992 21:0.041394484963 22:-0.0287480920181 23:-4.08562073062e-14 24:0.025012751845 25:0.000625637754861 26:0.0218164082392 27:-0.0153325334181 28:-4.31493356651e-05 29:0.0124850190423 30:0.000155875700487 
1 1:5688.95559282 2:5688.88148522 3:5688.9064262 4:0.0231109328648 5:0.000534115217882 6:0.0170332372724 7:-0.0216610572968 8:-4.61852778244e-14 9:0.0117633496751 10:0.000138376395579 11:0.0181281741309 12:-0.0196211295493 13:-1.30858287169e-13 14:0.0118199487967 15:0.000139711189556 16:0.0162637838719 17:-0.0186920630986 18:-6.86857977901e-14 19:0.0131120367145 20:0.000171925506803 21:0.0342977420224 22:-0.029135266913 23:-1.48029736617e-15 24:0.0218108868103 25:0.000475714783451 26:0.0856675395084 27:-0.0637498336729 28:0.00183718742479 29:0.0457498841825 30:0.00209305190271 
1 1:5688.88893503 2:5688.82871464 3:5688.84880748 4:0.0188407204319 5:0.000354972746394 6:0.0155627325561 7:-0.0178005063039 8:1.06581410364e-14 9:0.0101818024828 10:0.0001036691018 11:0.016597469591 12:-0.0189030158778 13:-1.40924309259e-13 14:0.0108054127632 15:0.000116756944982 16:0.0324175205552 17:-0.0328492555801 18:-2.42768768051e-14 19:0.0197973260843 20:0.000391934120088 21:0.0143837813782 22:-0.0132112642907 23:1.7763568394e-15 24:0.00877973640583 25:7.70837713559e-05 26:0.0454188025836 27:-0.0348214736066 28:-0.0024125453621 29:0.0269280902602 30:0.000725122045059 
1 1:5689.20909998 2:5689.08938041 3:5689.12915978 4:0.0374860983402 5:0.00140520756877 6:0.032346617683 7:-0.0363708417927 8:-8.17124146124e-14 9:0.0211108713324 10:0.000445668888414 11:0.0300329919857 12:-0.0374308731924 13:-7.69754630407e-14 14:0.0204601671972 15:0.000418618441738 16:0.0675093501256 17:-0.066990186922 18:-7.46069872548e-14 19:0.0405323733554 20:0.00164287328982 21:0.0363270288252 22:-0.0323389755169 23:-5.03301104497e-15 24:0.0226253620399 25:0.000511907007435 26:0.0725582662936 27:-0.0596910790805 28:0.00335080126865 29:0.0465541493961 30:0.002167288826 
1 1:5689.06502773 2:5688.65512441 3:5688.92811827 4:0.128150117324 5:0.0164224525701 6:0.121979877782 7:-0.104237408644 8:-9.71075072205e-14 9:0.0685590111348 10:0.00470033800778 11:0.122588795422 12:-0.105600695314 13:-1.80596278672e-13 14:0.0691209435924 15:0.0047777048431 16:0.190486668158 17:-0.186176055846 18:-4.73695157173e-14 19:0.115095149143 20:0.0132468933563 21:0.0488791760015 22:-0.065481160298 23:-4.17443857259e-14 24:0.0378416374034 25:0.00143198952137 26:0.0301221250047 27:-0.0347926590135 28:-0.00142971245755 29:0.0204821402314 30:0.000419518068459 
1 1:5689.00108766 2:5688.83205631 3:5688.88838477 4:0.0528804912545 5:0.00279634635532 6:0.0441646921227 7:-0.0507614703957 8:-1.89478062869e-13 9:0.0289118006282 10:0.000835892215567 11:0.0430495914479 12:-0.0515645113612 13:-1.66385423957e-13 14:0.0285543640505 15:0.000815351706329 16:0.0849411355384 17:-0.0856099584619 18:-7.16463925225e-14 19:0.0516258817363 20:0.00266523166505 21:0.0317735260321 22:-0.0249793010356 23:-8.02321172462e-14 24:0.0225608111806 25:0.000508990201125 26:0.0408698405003 27:-0.0449351509704 28:0.00262622812945 29:0.0267780325226 30:0.000717063025782 
1 1:5689.09303868 2:5688.93516245 3:5688.98799397 4:0.0493206337065 5:0.00243252490921 6:0.0391395682581 7:-0.0469332197136 8:-7.46069872548e-14 9:0.0259914492747 10:0.000675555435399 11:0.0392058176274 12:-0.0452692563767 13:-4.50010399315e-14 14:0.0256302928225 15:0.000656911910165 16:0.0594104291191 17:-0.0619636333039 18:-8.23045335589e-14 19:0.037842212581 20:0.00143203305303 21:0.0280683427061 22:-0.0308216577402 23:-5.24025267623e-14 24:0.0200543311642 25:0.000402176198445 26:0.0675966201851 27:-0.064463572372 28:0.00377929168118 29:0.0491073035866 30:0.00241152726554 
1 1:5688.86228792 2:5688.84857398 3:5688.8576123 4:0.00426540259649 5:1.81936593102e-05 6:0.00369027375767 7:-0.00263008302313 8:-8.40808903983e-14 9:0.002024987934 10:4.10057613284e-06 11:0.00404150210714 12:-0.0042016895986 13:-5.86197757002e-14 14:0.00317556747835 15:1.00842288095e-05 16:0.00532707925547 17:-0.00385438631753 18:-4.55931588779e-14 19:0.00297258861818 20:8.83628309293e-06 21:0.0126202589533 22:-0.0122027579694 23:-5.21064672891e-14 24:0.00748473947855 25:5.60213250618e-05 26:0.0360503361985 27:-0.04565593389 28:0.00242331898677 29:0.0275595330698 30:0.000759527863028 
1 1:5689.00475754 2:5688.99328702 3:5688.99673758 4:0.00376021246156 5:1.41391977561e-05 6:0.00749751902001 7:-0.00851970640721 8:-4.02640883597e-14 9:0.00576576944731 10:3.32440973195e-05 11:0.00785293606839 12:-0.00910724110409 13:8.58572472377e-14 14:0.00617837432095 15:3.81723092497e-05 16:0.035454671664 17:-0.0322383548831 18:3.01980662698e-14 19:0.0219900101477 20:0.000483560546296 21:0.0757694283222 22:-0.073987001964 23:-2.57571741713e-14 24:0.0451516290326 25:0.0020386696043 26:0.055964739965 27:-0.0509243725901 28:0.00233447027181 29:0.0388069043875 30:0.00150597582814 
1 1:5689.13469986 2:5688.95611693 3:5689.01578774 4:0.0558281019573 5:0.00311677696815 6:0.0452246585488 7:-0.0529715756659 8:6.15803704325e-14 9:0.0297549433858 10:0.000885356655893 11:0.0466236202417 12:-0.0535536675851 13:-5.74355378073e-14 14:0.0304252720587 15:0.000925697179843 16:0.0813153073044 17:-0.0833925908866 18:-1.48029736617e-14 19:0.0504136017161 20:0.00254153123799 21:0.0239785549321 22:-0.0177828503199 23:-6.80936788437e-15 24:0.013702247937 25:0.000187751598527 26:0.0306347074712 27:-0.0286345761844 28:-0.00140561516432 29:0.0217754601773 30:0.000474170665933 
1 1:5688.86353447 2:5688.78278215 3:5688.83701003 4:0.0254050307539 5:0.000645415587604 6:0.0250511199498 7:-0.0248010643163 8:-2.04873155477e-13 9:0.0165769164427 10:0.000274794158749 11:0.0298250183686 12:-0.0225292237429 13:-6.33567272719e-14 14:0.0163471618501 15:0.000267229700552 16:0.0730280730424 17:-0.0761183774132 18:-9.17784367023e-14 19:0.0454073492146 20:0.00206182736269 21:0.0972120333602 22:-0.100411471679 23:2.36847578587e-15 24:0.0597798403911 25:0.00357362931718 26:0.0304762632914 27:-0.0395209641777 28:0.000218018094554 29:0.0206999436717 30:0.000428487668012 
1 1:5688.95813927 2:5688.78713106 3:5688.84446794 4:0.0533939921064 5:0.00285091839305 6:0.0413819596086 7:-0.0504299524713 8:-2.36847578587e-13 9:0.0277163459964 10:0.000768195835394 11:0.0429604927318 12:-0.0482034122678 13:-1.73490851315e-13 14:0.027947223589 15:0.000781047306336 16:0.0575220549571 17:-0.0612597353469 18:-1.36187357687e-14 19:0.0381081060932 20:0.00145222775001 21:0.0418027459491 22:-0.035068671193 23:-2.39808173319e-14 24:0.0277772377318 25:0.000771574936009 26:0.0163626981269 27:-0.0185552412622 28:0.00138462910547 29:0.0115289110142 30:0.000132915789173 
1 1:5688.8666128 2:5688.63407011 3:5688.78905357 4:0.0727272974454 5:0.00528925979371 6:0.069714757573 7:-0.060119384678 8:-2.72374715375e-14 9:0.0394361701305 10:0.00155521151456 11:0.0699834028682 12:-0.0587823829804 13:-1.40332190313e-13 14:0.0388694631718 15:0.00151083516726 16:0.111927559459 17:-0.110428736748 18:-5.56591809679e-14 19:0.0675157123055 20:0.00455837140812 21:0.0284649013321 22:-0.0428659364858 23:-5.3290705182e-14 24:0.0270062613221 25:0.000729338150596 26:0.0768000951521 27:-0.0584614012191 28:-0.00445643499424 29:0.0474349547937 30:0.00225007493628 
1 1:5688.76702692 2:5688.75576216 3:5688.75944135 4:0.00354385021191 5:1.25588743244e-05 6:0.00360371520924 7:-0.00373405000262 8:-1.48029736617e-13 9:0.00237712600611 10:5.65072804894e-06 11:0.00249789790685 12:-0.00370973321845 13:-8.70414851306e-14 14:0.00246106422238 15:6.05683710669e-06 16:0.00879185281151 17:-0.00818869523637 18:-5.3290705182e-14 19:0.00529744010657 20:2.80628716826e-05 21:0.0146700546823 22:-0.0121062940428 23:-9.44429719614e-14 24:0.0092389011407 25:8.53572942876e-05 26:0.06677787813 27:-0.0595965947099 28:0.00320446554844 29:0.0469024786416 30:0.00219984250272 
1 1:5688.94543745 2:5688.87038976 3:5688.89495146 4:0.0236327006209 5:0.000558504538636 6:0.0238383392771 7:-0.0236932278127 8:-1.26713454544e-13 9:0.0160520991907 10:0.000257669888428 11:0.0200410024705 12:-0.0280719702207 13:-4.91458725567e-14 14:0.015686540423 15:0.000246067550442 16:0.0746068540752 17:-0.0709941367008 18:-6.2172489379e-14 19:0.0445998338703 20:0.00198914518125 21:0.0976199023613 22:-0.0957258820113 23:-1.3914795242e-14 24:0.0583537713888 25:0.00340516263529 26:0.0526049264567 27:-0.0414587958058 28:0.00193481568259 29:0.0327477436355 30:0.00107241471322 
1 1:5689.08669924 2:5688.92539803 3:5688.97959338 4:0.0503332652757 5:0.00253343759332 6:0.0379921049033 7:-0.0471775259452 8:-7.34227493619e-14 9:0.0257544565263 10:0.000663292030965 11:0.0408722369345 12:-0.0445237465536 13:-9.23705556488e-14 14:0.0266042609214 15:0.000707786699174 16:0.0468023786755 17:-0.05131493737 18:-1.23752859812e-13 19:0.0331251290905 20:0.00109727417727 21:0.0589832596833 22:-0.0539800274228 23:-1.42108547152e-14 24:0.0361843385273 25:0.00130930635466 26:0.0407200471797 27:-0.0514665248611 28:-0.000762294152623 29:0.0284642303122 30:0.000810212407269 
1 1:5689.34450798 2:5689.23883541 3:5689.27418725 4:0.0330155638279 5:0.00109002745487 6:0.0262985900922 7:-0.0314294561728 8:-1.13686837722e-13 9:0.0174368816109 10:0.000304044840312 11:0.0263331212803 12:-0.0304633448487 13:-1.35003119794e-13 14:0.0172232700461 15:0.00029664103108 16:0.0408370828617 17:-0.042463010626 18:-1.48029736617e-14 19:0.0258737411622 20:0.000669450481729 21:0.0159559449277 22:-0.0178712988511 23:-5.8323716227e-14 24:0.0119928783945 25:0.000143829132184 26:0.0284114588816 27:-0.0334385503946 28:0.00201307018495 29:0.0194650883379 30:0.000378889664001 
1 1:5689.02134542 2:5688.94233372 3:5688.99532155 4:0.0248261255549 5:0.000616336510067 6:0.0244156014089 7:-0.0235685684139 8:-1.18423789293e-15 9:0.0155868795274 10:0.000242950813401 11:0.0280308833858 12:-0.0213720155948 13:-8.58572472377e-14 14:0.015328834296 15:0.000234973160876 16:0.064544413873 17:-0.0669255610921 18:-2.54611146981e-14 19:0.0398897318457 20:0.00159119070672 21:0.0754446494368 22:-0.078021213377 23:3.37507799486e-14 24:0.0464909697534 25:0.00216141026861 26:0.0110000478737 27:-0.0145064859384 28:-0.000505053617571 29:0.0078587110374 30:6.17593391693e-05 
1 1:5689.15849677 2:5689.0060512 3:5689.0570369 4:0.047641884077 5:0.00226974911841 6:0.038146056086 7:-0.0451052743652 8:-1.18423789293e-13 9:0.0251812195874 10:0.000634093819911 11:0.0396340624826 12:-0.0451156434933 13:5.03301104497e-14 14:0.0258168263189 15:0.000666508521182 16:0.0652190123337 17:-0.0674241344378 18:-8.76336040771e-14 19:0.0409027444675 20:0.00167303450497 21:0.0166724135545 22:-0.0159091042016 23:-6.09882514861e-14 24:0.0102816409818 25:0.000105712141279 26:0.0485950564575 27:-0.0623856370438 28:-0.00149234642483 29:0.0354448416443 30:0.00125633679919 
1 1:5689.03053949 2:5689.01668041 3:5689.0217099 4:0.00430201307503 5:1.85073164978e-05 6:0.00847062841132 7:-0.00871744639129 8:-1.2908193033e-13 9:0.00528762518477 10:2.79589800946e-05 11:0.00737254811637 12:-0.00709814555315 13:-4.91458725567e-14 14:0.00436102316796 15:1.90185230715e-05 16:0.0279651996176 17:-0.0316505782258 18:-1.00660220899e-14 19:0.0205182027777 20:0.000420996645226 21:0.0886054859666 22:-0.0868908162649 23:-2.2796579439e-14 24:0.053040787648 25:0.00281332515432 26:0.0351351484048 27:-0.0447203097538 28:0.00270201158206 29:0.0250613140415 30:0.000628069461487 
1 1:5689.09424953 2:5689.05852221 3:5689.07026632 4:0.0112266919957 5:0.000126038613166 6:0.0108354694154 7:-0.0112485673618 8:-2.35663340694e-13 9:0.00715550460773 10:5.12012461913e-05 11:0.00883260795441 12:-0.0123948847159 13:-1.19608027186e-13 14:0.00691828423784 15:4.78626567956e-05 16:0.0293599126629 17:-0.028111673336 18:-4.08562073062e-14 19:0.0175115796862 20:0.000306655423105 21:0.0288233338425 22:-0.0286719755379 23:-3.52310773148e-14 24:0.017351479732 25:0.000301073848891 26:0.0541474638469 27:-0.0716430241072 28:0.0017844070671 29:0.0426907023102 30:0.00182249606374 
1 1:5689.22760466 2:5689.06478121 3:5689.17304328 4:0.0508534520106 5:0.00258607358139 6:0.0479080369309 7:-0.0397503626357 8:-2.88954045876e-13 9:0.0264638364728 10:0.000700334640861 11:0.0469588941529 12:-0.0420905398827 13:-8.58572472377e-14 14:0.02736055074 15:0.000748599736797 16:0.0641897625577 17:-0.0609470652624 18:-5.92118946467e-14 19:0.0394668517722 20:0.00155763238881 21:0.0290477479387 22:-0.0257227499271 23:-4.11522667794e-14 24:0.019212671613 25:0.000369126750509 26:0.0559397560312 27:-0.0871554173486 28:0.000472553331055 29:0.0460179595358 30:0.00211765259984 
1 1:5688.95334785 2:5688.94147607 3:5688.94979984 4:0.00393320860145 5:1.54701299025e-05 6:0.00980861205684 7:-0.00874300740874 8:-1.12502599829e-13 9:0.00648954685471 10:4.21142183794e-05 11:0.00879659929239 12:-0.00728958964315 13:-6.33567272719e-14 14:0.006373223842 15:4.06179821403e-05 16:0.0380869507749 17:-0.0416234411895 18:-6.57252030578e-14 19:0.0256646717589 20:0.000658675376494 21:0.0844655564117 22:-0.0838824701367 23:-5.89158351734e-14 24:0.0507287673321 25:0.00257340783504 26:0.0212865381498 27:-0.0122008540584 28:0.00045895626431 29:0.0107231572541 30:0.000114986101496 
1 1:5688.89756308 2:5688.82699295 3:5688.85084283 4:0.0219873839593 5:0.000483445053373 6:0.0153608115259 7:-0.0200899034434 8:-1.58687877653e-13 9:0.0108869005079 10:0.000118524602669 11:0.0187299484965 12:-0.0185793766428 13:-8.64493661841e-14 14:0.012594142148 15:0.000158612416444 16:0.0126487319404 17:-0.0198188988666 18:-2.36847578587e-14 19:0.0129281122703 20:0.000167136086872 21:0.0416217230885 22:-0.0389203219215 23:5.3290705182e-15 24:0.0249958984843 25:0.000624794941035 26:0.0579830676693 27:-0.0645577411457 28:-0.00294047347305 29:0.0390168836234 30:0.00152231720768 
1 1:5689.14316317 2:5688.91208931 3:5688.98937478 4:0.0722061793113 5:0.00521373233074 6:0.0577322843457 7:-0.0685899291349 8:-7.93439388265e-14 9:0.0381814273471 10:0.00145782139426 11:0.0587141713786 12:-0.0675092505596 13:-3.07901852163e-14 14:0.038334445201 15:0.00146952968887 16:0.0943157772635 17:-0.0976772361527 18:-7.63833440942e-14 19:0.0593477370078 20:0.00352215388795 21:0.0376329403287 22:-0.0365363694131 23:-7.57912251477e-14 24:0.0229530118671 25:0.000526840753773 26:0.0582931759868 27:-0.0481184203812 28:0.00230041895065 29:0.0352554784788 30:0.00124294876277 
1 1:5688.93216901 2:5688.91400545 3:5688.9201493 4:0.00565567496852 5:3.19866593495e-05 6:0.00386684725114 7:-0.00528503217198 8:-6.86857977901e-14 9:0.00288451901945 10:8.32044997354e-06 11:0.00404720519297 12:-0.00424416650295 13:-5.92118946467e-14 14:0.00266795160034 15:7.11796574178e-06 16:0.00378259032239 17:-0.00491196610048 18:-6.98700356831e-14 19:0.00268440265308 20:7.20601760387e-06 21:0.0171197432234 22:-0.0157295997441 23:8.881784197e-16 24:0.0103310068362 25:0.000106729702249 26:0.0161591454116 27:-0.0193881392906 28:0.00112501793891 29:0.0133025499688 30:0.000176957835672 
1 1:5688.84232772 2:5688.67679309 3:5688.78690856 4:0.0517137514426 5:0.00267431208827 6:0.0488865334894 7:-0.0408784482581 8:-3.5527136788e-15 9:0.0271130890035 10:0.000735119595314 11:0.0481465526242 12:-0.0426063169108 13:-2.20268248086e-13 14:0.0277261675751 15:0.0007687403684 16:0.0680919533974 17:-0.0652082360316 18:-1.71714494475e-14 19:0.0415758265065 20:0.0017285493497 21:0.0224675792283 22:-0.0194919574649 23:-9.7699626167e-15 24:0.0159754956537 25:0.000255216461382 26:0.0375365079261 27:-0.0293479631288 28:0.000746528820729 29:0.0213437691306 30:0.000455556480699 
1 1:5688.64242952 2:5688.52558398 3:5688.6032074 4:0.0364684679292 5:0.0013299491531 6:0.0343856628347 7:-0.027834247372 8:-1.03028696685e-13 9:0.0188022535762 10:0.000353524739545 11:0.0322443783746 12:-0.0289916830385 13:-4.73695157173e-15 14:0.0188573617459 15:0.000355600092014 16:0.0376666195183 17:-0.0347077626443 18:-4.85537536103e-14 19:0.0239915298428 20:0.0005755935042 21:0.0355188694234 22:-0.0400046406613 23:5.59552404411e-14 24:0.025052295053 25:0.000627617487422 26:0.0195166675761 27:-0.0211822024288 28:-0.00135429185512 29:0.0152531530072 30:0.00023265867666 
1 1:5688.6535815 2:5688.54141139 3:5688.61586244 4:0.0349886429129 5:0.00122420513289 6:0.0329215357223 7:-0.0260688485658 8:-6.27646083255e-14 9:0.0178998345226 10:0.000320404075938 11:0.0298747232725 12:-0.0271959573296 13:-4.08562073062e-14 14:0.0177045301275 15:0.000313450387036 16:0.0296738261278 17:-0.0262509833381 18:-2.6645352591e-14 19:0.0201970656089 20:0.000407921459211 21:0.0471081622825 22:-0.0528272198929 23:-4.91458725567e-14 24:0.0326510666927 25:0.00106609215617 26:0.0444796663594 27:-0.028382669998 28:-0.00272704911168 29:0.0283045971018 30:0.000801150217096 
1 1:5688.47861021 2:5688.46318092 3:5688.47370766 4:0.00492336972603 5:2.42395694592e-05 6:0.00621897675962 7:-0.0062976491016 8:-2.01320441799e-14 9:0.00481048016619 10:2.31407194293e-05 11:0.00754185522501 12:-0.00453280489274 13:-6.15803704325e-14 14:0.00478842451775 15:2.29290093622e-05 16:0.0257905226565 17:-0.0278187162001 18:-6.45409651649e-14 19:0.0169179160892 20:0.0002862158848 21:0.0476483940425 22:-0.0472667851554 23:-6.92779167366e-14 24:0.028597773252 25:0.000817832634973 26:0.036883089283 27:-0.0215287263159 28:-0.000267605727876 29:0.0195566676825 30:0.000382463250846 
1 1:5688.60983614 2:5688.48984479 3:5688.52985096 4:0.0375361095433 5:0.00140895951964 6:0.0311920132542 7:-0.0358815318971 8:-8.05281767195e-14 9:0.0204242743614 10:0.000417150983191 11:0.0311219885321 12:-0.036750855867 13:-5.56591809679e-14 14:0.0205003139979 15:0.000420262874012 16:0.0605892069629 17:-0.0612235227859 18:-3.5527136788e-14 19:0.0369141855753 20:0.00136265709669 21:0.0236834929572 22:-0.018988637915 23:-3.43428988951e-14 24:0.0163161237574 25:0.000266215894468 26:0.0124245645588 27:-0.0112404270899 28:0.000471713512982 29:0.00755512828433 30:5.70799633927e-05 
1 1:5688.80825487 2:5688.72183348 3:5688.75060171 4:0.0270502350984 5:0.000731715218877 6:0.0229031653685 7:-0.0259312855187 8:-1.14871075615e-13 9:0.0149599238874 10:0.000223799322717 11:0.0226821416053 12:-0.0271028497671 13:-5.44749430749e-14 14:0.0150253222215 15:0.000225760307861 16:0.0479381470115 17:-0.0479947912368 18:-6.2172489379e-14 19:0.0289590431054 20:0.000838626177578 21:0.026614121337 22:-0.0234990914028 23:-8.67454256574e-14 24:0.0164957563113 25:0.000272109976283 26:0.00307692061938 27:-0.00316724531134 28:-1.02914279868e-05 29:0.00194410063511 30:3.77952727944e-06 
1 1:5688.56945588 2:5688.48675197 3:5688.54219664 4:0.0259730664201 5:0.000674600179265 6:0.0256272849017 7:-0.0244534019807 8:-2.13162820728e-14 9:0.0161056443514 10:0.000259391779975 11:0.0286698138771 12:-0.0216140321728 13:3.96719694133e-14 14:0.0157017078221 15:0.000246543628532 16:0.0638613551817 17:-0.0661644112718 18:-1.26121335597e-13 19:0.0394278821392 20:0.00155455788999 21:0.068513754464 22:-0.0710660602608 23:-1.03620815632e-14 24:0.0423797399461 25:0.0017960423579 26:0.0370342232549 27:-0.046556559563 28:-0.00195437930826 29:0.0283415920538 30:0.000803245840141 
1 1:5688.46594865 2:5688.46467817 3:5688.46508084 4:0.000417847830039 5:1.74596809068e-07 6:0.000664347276143 7:-0.000744235267106 8:-1.11318361936e-13 9:0.000499054354326 10:2.49055248572e-07 11:0.000771563920956 12:-0.0008803960582 13:-1.10726242989e-13 14:0.000500269666599 15:2.50269739319e-07 16:0.00364505282796 17:-0.00345987466994 18:-1.13094718775e-13 19:0.00218811065577 20:4.78782824189e-06 21:0.00715157221416 22:-0.00733962725664 23:-2.13162820728e-14 24:0.00439023757799 25:1.92741859912e-05 26:0.0158670255357 27:-0.0144105398728 28:-0.000882270328494 29:0.00929341249535 30:8.63675158087e-05 
1 1:5688.65955697 2:5688.57721642 3:5688.63175838 4:0.0256550719632 5:0.000658182717439 6:0.023843550929 7:-0.0181054125373 8:-1.82372635512e-13 9:0.0129300358687 10:0.000167185827566 11:0.0207977686892 12:-0.019964382992 13:-1.37963714527e-13 14:0.0131560514526 15:0.000173081689823 16:0.0214308198544 17:-0.0132383736346 18:-4.26325641456e-14 19:0.013138431693 20:0.00017261838735 21:0.0541616590353 22:-0.0582923251602 23:1.15463194561e-14 24:0.0351258962416 25:0.00123382858677 26:0.0174123111633 27:-0.0226969245714 28:-0.00119099216049 29:0.0142064887747 30:0.000201824323307 
1 1:5688.69271196 2:5688.55516189 3:5688.6013332 4:0.0429327700707 5:0.00184322274595 6:0.0327955203644 7:-0.0404047621008 8:-2.98427949019e-13 9:0.0221136588063 10:0.000489013905803 11:0.0345820160717 12:-0.0382493369916 13:-7.63833440942e-14 14:0.0224890939741 15:0.000505759347776 16:0.0423723911129 17:-0.0458344754878 18:-6.27646083255e-14 19:0.0290507512559 20:0.000843946148533 21:0.0424451293716 22:-0.0369453247391 23:-4.0560147833e-14 24:0.026994135009 25:0.000728683324881 26:0.00428861482293 27:-0.00717075579518 28:0.000714769137108 29:0.00408418258211 30:1.6680547364e-05 
1 1:5688.73406498 2:5688.6823951 3:5688.69978662 4:0.0161162239988 5:0.000259732675979 6:0.0118938647847 7:-0.0149708006332 8:-4.50010399315e-14 9:0.0081440187674 10:6.63250416837e-05 11:0.0133919378655 12:-0.0141303628055 13:-1.44477022938e-13 14:0.00877023626472 15:7.69170441391e-05 16:0.0136012512781 17:-0.0152997589708 18:-1.26713454544e-13 19:0.010281929357 20:0.000105718071302 21:0.0195220235828 22:-0.0168819182139 23:-9.44429719614e-14 24:0.012274012453 25:0.000150651381696 26:0.0396311797857 27:-0.0276881632194 28:-0.000708499793711 29:0.0228345421755 30:0.000521416316366 
1 1:5689.06807993 2:5688.73925695 3:5688.84932519 4:0.102732458459 5:0.0105539580211 6:0.0813835148134 7:-0.0971179509562 8:-3.0671761427e-13 9:0.053926670865 10:0.00290808583058 11:0.0848986656852 12:-0.0959903114373 13:-1.68161780797e-13 14:0.0552494945112 15:0.00305250664374 16:0.131748402305 17:-0.137307391055 18:-5.09222293961e-14 19:0.0837190631725 20:0.00700888153847 21:0.0404916588098 22:-0.0444401117788 23:-8.61533067109e-14 24:0.0298900756097 25:0.000893416619956 26:0.0421184069583 27:-0.0417567591272 28:-0.00169698601441 29:0.0310260293546 30:0.00096261449751 
1 1:5688.72544925 2:5688.65524503 3:5688.70255294 4:0.0221645647122 5:0.000491267928881 6:0.0220039279214 7:-0.0231630978874 8:-1.62240591332e-13 9:0.0160322303302 10:0.00025703240936 11:0.0285549013536 12:-0.0211000971561 13:-1.53950926081e-14 14:0.0157701952194 15:0.000248699057259 16:0.0792800034233 17:-0.083419259372 18:-8.52651282912e-14 19:0.0499255127331 20:0.00249255682166 21:0.12426692647 22:-0.125833353023 23:-4.73695157173e-14 24:0.0753498313705 25:0.00567759708757 26:0.040316300538 27:-0.0455696209589 28:0.00272837635559 29:0.027615102676 30:0.000762593895808 
1 1:5688.67984281 2:5688.61056843 3:5688.65666922 4:0.0216433843423 5:0.000468436085788 6:0.0206305527719 7:-0.0172486688331 8:-8.52651282912e-14 9:0.0114406004528 10:0.000130887338721 11:0.0199048751876 12:-0.0171322917232 13:-6.45409651649e-14 14:0.0112202928111 15:0.000125894970768 16:0.0275305071476 17:-0.0264687935522 18:-2.90138283769e-14 19:0.0167792948893 20:0.000281544736982 21:0.0106150925017 22:-0.0108775822567 23:-8.23045335589e-14 24:0.00809691667778 25:6.55600596869e-05 26:0.0322237923571 27:-0.0296403214736 28:-0.0013557932822 29:0.0216598871315 30:0.00046915071055 
1 1:5688.62493057 2:5688.61001721 3:5688.61974284 4:0.00461375639653 5:2.12867480865e-05 6:0.00382846824468 7:-0.0032566117963 8:-2.07241631263e-13 9:0.0027624310774 10:7.63102545737e-06 11:0.00588033154429 12:-0.0053887552301 13:-7.57912251477e-14 14:0.00382841990384 15:1.46567989601e-05 16:0.00881340541644 17:-0.00995107536308 18:-3.43428988951e-14 19:0.00720280890192 20:5.18804560775e-05 21:0.0369075285137 22:-0.0368575712371 23:-4.61852778244e-14 24:0.0222142287229 25:0.000493471957752 26:0.0268689214914 27:-0.0338999119183 28:0.00171283034017 29:0.0214849438065 30:0.00046160281037 
1 1:5688.51381967 2:5688.45429523 3:5688.47425537 4:0.0185817598914 5:0.000345281800661 6:0.0143488149483 7:-0.0176626526129 8:1.06581410364e-14 9:0.00967011090167 10:9.35110448506e-05 11:0.0142616152484 12:-0.0163219627128 13:-1.17831670347e-13 14:0.00930791178662 15:8.66372218276e-05 16:0.0176267151307 17:-0.0189574260878 18:-5.38828241285e-14 19:0.0119558104781 20:0.000142941404187 21:0.0189560568621 22:-0.0155535383597 23:-1.59872115546e-14 24:0.012699458215 25:0.000161276238953 26:0.0275922171539 27:-0.0407085202096 28:0.00234935020396 29:0.0257137782096 30:0.000661198389812 
1 1:5688.62052151 2:5688.52955939 3:5688.55994985 4:0.0284406736497 5:0.000808871917647 6:0.0230905070667 7:-0.0269020956582 8:-1.172395514e-13 9:0.0151683972879 10:0.000230080276283 11:0.0242763338882 12:-0.0276405584162 13:1.48029736617e-14 14:0.0158091401331 15:0.000249928911746 16:0.043351351148 17:-0.0443742151993 18:-4.14483262527e-14 19:0.0268001807958 20:0.000718249690688 21:0.0103891866521 22:-0.00643540323796 23:-4.23365046724e-14 24:0.00684875881673 25:4.69054973297e-05 26:0.0410577666245 27:-0.0318283788848 28:-0.00210581238303 29:0.027622635514 30:0.00076300999274 
1 1:5688.68602297 2:5688.64857792 3:5688.67358676 4:0.0117294903852 5:0.000137580944697 6:0.0113158249348 7:-0.0101923168502 8:-1.71714494475e-13 9:0.00665091239858 10:4.42346357335e-05 11:0.0120510040696 12:-0.00984965294285 13:-5.98040135931e-14 14:0.00661925496156 15:4.38145362462e-05 16:0.0227854347672 17:-0.0230105499215 18:-7.9936057773e-14 19:0.0137977461322 20:0.000190377798328 21:0.0154002551541 22:-0.0167457783526 23:-6.2172489379e-15 24:0.0100869815394 25:0.000101747196576 26:0.00254090943922 27:-0.00281937301486 28:-0.000150716629176 29:0.00178733248393 30:3.19455740811e-06 
1 1:5688.55605244 2:5688.44713252 3:5688.48389547 4:0.0339407149661 5:0.00115197213241 6:0.0240630704498 7:-0.0314649717965 8:-1.2908193033e-13 9:0.0170565303867 10:0.000290925228832 11:0.0270155864841 12:-0.0279826418121 13:-7.69754630407e-14 14:0.0178289776347 15:0.0003178724435 16:0.0170630551086 17:-0.0283711804985 18:3.5527136788e-15 19:0.0181585954737 20:0.000329734589577 21:0.0725650479069 22:-0.0682860910525 23:-2.48689957516e-14 24:0.0436234257765 25:0.00190300327648 26:0.00880838484952 27:-0.0105062233647 28:-0.000110799167456 29:0.00663915565219 30:4.4078387774e-05 
1 1:5688.95597036 2:5688.67928216 3:5688.77187118 4:0.0864516132094 5:0.00747388142651 6:0.06873494611 7:-0.0818237697881 8:-4.73695157173e-14 9:0.0454969450839 10:0.00206997201197 11:0.0713049189277 12:-0.0809750839726 13:-1.06581410364e-13 14:0.046433175749 15:0.00215603981014 16:0.112554050015 17:-0.116981956984 18:-6.2172489379e-14 19:0.071203743518 20:0.00506997309098 21:0.0381836503384 22:-0.0389280847506 23:-1.62832710278e-14 24:0.0249291103226 25:0.000621460541478 26:0.018014108381 27:-0.0212781484945 28:-0.000510582358092 29:0.0122992229045 30:0.000151270884054 
1 1:5688.62211207 2:5688.49171777 3:5688.57883166 4:0.0408633877721 5:0.00166981646021 6:0.0392718121143 7:-0.0357957855672 8:3.07901852163e-14 9:0.0233747283412 10:0.000546377925024 11:0.0430115747452 12:-0.0355460986715 13:-1.35595238741e-13 14:0.0237174741135 15:0.000562518578326 16:0.0850601502545 17:-0.0860996886685 18:-1.43884903991e-13 19:0.0515654807749 20:0.00265899880755 21:0.0683364728019 22:-0.0725321689248 23:-7.51991062013e-14 24:0.0432804700157 25:0.00187319908478 26:0.0371832527246 27:-0.0393696804784 28:0.00214325879483 29:0.0242155498519 30:0.000586392854629 
1 1:5688.58938974 2:5688.54778234 3:5688.56155181 4:0.0130455619086 5:0.00017018668551 6:0.0117624334471 7:-0.0127959934216 8:6.03961325396e-14 9:0.00768340659752 10:5.90347369427e-05 11:0.0104773137489 12:-0.0136036734869 13:-1.21976502972e-13 14:0.00742140350618 15:5.50772300015e-05 16:0.0277971635946 17:-0.0271261605761 18:-6.98700356831e-14 19:0.0165756647418 20:0.000274752661632 21:0.0250293113236 22:-0.0228971168481 23:-1.33226762955e-14 24:0.0150492387921 25:0.000226479588223 26:0.0260496797634 27:-0.0324548339911 28:0.00175924093605 29:0.0199508678063 30:0.000398037126224 
1 1:5688.63640265 2:5688.57952356 3:5688.59850629 4:0.0177869740491 5:0.000316376445824 6:0.0146063769721 7:-0.0169678906539 8:-1.03028696685e-13 9:0.00958634796594 10:9.18980673242e-05 11:0.0146684220565 12:-0.0171755666305 13:-7.93439388265e-14 14:0.00962950385393 15:9.27273444728e-05 16:0.0270301255634 17:-0.0274934160681 18:-1.26713454544e-13 19:0.0165889217136 20:0.00027519232362 21:0.0104477548286 22:-0.00677792287585 23:-2.72374715375e-14 24:0.0067555590574 25:4.5637578178e-05 26:0.0184724317799 27:-0.0143615731595 28:0.000393464239639 29:0.00995505872289 30:9.91031941761e-05 
1 1:5688.55061841 2:5688.50171311 3:5688.51815458 4:0.0152553284249 5:0.000232725045352 6:0.011394621761 7:-0.0143866215253 8:-2.13162820728e-14 9:0.00782271339274 10:6.11948448249e-05 11:0.0117260694903 12:-0.012981709042 13:1.59872115546e-14 14:0.00763230595382 15:5.82520941728e-05 16:0.0113083534062 17:-0.0127730662491 18:-1.00068101953e-13 19:0.00868776280444 20:7.54772225461e-05 21:0.0238956042761 22:-0.0215704987904 23:-6.69094409507e-14 24:0.0146823520637 25:0.000215571462122 26:0.0195916920058 27:-0.0237491752495 28:0.001431750918 29:0.0136147030065 30:0.000185360137954 
1 1:5688.71648438 2:5688.69933737 3:5688.70493201 4:0.00541838473062 5:2.9358893089e-05 6:0.00565449653651 7:-0.00530073274791 8:-1.04212934578e-13 9:0.0039515671704 10:1.56148831022e-05 11:0.00554984988148 12:-0.00719797457933 13:-1.36187357687e-13 14:0.00394086217423 15:1.55303946763e-05 16:0.0214693534593 17:-0.0204642840891 18:-8.94099609165e-14 19:0.0128388257932 20:0.000164835447748 21:0.0351892296656 22:-0.0343766736592 23:-3.31586610021e-14 24:0.0209736934962 25:0.000439895818873 26:0.0353007129765 27:-0.0308212110326 28:-0.00136608471014 29:0.0233564401806 30:0.000545523297911 
1 1:5688.6984142 2:5688.58766713 3:5688.66135197 4:0.0345964369603 5:0.00119691345035 6:0.03293322922 7:-0.0274330451707 8:4.02640883597e-14 9:0.0182274300997 10:0.000332239208041 11:0.0316766022205 12:-0.0274080720454 13:-1.60464234492e-13 14:0.0179227288939 15:0.000321224211005 16:0.0430432982962 17:-0.0412223819778 18:-4.61852778244e-14 19:0.0263082807626 20:0.000692125636684 21:0.0195423603248 22:-0.017866732805 23:-3.43428988951e-14 24:0.0140601403842 25:0.000197687547623 26:0.0399783482892 27:-0.0368216048935 28:-0.0023922705198 29:0.023798102276 30:0.00056634967194 
1 1:5688.83155603 2:5688.63630363 3:5688.70157092 4:0.0610243739419 5:0.003723974215 6:0.0491394756464 7:-0.058039462276 8:-1.26713454544e-13 9:0.0324233161507 10:0.00105127143021 11:0.0497765209804 12:-0.0575295763827 13:-7.57912251477e-14 14:0.0325416260669 15:0.00105895742708 16:0.0830419850739 17:-0.0855738794649 18:-1.06581410364e-14 19:0.0518523524337 20:0.00268866645291 21:0.0258349578468 22:-0.0242452849583 23:-5.21064672891e-14 24:0.0154644427064 25:0.000239148988219 26:0.0298243894199 27:-0.0494535860103 28:0.000977383157842 29:0.0264469021061 30:0.000699438631008 
1 1:5688.74136495 2:5688.57849571 3:5688.68718664 4:0.0509878681372 5:0.00259976269717 6:0.0490445588658 7:-0.043501659572 8:-8.64493661841e-14 9:0.0284017124923 10:0.000806657272494 11:0.0512349254098 12:-0.0423708662004 13:-6.63173220043e-14 14:0.0282568787637 15:0.000798451197466 16:0.0918095580315 17:-0.0920314233853 18:-5.3290705182e-14 19:0.0554457041916 20:0.0030742261133 21:0.0492253820195 22:-0.0558643764948 23:8.58572472377e-15 24:0.0345462201104 25:0.00119344132392 26:0.0261412593396 27:-0.0270122417272 28:-0.00134868412067 29:0.0194079013966 30:0.000376666636619 
1 1:5688.77353803 2:5688.75653314 3:5688.7677245 4:0.0052818846496 5:2.78983054517e-05 6:0.00484305462948 7:-0.00302204301942 8:-7.34227493619e-14 9:0.0028849288793 10:8.32281463864e-06 11:0.00305770126986 12:-0.00333701153998 13:-7.57912251477e-14 14:0.00240618625015 15:5.78973227041e-06 16:0.00621900778002 17:-0.00699637037265 18:-6.27646083255e-14 19:0.00495664763157 20:2.45683557436e-05 21:0.0276884538839 22:-0.02961220739 23:-9.05941988094e-14 24:0.0177231843003 25:0.000314111261742 26:0.0316278128755 27:-0.0319894607067 28:-0.00181943323999 29:0.0233591030038 30:0.000545647693144 
1 1:5688.69872914 2:5688.65660343 3:5688.68477969 4:0.0132152662093 5:0.000174643260983 6:0.0127250565053 7:-0.0118882947674 8:-2.91322521662e-13 9:0.007792009896 10:6.07154182193e-05 11:0.0144495334375 12:-0.0118292139877 13:-1.32634644009e-13 14:0.00794279387229 15:6.30879744976e-05 16:0.0307763375574 17:-0.031421991709 18:-4.14483262527e-14 19:0.0187580691318 20:0.000351865157553 21:0.0342802097329 22:-0.037239025395 23:-4.08562073062e-14 24:0.0221275427072 25:0.000489628146261 26:0.0565902557839 27:-0.0848820891311 28:0.000584938148483 29:0.0441798297226 30:0.00195185735432 
1 1:5689.06973045 2:5688.85955946 3:5688.93002465 4:0.0656276543847 5:0.00430698902003 6:0.0509311238938 7:-0.0618130349807 8:-2.36847578587e-15 9:0.0340329096932 10:0.00115823894219 11:0.0538271906645 12:-0.0599105356921 13:-2.72374715375e-14 14:0.0349927052664 15:0.00122448942186 16:0.0741832421382 17:-0.0787189315471 18:-8.76336040771e-14 19:0.0487568359321 20:0.00237722905011 21:0.0396742111781 22:-0.0386918736971 23:-8.23045335589e-14 24:0.0290980239819 25:0.000846694999654 26:0.0651821688778 27:-0.0417263636046 28:-9.83447033773e-05 29:0.0344236670474 30:0.00118498885299 
1 1:5688.64929613 2:5688.49646409 3:5688.59846625 4:0.0478522348967 5:0.00228983638461 6:0.0459620687779 7:-0.0409351580559 8:-2.02504679692e-13 9:0.0267199309879 10:0.000713954712 11:0.048502341489 12:-0.0402823349368 13:-5.62512999143e-14 14:0.026796728611 15:0.000718064664252 16:0.0884524543824 17:-0.0887622212619 18:-3.07901852163e-14 19:0.0534332261563 20:0.00285510965747 21:0.053560754362 22:-0.0602788202255 23:-5.80276567537e-14 24:0.0368582075188 25:0.0013585274615 26:0.0461037840571 27:-0.0619950326503 28:-0.000402428423646 29:0.0320504911942 30:0.00102723398579 
1 1:5688.6463313 2:5688.63907416 3:5688.64384111 4:0.00225362609116 5:5.07883055874e-06 6:0.00189441115494 7:-0.00124600643113 8:-1.69346018689e-13 9:0.00108172039876 10:1.17011902109e-06 11:0.00262129501838 12:-0.00229380464593 13:-7.28306304154e-14 14:0.00188267975737 15:3.54448306881e-06 16:0.00333543622425 17:-0.0028031342603 18:-1.50990331349e-13 19:0.00185326719 20:3.43459927753e-06 21:0.0103536864129 22:-0.00964544368941 23:-2.36847578587e-14 24:0.00610445112635 25:3.7264323554e-05 26:0.0278818499962 27:-0.0327013542981 28:0.00173239396578 29:0.0230038691498 30:0.000529177995862 
1 1:5688.92342002 2:5688.75307002 3:5688.80988323 4:0.0532882760988 5:0.00283964036958 6:0.0441524832845 7:-0.0507890820342 8:-1.66977542904e-13 9:0.028911909542 10:0.000835898513365 11:0.0447874113803 12:-0.0523770284443 13:3.5527136788e-15 14:0.0293852750559 15:0.000863494390108 16:0.086663252988 17:-0.0876962256146 18:-7.93439388265e-14 19:0.0528723725988 20:0.00279548778423 21:0.0358961262298 22:-0.0292742645101 23:-6.39488462184e-14 24:0.0240988738471 25:0.000580755720696 26:0.0343360387528 27:-0.0252304380357 28:-0.000759419899908 29:0.0208273047722 30:0.000433776624074 
1 1:5688.92484055 2:5688.91577914 3:5688.91876017 4:0.00284931203521 5:8.11857907398e-06 6:0.00274033268337 7:-0.00279440761107 8:-7.57912251477e-14 9:0.00182410157151 10:3.3273465432e-06 11:0.00254612704862 12:-0.00331018616685 13:1.42108547152e-14 14:0.00180916260074 15:3.2730693159e-06 16:0.00824618519436 17:-0.00794046257925 18:4.08562073062e-14 19:0.00491663654123 20:2.41733148786e-05 21:0.0102582619785 22:-0.0100137671057 23:2.96059473233e-15 24:0.00612209886094 25:3.74800944632e-05 26:0.00230377813314 27:-0.00159051042296 28:-0.000139943004323 29:0.00123432244202 30:1.52355189086e-06 
1 1:5688.76538419 2:5688.65837008 3:5688.72973912 4:0.0334899880239 5:0.00112157929784 6:0.0320253287793 7:-0.0281620297233 8:-1.58687877653e-13 9:0.0184051115345 10:0.000338748130596 11:0.0334138775604 12:-0.0282111043714 13:-4.91458725567e-14 14:0.018607011517 15:0.000346220877593 16:0.0583591755158 17:-0.058101379373 18:-6.98700356831e-14 19:0.0351935408027 20:0.00123858531423 21:0.0262114396022 22:-0.0299949479472 23:-1.30266168223e-14 24:0.0187689725623 25:0.000352274331045 26:0.00959103557092 27:-0.0100515226487 28:0.0004619591185 29:0.00635268823504 30:4.03566478116e-05 
1 1:5688.835579 2:5688.68829903 3:5688.73742034 4:0.0460593301281 5:0.00212146189185 6:0.0380610235389 7:-0.0442254495944 8:1.65793305011e-14 9:0.0249793644698 10:0.000623968649315 11:0.0368104350278 12:-0.0440670183343 13:-1.10134124043e-13 14:0.0244091697857 15:0.000595807569625 16:0.0686342464565 17:-0.0695891712026 18:-1.54543045028e-13 19:0.0419833546903 20:0.00176260207105 21:0.0272804080218 22:-0.0193181856599 23:-4.47049804582e-14 24:0.0163561740302 25:0.000267524428905 26:0.0544611386451 27:-0.0658933843855 28:0.00377231112109 29:0.0389940962376 30:0.00152053954139 
1 1:5688.72233474 2:5688.67191245 3:5688.70553743 4:0.0157755050327 5:0.000248866559037 6:0.015172028053 7:-0.0132223003817 8:-8.52651282912e-14 9:0.00865275098531 10:7.48700996137e-05 11:0.0153879823762 12:-0.0127605371041 13:-1.88293824976e-13 14:0.00849582323082 15:7.21790123694e-05 16:0.0256497820373 17:-0.0254983775116 18:-5.3290705182e-15 19:0.0154702051718 20:0.000239327248058 21:0.00817745346652 22:-0.0104343233626 23:-6.27646083255e-14 24:0.00736582381015 25:5.42553604022e-05 26:0.0190166027859 27:-0.0148201607368 28:-0.00108438926068 29:0.011700892942 30:0.000136910895641 
1 1:5688.71565121 2:5688.53709859 3:5688.59706065 4:0.0557211979504 5:0.00310485190103 6:0.0422946136724 7:-0.0524389535555 8:-1.62240591332e-13 9:0.0286407293401 10:0.000820291377133 11:0.0444721521675 12:-0.0491073251005 13:-8.76336040771e-14 14:0.0289272983352 15:0.000836788588976 16:0.051578216046 17:-0.0563234821383 18:-1.12502599829e-13 19:0.0361822437102 20:0.0013091547599 21:0.0638620365867 22:-0.0568152313679 23:-3.81916720471e-14 24:0.0398384759733 25:0.00158710416787 26:0.019543718973 27:-0.020984035593 28:0.00159204775843 29:0.0143417743526 30:0.000205686491582 
