20:57:24		x: 0.36010507	y: -0.2678644	z: -0.09254608
20:57:24		x: 0.3943135	y: -0.15668693	z: -0.355829
20:57:24		x: 0.92149025	y: -0.516792	z: -3.0891457
20:57:24		x: -0.8072584	y: -0.55955255	z: -1.4337007
20:57:25		x: -0.4184427	y: -1.1756102	z: 0.52320606
20:57:25		x: 0.30482176	y: -1.7098118	z: -0.2452624
20:57:25		x: 0.095294975	y: -0.15699236	z: 0.054367006
20:57:25		x: -0.086132	y: 0.17989981	z: 0.3622431
20:57:25		x: -0.26083946	y: 0.6563747	z: -0.49357912
20:57:26		x: -0.5152648	y: -0.16340645	z: -0.8359691
20:57:26		x: 0.09010262	y: -0.19792034	z: -1.6823229
20:57:26		x: 0.48472157	y: 1.851838	z: 0.59956425
20:57:26		x: -0.589485	y: -0.5488624	z: 1.6536123
20:57:26		x: 0.19425514	y: -2.620001	z: 0.5879578
20:57:26		x: 0.07452556	y: -0.36987892	z: -0.00580322
20:57:27		x: -0.23976462	y: 0.24740042	z: 0.047647487
20:57:27		x: 0.08979719	y: -0.11453723	z: 0.17989981
20:57:27		x: 0.09987647	y: 0.68294734	z: -0.81489426
20:57:27		x: -0.45906523	y: 0.2678644	z: -0.75747293
20:57:27		x: -0.16707164	y: -0.9486737	z: -1.3170254
20:57:28		x: -0.6404922	y: 2.0295997	z: -0.7367035
20:57:28		x: 0.9850202	y: -0.65576386	z: -1.7870862
20:57:28		x: 1.8613064	y: -0.5757405	z: -0.42394048
20:57:28		x: 2.6783388	y: 0.015577064	z: 1.7220291
20:57:28		x: 0.0852157	y: 0.73792523	z: -0.29046643
20:57:28		x: -0.021380283	y: 0.91904676	z: -0.6096435
20:57:29		x: -0.08032878	y: -0.37843102	z: 0.5525276
20:57:29		x: 0.15027285	y: 0.7330383	z: 0.8552113
20:57:29		x: 1.0711522	y: 0.74128497	z: 1.070236
20:57:29		x: 1.575116	y: 1.3854424	z: 0.39736784
20:57:29		x: 0.82986045	y: -1.2727377	z: -0.9798279
20:57:30		x: -0.45142943	y: 0.2950479	z: -0.09712757
20:57:30		x: -0.099265605	y: 0.61453044	z: 9.162979E-4
20:57:30		x: -0.0018325958	y: 0.16218472	z: 0.03756821
20:57:30		x: -0.26847526	y: -0.038179077	z: -0.05681047
20:57:30		x: -0.09773844	y: 0.25961772	z: -0.12889257
20:57:30		x: -0.036957346	y: 0.01863139	z: 0.039095376
20:57:31		x: -0.6786713	y: 0.23548855	z: 0.49296826
20:57:31		x: -0.9783007	y: 0.57971114	z: 0.3100141
20:57:31		x: -0.13469578	y: 0.9425651	z: 0.1282817
20:57:31		x: 0.70280045	y: 0.98563105	z: -0.2602286
20:57:31		x: 0.37201694	y: 0.7770206	z: -0.37232238
20:57:32		x: 1.2024882	y: 0.6753115	z: -0.3100141
20:57:32		x: 1.7342464	y: 0.076052725	z: -0.79351395
20:57:32		x: 1.3347405	y: -0.2950479	z: -0.93951076
20:57:32		x: 1.3952162	y: 0.9963212	z: -0.86437434
20:57:32		x: 0.8167268	y: 0.45356745	z: 1.0299188
20:57:32		x: -0.3051272	y: -0.35705075	z: 0.6062838
20:57:32		x: 1.6175711	y: -0.7483099	z: -0.528093
20:57:33		x: 1.0638218	y: 0.88270026	z: -0.52778757
20:57:33		x: -0.18325958	y: 0.046731193	z: 0.07666359
20:57:33		x: -0.5345071	y: -0.7510588	z: 0.48349985
20:57:33		x: -0.32284227	y: -0.38820487	z: 0.25778514
20:57:33		x: -0.016798794	y: 0.087659165	z: -0.06994407
20:57:33		x: 0.20097467	y: 0.05131268	z: 0.03848451
20:57:34		x: -0.20952678	y: 0.22418754	z: 0.1001819
20:57:34		x: 0.059864793	y: -0.28802297	z: -0.014966198
20:57:34		x: -0.0033597588	y: -0.0036651916	z: 0.03023783
20:57:34		x: -0.0021380284	y: -0.07666359	z: -9.162979E-4
20:57:35		x: 0.032986723	y: 0.015271631	z: -0.007941248
20:57:35		x: -0.016798794	y: 0.0290161	z: 0.020463986
20:57:35		x: 0.009468411	y: -0.010079277	z: 0.004276057
20:57:35		x: 0.0061086523	y: -0.0061086523	z: 0.0106901415
20:57:35		x: 0.004581489	y: -0.008857546	z: 0.013439035
20:57:36		x: 3.0543262E-4	y: -0.014049901	z: 0.012217305
20:57:36		x: 0.007941248	y: -0.006414085	z: 0.0033597588
20:57:36		x: 0.0067195175	y: -0.005192355	z: 0.008857546
20:57:36		x: 0.00580322	y: -0.005192355	z: 0.01038471
20:57:36		x: 6.1086525E-4	y: -0.010079277	z: 0.0015271631
20:57:36		x: 0.0033597588	y: 0.0012217305	z: 0.0061086523
20:57:37		x: 0.006414085	y: -0.011301007	z: 0.010995574
20:57:37		x: -0.0036651916	y: -0.0015271631	z: 0.006414085
20:57:37		x: 0.2742785	y: -0.016798794	z: -0.112399206
20:57:37		x: 0.083383106	y: 0.07849618	z: -0.010995574
20:57:37		x: 0.023823744	y: -0.10293079	z: -0.005497787
20:57:38		x: 0.087964594	y: 0.025045475	z: -0.050701816
20:57:38		x: 0.02687807	y: -6.1086525E-4	z: -0.05009095
20:57:38		x: -0.040927973	y: 0.06627888	z: 0.0125227375
20:57:38		x: -0.41325033	y: 0.08277224	z: 0.2489276
20:57:38		x: -0.46944994	y: 0.5039638	z: 0.61453044
20:57:38		x: -1.7455474	y: 0.016798794	z: 1.1633929
20:57:39		x: -4.131282	y: -0.6038403	z: 0.9370673
20:57:39		x: -1.4288138	y: -1.7666223	z: -0.6637051
20:57:39		x: -2.2412646	y: 0.1414153	z: 1.0684034
20:57:39		x: -0.37568212	y: 0.022907447	z: 2.329229
20:57:39		x: 0.1554652	y: -0.7431176	z: -0.056199603
20:57:40		x: 0.35338554	y: 0.31123585	z: -0.47861293
20:57:40		x: -0.0018325958	y: 0.40866885	z: -0.00580322
20:57:40		x: -0.030543262	y: -0.18142697	z: 1.0809261
20:57:40		x: -0.63224554	y: 0.2733622	z: -0.5112942
20:57:40		x: 0.39858958	y: -0.50793445	z: 0.05955936
20:57:40		x: -1.2070698	y: -0.08552113	z: 0.18661933
20:57:41		x: -0.5885687	y: 0.8188649	z: -0.13041973
20:57:41		x: -1.4966198	y: -0.4474588	z: -0.24678956
20:57:41		x: -0.66706485	y: 0.09407325	z: -0.44532076
20:57:41		x: -0.7654142	y: -0.022296581	z: -0.5109888
20:57:41		x: -0.94134337	y: -0.18936823	z: -0.12339478
20:57:41		x: -0.7296785	y: -0.059864793	z: 0.34055737
20:57:42		x: -0.35888332	y: -0.050701816	z: -0.05955936
20:57:42		x: 0.07544186	y: 0.28405234	z: -0.1881465
20:57:42		x: 0.2657264	y: 0.27152961	z: -0.09315695
