3 1:5323.66957499 2:5323.35330728 3:5323.45903022 4:0.0988499817922 5:0.00977131890031 6:0.0795982360224 7:-0.0938696547398 8:-1.03028696685e-13 9:0.0524915299855 10:0.00275536072022 11:0.0814071697396 12:-0.0936349510298 13:-1.18423789293e-15 14:0.0531487270526 15:0.00282478718732 16:0.136731273587 17:-0.140840435802 18:-7.28306304154e-14 19:0.0853111726404 20:0.00727799617729 21:0.0434140794861 22:-0.0382447532245 23:-5.06261699229e-14 24:0.0247445477577 25:0.000612292643732 26:0.0274966571912 27:-0.0403905724467 28:3.19176713447e-05 29:0.0203275723792 30:0.000413210198833 
3 1:5323.68829356 2:5323.55848339 3:5323.6450735 4:0.0406232430865 5:0.00165024787886 6:0.0390590144293 7:-0.0342842766001 8:-1.82372635512e-13 9:0.0224095044638 10:0.000502185890311 11:0.0401244524051 12:-0.033271614597 13:-1.00068101953e-13 14:0.0221528175897 15:0.00049074732716 16:0.0689717924525 17:-0.068810279352 18:-1.16647432454e-13 19:0.0416139453189 20:0.001731720445 21:0.0310163147394 22:-0.0377875672616 23:-5.95079541199e-14 24:0.0247893758155 25:0.000614513153323 26:0.0614069517907 27:-0.0739515013968 28:-0.00243078174373 29:0.0442452785371 30:0.00195764467283 
3 1:5323.55572251 2:5323.52572033 3:5323.53615842 4:0.00928321608537 5:8.61781008876e-05 6:0.00705597639518 7:-0.00804857032654 8:-1.16055313507e-13 9:0.00581874969761 10:3.38578480434e-05 11:0.00978158479635 12:-0.010611465732 13:-4.61852778244e-14 14:0.00689944587156 15:4.76023533346e-05 16:0.0207820811978 17:-0.0207010832387 18:-9.47390314347e-15 19:0.0157629254286 20:0.000248469818067 21:0.0809761525127 22:-0.0804006488641 23:-3.37507799486e-14 24:0.04865234838 25:0.00236705100289 26:0.0299333214604 27:-0.0306808067129 28:-0.00129799303425 29:0.0231390728855 30:0.000535416693998 
3 1:5323.53253425 2:5323.33885444 3:5323.4037835 4:0.0604634103255 5:0.00365582398819 6:0.0468168223282 7:-0.0576291165143 8:-1.91846538655e-13 9:0.0315516193356 10:0.000995504682696 11:0.0457644924388 12:-0.0528828551656 13:-5.21064672891e-14 14:0.0299381214978 15:0.000896291118815 16:0.0565799841499 17:-0.0608115601825 18:-9.53311503811e-14 19:0.0383284481962 20:0.00146906994113 21:0.0720050229016 22:-0.0645898758206 23:-1.7763568394e-14 24:0.0449763867814 25:0.00202287536791 26:0.148153634335 27:-0.132627838239 28:0.00773640416469 29:0.0966401025602 30:0.00933930942284 
3 1:5323.53716822 2:5323.24552116 3:5323.34441004 4:0.090776027849 5:0.00824028723205 6:0.0603607598344 7:-0.0823965672955 8:-1.63424829225e-13 9:0.0449115089392 10:0.0020170436352 11:0.0754985637632 12:-0.0722631427252 13:-3.37507799486e-14 14:0.0519672388374 15:0.00270059391238 16:0.0647600474993 17:-0.090645644542 18:-2.90138283769e-14 19:0.0506999815042 20:0.00257048812452 21:0.241073353937 22:-0.227529836961 23:2.96059473233e-16 24:0.14425607679 25:0.0208098156908 26:0.193499361599 27:-0.249555116806 28:-0.00946773905593 29:0.157631754127 30:0.024847769909 
3 1:5323.66520195 2:5323.30010046 3:5323.42284177 4:0.113930116752 5:0.0129800715031 6:0.0855296358368 7:-0.105857059141 8:-5.56591809679e-14 9:0.0578442816759 10:0.00334596092261 11:0.0967790317629 12:-0.102710125538 13:2.13162820728e-14 14:0.0632404875351 15:0.00399935926367 16:0.114215397622 17:-0.124890442525 18:-9.53311503811e-14 19:0.0801659196144 20:0.00642657466762 21:0.0970685994525 22:-0.0805185551681 23:-3.13823041627e-14 24:0.0637052662272 25:0.00405836094507 26:0.24405170305 27:-0.251820949858 28:-0.00935826713235 29:0.172298209884 30:0.0296866731292 
3 1:5323.60366689 2:5323.24487725 3:5323.36521196 4:0.112029329421 5:0.0125505706506 6:0.0866142893046 7:-0.10521330888 8:-9.23705556488e-14 9:0.0579055025609 10:0.00335304722683 11:0.0930177031428 12:-0.102555302242 13:-1.9599137128e-13 14:0.0604621486122 15:0.00365567141481 16:0.127119829123 17:-0.135212755249 18:-8.34887714518e-14 19:0.0839127895671 20:0.00704135625294 21:0.0697459024696 22:-0.0601370620182 23:-4.4408920985e-14 24:0.04844097081 25:0.00234652765301 26:0.0824119577474 27:-0.0926555252291 28:-0.00376278051735 29:0.0552256716551 30:0.00304987480976 
3 1:5323.40200535 2:5323.31056265 3:5323.34152407 4:0.0284668475962 5:0.000810361412066 6:0.0192319271027 7:-0.0263341754878 8:-1.95399252334e-13 9:0.0143750536695 10:0.000206642168 11:0.0214654611365 12:-0.0217317490255 13:-1.48029736617e-14 14:0.0143408536391 15:0.000205660083098 16:0.0197849033442 17:-0.026150423186 18:-2.72374715375e-14 19:0.0143363513659 20:0.000205530970486 21:0.0854258354892 22:-0.0801495207576 23:-9.47390314347e-15 24:0.0512514647081 25:0.00262671263472 26:0.0387500959652 27:-0.0384364211669 28:0.00245595310374 29:0.0279929612496 30:0.00078360587952 
3 1:5323.21985303 2:5322.84943578 3:5322.97428317 4:0.115482622073 5:0.0133362360009 6:0.0836089563382 7:-0.107107486632 8:-1.61056353439e-13 9:0.0581056595135 10:0.00337626766749 11:0.0943688632369 12:-0.0985400890745 13:5.3290705182e-15 14:0.0620400258405 15:0.00384896480629 16:0.079426741738 17:-0.0931913158378 18:4.73695157173e-15 19:0.0676608891276 20:0.00457799591753 21:0.201540395026 22:-0.190919119782 23:-2.60532336445e-14 24:0.12126699014 25:0.0147056828975 26:0.130725645835 27:-0.124411577176 28:-0.00595289869283 29:0.0972314254295 30:0.00945395009106 
3 1:5323.74730921 2:5323.32734869 3:5323.46832271 4:0.131074559918 5:0.0171805402576 6:0.100033239655 7:-0.123482966456 8:-2.52242671195e-13 9:0.0675381301139 10:0.00456139901928 11:0.104767296445 12:-0.116206313628 13:-1.11318361936e-13 14:0.06813811599 15:0.00464280285067 16:0.126261217251 17:-0.136964011076 18:-7.87518198801e-14 19:0.0871393542605 20:0.00759326706094 21:0.151203755626 22:-0.140775878906 23:-6.18764299058e-14 24:0.0924208252534 25:0.00854160894053 26:0.20618401193 27:-0.303298685884 28:0.00145323116136 29:0.154665822561 30:0.0239215166686 
3 1:5323.34723736 2:5322.85455709 3:5323.02193477 4:0.153244230207 5:0.0234837940916 6:0.0984947027429 7:-0.139788022989 8:-1.82372635512e-13 9:0.0772362131937 10:0.00596543262851 11:0.118360997573 12:-0.113003887635 13:-1.10726242989e-13 14:0.0818736906919 15:0.00670330122751 16:0.133250372207 17:-0.159119664647 18:-9.23705556488e-14 19:0.0882310396993 20:0.00778471636641 21:0.565620640267 22:-0.55200933831 23:-4.08562073062e-14 24:0.338872233449 25:0.114834390603 26:0.267317672309 27:-0.342082681702 28:-0.00221376043358 29:0.180782573049 30:0.0326823387181 
3 1:5324.06663176 2:5323.0370233 3:5323.38366209 4:0.32107721961 5:0.103090580953 6:0.235765313791 7:-0.299693731809 8:-1.50398212403e-13 9:0.162753967675 10:0.026488853994 11:0.25725474553 12:-0.274709918661 13:-3.5527136788e-15 14:0.168100517543 15:0.0282577839984 16:0.233834341188 17:-0.268840024116 18:9.7699626167e-14 19:0.188163111728 20:0.035405356615 21:0.530295265982 22:-0.497286665558 23:-6.2172489379e-14 24:0.320297154312 25:0.10259026706 26:0.27409784942 27:-0.357952955148 28:-0.00166901837407 29:0.187652047095 30:0.0352132907789 
3 1:5323.45272328 2:5322.86232924 3:5323.06334582 4:0.183532527587 5:0.0336841886825 6:0.11385077328 7:-0.166343117711 8:-1.85925349191e-13 9:0.0931803833667 10:0.00868258384436 11:0.141068648585 12:-0.13038636894 13:-6.15803704325e-14 14:0.0999609394053 15:0.00999218940679 16:0.182630811568 17:-0.203455273914 18:-3.5527136788e-14 19:0.11801337413 20:0.0139271564735 21:0.759625641392 22:-0.741925545238 23:2.96059473233e-16 24:0.45497479883 25:0.20700206757 26:0.288969966267 27:-0.351750672577 28:-0.00362983597988 29:0.193684480448 30:0.0375136779665 
3 1:5323.97116759 2:5323.16533748 3:5323.43689764 4:0.251215146676 5:0.0631090499192 6:0.181975936406 7:-0.234170374621 8:-1.83556873405e-13 9:0.126998976587 10:0.016128740054 11:0.199103400198 12:-0.210922613887 13:-9.00020798629e-14 14:0.130411270911 15:0.0170070995807 16:0.156037047237 17:-0.197207794568 18:-6.51330841113e-14 19:0.139135324086 20:0.0193586384086 21:0.489628509092 22:-0.467977194384 23:-8.52651282912e-14 24:0.294374533729 25:0.0866563661081 26:0.374696101796 27:-0.520051173322 28:2.7687809783e-05 29:0.265339712466 30:0.0704051630117 
3 1:5323.43565709 2:5323.05107026 3:5323.18294608 4:0.119353773309 5:0.0142453232032 6:0.0651364152581 7:-0.106693893879 8:-1.46845498724e-13 9:0.0645129443657 10:0.00416191999073 11:0.0855221321606 12:-0.0858096768766 13:-1.58095758707e-13 14:0.0662335299061 15:0.00438688048382 16:0.171002082733 17:-0.157384297831 18:-5.62512999143e-14 19:0.117948280336 20:0.0139117968342 21:0.706664337211 22:-0.690768585302 23:-1.7763568394e-14 24:0.423067525452 25:0.178986131092 26:0.132168949967 27:-0.183600872394 28:0.00629780600889 29:0.104077346733 30:0.0108320941031 
3 1:5325.84077423 2:5323.28553785 3:5324.14250438 4:0.797813395906 5:0.636506214688 6:0.616738598925 7:-0.751004509698 8:-8.40808903983e-14 9:0.412887299894 10:0.170475922414 11:0.653029600436 12:-0.724859989039 13:-1.28489811383e-13 14:0.424532241714 15:0.180227624255 16:0.877791858976 17:-0.935470998058 18:-5.50670620214e-14 19:0.581968956249 20:0.338687866037 21:0.598839102758 22:-0.514318303985 23:1.00660220899e-14 24:0.390215910482 25:0.152268456793 26:0.401767162723 27:-0.48655815832 28:-0.0108302063593 29:0.294716746412 30:0.0868579606158 
3 1:5325.41364506 2:5324.37215691 3:5324.72532724 4:0.32410251353 5:0.105042439276 6:0.214291911367 7:-0.297507757784 8:-7.34227493619e-14 9:0.163039129419 10:0.0265817577217 11:0.249641189582 12:-0.2452421377 13:-1.4743761767e-13 14:0.169489935397 15:0.0287268382009 16:0.24891502831 17:-0.316541228255 18:-1.36187357687e-14 19:0.173077984641 20:0.0299559887673 21:1.07044266628 22:-1.03423742766 23:-6.06921920128e-14 24:0.64090854224 25:0.410763759516 26:0.33194545032 27:-0.439618176233 28:0.00401113637542 29:0.227197932718 30:0.0516189006314 
3 1:5323.47501385 2:5323.34955699 3:5323.43710124 4:0.0413330449654 5:0.00170842060611 6:0.0957068888508 7:-0.0849740320106 8:-8.17124146124e-14 9:0.0638715598721 10:0.00407957616049 11:0.0885140273263 12:-0.06583086189 13:-3.5527136788e-14 14:0.0614983299563 15:0.00378204458741 16:0.376942696443 17:-0.410755341745 18:-5.3290705182e-14 19:0.252496022413 20:0.0637542413342 21:0.840862662931 22:-0.841722501325 23:8.881784197e-16 24:0.506728391173 25:0.256773662421 26:0.0987855130415 27:-0.128183577054 28:0.00688537046207 29:0.0838283923927 30:0.00702719937115 
3 1:5323.4975624 2:5323.04772894 3:5323.19939278 4:0.140226272189 5:0.0196634074122 6:0.101042624193 7:-0.130012637905 8:-1.38555833473e-13 9:0.0705044706458 10:0.00497088038105 11:0.114062399339 12:-0.118820086177 13:-8.64493661841e-14 14:0.0750615791921 15:0.00563424067081 16:0.0909879419029 17:-0.11319889299 18:-2.30926389122e-14 19:0.0804198679899 20:0.00646735516751 21:0.238773164802 22:-0.21647190501 23:-2.90138283769e-14 24:0.145353259237 25:0.021127569971 26:0.251202375214 27:-0.163091877569 28:-0.0028380160301 29:0.139897076667 30:0.0195711920599 
3 1:5323.84437727 2:5323.61724516 3:5323.69276932 4:0.0711490446479 5:0.0050621865543 6:0.0611652444322 7:-0.0677606389697 8:-9.71075072205e-14 9:0.0399279865314 10:0.00159424410845 11:0.0634170730014 12:-0.0744753179635 13:-3.96719694133e-14 14:0.0416647467385 15:0.00173595112078 16:0.144581806837 17:-0.143904592014 18:-2.84217094304e-14 19:0.0869517487435 20:0.00756060660956 21:0.115305462348 22:-0.108252467913 23:-5.62512999143e-15 24:0.0687874990644 25:0.00473172002753 26:0.147270503977 27:-0.148515282166 28:-0.00799466393012 29:0.0937456828867 30:0.0087882530599 
3 1:5324.05790886 2:5323.8746732 3:5323.9959684 4:0.0570800941459 5:0.00325813714771 6:0.0523722412822 7:-0.0396798729433 8:-1.78819921833e-13 9:0.0283963067994 10:0.000806350239844 11:0.0471619442378 12:-0.0471376429076 13:-1.32042525062e-13 14:0.0315806148589 15:0.000997335234865 16:0.0511711823609 17:-0.0313160748445 18:-5.26985862355e-14 19:0.0316483287231 20:0.00100161671096 21:0.108286583924 22:-0.118104954403 23:6.2172489379e-15 24:0.0712734154707 25:0.00507989975286 26:0.125620786647 27:-0.161868695603 28:0.00346822217179 29:0.0968326549889 30:0.0093765630722 
3 1:5323.38506945 2:5323.30109993 3:5323.33035447 4:0.0259899495789 5:0.000675477479115 6:0.0221184143478 7:-0.0249085290021 8:-1.35003119794e-13 9:0.017427141554 10:0.000303705262743 11:0.024788171748 12:-0.0265340047886 13:-1.35003119794e-13 14:0.0170876392146 15:0.000291987413928 16:0.0624145530509 17:-0.0704045486128 18:-5.86197757002e-14 19:0.0503045027607 20:0.002530542998 21:0.250943961115 22:-0.24498091345 23:-5.26985862355e-14 24:0.150098093773 25:0.0225294377544 26:0.0317142623948 27:-0.0584719315348 28:0.00400490636318 29:0.0324652844017 30:0.00105399469128 
3 1:5323.36654918 2:5323.32704073 3:5323.3533058 4:0.012333165597 5:0.000152106973643 6:0.0118170458936 7:-0.00954706315446 8:2.25005199657e-14 9:0.00645813123543 10:4.17074590541e-05 11:0.0105897304024 12:-0.00899583164043 13:2.36847578587e-15 14:0.00592165778845 15:3.50660309635e-05 16:0.011422188598 17:-0.0105579798884 18:1.24344978758e-14 19:0.00727224717671 20:5.28855789991e-05 21:0.017406914991 22:-0.0184508606519 23:-3.37507799486e-14 24:0.0112335241849 25:0.000126192065612 26:0.0520339282184 27:-0.0488703656482 28:-0.00213525900453 29:0.0353683814019 30:0.00125092240299 
3 1:5323.51144567 2:5323.24855795 3:5323.33667262 4:0.0820989304874 5:0.00674023438717 6:0.0639673842681 7:-0.0773007571483 8:-3.78956125739e-14 9:0.0426449095415 10:0.0018185883098 11:0.067867951916 12:-0.0755334329059 13:-1.23752859812e-13 14:0.0441146052411 15:0.00194609839558 16:0.0964267540288 17:-0.101871621807 18:-6.98700356831e-14 19:0.0628090255011 20:0.0039449736844 21:0.0415509336843 22:-0.0448848688433 23:-9.85878045867e-14 24:0.0322975463992 25:0.00104313150341 26:0.0713802098577 27:-0.0557859473027 28:-0.00131340477074 29:0.042986814239 30:0.00184786619841 
3 1:5323.61100296 2:5323.45871213 3:5323.50955357 4:0.0476160400085 5:0.0022672872661 6:0.0389336482673 7:-0.0454647447267 8:1.01844458792e-13 9:0.0255899810282 10:0.000654847129023 11:0.0387902715389 12:-0.0455184659095 13:-1.90070181816e-13 14:0.0254874954272 15:0.000649612423151 16:0.0695952140863 17:-0.0709923796646 18:-9.88838640599e-14 19:0.04286660574 20:0.00183754588767 21:0.0261323877458 22:-0.0192667614962 23:-5.35867646552e-14 24:0.0152567109411 25:0.000232767228741 26:0.0204109337337 27:-0.0300483297502 28:0.00183598878235 29:0.0199958403215 30:0.000399833630163 
3 1:5323.43049453 2:5323.40614959 3:5323.4217213 4:0.00789212381124 5:6.2285618252e-05 6:0.0126946461544 7:-0.0108268183851 8:1.30266168223e-14 9:0.00710158758052 10:5.04325461639e-05 11:0.0426350647627 12:-0.043518259851 13:-3.5527136788e-14 14:0.0260764634337 15:0.000679981945211 16:0.0208034932353 17:-0.0231859498577 18:0.00107751293597 19:0.0170345604045 20:0.000290176248175 21:0.0472545886954 22:-0.0472545886955 23:0.00292628610412 24:0.0318289579817 25:0.0010130825662 26:0.00327696691163 27:-0.00327696691164 28:-5.3290705182e-15 29:0.00327696691163 30:1.07385121399e-05 
