13 1:5690.85383836 2:5690.79590214 3:5690.81458813 4:0.0183657934846 5:0.000337302370317 6:0.0210444667277 7:-0.0188702216339 8:-1.64609067118e-13 9:0.0151553439181 10:0.000229684449275 11:0.0168264559988 12:-0.0253492123919 13:-1.29674049276e-13 14:0.0148531141563 15:0.00022061500014 16:0.0828292543558 17:-0.0775970707602 18:-1.1901590824e-13 19:0.0499504917811 20:0.00249505162917 21:0.139019592354 22:-0.136548301659 23:-8.17124146124e-14 24:0.0830581377096 25:0.00689865423979 26:0.0406642947593 27:-0.0378840054491 28:0.000940339948838 29:0.0254522677025 30:0.000647817931202 
13 1:5690.84450514 2:5690.61094134 3:5690.76604144 4:0.0728884346479 5:0.00531272390541 6:0.0682423698377 7:-0.0551448340421 8:-2.45137243837e-13 9:0.0372930947011 10:0.00139077491238 11:0.0649651371523 12:-0.0597931375666 13:-1.14278956668e-13 14:0.0389241077437 15:0.00151508616365 16:0.0769790806202 17:-0.0705668623157 18:-6.57252030578e-14 19:0.0493112284173 20:0.00243159724802 21:0.0674811190269 22:-0.0757929350666 23:-3.07901852163e-14 24:0.0472669525381 25:0.00223416480224 26:0.042556296989 27:-0.0457363699084 28:0.00192246163685 29:0.0275944822679 30:0.000761455451634 
13 1:5691.09644191 2:5690.76349733 3:5690.87471702 4:0.104090555729 5:0.0108348437919 6:0.0845674495278 7:-0.098901902494 8:-9.35547935417e-14 9:0.0556123941203 10:0.00309273837979 11:0.086571375394 12:-0.0999191866834 13:-8.28966525053e-15 14:0.0565657343104 15:0.00319968229807 16:0.152652863553 17:-0.156280935392 18:1.65793305011e-14 19:0.0944291563257 20:0.00891686556439 21:0.0465727948748 22:-0.0337818355728 23:-8.40808903983e-14 24:0.0269859622068 25:0.000728242156229 26:0.0362001779633 27:-0.0454295657032 28:-0.00149336565513 29:0.0293124021319 30:0.00085921691874 
13 1:5691.05538297 2:5691.00156078 3:5691.02002335 4:0.0167014234786 5:0.000278937546212 6:0.0090753712618 7:-0.0148288166314 8:-1.50398212403e-13 9:0.00894499880301 10:8.00130035858e-05 11:0.0124593236718 12:-0.0128658956108 13:-5.68434188608e-14 14:0.00976843284087 15:9.54222801667e-05 16:0.0238640413733 17:-0.0224075727206 18:-1.24344978758e-13 19:0.016243971597 20:0.000263866613245 21:0.0935650806053 22:-0.0903097072746 23:-7.9936057773e-14 24:0.055889616411 25:0.00312364922256 26:0.0347308847366 27:-0.0196939441504 28:0.00017756882847 29:0.0180923744501 30:0.000327334013241 
13 1:5691.15989885 2:5690.93991428 3:5691.01358319 4:0.0687138245818 5:0.00472158968865 6:0.054092808129 7:-0.0650454130552 8:-2.84217094304e-14 9:0.0359707859887 10:0.00129389744464 11:0.0557929813934 12:-0.0632552579646 13:-6.57252030578e-14 14:0.0363302636879 15:0.00131988805963 16:0.082449652047 17:-0.0864690918156 18:-3.43428988951e-14 19:0.0529952246031 20:0.00280849383074 21:0.0337039097006 22:-0.0359129847954 23:-5.62512999143e-15 24:0.0261237144104 25:0.000682448454597 26:0.012362435553 27:-0.0146813690044 28:0.00122362104841 29:0.00905772056205 30:8.20423017802e-05 
13 1:5691.11084808 2:5691.00395082 3:5691.04008841 4:0.0332966545349 5:0.00110866720321 6:0.0230945060277 7:-0.0306599677856 8:9.11863177559e-14 9:0.0166343672448 10:0.000276702173636 11:0.0268243588828 12:-0.0270677096492 13:-6.09882514861e-14 14:0.017907192368 15:0.000320667538505 16:0.0189247237257 17:-0.0296428310668 18:-5.26985862355e-14 19:0.0177456465799 20:0.000314907972538 21:0.0758612095354 22:-0.0703795214097 23:-4.02640883597e-14 24:0.0456454433894 25:0.00208350650222 26:0.0636658084385 27:-0.0421946491578 28:-0.000690437595176 29:0.0355174056146 30:0.00126148610159 
13 1:5690.75163615 2:5690.68242256 3:5690.72890781 4:0.0217604158415 5:0.000473515697595 6:0.0217871231578 7:-0.0212281362403 8:-1.172395514e-13 9:0.0140806184851 10:0.000198263816924 11:0.0245158498859 12:-0.0175350831087 13:-3.19744231092e-14 14:0.0136682296443 15:0.000186820501611 16:0.0573449403305 17:-0.0600064180489 18:-1.18423789293e-13 19:0.0358079634649 20:0.0012822102475 21:0.070410838613 22:-0.0740717553619 23:-3.84877315203e-14 24:0.0440652719413 25:0.00194174819126 26:0.0754354532433 27:-0.0641481202819 28:-0.00400198824027 29:0.0456866185365 30:0.0020872671133 
13 1:5690.75736083 2:5690.73621429 3:5690.74344273 4:0.0065683804566 5:4.31436218227e-05 6:0.00384032844448 7:-0.00577421883405 8:-1.27897692437e-13 9:0.00328298873726 10:1.0778015049e-05 11:0.0056519787665 12:-0.00551359976824 13:-1.30858287169e-13 14:0.00430746765829 15:1.85542776272e-05 16:0.0075374510497 17:-0.00841571598803 18:-4.91458725567e-14 19:0.0048692992934 20:2.37100756087e-05 21:0.029109211697 22:-0.0295595372022 23:-4.38168020385e-14 24:0.0176590161642 25:0.000311840851888 26:0.0395997876085 27:-0.0415999188956 28:-0.00202804530648 29:0.0304370069542 30:0.000926411392329 
13 1:5690.79635989 2:5690.79504866 3:5690.79563313 4:0.000475351317909 5:2.25958875438e-07 6:0.0031827932765 7:-0.00308183812331 8:-2.60532336445e-14 9:0.00190283806603 10:3.62079270551e-06 11:0.00298838330991 12:-0.00273229886909 13:-1.98359847066e-13 14:0.00181958636719 15:3.31089454767e-06 16:0.0111729438592 17:-0.0124727947475 18:2.25005199657e-14 19:0.00790963395084 20:6.25623092362e-05 21:0.029807650178 22:-0.0290945514866 23:-3.87837909936e-14 24:0.0178110769114 25:0.000317234460744 26:0.0177197055918 27:-0.0126788642535 28:0.00052263361924 29:0.00965096516881 30:9.31411286896e-05 
13 1:5690.95063706 2:5690.8996202 3:5690.93330634 4:0.0158681141159 5:0.000251797045597 6:0.0145484205747 7:-0.0101899463556 8:-9.00020798629e-14 9:0.00806139483101 10:6.49860866214e-05 11:0.0114525564012 12:-0.0118385042003 13:-5.21064672891e-14 14:0.00812843662986 15:6.60714820456e-05 16:0.0162480051571 17:-0.014051379638 18:-3.73034936274e-14 19:0.00916429559285 20:8.39843137131e-05 21:0.0587521641503 22:-0.0607913838641 23:-2.07241631263e-15 24:0.0363847456297 25:0.00132384971454 26:0.0199669760929 27:-0.013952945976 28:-0.000912915592486 29:0.0126227398047 30:0.000159333560177 
13 1:5690.89308338 2:5690.84706997 3:5690.8775725 4:0.0143453442626 5:0.000205788902012 6:0.0132734865867 7:-0.010371718036 8:-2.02504679692e-13 9:0.00720132386506 10:5.18590654094e-05 11:0.0123094356834 12:-0.011869972606 13:-6.09882514861e-14 14:0.00782047437118 15:6.11598193902e-05 16:0.0118922151114 17:-0.0101667925622 18:-9.47390314347e-15 19:0.00857631788506 20:7.35532284656e-05 21:0.0227024595472 22:-0.0240528387133 23:-1.48029736617e-14 24:0.0144773264738 25:0.000209592981829 26:0.0180491546156 27:-0.0220317748379 28:0.00105904371734 29:0.0136723436152 30:0.000186932979933 
13 1:5690.71982995 2:5690.49879329 3:5690.6458929 4:0.0690697882334 5:0.0047706356466 6:0.0655074390478 7:-0.0551657828295 8:-1.91846538655e-13 9:0.0364768670824 10:0.00133056183214 11:0.064776666639 12:-0.056625640115 13:-3.43428988951e-14 14:0.0369256659769 15:0.00136350480784 16:0.0943201325037 17:-0.0910465751397 18:-7.1054273576e-15 19:0.0573100191583 20:0.00328443829592 21:0.0352345837484 22:-0.0377060434336 23:-2.04281036531e-14 24:0.0221640874102 25:0.000491246770728 26:0.0680809450985 27:-0.0932759669097 28:-0.00135416325372 29:0.0483405206495 30:0.00233680593667 
13 1:5690.98519242 2:5690.87967241 3:5690.91477009 4:0.0330342503037 5:0.00109126169312 6:0.0282099995693 7:-0.0318081832176 8:9.47390314347e-15 9:0.0184177315755 10:0.000339212836389 11:0.0273167999166 12:-0.0331456198549 13:-2.13162820728e-13 14:0.0182561237917 15:0.000333286055899 16:0.0594535343295 17:-0.059292357465 18:-2.25005199657e-14 19:0.0358109440659 20:0.00128242371489 21:0.032457939585 22:-0.0291774861658 23:-3.58231962612e-14 24:0.0199948849641 25:0.000399795424729 26:0.0232782797814 27:-0.0317998962858 28:0.000796021264695 29:0.0184776014463 30:0.000341421755209 
13 1:5691.10133562 2:5691.08708789 3:5691.09185166 4:0.00445294719411 5:1.98287387135e-05 6:0.00357719640288 7:-0.00422323666504 8:9.47390314347e-15 9:0.00235998869564 10:5.56954664353e-06 11:0.00368244808116 12:-0.00421737436403 13:-1.16647432454e-13 14:0.00240169130997 15:5.76812114837e-06 16:0.00613288041777 17:-0.00632422193952 18:-3.5527136788e-15 19:0.00383296705866 20:1.46916364728e-05 21:0.00265499059643 22:-0.0022045650397 23:-7.28306304154e-14 24:0.00150485288727 25:2.26458221233e-06 26:0.00901881382261 27:-0.00630880767927 28:5.14023030469e-05 29:0.00460962442469 30:2.12486373367e-05 
13 1:5691.04433419 2:5690.98436488 3:5691.02454979 4:0.0188144467865 5:0.000353983407882 6:0.0188388204815 7:-0.0174691681569 8:7.1054273576e-14 9:0.0114191964097 10:0.000130398046642 11:0.0194415962402 12:-0.0138211666222 13:-4.50010399315e-14 14:0.0108424199707 15:0.000117558070821 16:0.0391647158417 17:-0.0406395930638 18:-4.79616346638e-14 19:0.0242017735591 20:0.000585725843404 21:0.0335554678929 22:-0.0371819335346 23:-2.96059473233e-15 24:0.0225651351411 25:0.000509185323934 26:0.108989630835 27:-0.0985599730244 28:-0.00592254524703 29:0.0641210474093 30:0.00411150872086 
13 1:5691.11081067 2:5691.05791848 3:5691.07563058 4:0.0165203431205 5:0.000272921736818 6:0.0130004993662 7:-0.0156772560896 8:-8.52651282912e-14 9:0.00865737119533 10:7.49500760137e-05 11:0.0131972457738 12:-0.0150786378368 13:-7.9936057773e-14 14:0.00860638418343 15:7.40698487128e-05 16:0.0191692394847 17:-0.0201332411583 18:5.68434188608e-14 19:0.0123608540031 20:0.000152790711686 21:0.00913773254441 22:-0.00995581806711 23:-7.16463925225e-14 24:0.00714231196529 25:5.10126202095e-05 26:0.00967647405595 27:-0.0149055992219 28:0.000912607578788 29:0.00965699037335 30:9.32574630711e-05 
13 1:5690.88687544 2:5690.67547472 3:5690.81618938 4:0.0660756681338 5:0.00436599391933 6:0.06248385158 7:-0.0530921548825 8:-1.59872115546e-13 9:0.0349880154515 10:0.00122416122524 11:0.0631671375789 12:-0.055643803488 13:-7.9936057773e-14 14:0.0362234807132 15:0.00131214055498 16:0.0968116247456 17:-0.0939461425415 18:-8.17124146124e-14 19:0.0586339503097 20:0.00343794012892 21:0.0251350970575 22:-0.0321888373848 23:-5.95079541199e-14 24:0.0183109975711 25:0.000335292632048 26:0.0609191264027 27:-0.0510074797177 28:0.00238551897947 29:0.0402584211892 30:0.00162074047664 
13 1:5691.33278352 2:5691.29399677 3:5691.31902634 4:0.0119833345845 5:0.000143600307765 6:0.0163906882464 7:-0.015388241854 8:-1.7763568394e-13 9:0.0103363288073 10:0.000106839693212 11:0.0173655173801 12:-0.0170165152548 13:-9.35547935417e-14 14:0.0105934035317 15:0.000112220198386 16:0.0527369605804 17:-0.0452710510225 18:-1.39740071366e-13 19:0.0358496176329 20:0.00128519508443 21:0.1626806023 22:-0.164837533853 23:-7.69754630407e-15 24:0.0988389751859 25:0.0097691430158 26:0.021417320665 27:-0.0181884773949 28:-0.00102481821308 29:0.0127867804805 30:0.000163501755057 
13 1:5691.23608347 2:5691.23501134 3:5691.23555188 4:0.000378254555948 5:1.43076509095e-07 6:0.00259068638304 7:-0.00277452633107 8:-1.59872115546e-13 9:0.0016800472946 10:2.82255891209e-06 11:0.00592416301563 12:-0.00591415320384 13:-9.11863177559e-14 14:0.00356713325865 15:1.2724439685e-05 16:0.0088228538278 17:-0.00780170447061 18:-8.64493661841e-14 19:0.006281602811 20:3.94585338752e-05 21:0.020730649741 22:-0.0204384670119 23:-2.51650552248e-14 24:0.0124147508234 25:0.000154126038007 26:0.0757392871398 27:-0.0730136830889 28:0.00392055670043 29:0.0463519135651 30:0.00214849989114 
13 1:5691.20656106 2:5691.1890431 3:5691.19502643 4:0.00544192826299 5:2.96145832195e-05 6:0.003217325229 7:-0.00482701325589 8:-1.31450406116e-13 9:0.00274221309574 10:7.51973266246e-06 11:0.00450507644307 12:-0.00420295225888 13:-2.32702745961e-13 14:0.00337348771505 15:1.13804193636e-05 16:0.00613588391959 17:-0.00674799787568 18:-1.12502599829e-14 19:0.00395826922415 20:1.56678952509e-05 21:0.0242864898521 22:-0.0243826939957 23:-3.22704825824e-14 24:0.0146568607705 25:0.000214823567644 26:0.0246106236928 27:-0.0276589938974 28:-0.00116184832355 29:0.0190409224537 30:0.000362556727887 
13 1:5691.15416437 2:5691.0238743 3:5691.06801039 4:0.040560414297 5:0.00164514720794 6:0.027308216176 7:-0.037089302644 8:-1.36187357687e-13 9:0.0201964995929 10:0.000407898595805 11:0.0327903057857 12:-0.0321223111099 13:-5.38828241285e-14 14:0.0222569632287 15:0.000495372412162 16:0.0276126455864 17:-0.0389101016669 18:-4.26325641456e-14 19:0.0218222616021 20:0.000476211101431 21:0.111979933424 22:-0.107460192107 23:-3.87837909936e-14 24:0.0670289965391 25:0.00449288637704 26:0.0556628763594 27:-0.0526049264567 28:-0.00251455452865 29:0.034037891462 30:0.00115857805518 
13 1:5691.09049848 2:5691.02985259 3:5691.07081015 4:0.0191151800934 5:0.000365390110002 6:0.0212889838284 7:-0.020562537054 8:-1.76451446047e-13 9:0.0135445496137 10:0.000183454824239 11:0.0231915001785 12:-0.0204731159482 13:-3.90798504668e-14 14:0.0157420578823 15:0.00024781238637 16:0.030059537905 17:-0.0321725314724 18:-9.47390314347e-15 19:0.0194394102045 20:0.000377890669098 21:0.051551791752 22:-0.0578915945579 23:0.00294037157943 24:0.0340741859935 25:0.00116105015112 26:0.0461205176142 27:-0.0308691840655 28:-0.00922410352289 29:0.028540151071 30:0.000814540223154 
