18:48:45		x: 8.52	y: -22.277	z: -1.634
18:48:45		x: 8.079	y: -23.535	z: -1.634
18:48:45		x: 5.528	y: -21.932	z: -5.979
18:48:45		x: 9.411	y: -22.354	z: -5.979
18:48:45		x: 6.686	y: -23.071	z: -5.465
18:48:46		x: -2.861	y: -18.118	z: 0.505
18:48:46		x: -19.323	y: -25.877	z: 15.388
18:48:46		x: -16.972	y: -21.44	z: 19.328
18:48:46		x: -13.621	y: -19.538	z: 21.009
18:48:46		x: 16.813	y: 6.811	z: 20.61
18:48:46		x: -5.006	y: -9.045	z: 15.565
18:48:47		x: -12.026	y: -9.5	z: 14.581
18:48:47		x: -18.592	y: -5.511	z: 9.397
18:48:47		x: -24.252	y: -21.702	z: 26.0
18:48:47		x: -9.678	y: -0.827	z: 25.279
18:48:47		x: 26.805	y: 57.476	z: 99.024
18:48:48		x: 15.007	y: 52.342	z: 128.518
18:48:48		x: 9.857	y: 50.027	z: 138.275
18:48:48		x: 32.788	y: 61.914	z: 149.295
18:48:48		x: 64.41	y: 63.883	z: 152.499
18:48:48		x: 67.567	y: 62.898	z: 149.925
18:48:48		x: 68.533	y: 63.629	z: 149.925
18:48:49		x: 68.533	y: 62.268	z: 149.925
18:48:49		x: 67.549	y: 62.268	z: 151.261
18:48:49		x: 66.77	y: 62.268	z: 152.232
18:48:49		x: 66.77	y: 62.268	z: 153.034
18:48:49		x: 68.527	y: 62.898	z: 153.541
18:48:50		x: 68.527	y: 62.898	z: 152.615
18:48:50		x: 69.114	y: 62.898	z: 152.615
18:48:50		x: 68.751	y: 62.898	z: 154.547
18:48:50		x: 68.751	y: 62.898	z: 155.561
18:48:50		x: 68.328	y: 62.196	z: 154.367
18:48:50		x: 67.61	y: 62.196	z: 153.701
18:48:51		x: 67.016	y: 62.196	z: 153.343
18:48:51		x: 66.21	y: 62.196	z: 152.969
18:48:51		x: 65.844	y: 62.196	z: 153.639
18:48:51		x: 66.435	y: 62.196	z: 153.639
18:48:51		x: 66.435	y: 62.623	z: 153.271
18:48:52		x: 67.524	y: 62.623	z: 152.575
18:48:52		x: 67.524	y: 62.623	z: 152.575
18:48:52		x: 67.524	y: 62.623	z: 152.575
18:48:52		x: 67.524	y: 62.623	z: 152.575
18:48:52		x: 67.524	y: 62.623	z: 152.575
18:48:52		x: 67.524	y: 62.623	z: 152.575
18:48:53		x: 67.524	y: 62.623	z: 152.185
18:48:53		x: 67.524	y: 62.623	z: 152.185
18:48:53		x: 67.524	y: 62.318	z: 152.185
18:48:53		x: 67.834	y: 62.318	z: 151.365
18:48:53		x: 67.834	y: 62.318	z: 150.747
18:48:53		x: 67.834	y: 62.318	z: 149.424
18:48:54		x: 67.834	y: 62.004	z: 147.882
18:48:54		x: 68.644	y: 62.004	z: 144.097
18:48:54		x: 69.161	y: 66.252	z: 141.716
18:48:54		x: 68.299	y: 74.441	z: 137.599
18:48:54		x: 67.417	y: 83.216	z: 136.132
18:48:55		x: 65.483	y: 92.672	z: 136.79
18:48:55		x: 64.382	y: 98.951	z: 140.687
18:48:55		x: 64.382	y: 102.703	z: 140.687
18:48:55		x: 64.382	y: 103.651	z: 141.546
18:48:55		x: 65.49	y: 102.351	z: 143.533
18:48:55		x: 66.159	y: 99.676	z: 143.225
18:48:56		x: 67.295	y: 95.315	z: 144.592
18:48:56		x: 68.141	y: 89.685	z: 144.592
18:48:56		x: 68.141	y: 85.749	z: 146.16
18:48:56		x: 68.141	y: 82.832	z: 145.053
18:48:56		x: 68.141	y: 80.491	z: 145.62
18:48:57		x: 68.141	y: 79.002	z: 146.598
18:48:57		x: 68.141	y: 78.237	z: 145.803
18:48:57		x: 68.669	y: 77.194	z: 146.601
18:48:57		x: 69.017	y: 76.754	z: 145.996
18:48:57		x: 68.707	y: 77.122	z: 147.509
18:48:57		x: 68.707	y: 77.122	z: 146.9
18:48:58		x: 69.047	y: 76.499	z: 147.946
18:48:58		x: 69.352	y: 76.499	z: 148.678
18:48:58		x: 69.352	y: 76.499	z: 148.678
18:48:58		x: 69.813	y: 76.499	z: 146.867
18:48:58		x: 69.21	y: 76.499	z: 147.865
18:48:59		x: 69.65	y: 76.974	z: 147.865
18:48:59		x: 69.178	y: 76.585	z: 147.865
18:48:59		x: 69.178	y: 76.585	z: 147.232
18:48:59		x: 69.178	y: 75.666	z: 147.232
18:48:59		x: 69.178	y: 75.23	z: 147.232
18:48:59		x: 69.606	y: 74.151	z: 146.394
18:49:00		x: 69.606	y: 73.144	z: 140.843
18:49:00		x: 12.843	y: -9.06	z: 8.03
18:49:00		x: -14.845	y: -32.273	z: -4.438
18:49:00		x: 3.746	y: -40.634	z: -18.702
18:49:00		x: 15.988	y: -43.234	z: -16.719
18:49:01		x: 19.271	y: -44.554	z: -13.33
18:49:01		x: 22.583	y: -46.406	z: -12.593
18:49:01		x: 23.849	y: -46.023	z: -9.53
18:49:01		x: 25.242	y: -46.484	z: -8.322
18:49:01		x: 27.017	y: -47.32	z: -7.145
18:49:01		x: 27.899	y: -47.32	z: -7.145
18:49:02		x: 27.899	y: -48.179	z: -7.145
