13:03:32		x: 33.0
13:03:32		x: 39.0
13:03:32		x: 39.0
13:03:33		x: 39.0
13:03:33		x: 41.0
13:03:33		x: 46.0
13:03:33		x: 14.0
13:03:33		x: 6.0
13:03:34		x: 7.0
13:03:34		x: 17.0
13:03:34		x: 45.0
13:03:34		x: 60.0
13:03:34		x: 102.0
13:03:34		x: 88.0
13:03:35		x: 68.0
13:03:35		x: 53.0
13:03:35		x: 49.0
13:03:35		x: 54.0
13:03:35		x: 59.0
13:03:35		x: 63.0
