18:01:37		x: 1004.09
18:01:38		x: 1004.12
18:01:38		x: 1004.15
18:01:38		x: 1004.11
18:01:38		x: 1004.15
18:01:38		x: 1004.13
18:01:39		x: 1004.06
18:01:39		x: 1004.17
18:01:39		x: 1004.18
18:01:39		x: 1004.14
18:01:39		x: 1004.08
18:01:39		x: 1004.13
18:01:40		x: 1004.11
18:01:40		x: 1004.12
18:01:40		x: 1004.21
18:01:40		x: 1004.15
18:01:40		x: 1004.12
18:01:41		x: 1004.16
18:01:41		x: 1004.12
18:01:41		x: 1004.2
18:01:41		x: 1004.15
18:01:41		x: 1004.13
18:01:41		x: 1004.06
18:01:42		x: 1004.08
18:01:42		x: 1004.15
18:01:42		x: 1004.11
18:01:42		x: 1004.11
18:01:42		x: 1004.11
18:01:43		x: 1004.11
18:01:43		x: 1004.17
18:01:43		x: 1004.18
18:01:43		x: 1004.12
18:01:43		x: 1004.19
18:01:43		x: 1004.12
18:01:44		x: 1004.03
18:01:44		x: 1004.09
18:01:44		x: 1004.19
18:01:44		x: 1004.16
18:01:44		x: 1004.13
18:01:45		x: 1004.14
18:01:45		x: 1004.08
18:01:45		x: 1004.21
18:01:45		x: 1004.2
18:01:45		x: 1004.15
18:01:45		x: 1004.13
18:01:46		x: 1004.17
18:01:46		x: 1004.13
18:01:46		x: 1004.14
18:01:46		x: 1004.12
18:01:46		x: 1004.21
18:01:46		x: 1004.16
18:01:47		x: 1004.12
18:01:47		x: 1004.18
18:01:47		x: 1004.14
18:01:47		x: 1004.18
18:01:47		x: 1004.18
18:01:48		x: 1004.12
18:01:48		x: 1004.14
18:01:48		x: 1004.21
18:01:48		x: 1004.19
18:01:48		x: 1004.07
18:01:48		x: 1004.21
18:01:49		x: 1004.15
18:01:49		x: 1004.16
18:01:49		x: 1004.21
18:01:49		x: 1004.19
18:01:49		x: 1004.17
18:01:50		x: 1004.12
18:01:50		x: 1004.11
18:01:50		x: 1004.13
18:01:50		x: 1004.2
18:01:50		x: 1004.18
18:01:50		x: 1004.13
18:01:51		x: 1004.13
18:01:51		x: 1004.18
18:01:51		x: 1004.12
18:01:51		x: 1004.16
18:01:51		x: 1004.22
18:01:52		x: 1004.1
18:01:52		x: 1004.13
18:01:52		x: 1004.15
18:01:52		x: 1004.19
18:01:52		x: 1004.16
18:01:52		x: 1004.12
18:01:53		x: 1004.12
18:01:53		x: 1004.17
18:01:53		x: 1004.14
18:01:53		x: 1004.18
18:01:53		x: 1004.11
18:01:54		x: 1004.17
18:01:54		x: 1004.14
18:01:54		x: 1004.1
18:01:54		x: 1004.13
18:01:54		x: 1004.14
18:01:54		x: 1004.09
18:01:55		x: 1004.15
18:01:55		x: 1004.15
18:01:55		x: 1004.12
18:01:55		x: 1004.12
18:01:55		x: 1004.05
18:01:55		x: 1004.16
18:01:56		x: 1004.12
18:01:56		x: 1004.11
18:01:56		x: 1004.13
18:01:56		x: 1004.04
18:01:56		x: 1004.21
18:01:57		x: 1004.11
18:01:57		x: 1004.13
18:01:57		x: 1004.09
18:01:57		x: 1004.09
18:01:57		x: 1004.12
18:01:57		x: 1004.13
18:01:58		x: 1004.09
18:01:58		x: 1004.04
18:01:58		x: 1004.01
18:01:58		x: 1004.06
18:01:58		x: 1004.15
18:01:59		x: 1004.1
18:01:59		x: 1004.1
18:01:59		x: 1004.08
18:01:59		x: 1004.11
18:01:59		x: 1004.09
18:01:59		x: 1004.09
18:02:00		x: 1004.09
18:02:00		x: 1004.03
18:02:00		x: 1003.99
18:02:00		x: 1004.07
18:02:00		x: 1004.12
18:02:01		x: 1004.09
18:02:01		x: 1004.08
18:02:01		x: 1004.08
18:02:01		x: 1004.04
18:02:01		x: 1003.98
18:02:01		x: 1004.04
18:02:02		x: 1004.07
18:02:02		x: 1004.07
18:02:02		x: 1004.08
18:02:02		x: 1004.03
18:02:02		x: 1004.07
18:02:03		x: 1004.08
18:02:03		x: 1004.1
18:02:03		x: 1004.07
18:02:03		x: 1004.11
18:02:03		x: 1004.05
18:02:03		x: 1004.02
18:02:04		x: 1004.06
18:02:04		x: 1004.09
18:02:04		x: 1004.05
18:02:04		x: 1004.05
18:02:04		x: 1003.97
18:02:05		x: 1004.02
18:02:05		x: 1004.09
18:02:05		x: 1004.02
18:02:05		x: 1004.09
18:02:05		x: 1004.04
18:02:05		x: 1004.0
18:02:06		x: 1003.98
18:02:06		x: 1004.07
18:02:06		x: 1004.05
18:02:06		x: 1004.02
18:02:06		x: 1004.05
18:02:06		x: 1003.97
18:02:07		x: 1003.99
18:02:07		x: 1003.98
18:02:07		x: 1003.96
18:02:07		x: 1004.03
18:02:07		x: 1003.96
18:02:08		x: 1003.95
18:02:08		x: 1004.01
18:02:08		x: 1003.98
18:02:08		x: 1004.04
18:02:08		x: 1004.0
18:02:08		x: 1004.08
18:02:09		x: 1004.01
18:02:09		x: 1004.02
18:02:09		x: 1004.0
18:02:09		x: 1004.01
18:02:09		x: 1004.02
18:02:10		x: 1004.0
18:02:10		x: 1004.02
18:02:10		x: 1003.98
18:02:10		x: 1004.02
18:02:10		x: 1004.03
18:02:10		x: 1004.08
18:02:11		x: 1004.05
18:02:11		x: 1003.95
18:02:11		x: 1004.01
18:02:11		x: 1004.03
18:02:11		x: 1004.07
18:02:12		x: 1004.03
18:02:12		x: 1004.04
18:02:12		x: 1003.94
18:02:12		x: 1003.96
18:02:12		x: 1003.98
18:02:12		x: 1004.05
18:02:13		x: 1004.02
18:02:13		x: 1003.93
18:02:13		x: 1004.02
18:02:13		x: 1003.96
18:02:13		x: 1003.98
18:02:13		x: 1003.95
18:02:14		x: 1004.02
18:02:14		x: 1004.08
18:02:14		x: 1004.0
18:02:14		x: 1003.99
18:02:14		x: 1004.04
18:02:15		x: 1004.03
18:02:15		x: 1004.0
18:02:15		x: 1003.97
18:02:15		x: 1003.91
18:02:15		x: 1003.96
18:02:15		x: 1003.93
18:02:16		x: 1004.02
18:02:16		x: 1003.93
18:02:16		x: 1004.02
18:02:16		x: 1004.02
18:02:16		x: 1004.01
18:02:17		x: 1003.99
18:02:17		x: 1003.99
18:02:17		x: 1003.97
18:02:17		x: 1004.0
18:02:17		x: 1003.98
18:02:17		x: 1003.92
18:02:18		x: 1003.96
18:02:18		x: 1003.89
18:02:18		x: 1003.94
18:02:18		x: 1003.91
18:02:18		x: 1003.92
18:02:19		x: 1003.94
18:02:19		x: 1003.94
18:02:19		x: 1003.97
18:02:19		x: 1003.91
18:02:19		x: 1003.88
18:02:19		x: 1003.89
18:02:20		x: 1003.93
18:02:20		x: 1003.99
18:02:20		x: 1003.98
18:02:20		x: 1003.99
18:02:20		x: 1003.97
18:02:21		x: 1003.98
18:02:21		x: 1003.95
18:02:21		x: 1003.91
18:02:21		x: 1004.02
18:02:21		x: 1003.95
18:02:21		x: 1003.9
18:02:22		x: 1003.92
18:02:22		x: 1003.89
18:02:22		x: 1003.85
18:02:22		x: 1003.91
18:02:22		x: 1003.86
18:02:23		x: 1003.92
18:02:23		x: 1004.02
18:02:23		x: 1003.98
18:02:23		x: 1003.94
18:02:23		x: 1003.92
18:02:23		x: 1003.99
18:02:24		x: 1003.92
18:02:24		x: 1003.88
18:02:24		x: 1003.88
18:02:24		x: 1003.9
18:02:24		x: 1003.85
18:02:25		x: 1003.84
18:02:25		x: 1003.93
18:02:25		x: 1003.89
18:02:25		x: 1003.98
18:02:25		x: 1003.88
18:02:25		x: 1003.93
18:02:26		x: 1003.91
18:02:26		x: 1003.88
18:02:26		x: 1003.87
18:02:26		x: 1003.98
18:02:26		x: 1003.9
18:02:26		x: 1003.86
18:02:27		x: 1003.99
18:02:27		x: 1003.94
18:02:27		x: 1003.89
18:02:27		x: 1003.98
18:02:27		x: 1003.89
18:02:28		x: 1003.94
18:02:28		x: 1003.93
18:02:28		x: 1003.87
18:02:28		x: 1003.92
18:02:28		x: 1003.89
18:02:28		x: 1003.87
18:02:29		x: 1003.88
18:02:29		x: 1003.94
18:02:29		x: 1003.95
18:02:29		x: 1003.87
18:02:29		x: 1003.92
18:02:30		x: 1003.91
18:02:30		x: 1003.85
18:02:30		x: 1003.85
18:02:30		x: 1003.9
18:02:30		x: 1003.87
18:02:31		x: 1003.94
18:02:31		x: 1003.89
18:02:31		x: 1003.92
18:02:31		x: 1003.9
18:02:31		x: 1003.87
18:02:31		x: 1003.92
18:02:32		x: 1003.82
18:02:32		x: 1003.89
18:02:32		x: 1003.88
18:02:32		x: 1003.86
18:02:32		x: 1003.89
18:02:32		x: 1003.96
18:02:33		x: 1003.88
18:02:33		x: 1003.89
18:02:33		x: 1003.85
18:02:33		x: 1003.9
18:02:33		x: 1003.94
18:02:34		x: 1003.96
18:02:34		x: 1003.94
18:02:34		x: 1003.91
18:02:34		x: 1003.86
18:02:34		x: 1003.93
18:02:34		x: 1003.92
18:02:35		x: 1003.87
18:02:35		x: 1003.9
18:02:35		x: 1003.93
18:02:35		x: 1003.87
18:02:35		x: 1003.89
18:02:36		x: 1003.94
18:02:36		x: 1003.93
18:02:36		x: 1003.91
18:02:36		x: 1003.89
18:02:36		x: 1003.89
18:02:36		x: 1003.85
18:02:37		x: 1003.9
18:02:37		x: 1003.89
18:02:37		x: 1003.89
18:02:37		x: 1003.85
18:02:37		x: 1003.86
18:02:37		x: 1003.89
18:02:38		x: 1003.94
18:02:38		x: 1003.99
18:02:38		x: 1003.9
18:02:38		x: 1003.92
18:02:38		x: 1003.89
18:02:39		x: 1003.9
18:02:39		x: 1003.87
18:02:39		x: 1003.9
18:02:39		x: 1003.87
18:02:39		x: 1003.85
18:02:39		x: 1003.83
18:02:40		x: 1003.85
18:02:40		x: 1003.88
18:02:40		x: 1003.86
18:02:40		x: 1003.83
18:02:40		x: 1003.87
18:02:41		x: 1003.86
18:02:41		x: 1003.85
18:02:41		x: 1003.86
18:02:41		x: 1003.85
18:02:41		x: 1003.83
18:02:41		x: 1003.87
18:02:42		x: 1003.87
18:02:42		x: 1003.84
18:02:42		x: 1003.89
18:02:42		x: 1003.9
18:02:42		x: 1003.92
18:02:43		x: 1003.91
18:02:43		x: 1003.9
18:02:43		x: 1003.89
18:02:43		x: 1003.89
18:02:43		x: 1003.85
18:02:43		x: 1003.91
18:02:44		x: 1003.85
18:02:44		x: 1003.9
18:02:44		x: 1003.85
18:02:44		x: 1003.82
18:02:44		x: 1003.82
18:02:45		x: 1003.9
18:02:45		x: 1003.88
18:02:45		x: 1003.79
18:02:45		x: 1003.86
18:02:45		x: 1003.87
18:02:45		x: 1003.86
18:02:46		x: 1003.82
18:02:46		x: 1003.81
18:02:46		x: 1003.84
18:02:46		x: 1003.85
18:02:46		x: 1003.85
18:02:46		x: 1003.8
18:02:47		x: 1003.86
18:02:47		x: 1003.87
18:02:47		x: 1003.83
18:02:47		x: 1003.85
18:02:47		x: 1003.82
18:02:48		x: 1003.89
18:02:48		x: 1003.85
18:02:48		x: 1003.84
18:02:48		x: 1003.9
18:02:48		x: 1003.85
18:02:48		x: 1003.82
18:02:49		x: 1003.87
18:02:49		x: 1003.84
18:02:49		x: 1003.85
18:02:49		x: 1003.83
18:02:49		x: 1003.85
18:02:50		x: 1003.81
18:02:50		x: 1003.89
18:02:50		x: 1003.84
18:02:50		x: 1003.84
18:02:50		x: 1003.87
18:02:50		x: 1003.87
18:02:51		x: 1003.79
18:02:51		x: 1003.81
18:02:51		x: 1003.79
18:02:51		x: 1003.79
18:02:51		x: 1003.82
18:02:52		x: 1003.83
18:02:52		x: 1003.89
18:02:52		x: 1003.82
18:02:52		x: 1003.82
18:02:52		x: 1003.85
18:02:52		x: 1003.84
18:02:53		x: 1003.79
18:02:53		x: 1003.84
18:02:53		x: 1003.82
18:02:53		x: 1003.79
18:02:53		x: 1003.82
18:02:54		x: 1003.83
18:02:54		x: 1003.76
18:02:54		x: 1003.84
18:02:54		x: 1003.85
18:02:54		x: 1003.87
18:02:54		x: 1003.82
18:02:55		x: 1003.8
18:02:55		x: 1003.81
18:02:55		x: 1003.81
18:02:55		x: 1003.85
18:02:55		x: 1003.8
18:02:55		x: 1003.85
18:02:56		x: 1003.84
18:02:56		x: 1003.88
18:02:56		x: 1003.81
18:02:56		x: 1003.8
18:02:56		x: 1003.81
18:02:57		x: 1003.76
18:02:57		x: 1003.78
18:02:57		x: 1003.79
18:02:57		x: 1003.83
18:02:57		x: 1003.8
18:02:57		x: 1003.78
18:02:58		x: 1003.83
18:02:58		x: 1003.77
18:02:58		x: 1003.8
18:02:58		x: 1003.79
18:02:58		x: 1003.78
18:02:59		x: 1003.74
18:02:59		x: 1003.81
18:02:59		x: 1003.78
18:02:59		x: 1003.86
18:02:59		x: 1003.81
18:02:59		x: 1003.8
18:03:00		x: 1003.77
18:03:00		x: 1003.8
18:03:00		x: 1003.8
18:03:00		x: 1003.86
18:03:00		x: 1003.82
18:03:01		x: 1003.85
18:03:01		x: 1003.83
18:03:01		x: 1003.77
18:03:01		x: 1003.78
18:03:01		x: 1003.78
18:03:01		x: 1003.82
18:03:02		x: 1003.82
18:03:02		x: 1003.84
18:03:02		x: 1003.8
18:03:02		x: 1003.77
18:03:02		x: 1003.82
18:03:03		x: 1003.78
18:03:03		x: 1003.79
18:03:03		x: 1003.82
18:03:03		x: 1003.82
18:03:03		x: 1003.84
18:03:03		x: 1003.8
18:03:04		x: 1003.79
18:03:04		x: 1003.81
18:03:04		x: 1003.81
18:03:04		x: 1003.82
18:03:04		x: 1003.87
18:03:05		x: 1003.8
18:03:05		x: 1003.76
18:03:05		x: 1003.79
18:03:05		x: 1003.81
18:03:05		x: 1003.78
18:03:05		x: 1003.8
18:03:06		x: 1003.75
18:03:06		x: 1003.8
18:03:06		x: 1003.81
18:03:06		x: 1003.8
18:03:06		x: 1003.86
18:03:06		x: 1003.82
18:03:07		x: 1003.78
18:03:07		x: 1003.8
18:03:07		x: 1003.81
18:03:07		x: 1003.76
18:03:07		x: 1003.78
18:03:08		x: 1003.77
18:03:08		x: 1003.76
18:03:08		x: 1003.83
18:03:08		x: 1003.82
18:03:08		x: 1003.79
18:03:08		x: 1003.79
18:03:09		x: 1003.79
18:03:09		x: 1003.74
18:03:09		x: 1003.8
18:03:09		x: 1003.79
18:03:09		x: 1003.82
18:03:10		x: 1003.83
18:03:10		x: 1003.82
18:03:10		x: 1003.77
18:03:10		x: 1003.84
18:03:10		x: 1003.85
18:03:10		x: 1003.84
18:03:11		x: 1003.85
18:03:11		x: 1003.88
18:03:11		x: 1003.74
18:03:11		x: 1003.83
18:03:11		x: 1003.76
18:03:12		x: 1003.79
18:03:12		x: 1003.74
18:03:12		x: 1003.78
18:03:12		x: 1003.8
18:03:12		x: 1003.8
18:03:12		x: 1003.84
18:03:13		x: 1003.87
18:03:13		x: 1003.75
18:03:13		x: 1003.85
18:03:13		x: 1003.81
18:03:13		x: 1003.86
18:03:14		x: 1003.83
18:03:14		x: 1003.86
18:03:14		x: 1003.76
18:03:14		x: 1003.82
18:03:14		x: 1003.78
18:03:14		x: 1003.82
18:03:15		x: 1003.79
18:03:15		x: 1003.76
18:03:15		x: 1003.75
18:03:15		x: 1003.81
18:03:15		x: 1003.84
18:03:15		x: 1003.85
18:03:16		x: 1003.77
18:03:16		x: 1003.82
18:03:16		x: 1003.78
18:03:16		x: 1003.78
18:03:16		x: 1003.82
18:03:17		x: 1003.82
18:03:17		x: 1003.85
18:03:17		x: 1003.81
18:03:17		x: 1003.82
18:03:17		x: 1003.81
18:03:17		x: 1003.85
18:03:18		x: 1003.86
18:03:18		x: 1003.87
18:03:18		x: 1003.83
18:03:18		x: 1003.83
18:03:18		x: 1003.85
18:03:19		x: 1003.83
18:03:19		x: 1003.85
18:03:19		x: 1003.85
18:03:19		x: 1003.86
18:03:19		x: 1003.8
18:03:19		x: 1003.83
18:03:20		x: 1003.81
18:03:20		x: 1003.87
18:03:20		x: 1003.85
18:03:20		x: 1003.8
18:03:20		x: 1003.85
18:03:21		x: 1003.81
18:03:21		x: 1003.77
18:03:21		x: 1003.88
18:03:21		x: 1003.89
18:03:21		x: 1003.81
18:03:21		x: 1003.81
18:03:22		x: 1003.83
18:03:22		x: 1003.79
18:03:22		x: 1003.91
18:03:22		x: 1003.86
18:03:22		x: 1003.86
18:03:23		x: 1003.91
18:03:23		x: 1003.86
18:03:23		x: 1003.85
18:03:23		x: 1003.93
18:03:23		x: 1003.83
18:03:23		x: 1003.78
18:03:24		x: 1003.81
18:03:24		x: 1003.77
18:03:24		x: 1003.83
18:03:24		x: 1003.81
18:03:24		x: 1003.85
18:03:25		x: 1003.87
18:03:25		x: 1003.83
18:03:25		x: 1003.89
18:03:25		x: 1003.85
18:03:25		x: 1003.8
18:03:25		x: 1003.82
18:03:26		x: 1003.85
18:03:26		x: 1003.87
18:03:26		x: 1003.8
18:03:26		x: 1003.88
18:03:26		x: 1003.81
18:03:26		x: 1003.8
18:03:27		x: 1003.86
18:03:27		x: 1003.85
18:03:27		x: 1003.79
18:03:27		x: 1003.88
18:03:27		x: 1003.81
18:03:28		x: 1003.8
18:03:28		x: 1003.84
18:03:28		x: 1003.87
18:03:28		x: 1003.85
18:03:28		x: 1003.8
18:03:28		x: 1003.85
18:03:29		x: 1003.84
18:03:29		x: 1003.85
18:03:29		x: 1003.85
18:03:29		x: 1003.8
18:03:29		x: 1003.84
18:03:30		x: 1003.91
18:03:30		x: 1003.89
18:03:30		x: 1003.89
18:03:30		x: 1003.81
18:03:30		x: 1003.84
18:03:30		x: 1003.87
18:03:31		x: 1003.82
18:03:31		x: 1003.83
18:03:31		x: 1003.84
18:03:31		x: 1003.88
18:03:31		x: 1003.86
18:03:32		x: 1003.85
18:03:32		x: 1003.82
18:03:32		x: 1003.82
18:03:32		x: 1003.81
18:03:32		x: 1003.84
18:03:32		x: 1003.85
18:03:33		x: 1003.88
18:03:33		x: 1003.83
18:03:33		x: 1003.87
18:03:33		x: 1003.93
18:03:33		x: 1003.91
18:03:34		x: 1003.85
18:03:34		x: 1003.85
18:03:34		x: 1003.87
18:03:34		x: 1003.9
18:03:34		x: 1003.88
18:03:34		x: 1003.85
18:03:35		x: 1003.85
18:03:35		x: 1003.86
18:03:35		x: 1003.84
18:03:35		x: 1003.87
18:03:35		x: 1003.91
18:03:35		x: 1003.9
18:03:36		x: 1003.89
18:03:36		x: 1003.89
18:03:36		x: 1003.85
18:03:36		x: 1003.86
18:03:36		x: 1003.95
18:03:37		x: 1003.87
18:03:37		x: 1003.95
18:03:37		x: 1003.85
18:03:37		x: 1003.92
18:03:37		x: 1003.92
18:03:37		x: 1003.91
18:03:38		x: 1003.88
18:03:38		x: 1003.93
18:03:38		x: 1003.91
18:03:38		x: 1003.85
18:03:38		x: 1003.9
18:03:39		x: 1003.91
18:03:39		x: 1003.87
18:03:39		x: 1003.93
18:03:39		x: 1003.93
18:03:39		x: 1003.95
18:03:39		x: 1003.97
18:03:40		x: 1003.94
18:03:40		x: 1003.98
18:03:40		x: 1003.89
18:03:40		x: 1003.95
18:03:40		x: 1003.89
18:03:41		x: 1003.92
18:03:41		x: 1003.89
18:03:41		x: 1003.85
18:03:41		x: 1003.97
18:03:41		x: 1003.88
18:03:41		x: 1003.92
18:03:42		x: 1003.93
18:03:42		x: 1003.95
18:03:42		x: 1003.95
18:03:42		x: 1003.94
18:03:42		x: 1003.91
18:03:43		x: 1003.94
18:03:43		x: 1003.93
18:03:43		x: 1003.9
18:03:43		x: 1003.92
18:03:43		x: 1003.86
18:03:43		x: 1003.91
18:03:44		x: 1003.91
18:03:44		x: 1003.92
18:03:44		x: 1003.99
18:03:44		x: 1003.94
18:03:44		x: 1003.89
18:03:45		x: 1003.94
18:03:45		x: 1003.93
18:03:45		x: 1003.93
18:03:45		x: 1003.88
18:03:45		x: 1003.9
18:03:45		x: 1003.98
18:03:46		x: 1003.92
18:03:46		x: 1003.95
18:03:46		x: 1003.97
18:03:46		x: 1003.95
18:03:46		x: 1003.96
18:03:46		x: 1003.97
18:03:47		x: 1003.98
18:03:47		x: 1003.94
18:03:47		x: 1003.96
18:03:47		x: 1003.98
18:03:47		x: 1003.9
18:03:48		x: 1003.94
18:03:48		x: 1003.99
18:03:48		x: 1003.93
18:03:48		x: 1003.97
18:03:48		x: 1004.02
18:03:48		x: 1004.0
18:03:49		x: 1003.97
18:03:49		x: 1003.95
18:03:49		x: 1003.95
18:03:49		x: 1003.96
18:03:49		x: 1003.94
18:03:50		x: 1003.97
18:03:50		x: 1003.99
18:03:50		x: 1003.94
18:03:50		x: 1004.02
18:03:50		x: 1003.93
18:03:50		x: 1004.01
18:03:51		x: 1003.97
18:03:51		x: 1003.96
18:03:51		x: 1003.99
18:03:51		x: 1004.03
18:03:51		x: 1003.96
18:03:52		x: 1004.0
18:03:52		x: 1004.0
18:03:52		x: 1003.99
18:03:52		x: 1003.91
18:03:52		x: 1003.96
18:03:52		x: 1003.91
18:03:53		x: 1004.03
18:03:53		x: 1003.93
18:03:53		x: 1003.93
18:03:53		x: 1003.94
18:03:53		x: 1003.98
18:03:54		x: 1003.99
18:03:54		x: 1004.02
18:03:54		x: 1003.95
18:03:54		x: 1004.0
18:03:54		x: 1003.95
18:03:54		x: 1004.01
18:03:55		x: 1003.97
18:03:55		x: 1003.95
18:03:55		x: 1003.93
18:03:55		x: 1004.0
18:03:55		x: 1003.99
18:03:55		x: 1003.97
18:03:56		x: 1003.96
18:03:56		x: 1003.95
18:03:56		x: 1004.0
18:03:56		x: 1004.0
18:03:56		x: 1004.04
18:03:57		x: 1003.99
18:03:57		x: 1003.98
18:03:57		x: 1004.0
18:03:57		x: 1004.02
18:03:57		x: 1004.01
18:03:57		x: 1004.0
18:03:58		x: 1004.02
18:03:58		x: 1004.03
18:03:58		x: 1004.03
18:03:58		x: 1004.04
18:03:58		x: 1003.97
18:03:59		x: 1004.01
18:03:59		x: 1004.0
18:03:59		x: 1003.97
18:03:59		x: 1003.99
18:03:59		x: 1004.0
18:03:59		x: 1003.97
18:04:00		x: 1003.97
18:04:00		x: 1003.94
18:04:00		x: 1003.9
18:04:00		x: 1003.99
18:04:00		x: 1003.93
18:04:01		x: 1003.96
18:04:01		x: 1003.94
18:04:01		x: 1003.97
18:04:01		x: 1004.01
18:04:01		x: 1003.92
18:04:01		x: 1003.98
18:04:02		x: 1003.94
18:04:02		x: 1003.94
18:04:02		x: 1004.0
18:04:02		x: 1003.95
18:04:02		x: 1003.94
18:04:03		x: 1003.99
18:04:03		x: 1003.94
18:04:03		x: 1004.0
18:04:03		x: 1003.96
18:04:03		x: 1003.98
18:04:03		x: 1003.97
18:04:04		x: 1004.04
18:04:04		x: 1003.95
18:04:04		x: 1003.94
18:04:04		x: 1003.99
18:04:04		x: 1003.98
18:04:05		x: 1003.93
18:04:05		x: 1003.94
18:04:05		x: 1003.98
18:04:05		x: 1004.03
18:04:05		x: 1003.93
18:04:05		x: 1004.01
18:04:06		x: 1003.99
18:04:06		x: 1003.95
18:04:06		x: 1003.98
18:04:06		x: 1004.09
18:04:06		x: 1003.94
18:04:06		x: 1003.95
18:04:07		x: 1003.96
18:04:07		x: 1003.99
18:04:07		x: 1003.95
18:04:07		x: 1003.92
18:04:07		x: 1003.97
18:04:08		x: 1003.94
18:04:08		x: 1003.91
18:04:08		x: 1003.96
18:04:08		x: 1003.93
18:04:08		x: 1003.93
18:04:08		x: 1003.94
18:04:09		x: 1003.96
18:04:09		x: 1003.96
18:04:09		x: 1003.99
18:04:09		x: 1003.98
18:04:09		x: 1003.92
18:04:10		x: 1003.91
18:04:10		x: 1003.99
18:04:10		x: 1003.95
18:04:10		x: 1003.98
18:04:10		x: 1003.93
18:04:10		x: 1003.89
18:04:11		x: 1003.96
18:04:11		x: 1003.96
18:04:11		x: 1003.91
18:04:11		x: 1004.01
18:04:11		x: 1003.97
18:04:12		x: 1003.96
18:04:12		x: 1003.91
18:04:12		x: 1004.04
18:04:12		x: 1003.89
18:04:12		x: 1003.99
18:04:12		x: 1004.0
18:04:13		x: 1003.91
18:04:13		x: 1004.03
18:04:13		x: 1004.0
18:04:13		x: 1003.98
18:04:13		x: 1004.06
18:04:14		x: 1003.94
18:04:14		x: 1003.96
18:04:14		x: 1004.02
18:04:14		x: 1003.92
18:04:14		x: 1003.88
18:04:14		x: 1003.99
18:04:15		x: 1004.01
18:04:15		x: 1003.97
18:04:15		x: 1004.01
18:04:15		x: 1004.03
18:04:15		x: 1003.97
18:04:15		x: 1003.99
18:04:16		x: 1003.97
18:04:16		x: 1003.97
18:04:16		x: 1003.99
18:04:16		x: 1003.99
18:04:16		x: 1003.93
18:04:17		x: 1003.98
18:04:17		x: 1003.97
18:04:17		x: 1003.93
18:04:17		x: 1003.99
18:04:17		x: 1004.01
18:04:17		x: 1004.0
18:04:18		x: 1004.04
18:04:18		x: 1004.03
18:04:18		x: 1004.02
18:04:18		x: 1003.98
18:04:18		x: 1004.0
18:04:19		x: 1003.98
18:04:19		x: 1004.01
18:04:19		x: 1003.99
18:04:19		x: 1003.98
18:04:19		x: 1003.98
18:04:19		x: 1003.98
18:04:20		x: 1003.98
18:04:20		x: 1003.98
18:04:20		x: 1003.95
18:04:20		x: 1003.99
18:04:20		x: 1004.02
18:04:21		x: 1004.05
18:04:21		x: 1004.05
18:04:21		x: 1004.05
18:04:21		x: 1003.98
18:04:21		x: 1004.03
18:04:21		x: 1003.97
18:04:22		x: 1003.95
18:04:22		x: 1004.06
18:04:22		x: 1004.01
18:04:22		x: 1003.92
18:04:22		x: 1004.03
18:04:23		x: 1004.04
18:04:23		x: 1003.99
18:04:23		x: 1004.07
18:04:23		x: 1003.98
18:04:23		x: 1003.98
18:04:23		x: 1004.0
18:04:24		x: 1003.99
18:04:24		x: 1004.05
18:04:24		x: 1004.01
18:04:24		x: 1003.96
18:04:24		x: 1003.99
18:04:25		x: 1003.96
18:04:25		x: 1004.02
18:04:25		x: 1003.99
18:04:25		x: 1003.98
18:04:25		x: 1003.96
18:04:25		x: 1004.01
18:04:26		x: 1003.96
18:04:26		x: 1003.95
18:04:26		x: 1004.02
18:04:26		x: 1004.01
18:04:26		x: 1004.05
18:04:27		x: 1004.03
18:04:27		x: 1004.02
18:04:27		x: 1003.91
18:04:27		x: 1004.05
18:04:27		x: 1003.92
18:04:27		x: 1003.98
18:04:28		x: 1004.01
18:04:28		x: 1004.0
18:04:28		x: 1003.97
18:04:28		x: 1004.01
18:04:28		x: 1004.0
18:04:28		x: 1003.96
18:04:29		x: 1003.99
18:04:29		x: 1004.02
18:04:29		x: 1004.02
18:04:29		x: 1003.99
18:04:29		x: 1004.0
18:04:30		x: 1004.05
18:04:30		x: 1004.01
18:04:30		x: 1003.98
18:04:30		x: 1003.95
18:04:30		x: 1003.99
18:04:30		x: 1003.96
18:04:31		x: 1003.96
18:04:31		x: 1003.99
18:04:31		x: 1004.05
18:04:31		x: 1004.01
18:04:31		x: 1003.99
18:04:32		x: 1003.99
18:04:32		x: 1004.06
18:04:32		x: 1003.98
18:04:32		x: 1004.0
18:04:32		x: 1003.97
18:04:32		x: 1003.99
18:04:33		x: 1004.07
18:04:33		x: 1004.01
18:04:33		x: 1003.97
18:04:33		x: 1003.99
18:04:33		x: 1003.96
18:04:34		x: 1004.0
18:04:34		x: 1004.0
18:04:34		x: 1004.0
18:04:34		x: 1004.0
18:04:34		x: 1004.01
18:04:34		x: 1004.0
18:04:35		x: 1003.96
18:04:35		x: 1004.02
18:04:35		x: 1004.05
18:04:35		x: 1004.03
18:04:35		x: 1004.04
18:04:35		x: 1004.03
18:04:36		x: 1003.97
18:04:36		x: 1003.99
18:04:36		x: 1004.02
18:04:36		x: 1004.02
18:04:36		x: 1003.95
18:04:37		x: 1004.0
18:04:37		x: 1003.99
18:04:37		x: 1004.04
18:04:37		x: 1003.99
18:04:37		x: 1003.93
18:04:37		x: 1003.97
18:04:38		x: 1003.99
18:04:38		x: 1003.96
18:04:38		x: 1003.96
18:04:38		x: 1004.02
18:04:38		x: 1003.95
18:04:39		x: 1004.0
18:04:39		x: 1003.92
18:04:39		x: 1003.98
18:04:39		x: 1003.99
18:04:39		x: 1004.0
18:04:39		x: 1003.93
18:04:40		x: 1003.96
18:04:40		x: 1004.02
18:04:40		x: 1003.95
18:04:40		x: 1003.99
18:04:40		x: 1003.99
18:04:41		x: 1003.99
18:04:41		x: 1003.97
18:04:41		x: 1003.97
18:04:41		x: 1003.96
18:04:41		x: 1004.0
18:04:41		x: 1003.89
18:04:42		x: 1003.96
18:04:42		x: 1004.0
18:04:42		x: 1003.96
18:04:42		x: 1003.96
18:04:42		x: 1003.94
18:04:43		x: 1003.93
18:04:43		x: 1003.9
18:04:43		x: 1003.97
18:04:43		x: 1003.94
18:04:43		x: 1003.95
18:04:43		x: 1003.96
18:04:44		x: 1003.97
18:04:44		x: 1003.94
18:04:44		x: 1004.0
18:04:44		x: 1003.94
18:04:44		x: 1003.98
18:04:45		x: 1004.0
18:04:45		x: 1003.94
18:04:45		x: 1003.94
18:04:45		x: 1003.98
18:04:45		x: 1003.94
18:04:45		x: 1004.0
18:04:46		x: 1003.94
18:04:46		x: 1003.94
18:04:46		x: 1003.96
18:04:46		x: 1003.99
18:04:46		x: 1004.0
18:04:46		x: 1003.95
18:04:47		x: 1004.0
18:04:47		x: 1003.98
18:04:47		x: 1004.02
18:04:47		x: 1004.04
18:04:47		x: 1003.97
18:04:48		x: 1003.96
18:04:48		x: 1003.99
18:04:48		x: 1004.02
18:04:48		x: 1003.96
18:04:48		x: 1003.98
18:04:48		x: 1003.97
18:04:49		x: 1003.99
18:04:49		x: 1003.93
18:04:49		x: 1003.88
18:04:49		x: 1003.93
18:04:49		x: 1003.85
18:04:50		x: 1003.96
18:04:50		x: 1003.91
18:04:50		x: 1003.93
18:04:50		x: 1003.85
18:04:50		x: 1003.93
18:04:51		x: 1003.92
18:04:51		x: 1003.88
18:04:51		x: 1003.86
18:04:51		x: 1003.87
18:04:51		x: 1003.89
18:04:51		x: 1003.87
18:04:52		x: 1003.87
18:04:52		x: 1003.88
18:04:52		x: 1003.88
18:04:52		x: 1003.93
18:04:52		x: 1003.9
18:04:52		x: 1003.96
18:04:53		x: 1003.88
18:04:53		x: 1003.94
18:04:53		x: 1003.93
18:04:53		x: 1003.93
18:04:53		x: 1003.9
18:04:54		x: 1003.83
18:04:54		x: 1003.96
18:04:54		x: 1003.86
18:04:54		x: 1003.97
18:04:54		x: 1003.93
18:04:54		x: 1003.8
18:04:55		x: 1003.9
18:04:55		x: 1003.89
18:04:55		x: 1003.94
18:04:55		x: 1003.93
18:04:55		x: 1003.93
18:04:55		x: 1003.85
18:04:56		x: 1003.94
18:04:56		x: 1003.9
18:04:56		x: 1003.9
18:04:56		x: 1003.86
18:04:56		x: 1003.95
18:04:57		x: 1003.9
18:04:57		x: 1003.85
18:04:57		x: 1003.96
18:04:57		x: 1003.91
18:04:57		x: 1003.88
18:04:57		x: 1003.97
18:04:58		x: 1003.94
18:04:58		x: 1003.95
18:04:58		x: 1003.89
18:04:58		x: 1003.95
