13:34:39		x: 28.373028
13:34:40		x: 28.373028
13:34:41		x: 28.373028
13:34:42		x: 28.373028
13:34:43		x: 28.45561
13:34:44		x: 28.45561
13:34:45		x: 28.45561
13:34:46		x: 28.350395
13:34:47		x: 28.350395
13:34:48		x: 28.350395
13:34:49		x: 28.350395
13:34:50		x: 28.350395
13:34:51		x: 28.350395
13:34:52		x: 28.448162
13:34:53		x: 28.448162
13:34:53		x: 28.448162
13:34:54		x: 28.65255
13:34:55		x: 28.65255
13:34:56		x: 28.65255
13:34:57		x: 28.65255
13:34:58		x: 28.65255
13:34:59		x: 28.65255
13:35:00		x: 28.65255
13:35:01		x: 28.65255
13:35:02		x: 28.65255
13:35:03		x: 28.669039
13:35:04		x: 28.669039
