6 1:0.0 2:0.0 3:0.0 4:0.0 5:0.0 6:0.0 7:0.0 8:0.0 9:0.0 10:0.0 11:0.0 12:0.0 13:0.0 14:0.0 15:0.0 16:0.0 17:0.0 18:0.0 19:0.0 20:0.0 21:0.0 22:0.0 23:0.0 24:0.0 25:0.0 26:0.0 27:0.0 28:0.0 29:0.0 30:0.0 
6 1:18.7768914838 2:8.46298926183 3:11.9076682012 4:3.22468793477 5:10.3986122767 6:2.6258560757 7:-3.06597502209 8:-4.60279962293e-16 9:1.72592807772 10:2.97882772947 11:2.68012983553 12:-3.10108795903 13:-2.77555756156e-16 14:1.75243391663 15:3.07102463216 16:4.77418894023 17:-4.88024722971 18:0.0 19:2.94759766578 20:8.68833199934 21:1.65823250515 22:-1.15730919691 23:-1.48029736617e-16 24:1.00099913323 25:1.00199926472 26:1.39851247391 27:-0.92166315947 28:-0.0130670806698 29:0.798775471876 30:0.638042254471 
6 1:12.6271010907 2:4.65529320205 3:9.9641374405 4:2.49214824174 5:6.21080285879 6:2.37170499376 7:-2.02386230291 8:5.31981865966e-17 9:1.33173553211 10:1.77351952749 11:2.37893882356 12:-2.05113529588 13:-2.671474153e-16 14:1.34220765121 15:1.80152137895 16:3.67343160877 17:-3.58614276825 18:7.40148683083e-17 19:2.22031969941 20:4.92981956759 21:0.883502336349 22:-1.13218960847 23:3.70074341542e-17 24:0.636534878479 25:0.40517665152 26:1.27424866124 27:-0.794541734384 28:-0.0145724921998 29:0.641075375098 30:0.410977636557 
6 1:2.77220473853 2:-0.313149173259 3:1.73520742788 4:0.962637634312 5:0.926671214993 6:0.902664536049 7:-0.723018315065 8:-9.25185853854e-17 9:0.492032409626 10:0.242095892122 11:0.843147336312 12:-0.774023456455 13:-6.47630097698e-17 14:0.503932608015 15:0.253948073421 16:0.932843130981 17:-0.843522670089 18:-1.85037170771e-17 19:0.610584393691 20:0.372813301819 21:1.06481809723 22:-1.19286979627 23:-3.70074341542e-17 24:0.739502154738 25:0.546863436862 26:0.148453640517 27:-0.23241944314 28:-0.0118877951678 29:0.127461675117 30:0.0162464786237 
6 1:0.0 2:0.0 3:0.0 4:0.0 5:0.0 6:0.0 7:0.0 8:0.0 9:0.0 10:0.0 11:0.0 12:0.0 13:0.0 14:0.0 15:0.0 16:0.0 17:0.0 18:0.0 19:0.0 20:0.0 21:0.0 22:0.0 23:0.0 24:0.0 25:0.0 26:0.0 27:0.0 28:0.0 29:0.0 30:0.0 
6 1:0.0 2:0.0 3:0.0 4:0.0 5:0.0 6:0.0 7:0.0 8:0.0 9:0.0 10:0.0 11:0.0 12:0.0 13:0.0 14:0.0 15:0.0 16:0.0 17:0.0 18:0.0 19:0.0 20:0.0 21:0.0 22:0.0 23:0.0 24:0.0 25:0.0 26:0.0 27:0.0 28:0.0 29:0.0 30:0.0 
6 1:0.0 2:0.0 3:0.0 4:0.0 5:0.0 6:0.0 7:0.0 8:0.0 9:0.0 10:0.0 11:0.0 12:0.0 13:0.0 14:0.0 15:0.0 16:0.0 17:0.0 18:0.0 19:0.0 20:0.0 21:0.0 22:0.0 23:0.0 24:0.0 25:0.0 26:0.0 27:0.0 28:0.0 29:0.0 30:0.0 
6 1:0.0 2:0.0 3:0.0 4:0.0 5:0.0 6:0.0 7:0.0 8:0.0 9:0.0 10:0.0 11:0.0 12:0.0 13:0.0 14:0.0 15:0.0 16:0.0 17:0.0 18:0.0 19:0.0 20:0.0 21:0.0 22:0.0 23:0.0 24:0.0 25:0.0 26:0.0 27:0.0 28:0.0 29:0.0 30:0.0 
6 1:0.0 2:0.0 3:0.0 4:0.0 5:0.0 6:0.0 7:0.0 8:0.0 9:0.0 10:0.0 11:0.0 12:0.0 13:0.0 14:0.0 15:0.0 16:0.0 17:0.0 18:0.0 19:0.0 20:0.0 21:0.0 22:0.0 23:0.0 24:0.0 25:0.0 26:0.0 27:0.0 28:0.0 29:0.0 30:0.0 
6 1:0.0 2:0.0 3:0.0 4:0.0 5:0.0 6:0.0 7:0.0 8:0.0 9:0.0 10:0.0 11:0.0 12:0.0 13:0.0 14:0.0 15:0.0 16:0.0 17:0.0 18:0.0 19:0.0 20:0.0 21:0.0 22:0.0 23:0.0 24:0.0 25:0.0 26:0.0 27:0.0 28:0.0 29:0.0 30:0.0 
6 1:2.31179152381 2:0.88701900023 3:1.3633962202 4:0.445294719432 5:0.198287387154 6:0.357719640318 7:-0.422323666516 8:-5.99925202109e-17 9:0.23599886958 10:0.0556954664432 11:0.368244808095 12:-0.421737436366 13:-2.25514051877e-17 14:0.240169130974 15:0.0576812114727 16:0.613288041779 17:-0.632422193959 18:0.0 19:0.38329670587 20:0.14691636473 21:0.265499059662 22:-0.220456503977 23:-9.25185853854e-18 24:0.150485288732 25:0.0226458221249 26:0.901881382271 27:-0.63088076793 28:0.005140230306 29:0.460962442473 30:0.21248637337 
6 1:0.0 2:0.0 3:0.0 4:0.0 5:0.0 6:0.0 7:0.0 8:0.0 9:0.0 10:0.0 11:0.0 12:0.0 13:0.0 14:0.0 15:0.0 16:0.0 17:0.0 18:0.0 19:0.0 20:0.0 21:0.0 22:0.0 23:0.0 24:0.0 25:0.0 26:0.0 27:0.0 28:0.0 29:0.0 30:0.0 
6 1:0.0 2:0.0 3:0.0 4:0.0 5:0.0 6:0.0 7:0.0 8:0.0 9:0.0 10:0.0 11:0.0 12:0.0 13:0.0 14:0.0 15:0.0 16:0.0 17:0.0 18:0.0 19:0.0 20:0.0 21:0.0 22:0.0 23:0.0 24:0.0 25:0.0 26:0.0 27:0.0 28:0.0 29:0.0 30:0.0 
6 1:0.0 2:0.0 3:0.0 4:0.0 5:0.0 6:0.0 7:0.0 8:0.0 9:0.0 10:0.0 11:0.0 12:0.0 13:0.0 14:0.0 15:0.0 16:0.0 17:0.0 18:0.0 19:0.0 20:0.0 21:0.0 22:0.0 23:0.0 24:0.0 25:0.0 26:0.0 27:0.0 28:0.0 29:0.0 30:0.0 
6 1:0.0 2:0.0 3:0.0 4:0.0 5:0.0 6:0.0 7:0.0 8:0.0 9:0.0 10:0.0 11:0.0 12:0.0 13:0.0 14:0.0 15:0.0 16:0.0 17:0.0 18:0.0 19:0.0 20:0.0 21:0.0 22:0.0 23:0.0 24:0.0 25:0.0 26:0.0 27:0.0 28:0.0 29:0.0 30:0.0 
