09:01:09		x: 2.3068132	y: 3.9360676	z: 9.569624
09:01:09		x: 2.457648	y: 3.9989154	z: 8.811859
09:01:09		x: 2.6282349	y: 4.111443	z: 8.172607
09:01:09		x: 2.731784	y: 4.0665517	z: 8.196549
09:01:09		x: 3.067571	y: 4.135385	z: 8.487445
09:01:09		x: 3.083732	y: 4.144363	z: 8.981249
09:01:09		x: 2.7503393	y: 3.9953241	z: 10.201095
09:01:09		x: 2.3756466	y: 3.651756	z: 11.089344
09:01:09		x: 2.7617116	y: 3.3806129	z: 11.040861
09:01:09		x: 3.1304188	y: 3.3913867	z: 10.565014
09:01:09		x: 2.677316	y: 3.4398694	z: 10.205285
09:01:09		x: 2.296638	y: 3.4320881	z: 9.854534
09:01:09		x: 2.4492683	y: 3.4644098	z: 9.531916
09:01:09		x: 2.4504654	y: 3.103484	z: 9.636662
09:01:09		x: 2.03148	y: 2.8431146	z: 9.680955
09:01:09		x: 2.2493525	y: 2.815581	z: 9.054273
09:01:09		x: 2.2062569	y: 2.8383262	z: 7.9116397
09:01:09		x: 2.295441	y: 2.7844565	z: 7.460931
09:01:09		x: 2.5791538	y: 2.5833437	z: 7.635708
09:01:09		x: 2.8963854	y: 2.457648	z: 7.8709383
09:01:09		x: 3.0017304	y: 2.4181437	z: 7.741651
09:01:09		x: 3.0903158	y: 2.6928782	z: 7.9074497
09:01:09		x: 3.252523	y: 3.0986955	z: 8.915408
09:01:09		x: 3.027468	y: 3.1004913	z: 10.396222
09:01:09		x: 2.879626	y: 2.722806	z: 9.872491
09:01:09		x: 3.2118216	y: 2.8766334	z: 9.4457245
09:01:09		x: 3.2998085	y: 3.0735564	z: 9.973646
09:01:09		x: 3.705027	y: 3.156755	z: 10.2896805
09:01:09		x: 4.300585	y: 3.2638955	z: 10.188525
09:01:09		x: 4.569334	y: 2.9179332	z: 10.002377
09:01:09		x: 4.8141413	y: 2.520496	z: 9.530719
09:01:09		x: 4.923676	y: 2.3199813	z: 9.737817
09:01:09		x: 4.8482585	y: 2.44029	z: 10.231621
09:01:10		x: 4.3580456	y: 2.4103625	z: 10.1621895
09:01:10		x: 3.50152	y: 2.2840683	z: 9.614515
09:01:10		x: 3.1890767	y: 2.2110453	z: 9.307459
09:01:10		x: 3.2064347	y: 2.0045455	z: 9.289502
09:01:10		x: 2.7928362	y: 1.7998412	z: 8.987235
09:01:10		x: 2.1362264	y: 1.6651673	z: 9.369708
09:01:10		x: 1.8357542	y: 1.6208745	z: 8.881291
09:01:10		x: 2.1583729	y: 1.8124107	z: 8.8806925
09:01:10		x: 2.3774424	y: 2.0626047	z: 9.300277
09:01:10		x: 2.297835	y: 2.3720553	z: 9.341577
09:01:10		x: 2.1068976	y: 2.5659857	z: 8.998607
09:01:10		x: 2.1254525	y: 2.6605566	z: 8.583213
09:01:10		x: 2.7210102	y: 2.581548	z: 8.376115
09:01:10		x: 3.6421793	y: 2.4468741	z: 8.099585
09:01:10		x: 3.9492357	y: 2.343325	z: 8.228871
09:01:10		x: 3.4225113	y: 2.3259668	z: 8.929175
09:01:10		x: 3.1621418	y: 2.9131448	z: 10.800842
09:01:10		x: 4.6040497	y: 3.1052797	z: 9.755774
09:01:10		x: 3.341707	y: 2.190096	z: 8.732851
09:01:10		x: 3.8564603	y: 2.7299886	z: 8.21271
09:01:10		x: 4.1916485	y: 2.5851393	z: 8.683769
09:01:10		x: 4.7925935	y: 2.396596	z: 9.167996
09:01:10		x: 4.763264	y: 2.2212207	z: 8.752603
09:01:10		x: 4.3520603	y: 2.4109612	z: 8.981848
09:01:10		x: 3.9013517	y: 2.6210523	z: 8.70831
09:01:10		x: 3.8241386	y: 2.9257145	z: 8.497022
09:01:10		x: 3.78643	y: 3.063381	z: 7.913435
09:01:10		x: 3.651756	y: 3.1986535	z: 7.713519
09:01:10		x: 3.9935284	y: 2.8060043	z: 8.340201
09:01:10		x: 3.714604	y: 2.6102784	z: 9.251794
09:01:10		x: 3.7750576	y: 2.6886885	z: 9.015367
09:01:10		x: 4.1904516	y: 2.9682117	z: 9.077017
09:01:10		x: 4.5543704	y: 2.7605145	z: 9.86471
09:01:10		x: 4.3119574	y: 2.9113493	z: 9.697116
09:01:10		x: 4.565144	y: 3.25791	z: 8.921992
09:01:10		x: 4.377199	y: 2.9011738	z: 8.7292595
09:01:10		x: 4.036624	y: 3.116652	z: 8.500613
09:01:10		x: 4.006098	y: 2.9885623	z: 8.431181
09:01:10		x: 4.1796775	y: 2.8215668	z: 8.582615
09:01:10		x: 4.0737343	y: 2.8101943	z: 8.547898
09:01:10		x: 4.0342298	y: 2.8323407	z: 8.6496525
09:01:10		x: 4.1222167	y: 2.7485435	z: 8.646061
09:01:10		x: 4.288614	y: 2.7754784	z: 8.862138
09:01:10		x: 4.382586	y: 2.7335799	z: 8.643068
09:01:10		x: 4.572925	y: 2.297835	z: 8.46889
09:01:10		x: 4.743512	y: 2.2960393	z: 8.594585
09:01:10		x: 5.1930237	y: 2.337938	z: 9.165004
09:01:10		x: 5.255273	y: 2.2583308	z: 9.385271
09:01:10		x: 4.4286747	y: 2.3139958	z: 9.287707
09:01:10		x: 2.8395233	y: 2.5743654	z: 8.955511
09:01:10		x: 2.3110032	y: 2.7503393	z: 8.297705
09:01:11		x: 2.5432408	y: 2.48578	z: 7.7584105
09:01:11		x: 2.7180176	y: 2.2463598	z: 8.789713
09:01:11		x: 2.7832594	y: 2.4181437	z: 9.185355
09:01:11		x: 2.782661	y: 2.569577	z: 9.147048
09:01:11		x: 3.0723593	y: 2.6743233	z: 8.682572
09:01:11		x: 3.417723	y: 2.6114755	z: 8.22109
09:01:11		x: 3.7373488	y: 2.6120741	z: 7.976283
09:01:11		x: 3.6577415	y: 2.4833858	z: 7.4884644
09:01:11		x: 3.232771	y: 2.3762453	z: 7.5345526
09:01:11		x: 2.7874494	y: 2.3211784	z: 8.409035
09:01:11		x: 2.7287915	y: 2.2816741	z: 9.194333
09:01:11		x: 3.5924997	y: 2.098518	z: 9.223662
09:01:11		x: 4.185065	y: 1.9788077	z: 8.638878
09:01:11		x: 5.4647655	y: 1.4239515	z: 7.055114
09:01:11		x: 4.7285485	y: 1.7711107	z: 7.911041
09:01:11		x: 3.6236243	y: 1.9363106	z: 6.752846
09:01:11		x: 3.2070332	y: 1.1150994	z: 7.3460093
09:01:11		x: 2.3983915	y: 1.0887632	z: 9.528324
09:01:11		x: 3.1507695	y: 2.6497827	z: 9.928755
09:01:11		x: 2.0805612	y: 2.3918076	z: 9.800665
09:01:11		x: -0.08080431	y: 2.071583	z: 12.677298
09:01:11		x: 3.1555579	y: 2.8419175	z: 10.685921
09:01:11		x: 1.6172832	y: 1.3192052	z: 12.415731
09:01:11		x: 1.6472107	y: 1.2090719	z: 11.48319
09:01:11		x: 1.882441	y: 0.9127894	z: 10.700286
09:01:11		x: -1.6334441	y: 1.5759833	z: 10.717644
09:01:11		x: -2.730587	y: -0.095169514	z: 10.424355
09:01:12		x: 0.56982	y: -0.75237787	z: 8.463503
09:01:12		x: -8.803479	y: 2.3020248	z: 7.9631147
09:01:12		x: -4.402937	y: 1.353921	z: 9.117719
09:01:12		x: -3.3979707	y: 4.4645877	z: 10.018537
09:01:12		x: -1.5436616	y: 5.831677	z: 7.569867
09:01:12		x: -2.9652188	y: 4.396353	z: 6.9545574
09:01:13		x: -6.435614	y: 11.009736	z: 3.2202013
09:01:13		x: -7.4327993	y: 5.2181625	z: 8.783129
09:01:13		x: -6.4338183	y: 6.379949	z: 7.941567
09:01:13		x: -4.5364137	y: 3.7936125	z: 3.968988
09:01:13		x: -5.2965727	y: 3.1992521	z: 5.923255
09:01:14		x: -1.697489	y: 8.733449	z: 4.1276035
09:01:14		x: -7.291541	y: 10.785878	z: 2.8341362
09:01:14		x: -4.469376	y: 9.689334	z: -0.8098387
09:01:14		x: -5.0876784	y: 6.2243257	z: 0.11851298
09:01:14		x: -5.4282537	y: 6.6163764	z: -0.24839842
09:01:14		x: -5.9023056	y: 6.5032506	z: -0.6967127
09:01:15		x: -6.2207346	y: 9.281721	z: 0.75118077
09:01:15		x: -2.183512	y: 8.161834	z: 1.4161704
09:01:15		x: -3.7762547	y: 8.734048	z: -0.049081136
09:01:15		x: -3.0669725	y: 6.595427	z: -1.2916719
09:01:15		x: -5.3444567	y: 8.568848	z: -1.7776948
09:01:16		x: -3.7086184	y: 7.4788876	z: 0.11671733
09:01:16		x: -4.460996	y: 6.345233	z: 1.2814964
09:01:16		x: -6.625355	y: 8.519767	z: 0.9684546
09:01:16		x: -5.7305217	y: 12.393585	z: 4.056975
09:01:16		x: -4.4478283	y: 8.665813	z: 1.1378443
09:01:16		x: -2.2840683	y: 5.269638	z: -1.0265139
09:01:17		x: -5.2875943	y: 11.469423	z: -1.050456
09:01:17		x: -6.4104753	y: 7.8475947	z: 1.1294646
09:01:17		x: -4.426879	y: 6.0728927	z: 1.54845
09:01:17		x: -6.616975	y: 9.7803135	z: 1.6609775
09:01:17		x: -2.669535	y: 8.032547	z: 2.3624785
09:01:18		x: -3.228581	y: 8.247426	z: 0.6159084
09:01:18		x: -3.354875	y: 6.415862	z: -0.7858967
09:01:18		x: -4.670489	y: 10.523115	z: 0.01316811
09:01:18		x: -5.374983	y: 8.387487	z: 1.1504139
09:01:18		x: -3.1603463	y: 5.704784	z: 0.85173726
09:01:18		x: -6.0118403	y: 9.888652	z: 1.039682
09:01:19		x: -2.7940333	y: 7.854179	z: 2.4037786
09:01:19		x: -3.494936	y: 8.124125	z: 0.39025488
09:01:19		x: -3.5966895	y: 7.225102	z: -0.9983821
09:01:19		x: -6.84203	y: 13.103466	z: -1.3928268
09:01:19		x: -4.8614264	y: 8.057686	z: 0.57400984
09:01:20		x: -3.2650926	y: 5.6401405	z: 1.9446903
09:01:20		x: -6.5206084	y: 9.083003	z: 1.4149733
09:01:20		x: -3.357868	y: 11.115082	z: 4.1820717
09:01:20		x: -3.8019924	y: 9.062652	z: 0.9175778
09:01:20		x: -2.9251158	y: 4.9218802	z: 0.11192893
09:01:20		x: -5.627571	y: 11.295844	z: -1.1306617
09:01:21		x: -4.9781437	y: 8.50181	z: 0.44651863
09:01:21		x: -3.6643257	y: 5.4982843	z: 1.6053122
09:01:21		x: -6.0926447	y: 8.529344	z: 0.5626374
09:01:21		x: -7.5686703	y: 10.965444	z: 2.5611973
09:01:21		x: -2.6384103	y: 10.506355	z: 2.4582467
09:01:22		x: -1.4143747	y: 6.669049	z: 1.3700819
09:01:22		x: -4.5352163	y: 7.2550297	z: -1.3521254
09:01:22		x: -3.90614	y: 8.282741	z: -3.1705215
09:01:22		x: -4.733337	y: 6.758233	z: 2.0201077
09:01:22		x: -4.7884035	y: 8.00621	z: 0.039504327
09:01:22		x: -5.5623293	y: 7.467515	z: -0.8283938
09:01:23		x: -5.1038394	y: 10.296863	z: 0.74639237
09:01:23		x: -3.0322564	y: 9.251794	z: 0.5566519
09:01:23		x: -4.2479124	y: 6.6893997	z: -1.7489643
09:01:23		x: -5.2684407	y: 7.4812818	z: -3.2172086
09:01:23		x: -4.8482585	y: 6.5625067	z: 2.1637597
09:01:23		x: -5.48332	y: 7.2909427	z: -0.694917
09:01:24		x: -6.0268044	y: 6.9796963	z: -1.2964603
09:01:24		x: -6.977302	y: 11.259931	z: 2.0440497
09:01:24		x: -4.344279	y: 10.235212	z: -0.27234045
09:01:24		x: -3.2160115	y: 7.3669586	z: -1.9387048
09:01:24		x: -5.9202623	y: 9.321226	z: -1.1857284
09:01:25		x: -4.970961	y: 8.813056	z: 1.1893197
09:01:25		x: -4.334702	y: 5.895722	z: 2.1721394
09:01:25		x: -6.001665	y: 7.9852614	z: 1.2761095
09:01:25		x: -4.338892	y: 13.65892	z: 4.2383356
09:01:25		x: -4.4484267	y: 10.835558	z: 1.5999253
09:01:25		x: -2.1643584	y: 4.693234	z: -0.45669398
09:01:26		x: -4.9284644	y: 8.382699	z: -2.160767
09:01:26		x: -4.2078094	y: 8.306085	z: 1.1546037
09:01:26		x: -4.091092	y: 6.519411	z: 1.7992426
09:01:26		x: -5.096657	y: 7.964312	z: 1.6843209
09:01:26		x: -6.367978	y: 13.137584	z: 4.7494974
09:01:27		x: -3.9564183	y: 10.305841	z: 1.6256629
09:01:27		x: -2.6114755	y: 5.385158	z: 0.2657564
09:01:27		x: -4.288614	y: 8.16722	z: -1.4676456
09:01:27		x: -4.2299557	y: 7.9984293	z: 1.411382
09:01:27		x: -5.0122614	y: 7.381324	z: 0.9259575
09:01:27		x: -3.9671922	y: 7.076063	z: 1.4562732
09:01:28		x: -6.944382	y: 10.708666	z: 3.681085
09:01:28		x: -2.8221653	y: 8.307879	z: 2.4666264
09:01:28		x: -2.6761189	y: 7.116166	z: 0.6703765
09:01:28		x: -4.211401	y: 7.4375877	z: -0.48602295
09:01:28		x: -5.310938	y: 10.4010105	z: 0.5081693
09:01:29		x: -5.0026846	y: 7.5704656	z: 0.5069722
09:01:29		x: -3.7726634	y: 6.755839	z: 1.7513585
09:01:29		x: -5.1906295	y: 8.516175	z: 0.7835025
09:01:29		x: -1.9626468	y: 8.176797	z: 2.6761189
09:01:29		x: -3.2381577	y: 8.883087	z: 0.8002619
09:01:29		x: -3.9677908	y: 6.42903	z: -0.8331822
09:01:30		x: -5.467758	y: 9.811439	z: -0.79008657
09:01:30		x: -3.8097734	y: 8.476671	z: 0.7092823
09:01:30		x: -4.7884035	y: 6.7001734	z: 0.4285621
09:01:30		x: -6.1123967	y: 7.690176	z: 0.25438392
09:01:30		x: -5.2756233	y: 7.964312	z: -0.9463082
09:01:31		x: -6.192004	y: 11.895591	z: 1.5029601
09:01:31		x: -1.9841946	y: 8.59698	z: 2.3133974
09:01:31		x: -3.2908301	y: 7.5525093	z: -0.777517
09:01:31		x: -5.0122614	y: 8.076241	z: -2.5797524
09:01:31		x: -2.606687	y: 7.277176	z: 1.5861586
09:01:31		x: -4.4753613	y: 7.1311297	z: 0.12389994
09:01:32		x: -5.12838	y: 7.6865845	z: -1.055843
09:01:32		x: -5.923255	y: 11.2725	z: 0.47285482
09:01:32		x: -3.2136173	y: 9.052477	z: -0.06404489
09:01:32		x: -3.329736	y: 6.7241154	z: -1.7848774
09:01:32		x: -5.309741	y: 8.342596	z: -2.8395233
09:01:32		x: -4.9123034	y: 7.6883802	z: 1.1683705
09:01:33		x: -5.1660886	y: 7.08983	z: -0.1328782
09:01:33		x: -6.2141504	y: 7.005434	z: -0.32561144
09:01:33		x: -6.597821	y: 13.352463	z: 2.5360582
09:01:33		x: -4.3197384	y: 10.570999	z: 1.8590976
09:01:33		x: -3.141791	y: 5.6569	z: 0.25258827
09:01:34		x: -4.298789	y: 8.002619	z: -2.0578163
09:01:34		x: -5.2343235	y: 7.7823524	z: 0.7577648
09:01:34		x: -4.575918	y: 6.0208187	z: 1.1402385
09:01:34		x: -6.0824695	y: 8.243237	z: 1.4101849
09:01:34		x: -7.7757688	y: 11.247959	z: 3.9264908
09:01:34		x: -4.3915644	y: 10.166379	z: 1.5765818
09:01:35		x: -2.6485856	y: 5.60722	z: -0.2148796
09:01:35		x: -4.4358573	y: 8.81605	z: -1.5125369
09:01:35		x: -4.219182	y: 8.171411	z: 1.1677719
09:01:35		x: -4.685453	y: 6.921637	z: 1.067814
09:01:35		x: -5.81791	y: 8.195353	z: 1.5047557
09:01:36		x: -6.601413	y: 10.17835	z: 3.3482912
09:01:36		x: -2.2002714	y: 9.214684	z: 2.8449101
09:01:36		x: -3.1190462	y: 8.109161	z: 0.61530983
09:01:36		x: -3.321955	y: 6.9222355	z: -0.84575176
09:01:36		x: -6.667852	y: 12.266094	z: -1.1839328
09:01:36		x: -5.1780596	y: 8.02297	z: 0.81761986
09:01:37		x: -4.0414124	y: 6.0585275	z: 1.62686
09:01:37		x: -6.303933	y: 9.470863	z: 0.80205756
09:01:37		x: -3.4290953	y: 11.877635	z: 3.8253357
09:01:37		x: -4.138976	y: 8.126519	z: 0.65421563
09:01:37		x: -3.2914288	y: 5.434838	z: -0.7015011
09:01:38		x: -6.4260373	y: 10.197504	z: -0.6799533
09:01:38		x: -5.4623713	y: 8.083424	z: 1.003769
09:01:38		x: -4.2359414	y: 5.555745	z: 1.5646108
09:01:38		x: -6.3021374	y: 8.757391	z: 1.1611878
09:01:38		x: -5.97892	y: 11.583746	z: 5.0140567
09:01:38		x: -4.63278	y: 9.959879	z: 1.1354501
09:01:39		x: -2.9203274	y: 5.527613	z: -0.5967548
09:01:39		x: -5.0421886	y: 10.663176	z: 0.8218097
09:01:39		x: -5.5629277	y: 8.342596	z: 0.58298814
09:01:39		x: -4.4753613	y: 5.6000376	z: 1.3275849
09:01:39		x: -5.8143187	y: 7.5962033	z: 0.11851298
09:01:40		x: -8.51857	y: 12.056602	z: 1.1731589
09:01:40		x: -3.0855274	y: 9.174581	z: 2.3020248
09:01:40		x: -2.4372973	y: 6.331466	z: 0.39803603
09:01:40		x: -3.9079356	y: 6.913856	z: -2.2379801
09:01:40		x: -6.1046157	y: 14.372393	z: -0.7068881
09:01:40		x: -3.6314054	y: 10.246585	z: 1.0205284
09:01:41		x: -5.3558292	y: 7.5285673	z: 0.40581718
09:01:41		x: -5.9124813	y: 7.5602903	z: -0.88166475
09:01:41		x: -6.757634	y: 9.099762	z: 3.7187939
09:01:41		x: -4.8297033	y: 7.9870567	z: -0.29807812
09:01:41		x: -3.9719806	y: 7.2963295	z: -3.1783028
09:01:42		x: -6.7109475	y: 12.237962	z: -0.7673417
09:01:42		x: -5.397728	y: 9.46009	z: 0.8463503
09:01:42		x: -5.175067	y: 8.024766	z: 0.92296475
09:01:42		x: -6.932411	y: 8.39886	z: -0.15801731
09:01:42		x: -1.5819688	y: 9.677961	z: 2.4109612
09:01:42		x: -3.0789435	y: 6.564901	z: 0.641646
09:01:43		x: -4.4753613	y: 7.4950485	z: 0.30286652
09:01:43		x: -5.931635	y: 11.989564	z: -0.31304187
09:01:43		x: -5.450999	y: 7.778163	z: 0.6733692
09:01:43		x: -3.788824	y: 6.513426	z: 0.8295909
09:01:43		x: -6.6989765	y: 9.330803	z: -0.24121583
09:01:43		x: -3.1962593	y: 8.094796	z: 2.5528176
09:01:44		x: -3.4374752	y: 9.148245	z: 0.31663316
09:01:44		x: -3.2309752	y: 7.3591776	z: -1.2958617
09:01:44		x: -5.5820813	y: 10.899603	z: -0.9540894
09:01:44		x: -4.833295	y: 7.349002	z: 0.39145198
09:01:44		x: -4.805163	y: 7.04015	z: 1.4622587
09:01:45		x: -5.616797	y: 7.8452005	z: 0.8798691
09:01:45		x: -7.2089415	y: 13.501502	z: 5.1930237
09:01:45		x: -3.7900212	y: 9.452309	z: 0.8194155
09:01:45		x: -2.3080103	y: 6.806117	z: -0.025737667
09:01:45		x: -3.8923733	y: 8.152257	z: -0.45609543
09:01:45		x: -5.747281	y: 12.378621	z: -0.8690952
09:01:46		x: -5.1906295	y: 8.051102	z: 0.81642276
09:01:46		x: -4.040814	y: 6.223727	z: 1.4101849
09:01:46		x: -5.699397	y: 8.013393	z: 0.5351041
09:01:46		x: -4.9021277	y: 13.201628	z: 4.69084
09:01:46		x: -4.289212	y: 9.858724	z: 1.1671734
09:01:47		x: -2.8508956	y: 5.743091	z: -0.61112
09:01:47		x: -5.4138885	y: 8.47308	z: -1.9877859
09:01:47		x: -4.26527	y: 7.5016327	z: 0.93373865
09:01:47		x: -3.520075	y: 6.52001	z: 0.9391256
09:01:47		x: -5.163096	y: 8.198944	z: 0.58418524
09:01:47		x: -6.425439	y: 9.36911	z: 0.7697359
09:01:48		x: -1.5490485	y: 7.462128	z: 3.4476504
09:01:48		x: -0.10235212	y: 7.0952168	z: 4.3861775
09:01:48		x: 0.5009867	y: 7.608773	z: 4.5926776
09:01:48		x: 0.06284779	y: 7.277176	z: 3.9282866
09:01:48		x: 0.22266077	y: 12.656947	z: 6.3344593
09:01:49		x: 0.6326678	y: 6.151303	z: 5.9651537
09:01:49		x: -0.86969376	y: 7.065888	z: 7.763199
09:01:49		x: -1.3000516	y: 7.3843164	z: 4.0898952
09:01:49		x: -2.755726	y: 7.595605	z: 3.5476084
09:01:49		x: -0.7428011	y: 9.859921	z: 12.102091
09:01:49		x: 2.472612	y: 5.751471	z: 8.907627
09:01:50		x: 0.99538934	y: 3.6409822	z: 6.381745
09:01:50		x: 2.146402	y: 1.3461399	z: 7.7590094
09:01:50		x: 2.5659857	y: 1.9985598	z: 9.646238
09:01:50		x: 2.4079683	y: 2.3828292	z: 10.125079
09:01:50		x: -1.83336	y: 3.376423	z: 2.9149406
09:01:51		x: -1.0103531	y: 5.6545057	z: 9.283517
09:01:51		x: -0.3812766	y: 3.7241807	z: 8.75799
09:01:51		x: 0.6452374	y: 3.268684	z: 10.415376
09:01:51		x: 1.3694834	y: 3.4883518	z: 9.612122
09:01:51		x: 1.4083891	y: 3.482965	z: 9.333197
09:01:51		x: 0.9127894	y: 3.1190462	z: 9.788095
09:01:51		x: 0.7290344	y: 2.791639	z: 10.383054
09:01:51		x: 0.6697779	y: 2.4917655	z: 10.684724
09:01:51		x: 0.41060558	y: 2.4289176	z: 10.503363
09:01:51		x: 0.4770447	y: 2.484583	z: 9.578004
09:01:51		x: 0.65182143	y: 2.6234465	z: 8.817246
09:01:51		x: 1.0480618	y: 2.6839	z: 8.62152
09:01:51		x: 1.6065093	y: 2.9053638	z: 8.622119
09:01:51		x: 1.1767502	y: 3.1830912	z: 8.683171
09:01:51		x: 0.6877344	y: 3.4207156	z: 8.920795
09:01:51		x: 0.3878607	y: 3.5476084	z: 9.018958
09:01:51		x: -0.19273324	y: 3.4398694	z: 9.737817
09:01:51		x: -0.5602432	y: 3.0711622	z: 10.760141
09:01:51		x: -0.86610246	y: 2.7790697	z: 11.472416
09:01:51		x: -1.4041992	y: 2.7635074	z: 11.158177
09:01:51		x: -1.5759833	y: 3.2016463	z: 10.176555
09:01:51		x: -1.1641805	y: 3.513491	z: 9.06744
09:01:51		x: -0.47225627	y: 3.6924577	z: 8.536526
09:01:51		x: -0.17417817	y: 3.7259765	z: 8.432977
09:01:51		x: -0.20410569	y: 3.6774938	z: 8.416816
09:01:51		x: 0.1921347	y: 3.8510735	z: 8.1163435
09:01:51		x: 0.4866215	y: 3.6260185	z: 7.820061
09:01:51		x: 0.7170634	y: 3.4632127	z: 7.825448
09:01:51		x: 0.7661445	y: 3.4979286	z: 8.198345
09:01:51		x: 0.9498995	y: 3.6583402	z: 8.86513
09:01:51		x: 1.1857284	y: 3.5607765	z: 9.985617
09:01:51		x: 1.3569138	y: 3.268684	z: 10.602722
09:01:51		x: 1.3718776	y: 2.9388826	z: 10.332177
09:01:51		x: 0.91817635	y: 2.9364884	z: 9.370906
09:01:51		x: 0.13467385	y: 3.0011318	z: 8.814254
09:01:51		x: -0.11133038	y: 2.6497827	z: 8.632893
09:01:51		x: -0.18734628	y: 2.4899697	z: 8.560468
09:01:51		x: -0.6607997	y: 2.7036524	z: 8.2115135
09:01:51		x: -0.88166475	y: 2.8353333	z: 7.647679
09:01:51		x: -0.3196259	y: 2.9735985	z: 7.4830775
09:01:52		x: 0.15741876	y: 3.0011318	z: 7.6291237
09:01:52		x: 0.050278235	y: 2.8221653	z: 9.054871
09:01:52		x: -1.0301052	y: 2.4193408	z: 11.246164
09:01:52		x: -0.6931214	y: 1.9081788	z: 12.396578
09:01:52		x: 0.29688102	y: 1.5400703	z: 14.855423
09:01:52		x: 1.9321208	y: 1.7292122	z: 16.255432
09:01:52		x: 3.329736	y: 2.0745757	z: 15.041573
09:01:52		x: 3.2118216	y: 1.6531962	z: 13.010691
09:01:52		x: 2.0099323	y: 1.7890673	z: 11.641806
09:01:52		x: 0.9211691	y: 1.751957	z: 11.421539
09:01:52		x: 0.50637364	y: 1.9931729	z: 10.487202
09:01:52		x: 0.99419224	y: 2.979584	z: 8.87351
09:01:52		x: -0.7637503	y: 2.60968	z: 6.242881
09:01:52		x: -1.8513165	y: 2.7353754	z: 6.682217
09:01:52		x: -1.614889	y: 1.963844	z: 8.06427
09:01:52		x: -0.219668	y: 2.0602105	z: 7.727885
09:01:52		x: 1.389834	y: 1.6597804	z: 8.461109
09:01:52		x: 1.3383588	y: 1.033098	z: 8.885481
09:01:52		x: 0.34476504	y: 0.9139865	z: 10.513538
09:01:52		x: -0.99179804	y: 0.50278234	z: 13.435062
09:01:52		x: -0.7392098	y: -0.0047884034	z: 12.843097
09:01:52		x: 0.05267244	y: -0.28790274	z: 11.140221
09:01:52		x: 1.42455	y: 0.25139117	z: 10.632649
09:01:52		x: 1.774702	y: 0.81163436	z: 10.320207
09:01:52		x: 1.0498575	y: 1.3018472	z: 9.495404
09:01:52		x: 0.37349546	y: 1.8034325	z: 8.626308
09:01:52		x: 0.38307226	y: 2.0602105	z: 8.321048
09:01:52		x: 0.7469909	y: 2.1697452	z: 8.021174
09:01:52		x: 1.3814543	y: 2.570774	z: 8.377312
09:01:52		x: 2.0727801	y: 2.8060043	z: 9.283517
09:01:52		x: 2.259528	y: 2.4929626	z: 9.959281
09:01:52		x: 2.1284454	y: 2.1392193	z: 10.5440645
09:01:52		x: 2.1883004	y: 2.0649989	z: 10.906187
09:01:52		x: 2.331354	y: 2.0859482	z: 10.913968
09:01:52		x: 2.368464	y: 1.9327193	z: 10.406398
09:01:52		x: 2.0003555	y: 1.9458874	z: 9.98442
09:01:52		x: 1.5023615	y: 2.1751323	z: 9.92636
09:01:52		x: 1.4891934	y: 2.44448	z: 9.700109
09:01:52		x: 1.7687165	y: 2.4408886	z: 9.36911
09:01:52		x: 1.929128	y: 2.190096	z: 9.045893
09:01:52		x: 2.2152352	y: 2.207454	z: 9.235633
09:01:52		x: 2.3080103	y: 2.5953147	z: 10.324396
09:01:52		x: 1.8710686	y: 2.0667946	z: 10.652402
09:01:52		x: 1.4095862	y: 1.5951369	z: 10.589554
09:01:52		x: 1.0534488	y: 1.9147629	z: 10.126276
09:01:52		x: 0.83497787	y: 2.373851	z: 9.640852
09:01:52		x: 0.93732995	y: 2.5761611	z: 9.242217
09:01:52		x: 1.2587515	y: 2.5701754	z: 9.061455
09:01:52		x: 1.4197617	y: 2.4019828	z: 9.197326
09:01:52		x: 0.9600749	y: 2.308609	z: 9.624691
09:01:53		x: 0.6799533	y: 2.2068555	z: 9.897031
09:01:53		x: 0.789488	y: 2.3223755	z: 9.862914
09:01:53		x: 0.82121116	y: 2.5474305	z: 9.57142
09:01:53		x: 0.55126494	y: 2.610877	z: 9.006389
09:01:53		x: 0.48243165	y: 2.7952304	z: 9.025542
09:01:53		x: 0.5919664	y: 2.7886465	z: 8.974067
09:01:53		x: 0.90500826	y: 2.581548	z: 9.096769
09:01:53		x: 1.2856863	y: 2.6168625	z: 9.103952
09:01:53		x: 1.5891514	y: 2.6922798	z: 9.222465
09:01:53		x: 1.8513165	y: 2.8299465	z: 9.258977
09:01:53		x: 2.0991163	y: 2.942474	z: 9.818023
09:01:53		x: 2.1505916	y: 2.943671	z: 9.712079
09:01:53		x: 2.3265655	y: 2.9364884	z: 9.566033
09:01:53		x: 2.4378958	y: 3.0801406	z: 9.405023
09:01:53		x: 2.3241713	y: 3.1022868	z: 9.314043
09:01:53		x: 2.0979192	y: 3.0095115	z: 9.561244
09:01:53		x: 1.8016368	y: 2.9783869	z: 9.901221
09:01:53		x: 1.4077905	y: 2.783858	z: 10.120889
09:01:53		x: 1.2635399	y: 2.746748	z: 10.17835
09:01:53		x: 1.2838906	y: 2.7509377	z: 9.944916
09:01:53		x: 1.3491327	y: 2.8149827	z: 9.609129
09:01:53		x: 1.5275006	y: 2.7850552	z: 9.408015
09:01:53		x: 1.2533646	y: 2.7862523	z: 9.364322
09:01:53		x: 0.85054016	y: 2.9239187	z: 9.385271
09:01:53		x: 0.7206547	y: 3.0430303	z: 9.165603
09:01:53		x: 0.87089086	y: 3.3452983	z: 8.830415
09:01:53		x: 1.1713632	y: 3.618836	z: 8.594585
09:01:53		x: 1.4030021	y: 3.7762547	z: 9.167398
09:01:53		x: 1.6717514	y: 3.582923	z: 9.609727
09:01:53		x: 2.1559787	y: 3.2788591	z: 9.416395
09:01:53		x: 1.7591397	y: 2.4959552	z: 9.009979
09:01:53		x: 1.8357542	y: 2.146402	z: 8.72507
09:01:53		x: 2.6437972	y: 2.7844565	z: 8.146272
09:01:53		x: 3.6655228	y: 4.559757	z: 9.142858
09:01:53		x: 5.2498856	y: 5.7903767	z: 10.915166
09:01:53		x: 5.940613	y: 4.957793	z: 11.466431
09:01:53		x: 5.0397944	y: 4.1018662	z: 11.101913
09:01:53		x: 4.1539397	y: 3.9665937	z: 9.734824
09:01:53		x: 4.1258082	y: 4.156933	z: 7.8888946
09:01:53		x: 4.972757	y: 4.220379	z: 7.0862384
09:01:53		x: 5.4911017	y: 4.2538977	z: 7.321469
09:01:53		x: 5.3642087	y: 3.9312792	z: 7.4525514
09:01:53		x: 4.6351743	y: 3.2782607	z: 7.94037
09:01:53		x: 4.1742907	y: 3.6469676	z: 8.261193
09:01:53		x: 4.180875	y: 3.852869	z: 7.45315
09:01:53		x: 4.8656163	y: 3.7828386	z: 6.8563952
09:01:53		x: 5.929839	y: 4.188656	z: 7.233482
09:01:53		x: 6.0441623	y: 4.2036195	z: 8.034941
09:01:53		x: 5.843049	y: 4.1904516	z: 8.209718
09:01:53		x: 6.000468	y: 4.405331	z: 7.4124484
09:01:54		x: 6.921637	y: 4.771045	z: 5.055357
09:01:54		x: 5.9968767	y: 4.39755	z: 6.9437833
09:01:54		x: 5.9771247	y: 4.650737	z: 7.511808
09:01:54		x: 6.689998	y: 4.455011	z: 7.2604165
09:01:54		x: 6.573281	y: 4.250905	z: 6.8480153
09:01:54		x: 6.0884547	y: 4.079121	z: 6.892308
09:01:54		x: 6.1285577	y: 3.857059	z: 7.133524
09:01:54		x: 6.6492968	y: 3.9773676	z: 7.12694
09:01:54		x: 6.553529	y: 4.135385	z: 6.1530986
