7 1:-387.684495131 2:-390.673604606 3:-389.313013436 4:1.05071372487 5:1.10399933163 6:19.8975558326 7:-30.3245952368 8:2.53765262771e-15 9:14.4668246844 10:209.289016448 11:12.4573744395 12:-16.3402663698 13:-0.983947299826 14:9.35631767896 15:87.5406805096 16:15.174940686 17:-14.9495955504 18:1.56099482894 19:9.87862282791 20:97.587188976 21:63.4004240053 22:-60.1282357564 23:4.32065642678 24:33.525015365 25:1123.92665523 26:151.853863101 27:-132.876870237 28:-12.7883792924 29:98.892116334 30:9779.65067301 
7 1:-242.670761677 2:-354.28007649 3:-317.979450346 4:38.2443444607 5:1462.62988323 6:52.9465584545 7:-73.1772935112 8:1.58603289232e-16 9:35.143322666 10:1235.053128 11:30.6242809288 12:-33.4471862994 13:-0.905602094223 14:18.380618839 15:337.847148903 16:27.2997725216 17:-17.5741953114 18:3.13160448153 19:12.2171379808 20:149.258460441 21:39.7775082174 22:-42.0567554567 23:2.51494436486 24:23.1302121068 25:535.006712104 26:179.591007776 27:-120.475210328 28:-12.59284416 29:95.2638673572 30:9075.20442385 
7 1:310.513340103 2:-219.789221942 3:-41.8712430972 4:180.839310088 5:32702.8560731 6:119.726582385 7:-148.856402142 8:5.07530525543e-16 9:85.7143115691 10:7346.94320777 11:70.8537264279 12:-54.1903548901 13:-0.25545605569 14:44.987437534 15:2023.86953588 16:90.8764260946 17:-19.2817106964 18:11.4600723434 19:32.4777116956 20:1054.80175698 21:94.6686633801 22:-136.47999511 23:0.043220393241 24:69.0856459685 25:4772.82647888 26:176.705371696 27:-165.865993864 28:-12.2639744844 29:113.988834405 30:12993.454369 
7 1:725.33375672 2:27.7935828269 3:264.899234384 4:237.436578948 5:56376.1290225 6:150.000448174 7:-124.68952888 8:-7.61295788314e-15 9:82.0905105503 10:6738.85192242 11:88.1723982416 12:-91.5592777956 13:6.24943083829 14:51.4708166665 15:2649.24496832 16:32.2801307934 17:-43.2349904763 18:5.09524380278 19:22.4123295531 20:502.312515998 21:66.9011867618 22:-149.442584277 23:-25.8887055018 24:59.727045478 25:3567.31996153 26:192.057788944 27:-143.930571032 28:-11.12237203 29:120.732978596 30:14576.4521207 
7 1:770.388714272 2:743.591275151 3:751.608018053 4:9.41211247952 5:88.5878613272 6:26.8464783963 7:-38.8011508663 8:-1.19269673503e-14 9:18.4511212083 10:340.443873845 11:15.4330949337 12:-18.3121539109 13:-0.127989737726 14:9.7225728754 15:94.5284233174 16:30.5622133649 17:-25.4191755303 18:3.24297140815 19:15.973960533 20:255.167415109 21:66.2896393058 22:-69.4444127039 23:-3.38916627091 24:43.261317224 25:1871.54156796 26:182.512120672 27:-137.862324398 28:-17.0346847419 29:124.848343534 30:15587.1088833 
7 1:765.362682796 2:752.798147477 3:756.173783406 4:4.54445046236 5:20.6520300049 6:21.6113300353 7:-31.7464959991 8:-1.33226762955e-14 9:15.1686179031 10:230.086969089 11:12.4452183057 12:-15.3180349248 13:-0.0202950142002 14:8.16654740072 15:66.6924964483 16:27.5811507755 17:-24.2880474151 18:2.87549264178 19:15.1680272277 20:230.069049981 21:66.8504046662 22:-69.3298550246 23:-3.78511711106 24:42.3902461966 25:1796.9329726 26:187.294545926 27:-137.264191714 28:-16.808761629 29:124.590215177 30:15522.7217179 
7 1:761.927235384 2:759.245995949 3:760.637635681 4:0.809129825131 5:0.654691073916 6:20.6555353393 7:-31.1950159249 8:-1.67485073429e-14 9:15.0265460867 10:225.797087296 11:11.9174630391 12:-15.6440415395 13:-0.277192592072 14:8.49171088197 15:72.1091537029 16:28.1928561418 17:-25.1925811962 18:2.93115978314 19:15.5762764088 20:242.620386762 21:67.231908956 22:-69.7488593219 23:-2.63600756954 24:42.6320635436 25:1817.49284199 26:188.492028407 27:-136.349786869 28:-16.7114741526 29:125.034626082 30:15633.6577195 
7 1:754.606762761 2:746.564826219 3:749.160345387 4:2.64502267466 5:6.99614494949 6:24.0495927559 7:-35.7883129987 8:-1.01506105109e-15 9:17.0808662227 10:291.755990916 11:13.7149917198 12:-17.6279069143 13:-0.174979981486 14:9.50986444238 15:90.4375217124 16:27.6626208116 17:-25.8317921655 18:2.84485548978 19:15.7077373253 20:246.733011882 21:66.99908189 22:-70.1968639034 23:-3.23143583936 24:43.4512735885 25:1888.01317646 26:191.049282824 27:-137.404090019 28:-17.1664554993 29:127.236303773 30:16189.0769979 
7 1:757.691905984 2:743.418814436 3:747.249122291 4:5.17286920256 5:26.7585757868 6:24.0327196109 7:-35.3373781301 8:-2.24582257553e-14 9:16.869371158 10:284.575683267 11:13.8661449911 12:-17.0179152199 13:-0.156091839702 14:9.05819049893 15:82.0508151149 16:31.3688936802 17:-26.3397803483 18:3.31708775207 19:16.4863967316 20:271.801277192 21:67.2051686989 22:-70.1599566703 23:-3.42883426909 24:43.662767925 25:1906.43730287 26:189.820250126 27:-139.280472411 28:-17.0700761263 29:127.175898524 30:16173.7091654 
7 1:768.820179472 2:747.278518402 3:753.798244914 4:7.58678901992 5:57.5593676327 6:19.5305120611 7:-28.1481234713 8:-2.61378220655e-14 9:13.5925929952 10:184.758584332 11:12.1976522065 12:-13.8386467424 13:-0.111680936889 14:7.37801422571 15:54.4350939148 16:30.3357196276 17:-22.9561815915 18:3.26948432236 19:16.7043481448 20:279.035246943 21:59.0618059457 22:-62.5158064717 23:-3.26062902401 24:39.6849877039 25:1574.89824906 26:187.137875071 27:-139.698027367 28:-16.8210832063 29:125.354751749 30:15713.8137862 
7 1:791.845378692 2:709.900238661 3:762.786469361 4:27.6664408534 5:765.431949494 6:28.3838482303 7:-31.9641514797 8:-1.40839720838e-14 9:18.9155448261 10:357.797836068 11:25.5374777398 12:-20.6360286927 13:-0.915511679928 14:14.5109918557 15:210.568884635 16:30.5335658745 17:-27.5446921493 18:1.00528596064 19:17.3430597944 20:300.781723033 21:58.2065996853 22:-61.251826238 23:0.64241451821 24:38.4230838635 25:1476.33337358 26:200.634810695 27:-150.074581717 28:-16.5696527906 29:129.886494856 30:16870.5015461 
7 1:774.555887951 2:744.60277479 3:763.958038522 4:10.1045327713 5:102.101582525 6:12.2519489439 7:-14.2387095392 8:-1.14194368247e-14 9:8.4862655804 10:72.016703501 11:8.05713379833 12:-9.28226888975 13:-1.11500683727 14:5.85254875475 15:34.2523269268 16:32.9202859125 17:-22.7946450143 18:3.61244260244 19:17.4986067939 20:306.201239726 21:69.9344945467 22:-70.6825978811 23:2.57605254697 24:42.2057200639 25:1781.32280611 26:202.732239807 27:-161.525215829 28:-17.9849337432 29:132.035990244 30:17433.5027198 
7 1:792.240810647 2:753.322258998 3:778.082571535 4:13.0927931523 5:171.42123253 6:19.3503160285 7:-30.0051944813 8:-2.4995878383e-14 9:15.6558008744 10:245.10410102 11:16.3545883719 12:-16.9036080311 13:-1.04982765535 14:10.3691058024 15:107.518355142 16:24.6759802162 17:-25.3878520617 18:2.47106577855 19:15.1018121558 20:228.06473039 21:74.3935423902 22:-76.1730825859 23:1.8481599834 24:45.4029468377 25:2061.42758155 26:194.484653027 27:-155.438678222 28:-18.2225004908 29:131.5268369 30:17299.308825 
7 1:825.018563411 2:224.255492872 3:626.458452369 4:204.97320967 5:42014.0166824 6:264.705030193 7:-200.751804647 8:-2.08087515473e-14 9:134.113258318 10:17986.3660566 11:107.575779972 12:-105.961237352 13:-1.59606747598 14:60.2937816152 15:3635.34010146 16:74.4415153184 17:-82.4543193145 18:2.90600047833 19:42.0258878617 20:1766.17525057 21:45.5938997097 22:-53.9012298415 23:-3.51563017445 24:31.5025788095 25:992.412471646 26:196.850832145 27:-145.615353883 28:-17.3866602715 29:133.154836203 30:17730.2104043 
7 1:-147.751597167 2:-433.848961251 3:-251.660343404 4:98.3176785804 5:9666.36592144 6:112.543495051 7:-178.90583687 8:-5.07530525543e-15 9:96.925844719 10:9394.6193745 11:165.369396106 12:-132.651086924 13:1.73328434934 14:93.8084191533 15:8800.01950404 16:85.9884681937 17:-374.517166315 18:-47.3012055358 19:136.819123522 20:18719.4725613 21:106.737778729 22:-137.26029786 23:-3.2897392808 24:64.3898916173 25:4146.05814249 26:160.127199138 27:-114.401683686 28:-13.5738957063 29:97.3387861144 30:9474.83928222 
7 1:-361.443957233 2:-597.379744055 3:-439.792489593 4:80.4068486762 5:6465.26131404 6:89.0623977677 7:-69.1295458958 8:-1.7763568394e-15 9:46.9235802364 10:2201.8223822 11:34.3177603019 12:-35.2235169517 13:-1.23795898801 14:19.8411711674 15:393.672073294 16:34.8365558676 17:-36.3049315842 18:3.89107605125 19:22.6002366807 20:510.770698025 21:41.271100807 22:-30.8557543109 23:1.67122215359 24:21.7839125886 25:474.538847669 26:173.643576968 27:-148.813313557 28:-9.26619274175 29:107.544459889 30:11565.8108528 
7 1:-348.65485243 2:-632.827333365 3:-443.888482071 4:96.9374768641 5:9396.87442078 6:63.4879914141 7:-61.0872463031 8:-3.04518315326e-15 9:42.004081335 10:1764.3428488 11:22.2849813367 12:-26.0801661473 13:-3.8896862307 14:18.7745457672 15:352.483568765 16:48.5831537471 17:-57.5824402797 18:1.68425214682 19:29.634542509 20:878.206109719 21:104.162652001 22:-76.0483360053 23:20.1064259591 24:56.3081041674 25:3170.60259492 26:242.10202539 27:-247.813224539 28:-13.8921462243 29:163.723365499 30:26805.3404105 
7 1:-363.084495896 2:-623.119135796 3:-450.054080291 4:88.7745776259 5:7880.92563265 6:61.0630538449 7:-56.7065568612 8:8.881784197e-15 9:39.5205258977 10:1561.87196723 11:20.352312926 12:-24.5444920095 13:-4.03303159503 14:17.7456486046 15:314.908044399 16:50.2652484356 17:-58.0250400609 18:1.02521126142 19:29.0216599644 20:842.25674709 21:109.865809104 22:-75.2406215572 23:20.5814533875 24:56.2601140042 25:3165.20042777 26:242.029923454 27:-250.079514319 28:-20.2893935375 29:170.825447399 30:29181.3334792 
7 1:-352.599853115 2:-611.933439502 3:-440.921532333 4:88.3154825789 5:7799.62446315 6:54.177008404 7:-57.9298411508 8:2.08087515473e-14 9:30.7957590742 10:948.378776959 11:40.2694844029 12:-33.5260243672 13:1.16732020875e-14 14:24.6938501858 15:609.786236998 16:20.8697575244 17:-22.0491641296 18:2.03012210217e-15 19:12.8741647331 20:165.744117575 21:111.44957725 22:-97.6066376024 23:13.1144516089 24:63.9391048862 25:4088.20913364 26:243.056749235 27:-222.088701876 28:-27.9469038057 29:166.791090983 30:27819.2680314 
