6 1:289.665218111 2:289.665218111 3:289.665218111 4:5.68434188608e-14 5:3.23117426779e-27 6:-6.2172489379e-15 7:-6.2172489379e-15 8:-6.2172489379e-15 9:0.0 10:0.0 11:1.7763568394e-15 12:1.7763568394e-15 13:1.7763568394e-15 14:0.0 15:0.0 16:-1.02140518266e-14 17:-1.02140518266e-14 18:-1.02140518266e-14 19:0.0 20:0.0 21:-2.99760216649e-15 22:-2.99760216649e-15 23:-2.99760216649e-15 24:0.0 25:0.0 26:1.66533453694e-15 27:1.66533453694e-15 28:1.66533453694e-15 29:0.0 30:0.0 
6 1:290.271305101 2:289.97229766 3:290.071903331 4:0.0935586112523 5:0.00875321373946 6:0.0785029271947 7:-0.0897688707978 8:-4.95899617666e-15 9:0.051343679873 10:0.0026361734629 11:0.0769389935382 12:-0.0920801462001 13:-1.92438657602e-15 14:0.0510099316446 15:0.00260201312639 16:0.155535200225 17:-0.156384359522 18:-1.03620815632e-15 19:0.0943119492752 20:0.00889474377609 21:0.0683427412455 22:-0.0567439583488 23:-3.5527136788e-15 24:0.0452286015498 25:0.00204562639815 26:0.0464559170767 27:-0.0510363612318 28:0.00306195390916 29:0.0309304331405 30:0.000956691694258 
6 1:291.756189331 2:291.519010164 3:291.674923581 4:0.0736195573869 5:0.00541983922984 6:0.0659612067138 7:-0.0407726237353 8:7.91959090899e-15 9:0.039511754341 10:0.0015611787311 11:0.051601998303 12:-0.0528907278574 13:-6.55031584529e-15 14:0.0404612867109 15:0.0016371157223 16:0.0952611256289 17:-0.102150003841 18:-2.29446091756e-15 19:0.0698487020516 20:0.00487884117829 21:0.416371635072 22:-0.425239758911 23:-1.97989772725e-15 24:0.25468956543 25:0.064866774739 26:0.153000433233 27:-0.108777663861 28:-0.00366201581938 29:0.0828650896926 30:0.00686662308976 
6 1:291.124652566 2:291.124652566 3:291.124652566 4:5.68434188608e-14 5:3.23117426779e-27 6:-4.4408920985e-15 7:-4.4408920985e-15 8:-4.4408920985e-15 9:0.0 10:0.0 11:-3.10862446895e-15 12:-3.10862446895e-15 13:-3.10862446895e-15 14:0.0 15:0.0 16:4.21884749358e-15 17:4.21884749358e-15 18:4.21884749358e-15 19:0.0 20:0.0 21:-3.66373598126e-15 22:-3.66373598126e-15 23:-3.66373598126e-15 24:0.0 25:0.0 26:-1.88737914186e-15 27:-1.88737914186e-15 28:-1.88737914186e-15 29:0.0 30:0.0 
6 1:291.124652566 2:291.124652566 3:291.124652566 4:5.68434188608e-14 5:3.23117426779e-27 6:-4.4408920985e-15 7:-4.4408920985e-15 8:-4.4408920985e-15 9:0.0 10:0.0 11:-3.10862446895e-15 12:-3.10862446895e-15 13:-3.10862446895e-15 14:0.0 15:0.0 16:4.21884749358e-15 17:4.21884749358e-15 18:4.21884749358e-15 19:0.0 20:0.0 21:-3.66373598126e-15 22:-3.66373598126e-15 23:-3.66373598126e-15 24:0.0 25:0.0 26:-1.88737914186e-15 27:-1.88737914186e-15 28:-1.88737914186e-15 29:0.0 30:0.0 
