19:43:35		x: 941.7
19:43:35		x: 941.72
19:43:35		x: 941.71
19:43:35		x: 941.69
19:43:36		x: 941.78
19:43:36		x: 941.72
19:43:36		x: 941.8
19:43:36		x: 941.77
19:43:36		x: 941.78
19:43:36		x: 941.78
19:43:37		x: 941.76
19:43:37		x: 941.7
19:43:37		x: 941.83
19:43:37		x: 941.69
19:43:37		x: 941.82
19:43:38		x: 941.84
19:43:38		x: 941.81
19:43:38		x: 941.81
19:43:38		x: 941.65
19:43:38		x: 941.8
19:43:38		x: 941.79
19:43:39		x: 941.7
19:43:39		x: 941.77
19:43:39		x: 941.73
19:43:39		x: 941.71
19:43:39		x: 941.77
19:43:40		x: 941.71
19:43:40		x: 941.7
19:43:40		x: 941.74
19:43:40		x: 941.75
19:43:40		x: 941.72
19:43:40		x: 941.72
19:43:41		x: 941.73
19:43:41		x: 941.77
19:43:41		x: 941.71
19:43:41		x: 941.72
19:43:41		x: 941.72
19:43:42		x: 941.74
19:43:42		x: 941.72
19:43:42		x: 941.74
19:43:42		x: 941.76
19:43:42		x: 941.64
19:43:42		x: 941.72
19:43:43		x: 941.7
19:43:43		x: 941.75
19:43:43		x: 941.71
19:43:43		x: 941.75
19:43:43		x: 941.76
19:43:44		x: 941.72
19:43:44		x: 941.78
19:43:44		x: 941.75
19:43:44		x: 941.76
19:43:44		x: 941.75
19:43:44		x: 941.75
19:43:45		x: 941.82
19:43:45		x: 941.77
19:43:45		x: 941.75
19:43:45		x: 941.72
19:43:45		x: 941.73
19:43:45		x: 941.75
19:43:46		x: 941.75
19:43:46		x: 941.78
19:43:46		x: 941.79
19:43:46		x: 941.75
19:43:46		x: 941.79
19:43:47		x: 941.77
19:43:47		x: 941.77
19:43:47		x: 941.78
19:43:47		x: 941.8
19:43:47		x: 941.79
19:43:48		x: 941.74
19:43:48		x: 941.7
19:43:48		x: 941.73
19:43:48		x: 941.78
19:43:48		x: 941.8
19:43:48		x: 941.72
19:43:49		x: 941.7
19:43:49		x: 941.63
19:43:49		x: 941.68
19:43:49		x: 941.63
19:43:49		x: 941.57
19:43:49		x: 941.57
19:43:50		x: 941.56
19:43:50		x: 941.52
19:43:50		x: 941.65
19:43:50		x: 941.48
19:43:50		x: 941.48
19:43:51		x: 941.5
19:43:51		x: 941.48
19:43:51		x: 941.46
19:43:51		x: 941.51
19:43:51		x: 941.46
19:43:51		x: 941.41
19:43:52		x: 941.44
19:43:52		x: 941.4
19:43:52		x: 941.33
19:43:52		x: 941.44
19:43:52		x: 941.36
19:43:53		x: 941.42
19:43:53		x: 941.46
19:43:53		x: 941.37
19:43:53		x: 941.38
19:43:53		x: 941.38
19:43:53		x: 941.38
19:43:54		x: 941.34
19:43:54		x: 941.36
19:43:54		x: 941.36
19:43:54		x: 941.34
19:43:54		x: 941.34
19:43:55		x: 941.41
19:43:55		x: 941.4
19:43:55		x: 941.4
19:43:55		x: 941.37
19:43:55		x: 941.37
19:43:55		x: 941.4
19:43:56		x: 941.32
19:43:56		x: 941.38
19:43:56		x: 941.32
19:43:56		x: 941.37
19:43:56		x: 941.43
19:43:56		x: 941.38
19:43:57		x: 941.41
19:43:57		x: 941.39
19:43:57		x: 941.42
19:43:57		x: 941.36
19:43:57		x: 941.4
19:43:58		x: 941.38
19:43:58		x: 941.39
19:43:58		x: 941.28
19:43:58		x: 941.35
19:43:58		x: 941.33
19:43:58		x: 941.41
19:43:59		x: 941.39
19:43:59		x: 941.38
19:43:59		x: 941.32
19:43:59		x: 941.34
19:43:59		x: 941.36
19:44:00		x: 941.36
19:44:00		x: 941.38
19:44:00		x: 941.36
19:44:00		x: 941.42
19:44:00		x: 941.42
19:44:00		x: 941.28
19:44:01		x: 941.32
19:44:01		x: 941.28
19:44:01		x: 941.36
19:44:01		x: 941.3
19:44:01		x: 941.35
19:44:02		x: 941.33
19:44:02		x: 941.31
19:44:02		x: 941.29
19:44:02		x: 941.27
19:44:02		x: 941.32
19:44:03		x: 941.38
19:44:03		x: 941.3
19:44:03		x: 941.27
19:44:03		x: 941.3
19:44:03		x: 941.34
