13:35:50		x: -0.04369418	y: 4.1024647	z: 9.102755
13:35:50		x: 0.20350714	y: 4.020463	z: 8.647258
13:35:50		x: 0.6266823	y: 3.393781	z: 8.59698
13:35:50		x: -2.259528	y: 5.498883	z: 8.297106
13:35:51		x: -3.8367083	y: 4.7141833	z: 10.593145
13:35:51		x: -2.6539726	y: 3.321955	z: 10.653599
13:35:51		x: -1.7280151	y: 3.0244753	z: 7.41185
13:35:51		x: 8.333019	y: 3.2692823	z: 5.635352
13:35:51		x: 9.75697	y: 7.4483614	z: 2.2679076
13:35:52		x: 10.251373	y: 2.517503	z: 4.092888
13:35:52		x: 8.815451	y: 1.513734	z: -2.5222914
13:35:52		x: 11.7860565	y: 3.0178912	z: -5.2624555
13:35:52		x: 10.533889	y: 5.1996074	z: -6.76362
13:35:52		x: 7.996035	y: -6.172252	z: -1.79206
13:35:52		x: 2.72939	y: 7.1808095	z: -9.36492
13:35:53		x: 9.029732	y: 3.857059	z: -5.0942626
13:35:53		x: 11.932103	y: 2.7814639	z: -5.9148755
13:35:53		x: 8.629301	y: 0.7206547	z: -0.37469256
13:35:53		x: 9.728839	y: -1.1198878	z: -1.6813282
13:35:53		x: 9.573814	y: -1.2898762	z: -1.4706384
13:35:54		x: 10.70687	y: 0.6314707	z: -1.7238252
13:35:54		x: 10.386047	y: -3.9552212	z: -2.1410148
13:35:54		x: 8.950723	y: 0.79128367	z: -4.060566
13:35:54		x: 9.973646	y: -0.107140526	z: -5.109226
13:35:54		x: 4.80636	y: -2.9460652	z: -0.8762778
13:35:54		x: 11.186908	y: -0.8098387	z: -0.60573304
13:35:55		x: 10.303447	y: -2.7485435	z: -1.6801311
13:35:55		x: 10.113707	y: -0.24301147	z: -0.8810662
13:35:55		x: 9.415796	y: -2.9963434	z: -2.32058
13:35:55		x: 8.889671	y: -2.754529	z: -2.634819
13:35:55		x: 9.354146	y: -3.58412	z: -2.3654714
13:35:56		x: 9.807847	y: -1.54845	z: -2.331354
13:35:56		x: 9.7803135	y: -1.5448587	z: -1.4772224
13:35:56		x: 9.704897	y: -2.0045455	z: -1.7842789
13:35:56		x: 9.828198	y: -2.106299	z: -1.79206
13:35:56		x: 9.794679	y: -1.4221559	z: -1.8219875
13:35:56		x: 9.811439	y: -1.4185646	z: -1.8028339
13:35:57		x: 9.741408	y: -1.5035586	z: -1.8010383
13:35:57		x: 9.767744	y: -1.6065093	z: -1.804031
13:35:57		x: 9.72824	y: -1.5705963	z: -1.9033904
13:35:57		x: 9.820416	y: -1.5891514	z: -1.8716671
13:35:57		x: 9.723452	y: -1.5131354	z: -1.9255368
13:35:58		x: 9.77373	y: -1.46585	z: -1.8680758
13:35:58		x: 9.788095	y: -1.572392	z: -1.9249382
13:35:58		x: 9.755774	y: -1.7537527	z: -1.8830396
13:35:58		x: 9.754577	y: -1.757344	z: -1.8183962
13:35:58		x: 9.81084	y: -1.6286557	z: -1.8381484
13:35:58		x: 9.735423	y: -1.389834	z: -1.9865888
13:35:59		x: 9.715671	y: -1.9063832	z: -1.9261353
13:35:59		x: 9.648034	y: -1.929128	z: -1.8070238
13:35:59		x: 9.783905	y: -1.7986441	z: -1.8579005
13:35:59		x: 9.7324295	y: -1.9578584	z: -1.7363948
13:35:59		x: 9.81503	y: -1.9758149	z: -1.6962919
13:36:00		x: 9.697714	y: -1.8321629	z: -1.6998832
13:36:00		x: 9.752781	y: -2.0057425	z: -1.75076
13:36:00		x: 9.693524	y: -1.834557	z: -1.7286136
13:36:00		x: 9.742006	y: -1.863886	z: -1.7232267
13:36:00		x: 9.747394	y: -2.019509	z: -1.6292542
13:36:01		x: 9.743204	y: -1.9782091	z: -1.6723499
13:36:01		x: 9.774927	y: -2.005144	z: -1.6136919
13:36:01		x: 9.660604	y: -2.0775685	z: -1.5879543
13:36:01		x: 9.6845455	y: -1.951873	z: -1.6346412
13:36:01		x: 9.783307	y: -1.8010383	z: -1.6657659
13:36:01		x: 9.813833	y: -1.8088194	z: -1.6334441
13:36:01		x: 11.270704	y: -2.1068976	z: -1.7286136
13:36:02		x: 10.809821	y: -2.219425	z: -1.5873557
13:36:02		x: 10.219051	y: -2.0572178	z: -1.6106992
13:36:02		x: 10.127473	y: -2.083554	z: -1.614889
13:36:02		x: 9.655217	y: -1.75076	z: -1.5861586
13:36:02		x: 9.966463	y: -1.8124107	z: -1.7399861
13:36:03		x: 9.868899	y: -1.8644845	z: -1.6005238
13:36:03		x: 9.716867	y: -1.7681179	z: -1.5298948
13:36:03		x: 9.731233	y: -1.8602947	z: -1.6280571
13:36:03		x: 9.879673	y: -1.7741034	z: -1.6220716
13:36:03		x: 9.649231	y: -1.7776948	z: -1.5999253
13:36:03		x: 9.804854	y: -1.8662802	z: -1.6077064
13:36:04		x: 9.8515415	y: -1.8429368	z: -1.5903485
13:36:04		x: 9.855731	y: -1.8818425	z: -1.5394717
13:36:04		x: 9.835979	y: -1.8513165	z: -1.543063
13:36:04		x: 9.89763	y: -1.9015948	z: -1.5628152
13:36:04		x: 9.874287	y: -1.9147629	z: -1.5747862
13:36:05		x: 9.709086	y: -1.8764555	z: -1.5699978
13:36:05		x: 9.755774	y: -1.8686744	z: -1.5652094
13:36:05		x: 9.777321	y: -1.8770541	z: -1.5442601
13:36:05		x: 9.72824	y: -1.8728642	z: -1.525705
13:36:05		x: 9.713276	y: -1.8555063	z: -1.5328877
13:36:05		x: 9.705495	y: -1.8471266	z: -1.5562311
13:36:06		x: 9.768343	y: -1.8447324	z: -1.5879543
13:36:06		x: 9.753379	y: -1.845331	z: -1.5628152
13:36:06		x: 9.7641535	y: -1.7968484	z: -1.614889
13:36:06		x: 9.858126	y: -1.8525136	z: -1.6178818
13:36:06		x: 9.919178	y: -1.863886	z: -1.6220716
13:36:07		x: 9.591172	y: -1.8848352	z: -1.5592239
13:36:07		x: 9.687539	y: -1.7381904	z: -1.6352397
13:36:07		x: 9.960478	y: -1.8890251	z: -1.6519991
13:36:07		x: 9.600749	y: -1.7130513	z: -1.6502035
13:36:07		x: 9.817424	y: -1.8561049	z: -1.6837224
13:36:07		x: 9.942521	y: -1.8842367	z: -1.7256209
13:36:08		x: 9.589376	y: -1.5652094	z: -1.6525977
13:36:08		x: 9.92636	y: -2.098518	z: -1.7561469
13:36:08		x: 9.762956	y: -1.9746178	z: -1.6089035
13:36:08		x: 9.687539	y: -1.821389	z: -1.6382325
13:36:08		x: 9.738416	y: -1.7938557	z: -1.6059108
13:36:09		x: 9.71986	y: -1.8579005	z: -1.5765818
13:36:09		x: 9.765948	y: -1.9321208	z: -1.62686
13:36:09		x: 9.849746	y: -1.9369092	z: -1.6130934
13:36:09		x: 9.752182	y: -1.9207484	z: -1.5825673
13:36:09		x: 9.778519	y: -1.8782512	z: -1.5915456
13:36:09		x: 9.824607	y: -1.9297266	z: -1.5867572
13:36:10		x: 9.755175	y: -1.977012	z: -1.5179238
13:36:10		x: 9.722255	y: -1.9788077	z: -1.5029601
13:36:10		x: 9.744401	y: -1.9542671	z: -1.5251064
13:36:10		x: 9.741408	y: -1.9895816	z: -1.484405
13:36:10		x: 8.640674	y: -1.8411411	z: -1.2006922
13:36:11		x: 8.042124	y: -1.5693992	z: -1.2940661
13:36:11		x: 9.841965	y: -1.7711107	z: -1.7603368
13:36:11		x: 9.949105	y: -1.7447745	z: -2.1493945
13:36:11		x: 9.172187	y: -1.6992847	z: -1.9506758
13:36:11		x: 10.061633	y: -1.7328035	z: -2.0608091
13:36:11		x: 9.829993	y: -1.7794905	z: -1.9979613
13:36:12		x: 9.378088	y: -1.6214731	z: -1.917157
13:36:12		x: 9.961675	y: -1.7459716	z: -1.9494787
13:36:12		x: 9.749189	y: -1.8495208	z: -1.8148049
13:36:12		x: 9.51755	y: -1.7345991	z: -1.8142064
13:36:12		x: 9.953894	y: -1.8722657	z: -1.7842789
13:36:12		x: 9.712678	y: -1.8489223	z: -1.7405846
13:36:13		x: 7.6530657	y: -1.4329298	z: -1.6286557
13:36:13		x: 10.6398325	y: -1.7381904	z: -1.8028339
13:36:13		x: 9.752182	y: -1.9237411	z: -1.5125369
13:36:13		x: 9.844957	y: -1.965041	z: -1.6095021
13:36:13		x: 9.647436	y: -2.0751743	z: -1.590947
13:36:14		x: 9.794081	y: -1.8387469	z: -1.6023195
13:36:14		x: 9.723452	y: -1.8908207	z: -1.6089035
13:36:14		x: 9.862315	y: -2.0219033	z: -1.5741876
13:36:14		x: 9.836577	y: -1.8243817	z: -1.2378023
13:36:14		x: 9.813234	y: -1.7956513	z: -1.2455834
13:36:14		x: 10.115502	y: -2.1894975	z: -0.65421563
13:36:15		x: 9.714474	y: -2.12246	z: -1.2401965
13:36:15		x: 9.724648	y: -2.2158337	z: -1.2491747
13:36:15		x: 9.943718	y: -2.1266496	z: -1.3060371
13:36:15		x: 9.613318	y: -2.0494366	z: -1.158195
13:36:15		x: 9.5809965	y: -2.136825	z: -1.1617863
13:36:16		x: 9.691729	y: -2.2619221	z: -1.1055226
13:36:16		x: 9.869498	y: -2.243367	z: -1.0773908
13:36:16		x: 9.93474	y: -2.3942018	z: -1.0414777
13:36:16		x: 9.907207	y: -2.954445	z: -1.0510546
13:36:16		x: 9.228451	y: -3.5769374	z: -1.0630256
13:36:17		x: 9.413403	y: -3.6888664	z: -0.8655039
13:36:17		x: 10.724228	y: -2.7455509	z: -0.4321534
13:36:17		x: 9.788693	y: -5.4683566	z: -0.84814596
13:36:17		x: 11.747749	y: 0.024540568	z: 2.2631192
13:36:17		x: 11.264719	y: 4.2556934	z: 5.3235073
13:36:17		x: 9.508572	y: 0.14065935	z: 0.48841715
13:36:18		x: 10.100538	y: 5.8987145	z: 0.09636662
13:36:18		x: 8.890868	y: 6.0531406	z: 4.1252093
13:36:18		x: 8.024766	y: 5.4114943	z: -0.02873042
13:36:18		x: 5.0092683	y: 2.8820202	z: 7.8930845
13:36:18		x: 0.66498953	y: 4.3783965	z: 8.672996
13:36:18		x: 2.5605986	y: 2.9346926	z: 9.208698
13:36:19		x: 2.0649989	y: 3.5984852	z: 11.441292
13:36:19		x: -0.061052144	y: 4.4753613	z: 9.402629
13:36:19		x: -0.28909984	y: 3.4745853	z: 9.440936
