13:35:50		x: 940.02
13:35:50		x: 939.98
13:35:50		x: 939.99
13:35:51		x: 940.02
13:35:51		x: 939.99
13:35:51		x: 939.97
13:35:51		x: 939.99
13:35:51		x: 939.97
13:35:51		x: 940.05
13:35:52		x: 940.0
13:35:52		x: 939.98
13:35:52		x: 940.02
13:35:52		x: 940.0
13:35:52		x: 940.04
13:35:52		x: 940.08
13:35:53		x: 940.05
13:35:53		x: 939.97
13:35:53		x: 940.0
13:35:53		x: 939.98
13:35:53		x: 939.99
13:35:54		x: 940.01
13:35:54		x: 939.99
13:35:54		x: 940.07
13:35:54		x: 940.05
13:35:54		x: 940.01
13:35:54		x: 940.01
13:35:55		x: 939.97
13:35:55		x: 940.07
13:35:55		x: 940.05
13:35:55		x: 940.04
13:35:55		x: 940.03
13:35:56		x: 940.04
13:35:56		x: 940.03
13:35:56		x: 940.02
13:35:56		x: 940.01
13:35:56		x: 940.02
13:35:56		x: 940.0
13:35:57		x: 940.0
13:35:57		x: 940.01
13:35:57		x: 940.01
13:35:57		x: 940.04
13:35:57		x: 940.0
13:35:58		x: 940.01
13:35:58		x: 940.01
13:35:58		x: 939.99
13:35:58		x: 939.98
13:35:58		x: 940.01
13:35:58		x: 940.03
13:35:59		x: 940.0
13:35:59		x: 940.02
13:35:59		x: 940.06
13:35:59		x: 940.0
13:35:59		x: 940.0
13:36:00		x: 940.01
13:36:00		x: 940.03
13:36:00		x: 940.03
13:36:00		x: 939.99
13:36:00		x: 939.96
13:36:01		x: 940.0
13:36:01		x: 940.01
13:36:01		x: 940.0
13:36:01		x: 940.05
13:36:01		x: 939.99
13:36:01		x: 939.97
13:36:01		x: 940.03
13:36:02		x: 940.02
13:36:02		x: 940.01
13:36:02		x: 939.99
13:36:02		x: 940.01
13:36:02		x: 939.98
13:36:03		x: 939.94
13:36:03		x: 939.96
13:36:03		x: 939.95
13:36:03		x: 939.95
13:36:03		x: 939.94
13:36:04		x: 939.88
13:36:04		x: 939.91
13:36:04		x: 939.85
13:36:04		x: 939.85
13:36:04		x: 939.87
13:36:04		x: 939.86
13:36:05		x: 939.84
13:36:05		x: 939.83
13:36:05		x: 939.75
13:36:05		x: 939.8
13:36:05		x: 939.78
13:36:05		x: 939.78
13:36:06		x: 939.78
13:36:06		x: 939.75
13:36:06		x: 939.7
13:36:06		x: 939.75
13:36:06		x: 939.71
13:36:07		x: 939.69
13:36:07		x: 939.63
13:36:07		x: 939.64
13:36:07		x: 939.63
13:36:07		x: 939.63
13:36:08		x: 939.6
13:36:08		x: 939.58
13:36:08		x: 939.56
13:36:08		x: 939.58
13:36:08		x: 939.58
13:36:08		x: 939.54
13:36:09		x: 939.55
13:36:09		x: 939.5
13:36:09		x: 939.49
13:36:09		x: 939.42
13:36:09		x: 939.5
13:36:09		x: 939.43
13:36:10		x: 939.42
13:36:10		x: 939.4
13:36:10		x: 939.38
13:36:10		x: 939.38
13:36:10		x: 939.41
13:36:11		x: 939.39
13:36:11		x: 939.39
13:36:11		x: 939.41
13:36:11		x: 939.4
13:36:11		x: 939.35
13:36:11		x: 939.37
13:36:12		x: 939.4
13:36:12		x: 939.4
13:36:12		x: 939.39
13:36:12		x: 939.43
13:36:12		x: 939.41
13:36:13		x: 939.39
13:36:13		x: 939.36
13:36:13		x: 939.4
13:36:13		x: 939.37
13:36:13		x: 939.35
13:36:13		x: 939.35
13:36:14		x: 939.37
13:36:14		x: 939.36
13:36:14		x: 939.42
13:36:14		x: 939.43
13:36:14		x: 939.34
13:36:14		x: 939.35
13:36:15		x: 939.42
13:36:15		x: 939.37
13:36:15		x: 939.37
13:36:15		x: 939.42
13:36:15		x: 939.44
13:36:16		x: 939.37
13:36:16		x: 939.43
13:36:16		x: 939.41
13:36:16		x: 939.38
13:36:17		x: 939.39
13:36:17		x: 939.35
13:36:17		x: 939.36
13:36:17		x: 939.36
13:36:17		x: 939.33
13:36:17		x: 939.4
13:36:17		x: 939.35
13:36:18		x: 939.32
13:36:18		x: 939.32
13:36:18		x: 939.35
13:36:18		x: 939.34
13:36:18		x: 939.34
13:36:18		x: 939.39
13:36:19		x: 939.32
13:36:19		x: 939.38
13:36:19		x: 939.33
