14 1:141.306618024 2:135.020043324 3:139.199592171 4:1.9632846371 5:3.85448656629 6:1.84952682621 7:-1.53051705323 8:-5.40308538651e-15 9:1.02033985981 10:1.04109342952 11:1.80494119593 12:-1.61906627823 13:-4.9219887425e-15 14:1.05249302843 15:1.1077415749 16:2.43132655994 17:-2.30141101221 18:-4.66293670343e-15 19:1.49891725926 20:2.24675295011 21:0.953511809404 22:-1.13649317589 23:-1.62832710278e-15 24:0.784800727464 25:0.615912181828 26:1.11819264322 27:-1.07723055682 28:0.0456659397705 29:0.817245551991 30:0.667890292249 
14 1:276.507097957 2:166.453894149 3:203.264239094 4:34.3910071535 5:1182.74137303 6:27.4975015375 7:-32.6027380613 8:-3.21964677141e-15 9:18.1708858982 10:330.181094326 11:28.3207023781 12:-32.3580880381 13:-1.11022302463e-16 14:18.4625401127 15:340.865387412 16:45.9320098326 17:-47.5504816227 18:-4.73695157173e-15 19:28.874560761 20:833.740259141 21:13.8830906822 22:-13.7442776771 23:-6.66133814775e-16 24:8.82521275944 25:77.8843802494 26:16.6528476685 27:-22.9031119828 28:-0.209070069819 29:11.9634052074 30:143.123064155 
14 1:243.656940679 2:181.135949343 3:222.89870046 4:19.5857435286 5:383.60134957 6:18.9258922175 7:-17.0715093772 8:-3.99680288865e-15 9:11.1397351592 10:124.093699417 11:20.1321968183 12:-16.3617748838 13:3.70074341542e-15 14:11.0397618714 15:121.876342178 16:38.1909020254 17:-38.6188029101 18:-1.18423789293e-15 19:23.1409585082 20:535.503960677 21:26.184474649 22:-28.4970075529 23:1.7763568394e-15 24:17.1693712146 25:294.787307904 26:8.83677427456 27:-8.79799400257 28:-0.500157502761 29:5.61816624396 30:31.5637919448 
14 1:165.933360757 2:160.820065782 3:164.259212856 4:1.61404071401 5:2.60512742648 6:1.55450701461 7:-1.62366840646 8:5.18104078158e-16 9:1.11952288374 10:1.25333148721 11:2.08200571087 12:-1.63995004779 13:-6.05071548421e-15 14:1.13881798889 15:1.29690641182 16:6.60098616895 17:-6.77875917545 18:-2.81256499572e-15 19:4.06005237709 20:16.4840253047 21:3.4009170994 22:-3.1062126308 23:0.117959071593 24:2.32609958198 25:5.4107392653 26:0.322899387886 27:-0.260742497921 28:-0.0521484995842 29:0.251668445693 30:0.0633370065576 
