7 1:29.9945592029 2:13.1186282402 3:18.7203071774 4:5.76328906956 5:33.2155008993 6:4.62231650588 7:-5.87259180513 8:-3.48927236311e-16 9:3.18355211405 10:10.1350040629 11:2.29356815738 12:-2.0047744518 13:0.17172650845 14:1.31826363757 15:1.73781901814 16:3.03295570778 17:-2.61238645151 18:-0.01506006765 19:1.49949972112 20:2.24849941363 21:3.016151505 22:-5.82138676482 23:-1.02024475298 24:2.7570636924 25:7.60140020392 26:10.4101644914 27:-7.48013521927 28:0.998603447133 29:5.5009218309 30:30.2601409897 
7 1:13.2446898748 2:5.86308152434 3:8.21006735848 4:2.55781530517 5:6.54241913538 6:3.55244467907 7:-4.80432913009 8:-1.90323947079e-16 9:2.39518128434 10:5.73689338486 11:1.81729161662 12:-1.90126305924 13:0.244456048644 14:1.1834768079 15:1.40061735484 16:2.06908978733 17:-2.4408295571 18:0.099612843405 19:1.32245515675 20:1.74888764161 21:6.15160897984 22:-11.6929956189 23:-1.78996617874 24:4.98695375137 25:24.8697077183 26:8.71503832836 27:-13.4840524405 28:0.496989652106 29:7.99093662773 30:63.8550681884 
7 1:20.150057373 2:-4.43989249183 3:3.84053473089 4:8.40517148037 5:70.6469076145 6:5.64046011497 7:-4.04343214425 8:-3.9650822308e-17 9:3.3480840549 10:11.2096668387 11:2.94922129208 12:-2.72178476837 13:0.263765737647 14:1.95250734636 15:3.8122849376 16:4.62293459387 17:-5.35130403159 18:0.553259508172 19:3.17587468782 20:10.0861800327 21:3.2952192174 22:-12.0198468082 23:-1.67296061421 24:4.50887544594 25:20.329957787 26:11.3187923863 27:-8.14724009994 28:-0.912994748899 29:5.66269709821 30:32.066138426 
7 1:32.0928186019 2:1.17544159308 3:21.6497235254 4:10.5286648456 5:110.85278343 6:5.18595928651 7:-6.5262342802 8:-2.53765262771e-16 9:4.04692308482 10:16.3775864545 11:2.31320954582 12:-3.20407687719 13:-0.200365733619 14:2.09905863681 15:4.40604716076 16:6.38247994993 17:-5.83734516342 18:0.0295013886414 19:3.37212745445 20:11.371243569 21:4.0473940569 22:-5.02064455959 23:0.340993507509 24:2.53755845648 25:6.43920292005 26:19.1083996039 27:-13.8350508905 28:-0.754868538339 29:8.74487032583 30:76.4727570157 
7 1:2.70889068857 2:-21.5506180421 3:-5.61833352034 4:8.24064557401 5:67.9082394765 6:4.5469000139 7:-4.96930984066 8:2.69625591695e-16 9:2.64072132685 10:6.9734091261 11:4.2412892689 12:-4.35326694493 13:0.0123043366119 14:2.3934273639 15:5.72849454628 16:3.30907402079 17:-4.16636030223 18:-0.560769234269 19:2.46532072173 20:6.07780626098 21:15.3778455472 22:-14.395289019 23:-0.246981406124 24:7.34735273745 25:53.9835922485 26:17.895790788 27:-14.4402977676 28:0.283007052742 29:9.89251177462 30:97.8617892109 
7 1:-3.67469594381 2:-10.673742168 3:-5.97191111345 4:2.41353941782 5:5.82517252136 6:2.20766697575 7:-1.83194705204 8:2.29974769387e-16 9:1.36373526842 10:1.85977388234 11:0.851205677757 12:-1.42347639172 13:-0.240810050944 14:0.736065759827 15:0.54179280279 16:2.95334779501 17:-3.07945915525 18:-0.234794241003 19:1.80384764338 20:3.25386632054 21:10.9031188717 22:-1.76913572597 23:1.73688797794 24:3.58726841876 25:12.8684947082 26:8.00521705468 27:-10.6676229539 28:-0.516392857412 29:6.91242049637 30:47.7815571187 
7 1:7.18982094354 2:-12.3919453318 3:0.662644921771 4:6.69356122806 5:44.8037619138 6:5.58677595975 7:-4.54088060344 8:-1.03092138001e-16 9:3.28509322703 10:10.7918375103 11:1.67659211727 12:-2.32856573207 13:-0.233564204998 14:1.48034922053 15:2.19143381473 16:3.05398753729 17:-3.43548030354 18:-0.235000034091 19:1.82121223297 20:3.31681399751 21:8.69021596737 22:-3.6697506824 23:1.42296730082 24:3.30187191568 25:10.9023581475 26:8.43308728672 27:-11.7375116232 28:-0.566168534701 29:6.99927296611 30:48.9898220542 
7 1:4.15991787802 2:-11.0593533725 3:-0.882013166708 4:5.21651312635 5:27.2120091973 6:5.03517564214 7:-3.99626134407 8:7.93016446161e-18 9:2.84656828033 10:8.10295097457 11:1.8084455736 12:-2.26707145343 13:-0.207552279 14:1.34099582981 15:1.79826981556 16:1.330353286 17:-2.04237125821 18:-0.248736926214 19:1.05039837334 20:1.10333674273 21:11.512185656 22:-10.3512383456 23:1.41881783471 24:6.09318046125 25:37.1268481334 26:15.1549260564 27:-19.9685305048 28:-0.793765941124 29:10.0470740528 30:100.943697022 
7 1:7.21711981781 2:-9.2006987146 3:1.80328790041 4:5.6184958893 5:31.567496058 6:6.39026954321 7:-4.96882106805 8:7.13714801545e-17 9:3.38228154862 10:11.4398284741 11:2.08350634014 12:-2.31403192684 13:-0.259748663935 14:1.37578203424 15:1.89277620573 16:4.72409493656 17:-5.21087009691 18:0.0313298263362 19:2.57864543026 20:6.64941225499 21:8.73329411134 22:-2.6025657676 23:1.53636137817 24:3.01554212977 25:9.09349433642 26:9.33459164936 27:-13.3245208526 28:-0.467795503389 29:7.78157480785 30:60.5529064902 
7 1:11.2603583672 2:-11.737941328 3:3.57668424964 4:7.86036166712 5:61.7852855379 6:5.73434737571 7:-5.10374938415 8:2.22044604925e-16 9:3.60783356256 10:13.0164630151 11:1.89082421461 12:-2.49268477512 13:-0.316576195616 14:1.69659057222 15:2.87841956976 16:2.67585399639 17:-3.01235961324 18:-0.244574562241 19:1.63262801861 20:2.66547424715 21:11.1425079658 22:-1.81150182715 23:1.82432681559 24:3.69467425882 25:13.6506178788 26:8.24790881554 27:-11.2703516093 28:-0.461816899585 29:7.22593756394 30:52.2141736779 
7 1:5.86557335955 2:-9.9106042106 3:0.715883253023 4:5.41383006742 5:29.3095559989 6:7.79305854855 7:-5.87206355989 8:-2.77555756156e-17 9:3.92955669974 10:15.4414158565 11:2.99153026052 12:-3.00326531483 13:-0.243261684927 14:1.7417158431 15:3.0335740781 16:3.48610754022 17:-3.40078006732 18:-0.130242524448 19:1.86802639908 20:3.48952262767 21:9.35189081762 22:-3.31700997709 23:1.50373156571 24:3.4112209947 25:11.6364286747 26:8.51737084598 27:-13.9093281169 28:-1.14172601509 29:7.18757640141 30:51.6612545261 
7 1:6.54511762151 2:-7.81000088625 3:1.7977466646 4:4.91023346219 5:24.1103926532 6:4.9876185244 7:-3.95383435051 8:-3.17206578464e-17 9:2.73769522875 10:7.49497516554 11:1.60330146292 12:-1.85659164219 13:-0.253254814657 14:1.14511298358 15:1.31128374517 16:3.32066982609 17:-3.64501369065 18:0.124026123915 19:1.82828738573 20:3.3426347648 21:7.78748621487 22:-1.62782555941 23:1.40293747296 24:2.82909153336 25:8.00375890416 26:13.7115316236 27:-12.4757541835 28:-0.590999383582 29:8.66428551665 30:75.0698435141 
7 1:26.5800158306 2:3.06185885721 3:10.9457025374 4:7.99315679897 5:63.8905556129 6:6.03518753427 7:-7.67074755959 8:-2.53765262771e-16 9:4.16805932424 10:17.3727185304 11:4.35417094922 12:-4.34716857477 13:-0.189705475891 14:2.55374690144 15:6.52162323661 16:11.8657599153 17:-13.5015913875 18:-0.595244871387 19:7.03232816499 20:49.4536394201 21:8.33578192877 22:-8.43844532142 23:1.3561489652 24:5.01993591502 25:25.1997565909 26:14.8745068652 27:-13.2551085751 28:-1.08542223659 29:7.78851348608 30:60.6609423228 
7 1:32.0480440944 2:12.5989521324 3:19.0693890648 4:6.64658192602 5:44.1770512993 6:4.94208080361 7:-6.20667653138 8:-5.07530525543e-16 9:3.47280913599 10:12.060403295 11:2.59586141257 12:-2.09346808687 13:0.192980226832 14:1.53119033074 15:2.34454382894 16:2.64420866256 17:-2.37518417942 18:0.211122078096 19:1.44707822151 20:2.09403537918 21:2.09230760852 22:-6.56479097619 23:-1.05975409399 24:2.24229644213 25:5.0278933344 26:7.86371353528 27:-7.80930170962 28:0.162255867474 29:5.15554794216 30:26.5796745839 
7 1:32.4410428731 2:15.6678524693 3:21.2195720519 4:5.74059904272 5:32.9544773692 6:4.66247801029 7:-5.92971052584 8:-2.29974769387e-16 9:3.23167517539 10:10.4437244392 11:2.37036544844 12:-1.99891362599 13:0.228390846347 14:1.39342677863 15:1.9416381874 16:2.98087953635 17:-2.79058448517 18:0.158661194332 19:1.60196877515 20:2.56630395655 21:2.28802985067 22:-8.64607216283 23:-1.39723259813 24:2.87244339866 25:8.25093107848 26:7.80014186905 27:-8.00712393211 28:0.0790662811798 29:5.13938983514 30:26.4133278775 
7 1:41.0493291364 2:13.6535953384 3:22.7922707416 4:8.5628660575 5:73.3226751187 6:7.04248779008 7:-8.62936440518 8:3.70074341542e-16 9:4.73313212183 10:22.4025396827 11:5.03919848636 12:-7.02427755738 13:-1.11022302463e-15 14:3.8695228299 15:14.9732069311 16:2.79752884788 17:-4.2086488637 18:1.11022302463e-16 19:2.37252261076 20:5.62886353857 21:7.93775153857 22:-9.03741464017 23:0.0 24:6.16442870439 25:38.0001812515 26:2.99490515568 27:-4.5173836072 28:5.55111512313e-17 29:2.54772596459 30:6.49090759064 
