13:03:51		x: 943.63
13:03:51		x: 943.64
13:03:51		x: 943.65
13:03:52		x: 943.62
13:03:52		x: 943.58
13:03:52		x: 943.69
13:03:52		x: 943.6
13:03:52		x: 943.65
13:03:52		x: 943.58
13:03:53		x: 943.67
13:03:53		x: 943.63
13:03:53		x: 943.6
13:03:53		x: 943.65
13:03:53		x: 943.66
13:03:53		x: 943.62
13:03:54		x: 943.63
13:03:54		x: 943.64
13:03:54		x: 943.64
13:03:54		x: 943.61
13:03:54		x: 943.64
13:03:55		x: 943.63
13:03:55		x: 943.7
13:03:55		x: 943.61
13:03:55		x: 943.64
13:03:55		x: 943.62
13:03:55		x: 943.61
13:03:56		x: 943.64
13:03:56		x: 943.62
13:03:56		x: 943.6
13:03:56		x: 943.6
13:03:56		x: 943.63
13:03:57		x: 943.58
13:03:57		x: 943.64
13:03:57		x: 943.6
13:03:57		x: 943.62
13:03:57		x: 943.64
13:03:57		x: 943.61
13:03:58		x: 943.62
13:03:58		x: 943.62
13:03:58		x: 943.62
13:03:58		x: 943.62
13:03:58		x: 943.61
13:03:59		x: 943.64
13:03:59		x: 943.63
13:03:59		x: 943.63
13:03:59		x: 943.61
13:03:59		x: 943.65
