13:36:22		x: -0.5291186	y: 3.638588	z: 9.398438
13:36:22		x: -0.31244332	y: 3.8510735	z: 9.126099
13:36:22		x: 2.707842	y: 3.8373067	z: 12.109274
13:36:23		x: 2.7401638	y: 3.6774938	z: 7.9529395
13:36:23		x: 5.4222684	y: 3.9264908	z: 7.903858
13:36:23		x: 4.087501	y: 3.478775	z: 9.1033535
13:36:23		x: 1.7160441	y: 2.8856115	z: 7.7823524
13:36:23		x: -0.22325931	y: 3.8522706	z: 8.488044
13:36:23		x: 1.471237	y: 5.349245	z: 9.263166
13:36:24		x: 3.834314	y: 8.013991	z: 9.052477
13:36:24		x: 2.1176715	y: 5.1984105	z: 8.331821
13:36:24		x: 3.2094274	y: 5.6299653	z: 7.8344264
13:36:24		x: 3.690662	y: 5.0703206	z: 8.313267
13:36:24		x: 3.0442274	y: 6.3182983	z: 5.697003
13:36:25		x: 3.1747115	y: 7.2753806	z: 6.9826894
13:36:25		x: 4.472967	y: 6.955156	z: 6.173449
13:36:25		x: 2.4091654	y: 5.8705826	z: 6.593033
13:36:25		x: 4.086902	y: 8.878299	z: -0.88046765
13:36:25		x: 5.4162827	y: 9.693524	z: 3.032855
13:36:25		x: -2.1362264	y: 7.8446016	z: 2.2870612
13:36:26		x: -5.7945666	y: 7.799112	z: -1.8309658
13:36:26		x: -6.1405287	y: 8.762778	z: -0.9708488
13:36:26		x: -8.016386	y: 4.683657	z: 0.7745243
13:36:26		x: -4.550779	y: 7.052121	z: -2.3427265
13:36:26		x: -3.7816415	y: 3.8630445	z: -2.2732944
13:36:27		x: -1.5197195	y: 12.062587	z: -1.9009962
13:36:27		x: -2.4408886	y: 8.343194	z: -2.0428526
13:36:27		x: -0.50278234	y: 12.824541	z: -2.6731262
13:36:27		x: -3.8965633	y: 8.416816	z: -2.5073278
13:36:27		x: -3.6924577	y: 8.32404	z: -2.3169887
13:36:27		x: -4.2874165	y: 8.127118	z: -2.8449101
13:36:28		x: -3.9085343	y: 8.423999	z: -2.0015526
13:36:28		x: -4.1599255	y: 8.358757	z: -2.3906105
13:36:28		x: -4.325724	y: 8.575432	z: -2.3989902
13:36:28		x: -3.7373488	y: 9.448717	z: -2.0213048
13:36:28		x: -4.0623617	y: 8.992023	z: -2.1691468
13:36:29		x: -4.1880574	y: 8.719683	z: -2.2655134
13:36:29		x: -4.1862617	y: 8.816648	z: -2.2014685
13:36:29		x: -4.148553	y: 8.74542	z: -2.2631192
13:36:29		x: -4.1341877	y: 8.713099	z: -2.291251
13:36:29		x: -4.1305966	y: 8.816648	z: -2.3331497
13:36:29		x: -4.203021	y: 8.793902	z: -2.4019828
13:36:30		x: -4.1820717	y: 8.665813	z: -2.385822
13:36:30		x: -4.1000705	y: 8.734647	z: -2.3469162
13:36:30		x: -4.1437645	y: 8.72507	z: -2.3732524
13:36:30		x: -4.132991	y: 8.719683	z: -2.3768437
13:36:30		x: -4.179079	y: 8.774151	z: -2.392406
13:36:31		x: -4.2036195	y: 8.7771435	z: -2.3894134
13:36:31		x: -4.156334	y: 8.806473	z: -2.3708582
13:36:31		x: -4.1341877	y: 8.730456	z: -2.3475149
13:36:31		x: -4.1461587	y: 8.740632	z: -2.3355439
13:36:31		x: -4.1599255	y: 8.798691	z: -2.3331497
13:36:31		x: -4.1437645	y: 8.765172	z: -2.3343468
13:36:32		x: -4.1718965	y: 8.824429	z: -2.3235726
13:36:32		x: -4.19105	y: 8.735245	z: -2.3020248
13:36:32		x: -4.1413703	y: 8.7849245	z: -2.2930467
13:36:32		x: -4.158728	y: 8.78672	z: -2.2930467
13:36:32		x: -4.224569	y: 8.918402	z: -2.344522
13:36:32		x: -4.107253	y: 8.718486	z: -2.2703018
13:36:33		x: -4.1024647	y: 8.721478	z: -2.3068132
13:36:33		x: -4.1216183	y: 8.731653	z: -2.2900538
13:36:33		x: -4.1317935	y: 8.763377	z: -2.308609
13:36:33		x: -4.185065	y: 8.847174	z: -2.3612814
13:36:33		x: -4.1317935	y: 8.718486	z: -2.3068132
13:36:34		x: -4.1066546	y: 8.767567	z: -2.3002293
13:36:34		x: -4.1413703	y: 8.814852	z: -2.2876596
13:36:34		x: -4.0904937	y: 8.7771435	z: -2.2619221
13:36:34		x: -4.1096473	y: 8.834005	z: -2.291251
13:36:34		x: -4.136582	y: 8.792108	z: -2.3331497
13:36:34		x: -4.122815	y: 8.711303	z: -2.3223755
13:36:35		x: -4.11264	y: 8.831612	z: -2.3002293
13:36:35		x: -4.009091	y: 8.707711	z: -2.255338
13:36:35		x: -4.0402155	y: 8.801684	z: -2.2613235
13:36:35		x: -4.049194	y: 8.714894	z: -2.267309
13:36:35		x: -4.0797195	y: 8.783728	z: -2.2864625
13:36:36		x: -4.0773253	y: 8.830415	z: -2.2583308
13:36:36		x: -4.0934863	y: 8.839992	z: -2.2655134
13:36:36		x: -4.124611	y: 8.730456	z: -2.2918496
13:36:36		x: -4.056975	y: 8.81964	z: -2.272696
13:36:36		x: -4.050989	y: 8.792706	z: -2.2403743
13:36:36		x: -4.132392	y: 8.890868	z: -2.2930467
13:36:37		x: -4.10845	y: 8.887876	z: -2.248754
13:36:37		x: -4.0557775	y: 8.765771	z: -2.2463598
13:36:37		x: -4.11683	y: 8.835801	z: -2.2786815
13:36:37		x: -4.0946836	y: 8.76637	z: -2.2559366
13:36:37		x: -4.1186256	y: 8.911219	z: -2.2697031
13:36:38		x: -4.1096473	y: 8.817844	z: -2.284667
13:36:38		x: -4.0743327	y: 8.833407	z: -2.2577322
13:36:38		x: -4.0587707	y: 8.771756	z: -2.2331917
13:36:38		x: -4.0815153	y: 8.829217	z: -2.2343888
13:36:38		x: -4.1533413	y: 8.871715	z: -2.3145945
13:36:38		x: -4.085107	y: 8.730456	z: -2.2493525
13:36:39		x: -4.1305966	y: 8.839992	z: -2.2661119
13:36:39		x: -4.0815153	y: 8.756194	z: -2.2559366
13:36:39		x: -4.052785	y: 8.749012	z: -2.2756886
13:36:39		x: -4.111443	y: 8.777742	z: -2.3020248
13:36:39		x: -4.3161473	y: 8.599973	z: -2.3050177
13:36:40		x: -4.1784806	y: 8.827422	z: -2.1206641
13:36:40		x: -3.8762126	y: 9.239224	z: -1.6927006
13:36:40		x: -4.0539823	y: 8.631696	z: -1.9267339
13:36:40		x: -3.8307228	y: 9.151836	z: -1.6849195
13:36:40		x: -3.7912183	y: 9.218275	z: -1.8351556
13:36:40		x: -3.851672	y: 9.019556	z: -1.8686744
13:36:41		x: -3.9516299	y: 8.913014	z: -1.9841946
13:36:41		x: -3.9294837	y: 8.893262	z: -1.9859903
13:36:41		x: -3.9324763	y: 8.908226	z: -2.100912
13:36:41		x: -3.9474401	y: 8.962095	z: -2.0973208
13:36:41		x: -3.9564183	y: 8.831013	z: -2.1918917
13:36:41		x: -3.9013517	y: 8.891466	z: -2.1936872
13:36:42		x: -3.9552212	y: 8.883087	z: -2.223615
13:36:42		x: -3.9312792	y: 8.880095	z: -2.203264
13:36:42		x: -3.9348705	y: 8.9279785	z: -2.1523874
13:36:42		x: -3.9199066	y: 8.915408	z: -2.1577742
13:36:42		x: -3.928885	y: 8.848371	z: -2.1505916
13:36:43		x: -3.9258924	y: 9.066243	z: -2.1709423
13:36:43		x: -4.3275194	y: 9.600749	z: -2.4013844
13:36:43		x: -4.171298	y: 9.70789	z: -2.1859062
13:36:43		x: -4.0025067	y: 8.953716	z: -2.1092918
13:36:43		x: -4.152743	y: 9.3343935	z: -2.243367
13:36:43		x: -4.0539823	y: 9.141062	z: -2.11827
13:36:44		x: -4.0240545	y: 8.9363575	z: -2.1290438
13:36:44		x: -4.012682	y: 9.060258	z: -2.1152773
13:36:44		x: -3.894169	y: 8.787917	z: -2.088941
13:36:44		x: -3.9576154	y: 8.990826	z: -2.0961237
13:36:44		x: -3.954024	y: 8.897452	z: -2.1051018
13:36:45		x: -3.9013517	y: 8.938752	z: -2.1057005
13:36:45		x: -3.9306808	y: 8.963293	z: -2.1015105
13:36:45		x: -3.8624458	y: 8.917204	z: -2.0913353
13:36:45		x: -3.9055414	y: 8.983045	z: -2.1134815
13:36:45		x: -3.9025488	y: 8.919	z: -2.098518
13:36:45		x: -3.9001546	y: 8.981848	z: -2.0991163
13:36:46		x: -3.9067385	y: 8.892664	z: -2.124854
13:36:46		x: -3.9187095	y: 8.924985	z: -2.147599
13:36:46		x: -3.9324763	y: 8.900445	z: -2.148796
13:36:46		x: -3.9318779	y: 8.919	z: -2.1649568
13:36:46		x: -3.9402575	y: 8.880095	z: -2.136825
13:36:47		x: -3.9240966	y: 8.924985	z: -2.1206641
13:36:47		x: -3.9402575	y: 8.949526	z: -2.1278467
13:36:47		x: -3.9432502	y: 8.895657	z: -2.144606
13:36:47		x: -3.946243	y: 8.909423	z: -2.1260512
13:36:47		x: -3.9564183	y: 8.917204	z: -2.1242554
13:36:47		x: -3.954024	y: 8.895657	z: -2.1655555
13:36:48		x: -3.9151182	y: 8.871715	z: -2.148796
13:36:48		x: -3.9175124	y: 8.965088	z: -2.142212
13:36:48		x: -3.904943	y: 8.889671	z: -2.1691468
13:36:48		x: -4.4538136	y: 9.709086	z: -2.391209
13:36:48		x: -3.9468415	y: 9.060856	z: -2.2750902
13:36:49		x: -3.7618895	y: 8.834005	z: -2.0733786
13:36:49		x: -3.8349125	y: 8.954913	z: -2.1637597
13:36:49		x: -3.899556	y: 8.710705	z: -2.0859482
13:36:49		x: -4.010886	y: 8.924985	z: -2.3666685
13:36:49		x: -3.8426938	y: 8.759786	z: -2.3319526
13:36:49		x: -3.6086605	y: 8.893861	z: -2.0871453
13:36:50		x: -3.803788	y: 8.831013	z: -2.3959973
13:36:50		x: -3.5488055	y: 8.67958	z: -2.556409
13:36:50		x: -3.1010897	y: 8.895058	z: -2.4474726
13:36:50		x: -5.671265	y: 7.757812	z: -1.6921021
13:36:50		x: -4.729147	y: 9.141062	z: -0.1340753
13:36:51		x: -7.3005195	y: 8.305486	z: -1.0295067
13:36:51		x: -5.403115	y: 8.234259	z: 2.3307555
13:36:51		x: -2.5276785	y: 4.981735	z: 8.986037
13:36:51		x: -1.2605472	y: 3.9438488	z: 9.340978
13:36:51		x: 1.9213469	y: 10.977415	z: 5.6096144
13:36:51		x: 4.657321	y: 5.7239375	z: 4.9823337
13:36:52		x: 6.5152216	y: 5.603629	z: 5.903503
13:36:52		x: 8.013991	y: 4.771644	z: 3.2279825
13:36:52		x: 8.306085	y: 2.8724434	z: 6.7612257
13:36:52		x: 4.6016555	y: -0.6087258	z: 10.183737
13:36:52		x: 3.5314474	y: 1.0564415	z: 9.426571
13:36:52		x: 2.9113493	y: 1.6214731	z: 9.907805
13:36:53		x: 2.778471	y: 2.2337902	z: 9.883863
13:36:53		x: 1.9081788	y: 1.5682021	z: 9.60015
13:36:53		x: 0.94810385	y: 1.8902222	z: 9.090185
13:36:53		x: 1.246182	y: 2.8455088	z: 9.31524
13:36:53		x: 2.1535845	y: 3.2519245	z: 11.119271
13:36:54		x: 1.5526398	y: 3.0520086	z: 8.66282
13:36:54		x: 1.4790181	y: 3.1136594	z: 9.01776
13:36:54		x: 1.8986019	y: 2.545635	z: 9.846154
13:36:54		x: 0.22625206	y: 3.5942953	z: 9.417592
13:36:54		x: 0.50757074	y: 3.3441012	z: 9.190144
13:36:54		x: 0.15682021	y: 3.6110547	z: 9.409213
13:36:55		x: 0.23223756	y: 3.4476504	z: 9.419388
13:36:55		x: -0.020949265	y: 3.675698	z: 9.471462
13:36:55		x: 0.078410104	y: 4.063559	z: 7.459734
13:36:55		x: -0.7589619	y: 4.0982747	z: 9.041104
13:36:55		x: -0.30885202	y: 3.8732197	z: 9.583989
13:36:56		x: -0.58657944	y: 4.1383777	z: 9.156625
13:36:56		x: -0.43993455	y: 4.0258503	z: 9.042301
13:36:56		x: -0.3788824	y: 3.9360676	z: 9.245809
13:36:56		x: -0.47225627	y: 3.9606082	z: 9.61272
