20:17:19		x: 20.56655
20:17:20		x: 20.454538
20:17:21		x: 20.454538
20:17:22		x: 20.454538
20:17:23		x: 20.38537
20:17:24		x: 20.38537
20:17:25		x: 20.38537
20:17:26		x: 20.27654
20:17:27		x: 20.27654
20:17:28		x: 20.27654
20:17:29		x: 20.252918
20:17:30		x: 20.252918
20:17:31		x: 20.252918
20:17:32		x: 20.394129
20:17:33		x: 20.394129
