20:17:19		x: 21.882	y: -22.378	z: -34.254
20:17:19		x: 16.677	y: -19.508	z: -36.65
20:17:19		x: 8.541	y: -13.844	z: -42.117
20:17:19		x: 3.485	y: -7.815	z: -42.117
20:17:20		x: 1.73	y: -3.422	z: -44.169
20:17:20		x: 17.826	y: -5.029	z: -43.818
20:17:20		x: 13.992	y: 8.595	z: -43.818
20:17:20		x: -2.197	y: 17.117	z: -40.174
20:17:20		x: -21.527	y: 21.549	z: -31.146
20:17:21		x: -23.297	y: 11.244	z: -34.683
20:17:21		x: 11.987	y: -4.942	z: -45.025
20:17:21		x: 21.807	y: -11.061	z: -40.634
20:17:21		x: 34.79	y: -20.782	z: -25.109
20:17:21		x: 30.651	y: -32.504	z: -14.282
20:17:21		x: 21.159	y: -37.242	z: -18.417
20:17:22		x: 17.758	y: -39.62	z: -14.91
20:17:22		x: 13.412	y: -40.147	z: -18.267
20:17:22		x: 8.796	y: -39.176	z: -18.267
20:17:22		x: -2.272	y: -38.162	z: -19.247
20:17:22		x: -4.454	y: -43.272	z: 2.496
20:17:23		x: -4.454	y: -43.272	z: 7.968
20:17:23		x: -1.669	y: -38.177	z: 7.968
20:17:23		x: -0.317	y: -39.941	z: 0.155
20:17:23		x: 9.338	y: -38.96	z: 5.856
20:17:23		x: 11.77	y: -38.5	z: 7.521
20:17:23		x: 12.478	y: -38.5	z: 2.919
20:17:24		x: 13.221	y: -38.931	z: -3.32
20:17:24		x: 12.591	y: -37.899	z: -7.71
20:17:24		x: 12.591	y: -38.363	z: -8.236
20:17:24		x: 19.059	y: -38.363	z: 0.917
20:17:24		x: 19.059	y: -38.363	z: 1.737
20:17:24		x: 17.401	y: -38.363	z: -2.896
20:17:25		x: 15.501	y: -37.762	z: -10.845
20:17:25		x: 16.917	y: -36.926	z: -15.835
20:17:25		x: 23.696	y: -37.739	z: -10.737
20:17:25		x: 30.126	y: -36.721	z: -3.675
20:17:25		x: 31.597	y: -36.721	z: -6.764
20:17:26		x: 26.246	y: -38.279	z: -15.161
20:17:26		x: 26.246	y: -36.595	z: -20.518
20:17:26		x: 23.992	y: -37.277	z: -23.764
20:17:26		x: 31.306	y: -37.867	z: -16.943
20:17:26		x: 33.128	y: -39.372	z: -17.633
20:17:26		x: 35.421	y: -40.39	z: -23.461
20:17:27		x: 28.703	y: -42.98	z: -33.807
20:17:27		x: 26.437	y: -42.559	z: -32.958
20:17:27		x: 24.945	y: -38.796	z: -25.651
20:17:27		x: 16.992	y: -43.714	z: -14.706
20:17:27		x: 6.6	y: -45.42	z: -9.043
20:17:28		x: 4.167	y: -43.73	z: 1.922
20:17:28		x: 1.284	y: -43.048	z: 9.013
20:17:28		x: -1.385	y: -43.048	z: 12.376
20:17:28		x: -1.95	y: -41.624	z: 23.634
20:17:28		x: 3.204	y: -34.895	z: 35.511
20:17:28		x: -2.008	y: -35.417	z: 34.217
20:17:29		x: -5.139	y: -36.894	z: 30.999
20:17:29		x: -1.519	y: -38.327	z: 27.879
20:17:29		x: -0.575	y: -38.327	z: 25.891
20:17:29		x: 0.085	y: -36.372	z: 25.373
20:17:29		x: 2.85	y: -31.739	z: 30.125
20:17:30		x: 4.489	y: -30.003	z: 29.728
20:17:30		x: 4.489	y: -32.038	z: 25.216
20:17:30		x: 4.489	y: -35.275	z: 20.208
20:17:30		x: 5.113	y: -34.823	z: 18.545
20:17:30		x: 7.926	y: -32.539	z: 23.545
20:17:30		x: 8.229	y: -29.917	z: 26.699
20:17:31		x: 7.038	y: -30.618	z: 24.44
20:17:31		x: 7.479	y: -36.509	z: 11.726
20:17:31		x: 9.573	y: -37.454	z: -6.015
20:17:31		x: 8.146	y: -31.695	z: -25.579
20:17:31		x: 10.491	y: -29.94	z: -38.552
20:17:32		x: 3.408	y: -45.271	z: -29.478
20:17:32		x: -4.991	y: -43.261	z: -33.589
20:17:32		x: -4.991	y: -42.538	z: -34.597
20:17:32		x: -8.001	y: -43.556	z: -35.643
20:17:32		x: -10.995	y: -41.961	z: -40.081
20:17:32		x: -14.743	y: -40.962	z: -42.547
20:17:33		x: -17.552	y: -41.448	z: -43.379
20:17:33		x: -15.008	y: -45.191	z: -41.81
20:17:33		x: -12.135	y: -45.191	z: -39.283
20:17:33		x: -9.278	y: -45.79	z: -36.163
20:17:33		x: -6.561	y: -44.29	z: -35.734
