20:17:19		x: -0.23396139	y: -0.09101892	z: -0.7812967
20:17:19		x: -0.98440933	y: -1.6594155	z: 0.5662721
20:17:19		x: -1.3203852	y: -1.8558086	z: -0.8912524
20:17:19		x: 0.03390302	y: -1.1765264	z: -0.018325957
20:17:20		x: 1.2565498	y: -0.6059783	z: -1.8002199
20:17:20		x: 0.7797695	y: 2.687807	z: -1.8939877
20:17:20		x: -1.6148223	y: -2.2342396	z: -5.765957
20:17:20		x: -3.2861495	y: -0.8081747	z: -4.1108174
20:17:20		x: 2.7983737	y: -1.1591167	z: 0.46792278
20:17:21		x: 0.79717916	y: 3.4788775	z: 0.33964106
20:17:21		x: 0.29443705	y: 1.8680259	z: 0.9578367
20:17:21		x: 0.593761	y: 1.4514158	z: 3.125492
20:17:21		x: 0.6282749	y: 4.9480085	z: 1.8325957
20:17:21		x: -0.9370673	y: 0.29260445	z: 0.6026186
20:17:21		x: -0.2434298	y: -0.16279559	z: -0.20525073
20:17:22		x: -0.16249016	y: -0.89644474	z: -0.05009095
20:17:22		x: -0.064446285	y: -1.1640037	z: -0.68539083
20:17:22		x: 1.0742066	y: -1.4511104	z: 0.71685034
20:17:22		x: 2.601675	y: -0.64751714	z: -0.66706485
20:17:22		x: -0.23457226	y: -0.37720928	z: 0.6414085
20:17:23		x: -0.8897252	y: 1.643533	z: -0.038179077
20:17:23		x: 0.39614612	y: 0.34422258	z: 0.7867944
20:17:23		x: 0.97433007	y: -0.4999932	z: -0.43279803
20:17:23		x: -0.5103779	y: -0.13652839	z: 0.23365596
20:17:23		x: -0.67256266	y: 0.89766645	z: 0.048258353
20:17:23		x: -0.31642818	y: -0.24709499	z: -0.7498371
20:17:24		x: -0.33200526	y: -2.6978865	z: 0.052534413
20:17:24		x: 0.571159	y: 0.23182335	z: -0.3023783
20:17:24		x: 0.75441855	y: -0.5928447	z: -0.28069258
20:17:24		x: -0.29810223	y: 1.3710871	z: 0.61178154
20:17:24		x: -0.91599244	y: -0.092240654	z: -0.28130344
20:17:25		x: -1.0754282	y: 0.48991394	z: 0.6780604
20:17:25		x: -0.38606682	y: 0.34208453	z: -0.0015271631
20:17:25		x: 1.5506815	y: 0.03940081	z: -1.50731
20:17:25		x: 0.57879484	y: 0.8775079	z: -0.70952
20:17:25		x: -0.66553766	y: 0.03390302	z: 0.68783426
20:17:25		x: -0.28344148	y: -0.5412266	z: 0.023823744
20:17:26		x: -0.38881573	y: -2.1068742	z: -0.38789943
20:17:26		x: 0.5525276	y: -0.19975294	z: 0.10354166
20:17:26		x: 0.95478237	y: -0.6404922	z: -0.4288274
20:17:26		x: -0.3295618	y: 0.44073927	z: 0.7492262
20:17:26		x: -0.74067414	y: -0.103847094	z: 1.0888673
20:17:26		x: -0.23579398	y: -0.6795876	z: -0.41996986
20:17:27		x: -0.52198434	y: -1.5525141	z: -0.21746802
20:17:27		x: 0.49510628	y: -0.63346726	z: -0.74281216
20:17:27		x: 0.8304713	y: -1.0800097	z: 0.4908302
20:17:27		x: -0.40561453	y: -1.5158621	z: 0.9877691
20:17:27		x: 0.30879238	y: -1.9123137	z: -0.12858713
20:17:28		x: -0.22510384	y: -1.070236	z: -0.21838433
20:17:28		x: -0.20799962	y: -2.3017402	z: 0.018325957
20:17:28		x: 1.9550742	y: -0.7641924	z: -0.8582657
20:17:28		x: 1.6930131	y: -0.9101892	z: -1.4902058
20:17:28		x: -0.66981375	y: -0.6649268	z: 0.56688297
20:17:28		x: -0.45875978	y: 0.24037547	z: 0.9428705
20:17:29		x: -0.9990701	y: -0.75625116	z: 0.6056729
20:17:29		x: -0.06994407	y: -0.38087448	z: 0.07971791
20:17:29		x: 1.1527027	y: 0.04642576	z: -0.24220806
20:17:29		x: 0.63438356	y: -0.4147775	z: -0.44501534
20:17:29		x: 0.24648413	y: 0.9407325	z: -0.0290161
20:17:30		x: -0.029626964	y: -0.5317582	z: 0.65240407
20:17:30		x: -0.98715824	y: -0.3191771	z: 0.22388211
20:17:30		x: 0.12095132	y: 0.46303585	z: 0.112704635
20:17:30		x: 1.7788396	y: -0.7687739	z: -1.4477507
20:17:30		x: 0.6429357	y: -0.033292156	z: -0.36713
20:17:30		x: -0.43279803	y: 0.63591075	z: -0.63621616
20:17:31		x: -0.784351	y: -0.25809056	z: 0.22693644
20:17:31		x: -2.6190848	y: -0.19761491	z: 0.46700647
20:17:31		x: 0.12614368	y: -1.0491611	z: -1.8390098
20:17:31		x: -0.14996742	y: -1.5344934	z: 0.086132
20:17:31		x: 1.9178114	y: 0.73426	z: 1.5280794
20:17:32		x: 0.33444872	y: 1.5464053	z: 1.6197093
20:17:32		x: 0.099571034	y: 0.6637051	z: 1.4129313
20:17:32		x: 0.12034045	y: 1.8894062	z: 0.93401295
20:17:32		x: 0.0070249503	y: 0.93951076	z: 0.8045095
20:17:32		x: -0.19303341	y: 0.59528816	z: 0.15821409
20:17:32		x: -0.66889745	y: 0.65240407	z: 0.40469822
20:17:33		x: 0.0693332	y: 0.10415252	z: -0.6075055
20:17:33		x: -0.045814894	y: 0.035430185	z: -0.70554936
20:17:33		x: 0.18112154	y: -0.56077427	z: -0.1133155
20:17:33		x: 0.13805555	y: -0.07360926	z: 0.18661933
20:17:33		x: -0.14110987	y: 0.32375857	z: -0.4474588
