20:17:19		x: 66.21548
20:17:20		x: 66.21548
20:17:21		x: 66.21548
20:17:22		x: 66.21548
20:17:23		x: 66.21548
20:17:24		x: 66.21548
20:17:25		x: 66.21548
20:17:26		x: 66.25912
20:17:27		x: 66.25912
20:17:28		x: 66.25912
20:17:29		x: 65.85228
20:17:30		x: 65.85228
20:17:31		x: 65.85228
20:17:32		x: 65.57395
20:17:33		x: 65.57395
