7 1:5317.43010516 2:5317.3697322 3:5317.40975815 4:0.0188235064254 5:0.000354324394149 6:0.0174217792577 7:-0.0136513230791 8:-8.881784197e-14 9:0.00945501486437 10:8.93973060855e-05 11:0.0162207408707 12:-0.0156137909534 13:-3.13823041627e-14 14:0.0102793416748 15:0.000105664865267 16:0.0160199087413 17:-0.0138010690877 18:-9.05941988094e-14 19:0.0113893624556 20:0.000129717577145 21:0.0266696242487 22:-0.029088850054 23:-4.20404451991e-14 24:0.0176493533929 25:0.000311499675186 26:0.0296882945063 27:-0.0250504589776 28:0.00119549644177 29:0.0178847606473 30:0.000319864663411 
7 1:5317.45365118 2:5317.41384805 3:5317.42712668 4:0.0124483571774 5:0.000154961596416 6:0.0102681071936 7:-0.0118959969655 8:-2.40400292266e-13 9:0.00673424794561 10:4.5350095393e-05 11:0.0102249913462 12:-0.0120477287064 13:-1.26713454544e-13 14:0.00672920558432 15:4.52822077961e-05 16:0.0191800157871 17:-0.0194654221985 18:-1.4743761767e-13 19:0.0117407148646 20:0.000137844385531 21:0.00557484426356 22:-0.00339734304013 23:-3.84877315203e-14 24:0.00362110181282 25:1.31123783388e-05 26:0.00940953745067 27:-0.0151726550616 28:0.000166789974724 29:0.00786685709264 30:6.18874405161e-05 
7 1:5317.57313182 2:5317.52553777 3:5317.54139476 4:0.0148898131003 5:0.000221706534163 6:0.0124612270073 7:-0.0143233710306 8:-2.0605739337e-13 9:0.0081573823847 10:6.65428873703e-05 11:0.0119995544745 12:-0.0144775188156 13:1.00660220899e-14 14:0.00799145783387 15:6.38633983105e-05 16:0.0237811481531 17:-0.0239460101074 18:-7.16463925225e-14 19:0.0144415882677 20:0.000208559471693 21:0.00767010890048 22:-0.00591204590164 23:-3.22704825824e-14 24:0.00549643788594 25:3.0210829434e-05 26:0.0196396650386 27:-0.0168391892597 28:0.00090911729874 29:0.0130516382416 30:0.00017034526079 
7 1:5317.68387633 2:5317.66571277 3:5317.67773248 4:0.00565567496783 5:3.19866593417e-05 6:0.00528503217093 7:-0.0038668472506 8:-1.32634644009e-13 9:0.00288451901898 10:8.32044997088e-06 11:0.00424416650331 12:-0.0040472051932 13:-1.7763568394e-15 14:0.00266795160046 15:7.11796574239e-06 16:0.00491196610023 17:-0.00378259032279 18:-6.75015598972e-14 19:0.00268440265302 20:7.20601760356e-06 21:0.0157295997441 22:-0.0171197432236 23:-4.944193203e-14 24:0.0103310068362 25:0.00010672970225 26:0.0193881392904 27:-0.0161591454117 28:-0.00112501793893 29:0.0133025499688 30:0.000176957835673 
7 1:5317.67640764 2:5317.63388809 3:5317.66226104 4:0.0133094900654 5:0.0001771425258 6:0.0128195979823 7:-0.0113267719286 8:-1.00660220899e-13 9:0.00739744755117 10:5.47222302723e-05 11:0.0132642614427 12:-0.0109246037086 13:-6.75015598972e-14 14:0.00730388490273 15:5.33467346723e-05 16:0.0233657224376 17:-0.0233958490379 18:-6.80936788437e-14 19:0.0141073654585 20:0.000199017760179 21:0.0106561505281 22:-0.0121349155244 23:-5.3290705182e-15 24:0.00760597469138 25:5.78508510059e-05 26:0.00908070733412 27:-0.0112295190268 28:-0.000529916963942 29:0.00708827573982 30:5.02436529637e-05 
7 1:5317.77043832 2:5317.6615792 3:5317.69789689 4:0.0340418918072 5:0.00115885039781 6:0.0280425378565 7:-0.0326215421829 8:-2.5816386066e-13 9:0.0184104494419 10:0.000338944648652 11:0.0274183778706 12:-0.0325936165104 13:1.42108547152e-14 14:0.0181171311838 15:0.000328230442331 16:0.050600679605 17:-0.0513870953644 18:2.60532336445e-14 19:0.0310070874222 20:0.000961439470405 21:0.0222157374912 22:-0.0156476071989 23:-8.02321172462e-14 24:0.0135595539399 25:0.00018386150305 26:0.0491132803423 27:-0.044341749073 28:0.0025353957906 29:0.0349126684728 30:0.00121889441989 
7 1:5317.62430375 2:5317.58271924 3:5317.59668025 4:0.0129783735729 5:0.000168438180599 6:0.00988678497893 7:-0.0122277324553 8:-2.04873155477e-13 9:0.0066836942583 10:4.46717689385e-05 11:0.0103371505898 12:-0.0114656578583 13:-1.36187357687e-13 14:0.00672346400727 15:4.52049682571e-05 16:0.0122549845328 17:-0.0133162628388 18:2.36847578587e-15 19:0.00850042125952 20:7.22571615893e-05 21:0.0121419874584 22:-0.0109676051064 23:-2.01320441799e-14 24:0.00850603850093 25:7.23526909793e-05 26:0.0428867567631 27:-0.0318647086873 28:0.000848622210226 29:0.0227457032716 30:0.000517367017321 
7 1:5318.01984605 2:5317.76198705 3:5317.84800825 4:0.0806509090989 5:0.00650456913848 6:0.0665842261267 7:-0.0769335060369 8:-2.25005199657e-13 9:0.0436418219526 10:0.00190460862335 11:0.0670733274679 12:-0.0785962067901 13:-2.48689957516e-14 14:0.0440425744043 15:0.00193974836016 16:0.127125813037 17:-0.128911129612 18:-2.30926389122e-14 19:0.0777401875889 20:0.00604353676635 21:0.0432184375895 22:-0.0332713795548 23:-1.71714494475e-14 24:0.0311775741774 25:0.000972041131586 26:0.0199270179423 27:-0.0155919548139 28:0.000128632346146 29:0.0109061822705 30:0.000118944811718 
7 1:5317.61789148 2:5317.24783204 3:5317.49444246 4:0.115745628556 5:0.0133970505297 6:0.110387663868 7:-0.0955831195675 8:-1.42108547152e-14 9:0.0626422433256 10:0.00392405064886 11:0.112917272547 12:-0.0964207528715 13:-1.13686837722e-13 14:0.0632980743051 15:0.00400664621074 16:0.185654064487 17:-0.183113887633 18:-2.19084010193e-14 19:0.111955560661 20:0.012534047563 21:0.0495858776209 22:-0.0636070631255 23:-4.8257694137e-14 24:0.0455408780736 25:0.00207397157572 26:0.0247881701102 27:-0.0340181166993 28:0.000141981464856 29:0.0192034273402 30:0.000368771621611 
7 1:5317.61862612 2:5317.42163311 3:5317.48740095 4:0.0615965037071 5:0.00379412926894 6:0.0503719715476 7:-0.0586749808162 8:-5.56591809679e-14 9:0.0330849652821 10:0.00109461492772 11:0.0509337291276 12:-0.059323711365 13:-5.80276567537e-14 14:0.0333735749876 15:0.00111379550746 16:0.0922348013949 17:-0.0940575386337 18:3.67113746809e-14 19:0.0567772344001 20:0.00322365434612 21:0.0303870041748 22:-0.0205723430894 23:-1.06285350891e-13 24:0.018586430057 25:0.000345455382264 26:0.0032936356274 27:-0.00734137156155 28:0.000254311445733 29:0.00353156603205 30:1.24719586387e-05 
7 1:5317.60361616 2:5317.53314236 3:5317.55682806 4:0.0219848384126 5:0.000483333120029 6:0.0164796549459 7:-0.020768747261 8:-1.21976502972e-13 9:0.0112971868719 10:0.000127626431218 11:0.0167974364723 12:-0.0187151345896 13:-4.26325641456e-14 14:0.0109338265788 15:0.000119548563654 16:0.0164946026972 17:-0.0185540915983 18:-1.30266168223e-14 19:0.0125296215044 20:0.000156991415043 21:0.0355323955246 22:-0.0328623778892 23:-5.62512999143e-15 24:0.021624312088 25:0.00046761087328 26:0.0388217361805 27:-0.0340413412926 28:0.00206628192881 29:0.0264620859964 30:0.000700241995278 
7 1:5317.47425611 2:5317.41783975 3:5317.45547099 4:0.0176689207293 5:0.000312190759738 6:0.0166637668041 7:-0.014975490349 8:-2.13162820728e-14 9:0.0097774227597 10:9.55979958219e-05 11:0.0185701545616 12:-0.0162940827455 13:-9.05941988094e-14 14:0.0106044189481 15:0.000112453701226 16:0.0357288425804 17:-0.0356772742675 18:1.00660220899e-14 19:0.02154773027 20:0.000464304679791 21:0.0252949961731 22:-0.0261462164202 23:-6.06921920128e-14 24:0.0156143919896 25:0.000243809237206 26:0.0576421594912 27:-0.0678256260142 28:0.00367401602525 29:0.0391003185355 30:0.00152883490958 
7 1:5317.50038494 2:5317.33756674 3:5317.39211793 4:0.050853205092 5:0.00258604846813 6:0.0398197835243 7:-0.047962932473 8:-9.71075072205e-14 9:0.0265019428634 10:0.000702352975536 11:0.0419067045476 12:-0.0469300198879 13:-3.01980662698e-14 14:0.0272480711911 15:0.000742457383633 16:0.0609924027807 17:-0.0641916531582 18:-1.70530256582e-13 19:0.039439061394 20:0.00155543956364 21:0.0269102019401 22:-0.0233319017153 23:-4.17443857259e-14 24:0.018888173318 25:0.00035676309129 26:0.0359366085022 27:-0.0445599574341 28:-0.00110965581 29:0.0264172373584 30:0.000697870429652 
7 1:5317.52797431 2:5317.42742727 3:5317.46144161 4:0.0313112642591 5:0.000980395269503 6:0.0214822589661 7:-0.0288440567325 8:-1.68161780797e-13 9:0.0156742487469 10:0.00024568207378 11:0.0247940088618 12:-0.0249451819531 13:-3.19744231092e-14 14:0.0165875441708 15:0.000275146621618 16:0.019393701573 17:-0.0284610083336 18:-5.92118946467e-15 19:0.0163089690599 20:0.000265982471798 21:0.0845141075127 22:-0.0818241849785 23:-3.90798504668e-14 24:0.0506518735005 25:0.00256561228911 26:0.0487319800634 27:-0.0611320908541 28:-0.000824470080471 29:0.0334078245533 30:0.00111608274139 
7 1:5317.51250772 2:5317.46990407 3:5317.49715456 4:0.0138112166695 5:0.000190749705892 6:0.0222156307685 7:-0.0189469321727 8:-5.3290705182e-14 9:0.0124277782651 10:0.000154449672606 11:0.0746113633341 12:-0.0761569547393 13:-3.73034936274e-14 14:0.045633811009 15:0.00208244470721 16:0.0364061131617 17:-0.0405754122511 18:0.00188564763804 19:0.0298104807078 20:0.000888664760032 21:0.0826955302165 22:-0.0826955302167 23:0.00512100068219 24:0.0557006764676 25:0.00310256535895 26:0.00573469209545 27:-0.00573469209542 28:1.50990331349e-14 29:0.00573469209544 30:3.28866934295e-05 
