18:10:16		x: 25.317324
18:10:17		x: 25.317324
18:10:18		x: 25.317324
18:10:18		x: 25.317324
18:10:19		x: 25.317324
18:10:20		x: 25.317324
18:10:21		x: 25.317324
18:10:22		x: 25.317324
18:10:23		x: 25.317324
18:10:24		x: 25.317324
18:10:25		x: 25.317324
18:10:26		x: 25.317324
18:10:27		x: 25.317324
18:10:28		x: 25.317324
18:10:29		x: 25.242174
18:10:30		x: 25.242174
18:10:31		x: 25.242174
18:10:32		x: 25.28617
18:10:33		x: 25.28617
18:10:34		x: 25.28617
18:10:35		x: 25.28617
18:10:36		x: 25.28617
18:10:37		x: 25.28617
18:10:38		x: 25.12293
18:10:39		x: 25.12293
18:10:40		x: 25.12293
18:10:41		x: 25.12293
18:10:42		x: 25.12293
