18:10:16		x: 41.97659
18:10:17		x: 41.97659
18:10:18		x: 41.850655
18:10:18		x: 41.850655
18:10:19		x: 41.850655
18:10:20		x: 41.367783
18:10:21		x: 41.367783
18:10:22		x: 41.367783
18:10:23		x: 41.908417
18:10:24		x: 41.908417
18:10:25		x: 41.908417
18:10:26		x: 41.908417
18:10:27		x: 41.908417
18:10:28		x: 41.908417
18:10:29		x: 42.087143
18:10:30		x: 42.087143
18:10:31		x: 42.087143
18:10:32		x: 42.29989
18:10:33		x: 42.29989
18:10:34		x: 42.29989
18:10:35		x: 42.342056
18:10:36		x: 42.342056
18:10:37		x: 42.342056
18:10:38		x: 42.597412
18:10:39		x: 42.597412
18:10:40		x: 42.597412
18:10:41		x: 42.597412
18:10:42		x: 42.597412
