9 1:33.0056615233 2:21.0566658135 3:25.0279375478 4:4.09345933924 5:16.756409362 6:2.7596298294 7:-3.36302917689 8:1.66533453694e-16 9:2.03536380242 10:4.14270580819 11:1.39896697669 12:-1.02932310585 13:0.20787512964 14:0.960889253481 15:0.923308157456 16:2.11181697709 17:-1.98335186844 18:0.217823012689 19:1.29291569026 20:1.67163098212 21:2.13996258951 22:-8.98163501481 23:-1.41641939588 24:2.97206941311 25:8.83319659637 26:6.99659920122 27:-5.34896185288 28:0.139894329553 29:4.17301595861 30:17.4140621908 
9 1:33.6939370077 2:20.21250469 3:24.606037373 4:4.62547344433 5:21.3950045842 6:5.25291169537 7:-7.013992822 8:-5.78902005697e-16 9:3.49955097383 10:12.2468570185 11:2.79351059652 12:-2.88611338237 13:0.181268438208 14:1.62385102497 15:2.63689215128 16:1.3272237887 17:-1.64487312694 18:0.0352097621075 19:0.906783932511 20:0.822257100261 21:2.13831425734 22:-6.39701979432 23:-1.00054703607 24:2.27892494802 25:5.19349891869 26:8.23562621098 27:-9.13687196331 28:0.00545464951929 29:5.6957682737 30:32.4417762277 
9 1:43.1369277637 2:12.1504414848 3:22.3171098864 4:10.5981691427 5:112.321189178 6:11.0713662042 7:-14.620211126 8:-6.34413156929e-16 9:7.37478016031 10:54.387382413 11:5.79351831294 12:-6.05064815885 13:0.327349097492 14:3.37452041915 15:11.3873880593 16:2.41636933953 17:-3.77791362264 18:-0.473836471586 19:1.86952861936 20:3.49513725862 21:1.03145217153 22:-8.38172645847 23:-1.51210510087 24:2.91085926588 25:8.47310166576 26:9.74905962929 27:-10.6143848761 28:0.532498352244 29:6.29793947712 30:39.6640416575 
9 1:28.5534965046 2:7.60973100117 3:21.5282633841 4:7.1296958447 5:50.8325628379 6:7.02686414977 7:-5.45382180521 8:-3.64787565234e-16 9:3.73737531879 10:13.9679742735 11:2.87375053703 12:-3.26162735113 13:0.176413410572 14:2.07174012572 15:4.2921071485 16:1.3008636711 17:-3.61167305514 18:-0.491751512541 19:1.36399224159 20:1.86047483511 21:5.92536741646 22:-7.51447903345 23:-1.33525211893 24:3.63119016652 25:13.1855420254 26:14.141508633 27:-15.2396212 28:-0.133847267779 29:8.40862148509 30:70.7049152795 
9 1:22.9336203525 2:-2.21171484711 3:6.15651839112 4:8.59424592771 5:73.861063066 6:6.59670301633 7:-8.37157373292 8:8.72318090777e-17 9:4.60888864555 10:21.2418545471 11:4.2463989544 12:-3.74561465651 13:0.108318060588 14:2.3684373371 15:5.60949541979 16:5.89772943501 17:-7.05015376302 18:0.326033807193 19:3.71653179783 20:13.8126086043 21:6.86679541661 22:-7.3272548713 23:-0.89093746258 24:5.10926965591 25:26.1046364168 26:12.3506358744 27:-10.5462007488 28:-1.1455313194 29:7.53240452511 30:56.7371179299 
9 1:19.00512006 2:2.03927036701 3:13.3472061886 4:5.76906371631 5:33.2820961628 6:6.55192978376 7:-5.02708535609 8:0.0 9:3.40105871601 10:11.5672003897 11:2.20958498856 12:-2.31104024869 13:0.0450720636285 14:1.38862794799 15:1.92828757794 16:6.7164192913 17:-8.05272601246 18:0.11159666619 19:4.07130173886 20:16.5754978488 21:9.02858916755 22:-7.52444683994 23:-0.872274562458 24:4.81754384021 25:23.2087286523 26:10.5780027215 27:-8.23772322065 28:-1.16269184117 29:6.44584201514 30:41.5488792841 
9 1:17.5903730266 2:5.48624255372 3:9.61767347759 4:4.13260150255 5:17.0783951789 6:2.57706099165 7:-1.82510949395 8:-1.74463618155e-16 9:1.42362054095 10:2.02669544462 11:2.78419683966 12:-2.505082302 13:-0.0515674430539 14:1.50233201909 15:2.25700149558 16:7.49380926896 17:-3.41622781105 18:0.923752878019 19:3.50535453539 20:12.2875104188 21:6.01573710345 22:-8.38163057107 23:0.118669513268 24:4.28544417788 25:18.3650318017 26:8.03058597977 27:-14.5555916896 28:-1.46728062565 29:6.36691467701 30:40.5376025043 
9 1:18.1301261048 2:15.2425761036 3:16.1222066839 4:1.02034138923 5:1.04109655058 6:2.41728617192 7:-3.4709318124 8:-4.75809867696e-16 9:1.71629034804 10:2.94565255878 11:1.93308830524 12:-2.1639243435 13:-0.0191340922803 14:1.168314979 15:1.36495989016 16:5.84092459102 17:-7.3655305252 18:0.46071661157 19:4.12163567424 20:16.9878806312 21:8.60331679386 22:-6.68483624768 23:-0.190320183366 24:4.45788179436 25:19.8727100925 26:12.2420225698 27:-9.64515837825 28:-0.178677964751 29:7.17727753076 30:51.5133127535 
9 1:12.9455143684 2:8.25560949432 3:9.91824799415 4:1.58812941045 5:2.52215502434 6:2.51068987334 7:-1.99471955446 8:-2.29974769387e-16 9:1.40742161358 10:1.98083559836 11:1.79617798523 12:-1.85582249297 13:0.179769898819 14:1.16579204146 15:1.35907108394 16:2.76466433622 17:-2.01500836754 18:-0.230496396747 19:1.65389943069 20:2.73538332684 21:6.18047895811 22:-5.07405731616 23:-0.996174716172 24:3.14794953042 25:9.90958624608 26:14.9189569103 27:-11.9935836165 28:-1.33290747736 29:7.80890881253 30:60.9790568424 
9 1:27.6116865044 2:14.4776023649 3:23.1443405864 4:4.46366665044 5:19.9243199663 6:2.70289867602 7:-2.78415418168 8:-5.70971841236e-16 9:1.58024246016 10:2.49716623288 11:1.8600290764 12:-1.41117952504 13:-0.258422621018 14:1.01947778934 15:1.03933496295 16:4.37479290228 17:-5.54920672564 18:0.349321183255 19:3.09299498501 20:9.56661797731 21:5.62421892073 22:-1.83879367571 23:0.940450853398 24:2.49619087217 25:6.2309688703 26:10.394220457 27:-12.1630728437 28:-1.16923308338 29:5.99470932968 30:35.9365399473 
9 1:22.0633522606 2:11.9777720012 3:15.1528443886 4:3.48604068975 5:12.1524796906 6:6.96328058536 7:-9.88386574979 8:2.22044604925e-16 9:4.68479388153 10:21.9472937124 11:4.18592911072 12:-4.86931246985 13:-0.0780228003939 14:2.60880699604 15:6.80587394258 16:4.89510057331 17:-3.69657844619 18:0.542554306648 19:2.74571933669 20:7.53897467586 21:5.16369861887 22:-3.25942013917 23:0.164083492593 24:2.62222797479 25:6.87607955177 26:12.1281753754 27:-6.33309501154 28:0.086251019095 29:6.06070467177 30:36.7321411184 
9 1:29.8450791643 2:20.6569569148 3:23.4545000828 4:3.19043096183 5:10.1788497222 6:8.38122619026 7:-12.0297936122 8:-3.9650822308e-17 9:5.65500836912 10:31.9791196548 11:4.50668549375 12:-5.61934233119 13:-0.020848711416 14:3.01509893259 15:9.0908215733 16:2.87966277217 17:-3.592240859 18:0.286773902219 19:2.18464575557 20:4.77267707732 21:3.88702469306 22:-3.54496066099 23:-0.167250074431 24:2.32581060653 25:5.40939497743 26:13.5845824591 27:-10.2973523141 28:-0.725152709261 29:7.51182798871 30:56.4275597319 
9 1:25.1258993137 2:14.8119873511 3:21.4107588316 4:3.49930427088 5:12.2451303802 6:3.78530328824 7:-5.30190139961 8:-2.85485920618e-16 9:2.88133123386 10:8.30206967921 11:4.4960626248 12:-3.52481478272 13:0.0376826342662 14:2.58229619778 15:6.66825365305 16:3.55823878533 17:-5.50343266846 18:-0.751939666754 19:2.3775319489 20:5.65265816802 21:4.1077015565 22:-3.96863769685 23:-0.536280240042 24:2.29973691257 25:5.28878986705 26:10.896449691 27:-9.3648935308 28:-1.37018503567 29:5.87300163497 30:34.4921482044 
9 1:25.4710127765 2:21.9193288249 3:24.0636990151 4:1.19634036591 5:1.43123027111 6:4.60092770728 7:-7.26458221224 8:-2.53765262771e-16 9:3.64053989128 10:13.2535307 11:2.39504002053 12:-3.2005370385 13:-0.246668123493 14:1.79475348262 15:3.22114006339 16:12.2565882834 17:-6.84911622616 18:1.42481358184 19:6.04741305481 20:36.5712046555 21:8.61452812342 22:-2.84589544477 23:0.595638790617 24:3.12764981232 25:9.7821933485 26:10.461612294 27:-7.34128134647 28:-0.341297595052 29:6.07330120583 30:36.8849875367 
9 1:28.986627535 2:12.0208739695 3:17.633648772 4:5.79793858755 5:33.616091865 6:5.04907431899 7:-6.50181254851 8:-6.81994143698e-16 9:3.43421431714 10:11.793827976 11:2.9062825347 12:-2.79340879617 13:0.144281995869 14:1.62665779548 15:2.64601558358 16:1.24373975713 17:-1.75359281905 18:-0.180370268609 19:1.06815228366 20:1.14094930109 21:3.22734812529 22:-4.94924493593 23:-0.795113103052 24:2.53337444955 25:6.41798610163 26:9.84807630142 27:-7.15182347108 28:-0.555212882229 29:4.91944116752 30:24.2009014007 
9 1:29.7740194286 2:19.9846964159 3:23.3139408748 4:3.32626481442 5:11.0640376157 6:2.07009241156 7:-1.91839871638 8:-2.22044604925e-16 9:1.16882094909 10:1.36614241102 11:0.830043705625 12:-0.970381434071 13:0.119373154518 14:0.570117611764 15:0.325034091244 16:1.7433295376 17:-2.96153309523 18:-0.351296602529 19:1.45955471866 20:2.13029997676 21:5.8032006793 22:-5.50475958463 23:-0.72967736148 24:2.95894489242 25:8.7553548764 26:7.53475660593 27:-5.39222921963 28:-0.149994202994 29:3.97066400544 30:15.7661726441 
9 1:55.9303948311 2:12.5658950144 3:26.7877568346 4:14.8273341085 5:219.849836766 6:16.4979251652 7:-22.0919630023 8:-1.01506105109e-15 9:10.9436074818 10:119.762544715 11:8.26795290272 12:-8.61098966405 13:0.235930293521 14:4.74174509513 15:22.4841465471 16:11.499485805 17:-10.4765253121 18:0.135994629313 19:5.75456598405 20:33.1150296648 21:6.92543435758 22:-7.14883040358 23:-1.01192566893 24:3.98642211306 25:15.8915612635 26:6.7401150712 27:-7.84121599891 28:0.177763033821 29:4.52874689073 30:20.5095484003 
9 1:33.3529799122 2:30.149911131 3:31.1367747443 4:1.11586908987 5:1.24516382573 6:3.53462532314 7:-4.96646389988 8:9.51619735393e-17 9:2.43468458327 10:5.92768902002 11:2.99508252471 12:-2.10598032591 13:0.415125442873 14:1.64685377776 15:2.71212736533 16:2.81672349453 17:-2.79994674159 18:-0.0550369501254 19:1.55438473008 20:2.41611188911 21:1.96178992823 22:-19.5782946402 23:-3.0467725156 24:6.25573241192 25:39.1341880096 26:8.70252130497 27:-8.12640328682 28:-0.442712340204 29:4.36441965732 30:19.0481589452 
9 1:33.6574695075 2:20.3773710894 3:24.8332734664 4:4.53803001251 5:20.5937163945 6:2.98420766798 7:-2.67045284375 8:-1.26882631386e-16 9:1.90518230653 10:3.6297196211 11:1.52271271854 12:-1.51020402379 13:0.181820755964 14:1.00414553989 15:1.00830826527 16:2.20029772571 17:-1.83050152774 18:0.242622537794 19:1.30761488116 20:1.70985667742 21:2.71469773823 22:-7.62101747592 23:-1.21734031132 24:2.78753512949 25:7.77035209814 26:5.53023850152 27:-5.66532155029 28:0.321705161587 29:3.42698993226 30:11.7442599958 
9 1:33.3838619934 2:22.0677930253 3:25.8240423266 4:3.86883522576 5:14.9678860041 6:2.85450582861 7:-3.54876356424 8:-2.77555756156e-16 9:2.01595456941 10:4.06407282594 11:1.37201104637 12:-1.09671610219 13:0.182566881506 14:0.854718444195 15:0.730543618848 16:2.49784108692 17:-2.24578277995 18:-0.0245327621495 19:1.22715373865 20:1.50590629828 21:0.935867231808 22:-5.84951522638 23:-1.02984513951 24:2.0158149026 25:4.06350972156 26:5.6245953267 27:-6.85326419561 28:-0.223677110455 29:4.02077217609 30:16.166608892 
9 1:39.4046243764 2:20.6035304711 3:27.0217903004 4:6.40677147489 5:41.0467207315 6:4.18005783674 7:-3.78058014323 8:-4.4408920985e-16 9:2.18614788679 10:4.77924258292 11:2.66651077176 12:-2.75822992563 13:-5.07530525543e-16 14:1.59390864979 15:2.54054478387 16:3.79038518985 17:-5.34661117596 18:-6.02692499082e-16 19:2.6019254181 20:6.77001588137 21:3.28366897098 22:-6.17516027259 23:-0.801225258961 24:2.73866931074 25:7.50030959357 26:6.4100936189 27:-6.64051980904 28:-0.0715742402428 29:4.31724874663 30:18.6386367403 
