9 1:5687.2162856 2:5687.04513526 3:5687.10225325 4:0.0535283791805 5:0.00286528737769 6:0.0440144131258 7:-0.0508876305891 8:-1.13686837722e-13 9:0.0288543929688 10:0.000832575993599 11:0.045173331074 12:-0.0523436855771 13:-3.73034936274e-14 14:0.0295461598541 15:0.000872975562122 16:0.0847605423233 17:-0.0861323157859 18:1.06581410364e-14 19:0.0519470228181 20:0.00269849317967 21:0.0278090123567 22:-0.0221861351001 23:-7.25345709422e-14 24:0.0195147277882 25:0.000380824600649 26:0.0366908537526 27:-0.0308212110327 28:-0.00180088884468 29:0.0208652457481 30:0.000435358480129 
9 1:5687.09183482 2:5686.98099379 3:5687.05507357 4:0.0347329288538 5:0.00120637634676 6:0.0337303292457 7:-0.0306249203976 8:1.18423789293e-15 9:0.0199867554671 10:0.000399470394101 11:0.0358847545043 12:-0.0286546543754 13:-2.72374715375e-14 14:0.0196043261373 15:0.000384329603298 16:0.0692894862526 17:-0.0703838047224 18:-3.25665420557e-14 19:0.0420870226366 20:0.00177131747442 21:0.0491668120259 22:-0.0527003266959 23:-3.64153152077e-14 24:0.031660533305 25:0.00100238936916 26:0.0353558207806 27:-0.0413274343971 28:-0.00171013027063 29:0.0267918910115 30:0.000717805423973 
9 1:5687.41168896 2:5687.25119853 3:5687.30461605 4:0.0502477688742 5:0.00252483827684 6:0.0426740380564 7:-0.0479153825539 8:-1.84741111298e-13 9:0.0278595238095 10:0.000776153066894 11:0.0436828342189 12:-0.0513796377361 13:-8.17124146124e-14 14:0.0287206927202 15:0.00082487819033 16:0.0945600281745 17:-0.0945807744765 18:-2.60532336445e-14 19:0.0570697925498 20:0.00325696122168 21:0.0580381756269 22:-0.0543938651207 23:6.80936788437e-15 24:0.0348907949725 25:0.00121736757381 26:0.0776458942692 27:-0.0531843030205 28:-0.00412339207834 29:0.0478287389479 30:0.00228758826934 
9 1:5687.46306586 2:5687.35780786 3:5687.42782954 4:0.0328955286465 5:0.00108211580494 6:0.0307859104133 7:-0.0261082817589 8:-1.36187357687e-13 9:0.0172189823766 10:0.000296493354085 11:0.0317900538056 12:-0.028925037981 13:-9.05941988094e-14 14:0.0187842752756 15:0.00035284899763 16:0.0493248296207 17:-0.0475612961871 18:-1.36187357687e-13 19:0.0299451981969 20:0.000896714895051 21:0.00862316737154 22:-0.0120188123041 23:-6.51330841113e-14 24:0.00701164307162 25:4.91631385639e-05 26:0.0805108184088 27:-0.0864613032948 28:0.00455778778079 29:0.0509310562346 30:0.00259397248918 
9 1:5687.36599796 2:5687.35475392 3:5687.35851475 4:0.00352165283531 5:1.24020386924e-05 6:0.00285188403743 7:-0.0031850457206 8:-1.55135163974e-13 9:0.0018639452604 10:3.47429193378e-06 11:0.00376498092874 12:-0.00385117018034 13:-6.86857977901e-14 14:0.00247661554845 15:6.13362457481e-06 16:0.00748992346509 17:-0.00763989911124 18:-4.02640883597e-14 19:0.00459969382451 20:2.11571832792e-05 21:0.00451543839323 22:-0.00511242804206 23:-2.60532336445e-14 24:0.00307893484895 25:9.47983980407e-06 26:0.0415449303259 27:-0.0308212110325 28:-0.00225153730494 29:0.0253414657003 30:0.00064218988384 
9 1:5687.54291406 2:5687.52265678 3:5687.52931654 4:0.00636797247085 5:4.05510733896e-05 6:0.00615163843108 7:-0.00631887524034 8:-1.18423789293e-13 9:0.00408040387745 10:1.66496958031e-05 11:0.00534485196557 12:-0.00722923532075 13:1.65793305011e-14 14:0.00398106277488 15:1.58488608175e-05 16:0.0176590440386 17:-0.0169539692087 18:-8.881784197e-15 19:0.0105314010317 20:0.000110910407691 21:0.0178026723877 22:-0.0181708589297 23:-7.90478793533e-14 24:0.0108450955528 25:0.00011761609755 26:0.0329212266651 27:-0.0507071322002 28:0.000111897391532 29:0.0259235075794 30:0.000672028245221 
9 1:5687.66061435 2:5687.5292264 3:5687.61659319 4:0.0410369061269 5:0.00168402766447 6:0.0386878505712 7:-0.0321324878144 8:-1.72898732368e-13 9:0.0213813591276 10:0.000457162518144 11:0.0379197510411 12:-0.0339032908248 13:-3.43428988951e-14 14:0.0220417075179 15:0.000485836870306 16:0.0520340750583 17:-0.0494626789609 18:-1.22568621919e-13 19:0.0319593464855 20:0.00102139982778 21:0.0214222657801 22:-0.0181990483871 23:-9.17784367023e-15 24:0.0149545051575 25:0.000223637224506 26:0.0232782797814 27:-0.0268886931735 28:0.000562774871601 29:0.0169705761632 30:0.000288000455311 
9 1:5688.04092799 2:5687.80243938 3:5687.88190433 4:0.07461646078 5:0.00556761621934 6:0.062431996355 7:-0.0715459182329 8:-8.52651282912e-14 9:0.0408483395495 10:0.00166858684395 11:0.0613496726092 12:-0.0732334540272 13:2.90138283769e-14 14:0.0406196621909 15:0.0016499569565 16:0.122530568882 17:-0.12338022752 18:-2.54611146981e-14 19:0.0743996545301 20:0.0055353085942 21:0.0498299775526 22:-0.0409433223938 23:7.69754630407e-15 24:0.0335362611301 25:0.00112468081059 26:0.0376888196542 27:-0.0359700708331 28:0.00220140740919 29:0.023054590935 30:0.000531514163182 
9 1:5688.01527465 2:5687.69893286 3:5687.80511912 4:0.0987284761502 5:0.00974731200295 6:0.0753162033796 7:-0.0932977274921 8:4.02640883597e-14 9:0.0509717987867 10:0.00259812427155 11:0.0773057670159 12:-0.0865742125125 13:-7.87518198801e-14 14:0.0503062848251 15:0.0025307222929 16:0.0903006662399 17:-0.0983155877327 18:-7.04621546295e-14 19:0.0629535175092 20:0.00396314536678 21:0.115676349124 22:-0.102124457853 23:1.18423789293e-15 24:0.0726079894945 25:0.00527192013843 26:0.0987777017571 27:-0.109297144498 28:0.0067500072153 29:0.0649767977149 30:0.00422198424128 
9 1:5688.04606848 2:5687.83803719 3:5687.97631118 4:0.0649573882371 5:0.00421946228658 6:0.0611378705051 7:-0.050329571719 8:-1.11318361936e-13 9:0.0336477610208 10:0.00113217182171 11:0.0592727984378 12:-0.0533907574602 13:-8.17124146124e-14 14:0.0347066284567 15:0.00120455005883 16:0.0776477780983 17:-0.0730619060079 18:-6.92779167366e-14 19:0.0481591608951 20:0.00231930477812 21:0.0365905509435 22:-0.0438749112435 23:-3.99680288865e-14 24:0.0294847169556 25:0.000869348533954 26:0.0236879006453 27:-0.0287958029499 28:0.00112723058259 29:0.0183312936711 30:0.000336036327655 
9 1:5688.01056267 2:5687.88588545 3:5687.9685804 4:0.0388729876015 5:0.00151110916507 6:0.0365092538468 7:-0.0284135490673 8:-2.21452485979e-13 9:0.0198049602488 10:0.000392236450457 11:0.0322979626534 12:-0.0297211972628 13:-4.14483262527e-14 14:0.0193788451555 15:0.000375539639562 16:0.0289999847245 17:-0.0231910474349 18:-9.94759830064e-14 19:0.0205391958179 20:0.000421858564844 21:0.0686583033598 22:-0.0744777782469 23:-1.65793305011e-14 24:0.0451676489735 25:0.0020401165138 26:0.0570756105355 27:-0.0483647987187 28:-0.00350152312691 29:0.0328779194185 30:0.00108095758529 
9 1:5687.95015764 2:5687.75372872 3:5687.81969966 4:0.0612999950732 5:0.00375768939597 6:0.0464948132912 7:-0.0576093957974 8:-1.21976502972e-13 9:0.0314706917277 10:0.000990404437818 11:0.0493015025713 12:-0.0542018201572 13:-4.85537536103e-14 14:0.0320707500964 15:0.00102853301174 16:0.0575256151572 17:-0.0627875661781 18:-3.61192557345e-14 19:0.0402904935749 20:0.00162332387251 21:0.0685679328621 22:-0.0611519573503 23:-7.6087284621e-14 24:0.0427152730592 25:0.00182459455252 26:0.0131199343783 27:-0.0192651161187 28:0.000777253078603 29:0.0104549533093 30:0.0001093060487 
9 1:5688.15848932 2:5688.0644117 3:5688.09587747 4:0.0293993145729 5:0.000864319697357 6:0.0235182280725 7:-0.0278653426101 8:-2.51058433302e-13 9:0.0155370599775 10:0.000241400232744 11:0.0242551713071 12:-0.0277006934237 13:-5.92118946467e-16 14:0.01581046904 15:0.000249970931264 16:0.0394957042083 17:-0.0408620097177 18:1.18423789293e-15 19:0.0248055206786 20:0.000615313856139 21:0.0141490942392 22:-0.0130799256865 23:-7.78636414604e-14 24:0.00828472583535 25:6.86366821669e-05 26:0.0138791507211 27:-0.009237047893 28:9.27219767159e-06 29:0.00749033040404 30:5.61050495616e-05 
9 1:5688.38816346 2:5688.27554106 3:5688.31298467 4:0.035260244313 5:0.00124328482901 6:0.0302435981807 7:-0.0340620647334 8:-1.70530256582e-13 9:0.0197423686369 10:0.000389761119394 11:0.0287668136185 12:-0.035302683656 13:-1.11318361936e-13 14:0.0193705881833 15:0.000375219686568 16:0.0634587734681 17:-0.0631403268931 18:-2.90138283769e-14 19:0.0381646456404 20:0.00145654017686 21:0.0388444612965 22:-0.0337869185148 23:6.2172489379e-15 24:0.024260452448 25:0.000588569552984 26:0.0324596944884 27:-0.0427528769468 28:0.00239196250613 29:0.0273578926994 30:0.000748454292952 
9 1:5688.4662013 2:5688.45405252 3:5688.46196362 4:0.00376077881044 5:1.41434572611e-05 6:0.00379162624056 7:-0.00339060500199 8:-1.85925349191e-13 9:0.0026096979654 10:6.81052347063e-06 11:0.00372810517625 12:-0.00351225333738 13:-9.11863177559e-14 14:0.00238200246422 15:5.67393573953e-06 16:0.0111063032881 17:-0.00944888272413 18:-1.59872115546e-14 19:0.00778804494967 20:6.06536441381e-05 21:0.0415961090904 22:-0.0412311519305 23:-2.2796579439e-14 24:0.024937605808 25:0.000621884183436 26:0.055830283348 27:-0.0379436704402 28:-0.00042742037153 29:0.0289001229069 30:0.000835217104034 
9 1:5688.68501973 2:5688.57072559 3:5688.60866931 4:0.0358114118935 5:0.0012824572218 6:0.0312836846211 7:-0.034488000901 8:-2.21452485979e-13 9:0.0204201060754 10:0.000416980732132 11:0.0306450721754 12:-0.0373061345744 13:-1.00660220899e-14 14:0.0205258916125 15:0.000421312226489 16:0.0732725958215 17:-0.0724487974551 18:1.18423789293e-15 19:0.0439015247909 20:0.00192734387897 21:0.0541090753251 22:-0.0516051002195 23:1.00660220899e-14 24:0.0323837751394 25:0.00104870889228 26:0.0384276711175 27:-0.0527751788549 28:-0.00128373435846 29:0.0287796694382 30:0.000828269372969 
9 1:5688.69534241 2:5688.53405382 3:5688.64151022 4:0.0504403028079 5:0.00254422414736 6:0.047994674422 7:-0.0414121506007 8:-1.07765648257e-13 9:0.0271638766596 10:0.000737876195179 11:0.0490668422778 12:-0.0422412843322 13:-6.09882514861e-14 14:0.0276511334258 15:0.000764585179729 16:0.0797557630349 17:-0.0784170677937 18:-5.09222293961e-14 19:0.0481130816121 20:0.00231486862221 21:0.0192604974045 22:-0.0273680460551 23:-5.92118946467e-14 24:0.0191263732481 25:0.000365818153624 26:0.0236399276125 27:-0.034230064735 28:0.00061947689547 29:0.020137210615 30:0.000405507251354 
9 1:5688.85544644 2:5688.78050819 3:5688.8054627 4:0.023460687444 5:0.000550403855347 6:0.0198252119887 7:-0.0222922279616 8:-1.33818881901e-13 9:0.012944810017 10:0.000167568106375 11:0.0206655618986 12:-0.0240341291657 13:-7.22385114689e-14 14:0.0135285778753 15:0.000183022419327 16:0.0440981644655 17:-0.0441972620183 18:-3.43428988951e-14 19:0.026656420971 20:0.000710564778981 21:0.0304625846891 22:-0.0277558465266 23:-4.50010399315e-14 24:0.018343626406 25:0.000336488629725 26:0.0409303856023 27:-0.0460509926332 28:-0.00220194444266 29:0.0300054985567 30:0.000900329943638 
9 1:5689.15577806 2:5689.00708835 3:5689.05684841 4:0.0464696003129 5:0.00215942375324 6:0.0369993921691 7:-0.0436291129574 8:-1.52766688188e-13 9:0.0244013100289 10:0.000595423931124 11:0.0402969316498 12:-0.0447149032047 13:-6.51330841113e-14 14:0.0261712175456 15:0.000684932627818 16:0.066555830668 17:-0.0689301139206 18:-2.96059473233e-15 19:0.0418256291774 20:0.00174938325608 21:0.0159354625582 22:-0.012242321669 23:-4.0560147833e-14 24:0.00892016738845 25:7.9569386238e-05 26:0.100754722618 27:-0.0841014601188 28:-0.00525719478909 29:0.0587190709397 30:0.00344792929202 
9 1:5688.91639679 2:5688.85416636 3:5688.89604174 4:0.0196178455149 5:0.000384859862646 6:0.0194226587922 7:-0.0199513426763 8:-1.78819921833e-13 9:0.0136000516253 10:0.000184961404212 11:0.0243610437647 12:-0.0181577445896 13:-1.7763568394e-13 14:0.0134091723738 15:0.000179805903752 16:0.064559653604 17:-0.0676974872145 18:2.13162820728e-14 19:0.040459125502 20:0.00163694083639 21:0.0947511830069 22:-0.0960951034095 23:-4.61852778244e-14 24:0.0575161070044 25:0.00330810256494 26:0.0203149876681 27:-0.0278824689034 28:0.00169008967715 29:0.015181343383 30:0.000230473186913 
9 1:5688.77276374 2:5688.76083677 3:5688.76889189 4:0.00375939080081 5:1.41330191932e-05 6:0.00418988183073 7:-0.00404531370862 8:-1.51582450295e-13 9:0.00266421538431 10:7.09804361401e-06 11:0.00458030033934 12:-0.00404763521818 13:-7.46069872548e-14 14:0.0031033522248 15:9.63079503116e-06 16:0.00586607296417 17:-0.00627954502151 18:-4.67773967709e-14 19:0.00379487473591 20:1.44010742612e-05 21:0.0101543550062 22:-0.0114266511141 23:0.000580637433981 24:0.00672538307301 25:4.52307774788e-05 26:0.001590510423 27:-0.00232419443141 28:0.000464838886235 29:0.00144620434681 30:2.09150701272e-06 
