9 1:17.7326320793 2:6.49911861736 3:14.0017687707 4:3.51884711563 5:12.3822850232 6:3.39474748062 7:-3.05769505499 8:-2.77555756156e-16 9:1.9952737196 10:3.98111721611 11:3.61530122096 12:-2.95489588296 13:-2.03540887848e-16 14:1.98577648853 15:3.94330826238 16:6.8356304304 17:-6.90316497661 18:-2.96059473233e-16 19:4.13932383977 20:17.1340018505 21:4.62007654627 22:-5.02373350581 23:-2.96059473233e-16 24:3.02609446184 25:9.15724769196 26:0.762272831804 27:-0.845811904469 28:-0.04521498874 29:0.536199745189 30:0.287510166741 
9 1:14.5305621479 2:7.97234559798 3:10.1661677313 4:2.04934246199 5:4.1998045265 6:1.63638352664 7:-1.9418869279 8:-3.59666000686e-16 9:1.08173580274 10:1.17015234693 11:1.6890275145 12:-1.92659446962 13:-4.85722573274e-17 14:1.10072819787 15:1.21160256559 16:2.72299433725 17:-2.82135658386 18:-2.22044604925e-16 19:1.71408364596 20:2.93808274534 21:0.883911304594 22:-0.867079560687 23:-1.2490009027e-16 24:0.55177226501 25:0.304452632434 26:0.374885606026 27:-0.415847692422 28:-0.00935324084466 29:0.286238194698 30:0.081932304104 
9 1:67.3430870403 2:44.925363716 3:52.3964549205 4:7.01402673734 5:49.1965710722 6:5.85929696011 7:-6.7058203652 8:2.59052039079e-16 9:3.83297002368 10:14.6916592025 11:5.85721102732 12:-6.92542698657 13:-1.21661939782e-15 14:3.86027528655 15:14.901725288 16:11.6973356978 17:-11.7878926372 18:-1.7763568394e-15 19:7.1071279155 20:50.5112672073 21:5.0768170238 22:-4.29346699523 23:-5.92118946467e-16 24:3.29980340727 25:10.8887025267 26:0.7023449508 27:-0.7023449508 28:-0.016551756737 29:0.442152079872 30:0.195498461735 
9 1:33.3228971796 2:9.97438143056 3:25.5583859028 4:7.31066106974 5:53.4457652766 6:7.02709842438 7:-6.26137680347 8:-7.77156117238e-16 9:4.08687860979 10:16.7025767712 11:7.40903333092 12:-6.13811410146 13:-7.40148683083e-17 14:4.08916338828 15:16.7212572161 16:13.5236230069 17:-13.5764513449 18:-2.96059473233e-16 19:8.17046861047 20:66.7565573147 21:7.76818675444 22:-8.58796821555 23:-5.92118946467e-16 24:5.22775390012 25:27.3294108402 26:0.347276594868 27:-0.568671906262 28:-0.0229448099343 29:0.300888071142 30:0.0905336313556 
9 1:5.51406967854 2:-0.409648095624 3:3.53155363105 4:1.85068143308 5:3.42502176675 6:1.75480626843 7:-1.46821673165 8:-7.17019036737e-17 9:0.973535011415 10:0.947770418451 11:1.71722912662 12:-1.50437604593 13:-8.78926561162e-17 14:0.980682887866 15:0.961738926553 16:2.41734034985 17:-2.31995914287 18:-7.40148683083e-17 19:1.47433340081 20:2.17365897675 21:0.931330683699 22:-0.845159464437 23:3.70074341542e-17 24:0.619105420957 25:0.383291522258 26:0.557837158082 27:-0.359064171 28:-0.0409537585183 29:0.349083976363 30:0.121859622554 
9 1:0.0 2:0.0 3:0.0 4:0.0 5:0.0 6:0.0 7:0.0 8:0.0 9:0.0 10:0.0 11:0.0 12:0.0 13:0.0 14:0.0 15:0.0 16:0.0 17:0.0 18:0.0 19:0.0 20:0.0 21:0.0 22:0.0 23:0.0 24:0.0 25:0.0 26:0.0 27:0.0 28:0.0 29:0.0 30:0.0 
9 1:0.0 2:0.0 3:0.0 4:0.0 5:0.0 6:0.0 7:0.0 8:0.0 9:0.0 10:0.0 11:0.0 12:0.0 13:0.0 14:0.0 15:0.0 16:0.0 17:0.0 18:0.0 19:0.0 20:0.0 21:0.0 22:0.0 23:0.0 24:0.0 25:0.0 26:0.0 27:0.0 28:0.0 29:0.0 30:0.0 
9 1:0.0 2:0.0 3:0.0 4:0.0 5:0.0 6:0.0 7:0.0 8:0.0 9:0.0 10:0.0 11:0.0 12:0.0 13:0.0 14:0.0 15:0.0 16:0.0 17:0.0 18:0.0 19:0.0 20:0.0 21:0.0 22:0.0 23:0.0 24:0.0 25:0.0 26:0.0 27:0.0 28:0.0 29:0.0 30:0.0 
9 1:0.0 2:0.0 3:0.0 4:0.0 5:0.0 6:0.0 7:0.0 8:0.0 9:0.0 10:0.0 11:0.0 12:0.0 13:0.0 14:0.0 15:0.0 16:0.0 17:0.0 18:0.0 19:0.0 20:0.0 21:0.0 22:0.0 23:0.0 24:0.0 25:0.0 26:0.0 27:0.0 28:0.0 29:0.0 30:0.0 
9 1:0.0 2:0.0 3:0.0 4:0.0 5:0.0 6:0.0 7:0.0 8:0.0 9:0.0 10:0.0 11:0.0 12:0.0 13:0.0 14:0.0 15:0.0 16:0.0 17:0.0 18:0.0 19:0.0 20:0.0 21:0.0 22:0.0 23:0.0 24:0.0 25:0.0 26:0.0 27:0.0 28:0.0 29:0.0 30:0.0 
9 1:0.0 2:0.0 3:0.0 4:0.0 5:0.0 6:0.0 7:0.0 8:0.0 9:0.0 10:0.0 11:0.0 12:0.0 13:0.0 14:0.0 15:0.0 16:0.0 17:0.0 18:0.0 19:0.0 20:0.0 21:0.0 22:0.0 23:0.0 24:0.0 25:0.0 26:0.0 27:0.0 28:0.0 29:0.0 30:0.0 
9 1:0.0 2:0.0 3:0.0 4:0.0 5:0.0 6:0.0 7:0.0 8:0.0 9:0.0 10:0.0 11:0.0 12:0.0 13:0.0 14:0.0 15:0.0 16:0.0 17:0.0 18:0.0 19:0.0 20:0.0 21:0.0 22:0.0 23:0.0 24:0.0 25:0.0 26:0.0 27:0.0 28:0.0 29:0.0 30:0.0 
9 1:0.0 2:0.0 3:0.0 4:0.0 5:0.0 6:0.0 7:0.0 8:0.0 9:0.0 10:0.0 11:0.0 12:0.0 13:0.0 14:0.0 15:0.0 16:0.0 17:0.0 18:0.0 19:0.0 20:0.0 21:0.0 22:0.0 23:0.0 24:0.0 25:0.0 26:0.0 27:0.0 28:0.0 29:0.0 30:0.0 
9 1:0.0 2:0.0 3:0.0 4:0.0 5:0.0 6:0.0 7:0.0 8:0.0 9:0.0 10:0.0 11:0.0 12:0.0 13:0.0 14:0.0 15:0.0 16:0.0 17:0.0 18:0.0 19:0.0 20:0.0 21:0.0 22:0.0 23:0.0 24:0.0 25:0.0 26:0.0 27:0.0 28:0.0 29:0.0 30:0.0 
9 1:44.3685394919 2:11.5774567424 3:22.5465674092 4:10.2467123099 5:104.995113162 6:8.18191763322 7:-9.7094346395 8:-9.66819217278e-16 9:5.4086790137 10:29.2538086733 11:8.4451375725 12:-9.63297234808 13:6.66133814775e-16 14:5.50364098936 15:30.2900641398 16:13.6149716863 17:-14.1067829193 18:0.0 19:8.57041822978 20:73.4520686334 21:4.41955652297 22:-4.33539780344 23:-3.1456319031e-16 24:2.75886132505 25:7.61131581086 26:1.87442803013 27:-2.07923846211 28:-0.0467662042233 29:1.43119097349 30:2.0483076026 
9 1:161.07856817 2:96.8942339644 3:118.332242084 4:20.0663773978 5:402.659501872 6:16.3217270479 7:-19.0952090072 8:-1.42478621494e-15 9:10.7343376729 10:115.226005276 11:16.5623370221 12:-19.2105965503 13:6.19874522082e-16 14:10.8379409013 15:117.46096298 16:29.2253703646 17:-29.9038175302 18:-3.5527136788e-15 19:18.0677390121 20:326.443193008 21:9.31310548214 22:-6.95426289999 23:-7.40148683083e-16 24:5.32896134889 25:28.397829058 26:4.81656639115 27:-7.55411116645 28:0.0458801009413 29:3.73527368597 30:13.9522695091 
9 1:237.996326811 2:165.588885289 3:213.693910945 4:22.6011301285 5:510.811083087 6:21.2668027072 7:-17.2904534513 8:-3.33066907388e-15 9:11.646217446 10:135.6343808 11:20.1985596291 12:-18.2648124991 13:-5.25505564989e-15 14:11.8771403547 15:141.066463005 16:24.4931582914 17:-22.6896588429 18:-1.18423789293e-15 19:15.4785213302 20:239.58462257 21:20.0776579864 22:-22.4477270346 23:2.36847578587e-15 24:14.0324602102 25:196.909939552 26:21.1768601985 27:-15.1195009645 28:-0.0641394957221 29:10.7590484214 30:115.757122933 
9 1:174.152997879 2:153.779809874 3:160.542346765 4:6.3844484455 5:40.7611819532 6:5.58971378754 7:-6.13669429677 8:-1.25825276124e-15 9:3.64987232612 10:13.321567997 11:5.54398211839 12:-6.71123896471 13:-1.23974904416e-15 14:3.70009947501 15:13.690736125 16:13.4003274463 17:-13.238523193 18:-3.25665420557e-15 19:8.02552762224 20:64.4090936153 21:11.9168981361 22:-11.0268578149 23:-8.881784197e-16 24:7.11724679114 25:50.655201886 26:12.5901839212 27:-8.1082064428 28:-0.226226534801 29:7.02615533968 30:49.3668588574 
9 1:492.850378554 2:322.071133121 3:379.015497054 4:53.4220201649 5:2853.9122385 6:44.3454886688 7:-51.0594378881 8:-1.43588844518e-14 9:29.0426016848 10:843.472712619 11:44.2625721114 12:-52.2339061109 13:-4.95899617666e-15 14:29.1479466379 15:849.602793206 16:85.7465498713 17:-86.6950506685 18:-7.1054273576e-15 19:52.2730975232 20:2732.47672467 21:32.281773169 22:-25.6799662194 23:3.5527136788e-15 24:22.5033218977 25:506.399496433 26:13.4039001726 27:-13.0514555175 28:0.673545019926 29:8.98739073855 30:80.7731922874 
9 1:704.949162527 2:696.268647547 3:698.877822556 4:2.86428077445 5:8.20410435488 6:6.06872329023 7:-6.83132613223 8:-2.20564307559e-14 9:4.54955720879 10:20.6984707961 11:5.08373944124 12:-6.18407773287 13:-1.30266168223e-14 14:4.48068308481 15:20.0765209065 16:29.0512263468 17:-26.5921815533 18:-5.92118946467e-15 19:17.9029260792 20:320.514762196 21:59.8030046206 22:-59.6442750604 23:-8.28966525053e-15 24:35.9699210245 25:1293.83521851 26:8.63596670829 27:-8.49932876122 28:-0.0489163201783 29:5.09190635022 30:25.9275102795 
9 1:604.895104916 2:581.480105065 3:597.293845659 4:7.38039509107 5:54.4702317003 6:8.2244526308 7:-7.94125457972 8:-1.80596278672e-14 9:5.23021209559 10:27.3551185648 11:8.98501626976 12:-7.93858177377 13:-8.28966525053e-15 14:6.08979051053 15:37.0855484622 16:11.5328265934 17:-12.3453099972 18:-1.21384384026e-14 19:7.4603283908 20:55.6564996986 21:19.9292388493 22:-22.4177556792 23:1.13904643574 24:13.1944676107 25:174.093975531 26:0.339874957872 27:-0.424388403505 28:0.0848776807009 29:0.279069680397 30:0.0778798865171 
