9 1:-105.622267441 2:-197.123237525 3:-135.945291636 4:31.3149770662 5:980.627788657 6:31.7471704721 7:-24.9858009988 8:3.20378644249e-15 9:17.3961837457 10:302.627208913 11:11.0007788071 12:-13.203429343 13:-1.08301101271 14:7.69582791002 15:59.2257672206 16:10.1320838994 17:-11.5026802576 18:-1.30988920029 19:7.18940757779 20:51.6875813195 21:46.4970945074 22:-13.8900624992 23:7.15784293995 24:16.7855154233 25:281.753528027 26:37.8550068371 27:-38.3351479015 28:1.74013550126 29:25.3475861327 30:642.500122752 
9 1:-115.296277893 2:-123.018806697 3:-119.974830406 4:2.55335913262 5:6.51964286012 6:7.8861964707 7:-5.15936281643 8:4.18712683573e-15 9:3.93289176853 10:15.467637663 11:3.33987897581 12:-6.35765194824 13:-0.875691023621 14:2.87617127811 15:8.27236122105 16:21.0718853456 17:-22.3326027036 18:0.0339830394233 19:11.8182180985 20:139.670279024 21:44.7143994198 22:-18.5774826543 23:7.41247895748 24:16.6435815369 25:277.008806376 26:64.3451661233 27:-59.3363811651 28:0.905128771703 29:37.6317738815 30:1416.15040547 
9 1:19.8432837413 2:14.5475038672 3:17.566998932 4:1.97822416298 5:3.913370839 6:15.501739103 7:-24.2178391252 8:-6.97854472622e-16 9:11.9427373876 10:142.628976309 11:11.6257616586 12:-13.104154471 13:-1.95607545731 14:8.77972098783 15:77.0835006241 16:6.47084270702 17:-4.14345009285 18:0.777777805515 19:4.04015185197 20:16.322826987 21:75.9465063161 22:-31.5493963794 23:13.0046588483 24:31.2124323223 25:974.215931472 26:56.3624384874 27:-57.083396462 28:-4.09954580113 29:32.8111176409 30:1076.56944085 
9 1:-33.9223251656 2:-142.635548028 3:-70.5395797958 4:36.964881111 5:1366.40243555 6:30.0549843314 7:-24.1321445051 8:1.39570894524e-15 9:17.1417722881 10:293.840357178 11:9.84715072308 12:-13.3808366177 13:0.536854723868 14:8.90298752158 15:79.2631868094 16:14.0119246574 17:-19.7022477354 18:-1.66224349118 19:10.6625515462 20:113.690005474 21:23.1016761531 22:-36.8405307307 23:-5.7358017098 24:16.8785280344 25:284.884708607 26:57.5996931111 27:-38.1221460836 28:1.98344032257 29:34.8674204102 30:1215.73700606 
9 1:-30.0588929692 2:-118.814031234 3:-59.043117883 4:30.4757455812 5:928.771068733 6:42.7306107172 7:-32.3011095008 8:6.97854472622e-16 9:21.7391379353 10:472.590118168 11:17.1272027276 12:-17.4311946757 13:-1.3525523954 14:10.021145446 15:100.423356049 16:11.5167918522 17:-9.22722027494 18:-0.885445628958 19:6.67338878333 20:44.5341178534 21:60.3414077778 22:-21.4949157392 23:9.09240664985 24:21.6368171522 25:468.151856476 26:53.825483618 27:-54.8417544898 28:1.90453147717 29:36.7678356952 30:1351.87374171 
9 1:-74.311183482 2:-97.6853769067 3:-81.8906353126 4:8.06948312366 5:65.116557883 6:11.4104501801 7:-8.64172312335 8:3.29894841603e-15 9:5.98555526865 10:35.826871874 11:3.89573119587 12:-4.38256536955 13:-0.592305766945 14:2.68986775909 15:7.23538856137 16:7.74566295299 17:-8.92705104536 18:-0.931583261849 19:5.05553690433 20:25.558453391 21:34.2219630082 22:-12.4931806662 23:5.06126740495 24:14.906668412 25:222.208763146 26:43.9345335008 27:-48.1630025282 28:3.66548505054 29:31.8300780703 30:1013.15386996 
9 1:-41.5090265545 2:-117.64025873 3:-66.5726479093 4:26.0719543363 5:679.746802914 6:33.0388579535 7:-25.169109714 8:3.39411038957e-15 9:16.9845621672 10:288.475352011 11:12.814802335 12:-13.542536855 13:-0.686295035317 14:7.59996419418 15:57.7594557527 16:7.83145693048 17:-9.95702415658 18:-1.09338631891 19:5.80074584927 20:33.6486524078 21:33.3368312137 22:-13.0849419581 23:4.84570967304 24:14.8993408349 25:221.990357313 26:40.4958113253 27:-48.2895570008 28:2.97118183332 29:28.861741323 30:833.000112195 
9 1:-57.1587882677 2:-126.184552102 3:-79.7815567679 4:23.6683629297 5:560.19140377 6:32.2834505456 7:-24.4136754342 8:4.37745078281e-15 9:16.4095520992 10:269.273400096 11:12.654515422 12:-13.0250024635 13:-0.795505896424 14:7.36488473944 15:54.2415272253 16:8.61773649194 17:-9.53685356169 18:-1.01556311758 19:6.02165161944 20:36.2602882259 21:36.4333158374 22:-12.0505011712 23:5.35868680554 24:14.4306268476 25:208.242991213 26:39.3071176342 27:-41.3439449699 28:3.10100702803 29:27.7407588664 30:769.549702481 
9 1:-73.223131032 2:-109.8960256 3:-85.2063417969 4:12.6030559679 5:158.837019729 6:16.9818551263 7:-12.8949489427 8:1.03092138001e-15 9:8.75513547839 10:76.6523972449 11:5.79328573329 12:-6.33970050503 13:-0.647281830664 14:3.71375855447 15:13.7920026009 16:9.29356887956 17:-9.59728076372 18:-0.870243102916 19:6.43753013546 20:41.4417942449 21:34.321660217 22:-15.0327375194 23:5.24170905916 24:14.834956945 25:220.075947561 26:49.4286631027 27:-41.8859134438 28:2.6906508805 29:31.9244065257 30:1019.16773202 
9 1:-42.819941286 2:-73.8240562282 3:-52.603839313 4:10.7560919826 5:115.693514738 6:24.0056266181 7:-17.3865566843 8:2.34732868064e-15 9:11.7158254691 10:137.260566422 11:9.82970904488 12:-9.09576963452 13:-0.779144060871 14:5.55622996804 15:30.8716914577 16:12.4786235959 17:-12.1974906572 18:-1.23684687705 19:7.52909382904 20:56.6872538865 21:44.6058288887 22:-12.5332343611 23:6.40779012382 24:16.7884430234 25:281.85181915 26:45.4100893247 27:-48.9118427844 28:3.8700175929 29:33.1976585432 30:1102.08453275 
9 1:23.976305137 2:-13.1996852006 3:-0.190576871115 4:12.5306356632 5:157.016830124 6:6.31293088912 7:-7.75348689244 8:6.34413156929e-17 9:4.24424629684 10:18.0136266283 11:7.63990860959 12:-6.2974516719 13:-0.687091097258 14:4.52641247763 15:20.4884099176 16:9.98880835661 17:-11.1956576561 18:0.229835523092 19:5.47589748488 20:29.9854532649 21:39.3491133883 22:-18.0986599757 23:5.79230808402 24:15.3659075334 25:236.111114324 26:44.6216512403 27:-58.0740310963 28:3.17250130669 29:36.5806208128 30:1338.14181905 
9 1:9.2578606175 2:-18.7262099419 3:-9.39486732511 4:9.53259133173 5:90.8702974978 6:6.13373341358 7:-7.25890701861 8:1.90323947079e-16 9:4.60591295963 10:21.2144341917 11:3.7669371269 12:-1.88043247694 13:0.586275768557 14:1.80607790599 15:3.26191740249 16:10.1792740317 17:-14.7768052833 18:-1.72953812153 19:7.60625935578 20:57.8551813874 21:13.8361391587 22:-17.9625520967 23:-2.1478344874 24:9.6222057732 25:92.5868439418 26:54.806594635 27:-44.7868311159 28:4.74798852258 29:37.1612014797 30:1380.95489542 
9 1:-22.6283640286 2:-56.4703721536 3:-45.2981699816 4:11.6056963242 5:134.692187171 6:8.58573520751 7:-10.5661277727 8:1.34019779401e-15 9:6.17147574252 10:38.0871128405 11:5.37271321834 12:-3.03411678397 13:0.882154756097 14:2.94325994281 15:8.66277909098 16:8.99026222669 17:-8.77641826785 18:-0.24151818025 19:4.55366632104 20:20.7358769634 21:19.1693490333 22:-29.225191139 23:-5.09929846475 24:14.0013071948 25:196.036603163 26:46.5525152913 27:-49.4928829481 28:3.7844830924 29:32.2638977179 30:1040.95909595 
9 1:-51.8520494438 2:-67.2202975442 3:-61.9348869333 4:5.23845296299 5:27.4413894455 6:3.8690917635 7:-5.07982759967 8:1.45915026094e-15 9:2.8733647773 10:8.25622514341 11:4.50825824469 12:-3.66548627619 13:0.71315211269 14:2.52292191167 15:6.36513497239 16:4.93587464099 17:-8.21203866964 18:-0.931452981856 19:4.27988222564 20:18.3173918654 21:16.1533597875 22:-17.4005993851 23:-3.35337526626 24:11.6434168391 25:135.569155688 26:40.7270053221 27:-47.9883516784 28:4.82671050637 29:31.2041581729 30:973.699487279 
9 1:-40.9939128885 2:-117.884906325 3:-66.0152201239 4:26.320237877 5:692.7549219 6:46.767878579 7:-34.2832779381 8:7.61295788314e-16 9:22.6571098414 10:513.344626365 11:21.1603993196 12:-19.0167236377 13:-0.0953227751222 14:11.3719282352 15:129.320751787 16:5.19109030314 17:-7.09131216722 18:0.0279539170669 19:3.19136972156 20:10.1848406997 21:18.8055125597 22:-19.9840610348 23:-0.0360304488529 24:10.3759413186 25:107.660158247 26:41.9634635812 27:-41.7883176922 28:4.04936701177 29:26.2038905846 30:686.643881771 
9 1:-97.0911770858 2:-139.533374387 3:-111.098992653 4:14.5191371739 5:210.805344274 6:17.7773071343 7:-13.5902785476 8:3.45755170526e-15 9:9.17253443039 10:84.1353878767 11:6.72466642333 12:-7.17621566013 13:-0.311376931205 14:4.03188908002 15:16.2561295535 16:5.65600960214 17:-5.99543905146 18:-0.450414109284 19:3.44774856692 20:11.8869701807 21:16.1047566707 22:-6.88065696113 23:2.49648866248 24:6.2511992361 25:39.0774918894 26:20.5334206004 27:-16.6123205974 28:1.72211433219 29:13.7925941889 30:190.235654461 
9 1:-88.3165947963 2:-131.239383214 3:-102.571940153 4:14.6760108929 5:215.385295729 6:12.989433586 7:-10.5237454502 8:7.61295788314e-16 9:7.50156151577 10:56.2734251749 11:4.23574908799 12:-5.29752748369 13:-0.704198431663 14:3.28177076981 15:10.7700193856 16:4.33070037903 17:-4.61087786698 18:0.186765384953 19:2.3721130886 20:5.62692050511 21:23.2813737277 22:-7.0408419154 23:3.99824341815 24:8.06591647648 25:65.0590086055 26:26.2326507829 27:-17.1987194646 28:0.262988838997 29:16.6543819876 30:277.368439391 
9 1:-79.6579435958 2:-148.865163846 3:-102.607495949 4:23.6465733906 5:559.160433117 6:24.6735145357 7:-19.3467819523 8:7.29575130468e-16 9:13.2942718412 10:176.737663787 11:9.11158938816 12:-10.1907390006 13:-0.67371639743 14:5.77095442674 15:33.3039149955 16:5.90042758348 17:-6.3063704834 18:0.0699878626156 19:3.13455487914 20:9.82543429036 21:24.2026219832 22:-10.6033369 23:4.09335040289 24:8.89160913301 25:79.0607129743 26:26.0310449433 27:-26.2611656279 28:0.296660737277 29:17.2347746836 30:297.037458396 
9 1:-102.699789424 2:-141.378448383 3:-115.500695856 4:13.2605680769 5:175.842665722 6:12.8807519123 7:-10.2265715488 8:8.881784197e-16 9:7.26943050876 10:52.8446199216 11:3.91959098524 12:-5.17830661988 13:-0.639060902629 14:3.26800960003 15:10.6798867459 16:6.90781286626 17:-8.47102038148 18:-0.955211436917 19:5.13885387336 20:26.4078191318 21:27.9785401424 22:-7.6851089299 23:4.26865132793 24:10.322341135 25:106.550726507 26:32.2223594387 27:-27.3560788992 28:0.818492275981 29:19.966286855 30:398.652610776 
9 1:-103.084593177 2:-138.590480753 3:-114.724425666 4:12.1900564212 5:148.597475552 6:15.9703838878 7:-12.1339211215 8:3.74303762588e-15 9:8.24819886877 10:68.0327845788 11:5.92892513804 12:-6.43766763095 13:-0.472778048837 14:3.65565046864 15:13.3637803488 16:6.48104216257 17:-8.50804871447 18:-0.927159915882 19:4.558571912 20:20.7805778769 21:26.1303652739 22:-10.0237681513 23:3.7836769658 24:11.4781350731 25:131.747584756 26:28.4769683341 27:-31.3293611148 28:1.75817231197 29:19.9624236108 30:398.498356416 
9 1:-94.6267990787 2:-137.964612155 3:-109.374346763 4:14.8097604781 5:219.329005418 6:8.77312327677 7:-10.2131826324 8:2.12528407571e-15 9:5.319640173 10:28.2985715702 11:6.47747056995 12:-5.92425006398 13:2.53765262771e-15 14:3.93904849897 15:15.5161030773 16:20.7416513189 17:-13.9724190032 18:1.14194368247e-15 19:10.1751817651 20:103.534323953 21:25.526277966 22:-9.17660944786 23:3.48637511348 24:10.8928605349 25:118.654410632 26:32.8555010962 27:-32.6587285522 28:3.03825593496 29:21.4995889713 30:462.232325937 
