2 1:-84.4313511644 2:-135.048664765 3:-118.301268422 4:17.2068852959 5:296.076901585 6:20.4843499096 7:-28.0133281751 8:4.82153999266e-15 9:13.595324407 10:184.832845732 11:13.0447145886 12:-14.7762231219 13:-1.03629549981 14:8.50494058776 15:72.3340144014 16:16.6998270075 17:-18.9827001401 18:-0.288186459582 19:9.56049036478 20:91.402976015 21:47.2101975078 22:-16.1577771677 23:8.09549602732 24:17.7391035586 25:314.675795062 26:49.9997600337 27:-53.653436023 28:-4.61735253544 29:35.5583453325 30:1264.39592278 
2 1:80.1589228274 2:-69.0138517424 3:-19.1071098331 4:50.8285087508 5:2583.53730183 6:36.6241098641 7:-46.0332397515 8:3.80647894157e-16 9:25.6157503343 10:656.166665187 11:24.1014512886 12:-21.9034396157 13:-0.014260492505 14:13.5456245165 15:183.483943541 16:38.0011029513 17:-43.8206201189 18:-0.184750849878 19:22.06240252 20:486.749604954 21:15.7570376484 22:-12.3272041139 23:3.15591046876 24:9.16520971515 25:84.0010691228 26:54.5321190913 27:-79.5538457317 28:-4.00911902478 29:43.7023259821 30:1909.89329625 
2 1:521.873621584 2:229.236558028 3:327.896556962 4:99.5795260826 5:9916.08201483 6:60.2453848785 7:-73.7133644861 8:0.0 9:43.8883166327 10:1926.18433685 11:36.0751512417 12:-26.9488218502 13:-1.08587249706 14:24.2399836658 15:587.576808116 16:35.0911025877 17:-19.7941829297 18:4.97589240203 19:14.5662382128 20:212.175295671 21:65.4562537777 22:-27.3723816415 23:11.4114265995 24:24.0703635595 25:579.382401885 26:39.0192535146 27:-61.1762534342 28:-5.75627034549 29:25.3441482475 30:642.325850391 
2 1:681.278763133 2:506.525500827 3:564.818678405 4:59.6023401607 5:3552.43895263 6:45.4519578015 7:-57.6728975809 8:-7.86672314592e-15 9:31.4699898722 10:990.360262559 11:26.7720397461 12:-23.8298876556 13:0.428054887555 14:15.1356037434 15:229.086500678 16:11.8094658603 17:-13.4153893585 18:0.701152652746 19:7.12822312596 20:50.8115649335 21:12.2959534215 22:-17.4221960671 23:-0.787158108837 24:9.19171184198 25:84.487566586 26:20.694209325 27:-22.0812696228 28:-0.111284318449 29:12.8890160885 30:166.126735731 
2 1:690.917046956 2:632.346313315 3:651.75156271 4:20.0426340202 5:401.707178468 6:16.0139265719 7:-20.3294575633 8:6.09036630652e-15 9:11.1347306646 10:123.982226974 11:8.2349221762 12:-6.85497560946 13:0.74158533341 14:4.83629264474 15:23.3897265456 16:9.57675451254 17:-8.94720562661 18:0.649842075249 19:5.32181200179 20:28.3216829824 21:10.76335796 22:-28.9647033543 23:-4.647115374 24:10.1861857595 25:103.758380327 26:27.0925021604 27:-32.5893211241 28:-0.286847956083 29:20.2509772052 30:410.102077764 
2 1:734.39126882 2:622.696936098 3:659.742243553 4:38.166875559 5:1456.71038994 6:31.519460531 7:-40.3520322731 8:-1.47183852407e-14 9:21.6209529367 10:467.465605893 11:16.7981275614 12:-14.9697473927 13:0.947021443413 14:9.49292649132 15:90.1156533696 16:10.8812138227 17:-10.1731221714 18:0.555386191374 19:5.68541871391 20:32.3239859525 21:11.3109758945 22:-32.6010743232 23:-5.29925349568 24:11.3671398444 25:129.211868242 26:38.9109988011 27:-36.3236752481 28:0.219734328958 29:22.6098522789 30:511.205420072 
2 1:684.009779025 2:658.335679022 3:666.770235043 4:8.85699744323 5:78.4464037094 6:6.91515064839 7:-6.91873856355 8:-2.71528831165e-14 9:4.70067125204 10:22.0963102197 11:6.3987595298 12:-3.33438457889 13:1.04362491961 14:2.92726395288 15:8.56887424984 16:9.27262466522 17:-9.15039101587 18:0.557173149085 19:5.45405228877 20:29.7466863686 21:8.15313205814 22:-44.7653679826 23:-7.20732693221 24:14.4834488517 25:209.770290641 26:24.0074940141 27:-33.2022036194 28:1.16120454333 29:18.313996644 30:335.402473076 
2 1:680.734211003 2:638.905301559 3:652.565575222 4:14.3415501049 5:205.680059412 6:15.8541189834 7:-21.1149035281 8:-2.41076999633e-14 9:10.5646697942 10:111.612247861 11:7.7601789458 12:-7.81354167224 13:0.553391723051 14:4.47570783862 15:20.0319606567 16:11.916323324 17:-11.3042355021 18:0.279145758641 19:6.34028203667 20:40.1991763045 21:11.5091152284 22:-21.2267255581 23:-3.42938443775 24:8.94605525058 25:80.0319045464 26:29.6539777579 27:-39.4254465941 28:-0.273552087192 29:22.9608782562 30:527.201930295 
2 1:653.340452912 2:613.163209355 3:625.990245214 4:13.8715199387 5:192.419065409 6:20.2216811262 7:-27.6707134575 8:-9.51619735393e-15 9:13.4840826914 10:181.820486028 11:10.1114067072 12:-10.9134112908 13:0.863490552855 14:6.16252494894 15:37.9767137463 16:11.8678763661 17:-12.7847327676 18:0.837955756905 19:8.1883315073 20:67.0487728734 21:10.2748849619 22:-42.5427549282 23:-6.37224478536 24:14.7310736736 25:217.004531576 26:22.5695814828 27:-25.5771846697 28:-0.90959798836 29:16.8981893936 30:285.548804782 
2 1:639.073998549 2:592.42629193 3:607.649829633 4:16.020105164 5:256.643769467 6:17.4482246105 7:-23.2090030513 8:-2.01743383903e-14 9:11.7260725446 10:137.500777321 11:9.17430485209 12:-8.97122160601 13:0.63928127492 14:5.2272970756 15:27.3246347166 16:7.63294258403 17:-7.44823720405 18:0.788866631019 19:5.24924622797 20:27.5545859618 21:18.4164414387 22:-31.3426098403 23:-4.75038831602 24:13.4648647954 25:181.302583959 26:46.1133425185 27:-54.7573696234 28:-2.63455600573 29:33.7116460559 30:1136.4750798 
2 1:734.601774371 2:567.402339288 3:622.716113734 4:57.1377880041 5:3264.726818 6:51.6511138386 7:-67.2330364267 8:-1.9413042602e-14 9:34.9099003729 10:1218.70114405 11:27.8238627101 12:-26.2359123482 13:1.0426214567 14:15.5955715889 15:243.221853185 16:14.4360929394 17:-13.845372085 18:1.10742735322 19:8.2245024168 20:67.642440004 21:13.6737225563 22:-35.6722078778 23:-5.42244335485 24:14.6091948007 25:213.428572724 26:36.4035809027 27:-45.1461948272 28:-2.09180760132 29:27.4287652555 30:752.337163443 
2 1:674.421806801 2:631.432190699 3:645.416037295 4:14.8224779275 5:219.705851912 6:14.4118430129 7:-18.6551413032 8:-3.14668925837e-14 9:10.020410415 10:100.408624884 11:8.10058733437 12:-5.48786623871 13:1.33266697486 14:4.6156039436 15:21.3037997642 16:15.5235292432 17:-15.314533483 18:0.897360056591 19:9.42266218683 20:88.7865626871 21:19.0574379199 22:-61.600997527 23:-9.76503699562 24:21.3640737044 25:456.423645248 26:35.7257950471 27:-55.5139489053 28:-0.643024045566 29:33.1729910617 30:1100.44733598 
2 1:702.643302177 2:573.400450962 3:616.200751681 4:44.2019135895 5:1953.80916498 6:36.9989608671 7:-47.4332309043 8:-1.57334462918e-14 9:25.4069868676 10:645.514981692 11:19.7346114912 12:-17.4476017254 13:1.28002353957 14:11.1965833087 15:125.36347779 16:12.4240412773 17:-12.1410298126 18:0.975824708131 19:7.31007014952 20:53.4371255909 21:23.7549442751 22:-51.1968205464 23:-8.1112508875 24:19.2226859679 25:369.511655821 26:51.8949570964 27:-56.9398759935 28:-1.00906412568 29:35.0111948937 30:1225.78376788 
2 1:677.313458367 2:598.11046243 3:624.098640661 4:27.181505697 5:738.834251955 6:25.5256352855 7:-33.1435681586 8:-8.12048840869e-15 9:17.4246058534 10:303.616889147 11:12.6974872919 12:-11.3972591827 13:1.45277671726 14:7.54948962808 15:56.9947936444 16:18.1692363278 17:-17.8780678558 18:1.06216139203 19:10.4938642021 20:110.121185892 21:12.0174945611 22:-60.978003234 23:-9.61967454596 24:19.8086155814 25:392.381251251 26:39.0795661183 27:-44.919922805 28:0.121179107823 29:28.1875639496 30:794.538761415 
2 1:686.80635175 2:581.099972063 3:616.297806409 4:36.1343264573 5:1305.68954852 6:25.1938377529 7:-31.1378857573 8:-1.4464619978e-14 9:18.0733183003 10:326.644834383 11:12.964424532 12:-9.73974770619 13:1.3066734794 14:8.02341336078 15:64.375161958 16:15.7732502142 17:-14.1174716739 18:0.932737331509 19:8.27463641667 20:68.4696078281 21:17.8647712112 22:-49.8830595242 23:-8.21739650748 24:17.3505957845 25:301.043174077 26:50.6703541738 27:-48.0822765321 28:0.759096265351 29:32.9796009074 30:1087.65407601 
2 1:684.333777652 2:590.855597775 3:621.690895695 4:32.0153773549 5:1024.98438717 6:28.0799112552 7:-36.1623263682 8:-1.89055120765e-14 9:19.2248695367 10:369.595608705 11:14.4375213679 12:-12.8490764812 13:1.30697935126 14:8.33866174942 15:69.5332797712 16:15.3482999806 17:-15.0221847192 18:0.753357149706 19:8.4218290592 20:70.9272047024 21:15.2009474116 22:-51.5014069997 23:-8.26458850045 24:17.5043018737 25:306.400584086 26:49.8434891226 27:-39.4989491647 28:1.40088707919 29:30.6641475687 30:940.289946116 
2 1:684.934735192 2:592.604822496 3:623.361823049 4:31.5708092631 5:996.715997527 6:21.0311349066 7:-25.6743870107 8:-6.59789683206e-15 9:15.3532966866 10:235.723719146 11:10.7313989771 12:-7.64326974983 13:1.33773999189 14:6.9417025902 15:48.1872348509 16:14.2919717978 17:-12.9647252108 18:0.80196839601 19:7.44298721737 20:55.3980587179 21:10.3493339014 22:-47.3551261172 23:-7.81876751048 24:15.8737849391 25:251.977048294 26:44.9772344408 27:-38.7512063475 28:1.94882208106 29:29.546731011 30:873.009313437 
2 1:726.297378444 2:599.350938949 3:641.54022306 4:43.3702110402 5:1880.97520567 6:33.5174934309 7:-42.3693526246 8:-1.56065636604e-14 9:23.3000394382 10:542.891837821 11:17.6113583141 12:-14.9264196278 13:1.21044090483 14:10.138781582 15:102.794891968 16:15.9933146163 17:-14.521451979 18:0.585937068103 19:7.9886411699 20:63.8183877414 21:13.9079006349 22:-39.4538456278 23:-6.6323015437 24:14.1716845418 25:200.836642751 26:57.4435333708 27:-44.9561975423 28:2.07898714279 29:32.9866485164 30:1088.11898035 
2 1:715.570596602 2:640.418598348 3:665.36267027 4:25.7416464635 5:662.632362653 6:18.4303083435 7:-22.8563218997 8:-2.20775778611e-14 9:13.3060665321 10:177.051406557 11:9.44242709546 12:-6.86714836222 13:1.21986184621 14:6.08545379631 15:37.032747907 16:12.3505185376 17:-11.4881934223 18:1.41164177513 19:7.90377381097 20:62.4696404549 21:12.7628179511 22:-48.6380199336 23:-7.59887539853 24:16.3328328542 25:266.761429042 26:30.7411643061 27:-43.3896220759 28:1.0194814875 29:26.3136033684 30:692.405722227 
2 1:756.598282125 2:637.281777196 3:676.81594728 4:40.787175016 5:1663.59364579 6:34.6775498884 7:-44.6664139739 8:-1.66216247115e-14 9:23.6938508485 10:561.398568032 11:18.334591164 12:-16.3588850768 13:0.936283807264 14:10.3772316785 15:107.686937309 16:15.0097616064 17:-13.8389228537 18:1.08504822897 19:8.35478151163 20:69.802374107 21:24.7779955502 22:-37.9317782284 23:-6.03868429875 24:16.6537532965 25:277.347498862 26:50.5815245201 27:-56.1619409726 28:-0.548068746274 29:36.1535909798 30:1307.08214073 
2 1:746.256357093 2:644.432829436 3:677.812302192 4:34.92315911 5:1219.62704222 6:34.7792079254 7:-45.6489598251 8:-1.59872115546e-14 9:23.4745138234 10:551.052799243 11:17.8657619762 12:-16.9528541647 13:1.51820190659 14:10.2710132574 15:105.493713333 16:17.4916893429 17:-17.8318184138 18:1.1423667802 19:10.6964436771 20:114.413907336 21:13.2136636201 22:-63.182394874 23:-9.80891408249 24:20.9408365395 25:438.518634976 26:38.7606394812 27:-43.3606572891 28:0.223890377501 29:28.0704655879 30:787.951038323 
2 1:733.27559285 2:646.953318113 3:675.504950214 4:29.5682386597 5:874.280737434 6:23.6590402962 7:-29.9652657509 8:-1.31957936641e-14 9:16.5382337252 10:273.513174748 11:12.1170731744 12:-9.95204092551 13:1.34567621124 14:7.27416456742 15:52.9134701539 16:13.3105320611 17:-12.8813015295 18:1.06973022481 19:8.01243022872 20:64.1990381701 21:14.3104917033 22:-54.5264451026 23:-8.63052485987 24:18.3361923371 25:336.215949421 26:31.3911628116 27:-45.3120779696 28:0.248156939609 29:25.9596343858 30:673.902617443 
2 1:766.226941441 2:651.611273951 3:689.807943374 4:39.1587776927 5:1533.40987039 6:27.5565920077 7:-34.2097340279 8:-2.57571741713e-14 9:19.6430476382 10:385.849320517 11:14.6432582846 12:-11.3700589247 13:1.14487364747 14:8.7910435039 15:77.2824458875 16:12.1865759724 17:-10.818801548 18:1.03149728189 19:6.69967575904 20:44.8856552762 21:16.50386628 22:-43.2934422071 23:-7.02339917971 24:15.2658869359 25:233.047303941 26:42.590178017 27:-40.6547594734 28:0.584333972119 29:27.5758682638 30:760.428510503 
2 1:753.530660432 2:682.414084711 3:705.954125307 4:24.3551190368 5:593.171823296 6:19.0261981103 7:-23.9730859254 8:4.56777472989e-15 9:13.3640733938 10:178.598457675 11:9.54302390892 12:-7.64585935812 13:1.13623624232 14:5.83809649463 15:34.0833706806 16:13.7030268707 17:-12.9155661354 18:0.68053259153 19:7.3572743232 20:54.1294854668 21:16.6914700226 22:-46.5559581304 23:-7.57967995969 24:16.3679044602 25:267.908296417 26:49.5669323583 27:-41.1862973558 28:0.880382901707 29:30.8360257208 30:950.860482252 
2 1:711.445194417 2:669.075727826 3:682.999786387 4:14.5598614225 5:211.989564643 6:11.9426041478 7:-15.0568392167 8:-2.32195215436e-14 9:8.46083188008 10:71.585676103 11:6.66149840731 12:-4.29441041119 13:1.12027504152 14:3.93810461256 15:15.5086679395 16:11.999178783 17:-11.6694346825 18:0.645304893144 19:6.86037656436 20:47.0647666049 21:7.88705163718 22:-43.7104943006 23:-7.02251622762 24:14.1234426807 25:199.471633154 26:34.0552520224 27:-36.7551989065 28:1.78326742101 29:22.2577686157 30:495.408263748 
2 1:734.623125737 2:649.174461712 3:677.435116223 4:29.2282496629 5:854.290578359 6:25.4221416512 7:-32.8164678058 8:-2.08087515473e-14 9:17.342376839 10:300.758034425 11:13.3726790211 12:-12.0393944382 13:0.820029994762 14:7.56619676421 15:57.2473334748 16:11.2160810041 17:-10.6727377252 18:0.756922496363 19:6.29681302428 20:39.6498542628 21:15.6774052198 22:-32.1181083103 23:-5.07034272286 24:12.3222708326 25:151.838358471 26:42.700715298 27:-47.4580949613 28:-0.411315485516 29:26.4521365293 30:699.715526964 
2 1:743.059498698 2:644.851154745 3:677.288021172 4:33.6211805072 5:1130.3837787 6:29.0724891011 7:-37.403140905 8:-1.01506105109e-15 9:19.9205994418 10:396.830282122 11:14.973466555 12:-13.2258942834 13:1.25397846289 14:8.61187403018 15:74.1643743117 16:16.0469175081 17:-15.3564613738 18:0.999947214578 19:8.97959231735 20:80.6330781858 21:11.2985859494 22:-49.3174371416 23:-7.82089948047 24:16.2804668549 25:265.053601015 26:37.6784473735 27:-40.3479798323 28:-0.297376817638 29:25.7605378331 30:663.605309451 
2 1:735.170067112 2:651.742527575 3:679.470095717 4:28.5421633263 5:814.655087347 6:20.1198637976 7:-24.8413239304 8:-3.07055967953e-14 9:14.4637597832 10:209.200347066 11:10.0233476998 12:-7.40889472312 13:1.28910049841 14:6.40881659555 15:41.0729301553 16:15.5783662544 17:-14.1832628705 18:0.701167093948 19:8.07355121963 20:65.182229296 21:14.4792408232 22:-48.8082987946 23:-8.08001364455 24:16.5136849254 25:272.701789815 26:45.8519653355 27:-52.0627198468 28:-0.42303857734 29:31.6916815465 30:1004.36267925 
2 1:729.684720969 2:638.970651914 3:668.868071084 4:31.0632311835 5:964.92433156 6:28.0449439741 7:-36.2819694596 8:5.3290705182e-15 9:19.0840528943 10:364.201074873 11:14.2606368204 12:-12.9960294084 13:1.23165667685 14:8.19589886984 15:67.1727582846 16:16.4658906102 17:-15.8891060087 18:0.463459742674 19:8.63498569246 20:74.562977909 21:18.3981622273 22:-47.6601402342 23:-7.78394112017 24:17.0065610031 25:289.223117151 26:55.0750278206 27:-47.4314433057 28:0.865801243355 29:32.8043612567 30:1076.12611746 
2 1:700.529499719 2:631.683726095 3:654.413887389 4:23.6049147164 5:557.191998768 6:18.8645067347 7:-23.8087581296 8:-4.06024420434e-15 9:13.2646834339 10:175.951826602 11:9.25341879227 12:-7.36482144807 13:1.33466758382 14:5.86879905806 15:34.4428023839 16:15.6164561855 17:-14.9364987231 18:0.850575211543 19:8.6018965563 20:73.9926243654 21:10.6260719314 22:-53.0229490503 23:-8.55044506578 24:17.2459473139 25:297.422698754 26:42.5167916186 27:-39.8128988353 28:2.03324753962 29:28.1169319645 30:790.561863098 
2 1:705.773996368 2:616.322836732 3:646.106086647 4:30.5753926227 5:934.85463403 6:21.1632877726 7:-26.0765282006 8:-1.73829204998e-14 9:15.2122979443 10:231.414008745 11:10.8416324696 12:-8.17261979814 13:1.18288271316 14:6.72343494382 15:45.2045774438 16:12.9538962428 17:-11.6674019203 18:0.541639436742 19:6.56389430446 20:43.0847084401 21:11.5977314251 22:-41.5154326231 23:-6.94404563303 24:14.0166504103 25:196.466488724 26:44.1548862891 27:-37.0008776409 28:1.73378512599 29:28.5517822466 30:815.204269459 
2 1:707.931339198 2:626.176859838 3:653.162259157 4:27.9868181901 5:783.261992405 6:24.4840995091 7:-31.5294942133 8:-1.24344978758e-14 9:16.732149433 10:279.964824648 11:12.3944015896 12:-11.0578285314 13:1.08996175055 14:7.14893388197 15:51.1072556488 16:15.6763072387 17:-14.8389567174 18:0.528520878018 19:8.16297267401 20:66.6341228767 21:13.3846473771 22:-41.4342126271 23:-6.76638745147 24:14.2106995353 25:201.943981284 26:49.1243628322 27:-37.5030141688 28:1.66237449918 29:28.9566313021 30:838.486496368 
2 1:666.436990459 2:621.440872639 3:636.16236778 4:15.4710277426 5:239.352699414 6:14.4057066848 7:-18.5987890048 8:5.45595314959e-15 9:9.94122538187 10:98.8279620932 11:6.90420749246 12:-5.94750215436 13:1.09400668362 14:4.42758171626 15:19.6034798542 16:13.8770480565 17:-13.7297252344 18:0.596150464404 19:7.60661411662 20:57.8605783192 21:11.6237105669 22:-46.0799562626 23:-7.47230723107 24:16.1660842505 25:261.342279994 26:48.6413219324 27:-35.9201076868 28:3.14661006509 29:31.4368204227 30:988.273678291 
2 1:653.89807635 2:591.659088799 3:612.426344934 4:21.278954902 5:452.79392172 6:13.975419606 7:-15.4300337461 8:-1.20538499816e-14 9:9.80247454358 10:96.0885071776 11:6.53083696561 12:-4.99289373585 13:1.02861716276 14:4.57405265084 15:20.9219576526 16:9.33205209995 17:-8.50001879323 18:0.18122262636 19:4.59799594904 20:21.1415667474 21:13.0994057483 22:-35.7010071254 23:-6.10361865571 24:14.0136037918 25:196.381091234 26:48.2527165754 27:-34.4860765207 28:2.78455224462 29:30.4751870655 30:928.737026679 
2 1:520.712970331 2:-58.5490306035 3:322.181672139 4:196.911950807 5:38774.3163706 6:106.300317516 7:-120.084517192 8:-1.16732020875e-14 9:63.5172475623 10:4034.44073788 11:94.4876186428 12:-99.2178451875 13:-0.117015785916 14:54.0726101508 15:2923.84716852 16:74.1307534948 17:-110.77536952 18:-15.3851632346 19:49.0937560198 20:2410.19688014 21:23.0112997531 22:-40.9508963337 23:-7.21315605236 24:17.0947117679 25:292.229170427 26:44.1108565329 27:-12.0299121466 28:7.33467906072 29:15.5870910347 30:242.957406923 
2 1:-88.244906022 2:-285.386517487 3:-155.683437347 4:66.962545356 5:4483.98248055 6:37.4078310503 7:-40.8973744933 8:6.59789683206e-15 9:22.1020913422 10:488.502441697 11:25.3772000902 12:-26.1060044626 13:-0.773766923161 14:14.5429771116 15:211.498183269 16:27.4002815621 17:-30.0913635764 18:-0.57142734578 19:17.4382398938 20:304.092210595 21:24.5534087244 22:-23.4739808182 23:-1.46420899972 24:13.8097919349 25:190.710353285 26:58.2934406799 27:-46.8248217017 28:0.594438517064 29:32.2976943025 30:1043.14105726 
2 1:-281.251293113 2:-401.920874507 3:-361.587516787 4:41.2266620175 5:1699.63766111 6:26.4996062663 7:-30.4442941492 8:7.01026538406e-15 9:18.955795221 10:359.32217246 11:13.3527244005 12:-9.42363788609 13:1.49692068479 14:8.84059075978 15:78.156044982 16:13.8108761886 17:-12.1158289442 18:1.16860516698 19:7.48701381761 20:56.0553759051 21:11.3414727377 22:-52.4051978226 23:-8.61375279849 24:17.4449759457 25:304.327185745 26:50.7456894015 27:-40.0265711611 28:2.36719889407 29:32.4395026062 30:1052.32132934 
2 1:-281.614352874 2:-365.168760365 3:-337.364176164 4:28.5697240298 5:816.229131138 6:19.6603362163 7:-24.1537708122 8:5.13874657112e-15 9:14.1920176953 10:201.413366263 11:9.89575218053 12:-7.31326857598 13:1.23286860831 14:6.28742518716 15:39.5317154842 16:14.311310636 17:-12.9918505928 18:0.468085191664 19:7.17131535358 20:51.4277639004 21:10.2779728584 22:-43.0472498295 23:-7.23442920216 24:14.8903647877 25:221.72296351 26:48.2489757478 27:-35.0402783579 28:2.76408032608 29:31.1781720661 30:972.078413382 
