18:17:30		x: -1.1336545	y: 5.720945	z: 8.295909
18:17:30		x: -1.0666169	y: 5.5976434	z: 8.157045
18:17:30		x: -0.9498995	y: 5.629367	z: 8.426991
18:17:31		x: -0.8379706	y: 5.406706	z: 8.412626
18:17:31		x: -0.8810662	y: 5.170877	z: 7.4764934
18:17:31		x: -0.6715736	y: 6.063316	z: 8.385692
18:17:31		x: -0.7685388	y: 4.84766	z: 7.469909
18:17:31		x: -0.96905315	y: 5.370793	z: 8.139688
18:17:31		x: -0.7164649	y: 5.1918263	z: 8.079832
18:17:32		x: -0.8343793	y: 5.2020016	z: 7.8876977
18:17:32		x: -0.84096336	y: 5.3737855	z: 8.053496
18:17:32		x: -0.7206547	y: 5.222951	z: 8.10557
18:17:32		x: -0.9498995	y: 5.401319	z: 8.243237
18:17:32		x: -0.8415619	y: 5.459977	z: 8.492233
18:17:33		x: -0.8391677	y: 5.3845596	z: 8.428787
18:17:33		x: -0.81642276	y: 5.4180784	z: 8.307879
18:17:33		x: -0.80564886	y: 5.4671597	z: 8.899846
18:17:33		x: 0.21667525	y: 5.024831	z: 8.1480665
18:17:33		x: -0.15442601	y: 5.2720323	z: 8.937555
18:17:33		x: -0.2861071	y: 5.1666875	z: 8.549694
18:17:34		x: -0.30885202	y: 5.217564	z: 8.4347725
18:17:34		x: -0.39504328	y: 5.357625	z: 8.656835
18:17:34		x: -0.31902736	y: 5.385158	z: 8.774749
18:17:34		x: -0.2777274	y: 5.2516813	z: 8.531139
18:17:34		x: -0.23942018	y: 5.317522	z: 8.612542
18:17:35		x: -0.25318682	y: 5.246893	z: 8.531737
18:17:35		x: -0.28191724	y: 5.273229	z: 8.639477
18:17:35		x: -0.22505496	y: 5.2618566	z: 8.695741
18:17:35		x: -0.24899697	y: 5.279215	z: 8.560468
18:17:35		x: -0.25258827	y: 5.2846017	z: 8.554482
18:17:35		x: -0.17118542	y: 5.269638	z: 8.523358
18:17:36		x: -0.21308395	y: 5.3247046	z: 8.517971
18:17:36		x: -0.19273324	y: 5.291186	z: 8.531139
18:17:36		x: -0.22445641	y: 5.306748	z: 8.599973
18:17:36		x: -0.16699557	y: 5.29358	z: 8.558074
18:17:36		x: -0.16759412	y: 5.46297	z: 8.884883
18:17:36		x: -0.16519992	y: 5.916671	z: 9.746795
18:17:37		x: -0.11372458	y: 5.485116	z: 8.988432
18:17:37		x: -0.5967548	y: 5.6377463	z: 8.078036
18:17:37		x: -0.5470751	y: 5.967548	z: 8.7849245
18:17:37		x: -0.5907693	y: 5.6084175	z: 8.736442
