18:14:20		x: 940.88
18:14:21		x: 940.87
18:14:21		x: 940.87
18:14:21		x: 940.88
18:14:21		x: 940.97
18:14:21		x: 940.83
18:14:21		x: 940.88
18:14:22		x: 940.91
18:14:22		x: 940.95
18:14:22		x: 940.86
18:14:22		x: 940.94
18:14:22		x: 940.95
18:14:23		x: 940.89
18:14:23		x: 940.9
18:14:23		x: 940.88
18:14:23		x: 940.87
18:14:23		x: 940.89
18:14:23		x: 940.91
18:14:24		x: 940.93
18:14:24		x: 940.96
18:14:24		x: 941.02
18:14:24		x: 940.85
18:14:24		x: 940.79
18:14:25		x: 940.89
18:14:25		x: 940.92
18:14:25		x: 940.94
18:14:25		x: 940.98
18:14:25		x: 941.0
18:14:25		x: 940.99
18:14:26		x: 941.0
18:14:26		x: 940.99
18:14:26		x: 940.96
18:14:26		x: 940.94
18:14:26		x: 941.05
18:14:27		x: 941.07
18:14:27		x: 941.02
18:14:27		x: 940.96
18:14:27		x: 940.93
18:14:27		x: 940.97
18:14:27		x: 941.1
18:14:28		x: 940.99
18:14:28		x: 941.06
18:14:28		x: 941.03
18:14:28		x: 941.0
18:14:28		x: 940.99
18:14:29		x: 940.97
18:14:29		x: 941.0
18:14:29		x: 940.95
18:14:29		x: 940.94
18:14:29		x: 941.0
18:14:29		x: 940.97
18:14:30		x: 941.0
18:14:30		x: 940.89
18:14:30		x: 941.02
18:14:30		x: 941.0
18:14:30		x: 940.98
18:14:31		x: 940.97
18:14:31		x: 940.98
18:14:31		x: 940.99
18:14:31		x: 940.93
18:14:31		x: 940.96
18:14:31		x: 940.97
18:14:32		x: 940.97
18:14:32		x: 940.93
18:14:32		x: 940.98
18:14:32		x: 940.92
18:14:32		x: 940.94
18:14:32		x: 940.93
18:14:33		x: 940.98
