13 1:0.45727463067 2:-20.7011397069 3:-6.67447164263 4:7.2058303903 5:51.9239916138 6:4.36722569713 7:-4.37003440391 8:-3.9650822308e-16 9:2.9505199606 10:8.70556803791 11:1.63148493964 12:-2.2734253396 13:-0.0990893375522 14:1.48228741733 15:2.19717598758 16:1.03506291668 17:-0.843191335463 18:-0.136962165734 19:0.580697680877 20:0.337209796576 21:1.16688281897 22:-1.46865694247 23:0.197323623287 24:0.776762528809 25:0.603360026161 26:3.29698365994 27:-3.47132698536 28:-0.117009250865 29:1.67909415319 30:2.81935717526 
13 1:-1.48217881668 2:-14.3007367604 3:-9.89834438694 4:4.35008702865 5:18.9232571568 6:2.5435268876 7:-2.32238960188 8:2.85485920618e-16 9:1.37561109384 10:1.89230588151 11:2.19116239556 12:-1.9936864414 13:-0.0361115830663 14:1.18729507109 15:1.40966958583 16:1.73193542985 17:-2.22462860172 18:0.265045059626 19:1.22475080751 20:1.50001454049 21:3.2990499875 22:-1.08141672767 23:0.495731488706 24:1.22137276275 25:1.4917514256 26:1.41879825176 27:-4.03772751769 28:-0.273698457512 29:1.39274692022 30:1.93974398378 
13 1:0.171289535888 2:-2.46077785564 3:-1.603854653 4:0.898247427289 5:0.806848440632 6:1.15441062677 7:-1.55633568186 8:1.42742960309e-16 9:0.769419592279 10:0.592006508983 11:0.537742190844 12:-0.664761260175 13:0.0226935198244 14:0.368456173291 15:0.135759951636 16:0.678524850743 17:-1.54616190055 18:-0.186121911244 19:0.660964380659 20:0.4368739125 21:0.772909284683 22:-0.720801661139 23:0.0083886959175 24:0.452681119449 25:0.204920195905 26:1.02747943954 27:-1.92614684416 28:0.0297606024149 29:0.863779248984 30:0.746114590975 
13 1:1.7645282203 2:-3.60632475421 3:-0.0251809140187 4:1.83249604456 5:3.35804175332 6:1.74147739184 7:-1.38040285326 8:7.93016446161e-18 9:0.959903026975 10:0.921413821196 11:0.604519842933 12:-0.71499542658 13:-0.0379852166536 14:0.412826108624 15:0.170425395962 16:0.811701243114 17:-0.943772064109 18:-0.0252883679595 19:0.466214709216 20:0.21735615509 21:0.672482750175 22:-0.977077314792 23:0.122277195313 24:0.514549252578 25:0.264760933328 26:1.32297797902 27:-1.03548125525 28:-0.0379943371307 29:0.799851623927 30:0.639762620299 
13 1:1.8873496021 2:-3.73366875708 3:-1.89135665113 4:1.92071514478 5:3.68914666737 6:2.2560090198 7:-3.04746826329 8:-4.75809867696e-17 9:1.4929623554 10:2.22893659465 11:1.22220491219 12:-1.32000627436 13:7.79240354573e-06 14:0.716876099308 15:0.513911341758 16:0.59674420377 17:-0.620689714205 18:-0.0158823281514 19:0.312401297399 20:0.0975945706163 21:1.38129346885 22:-1.6610986144 23:0.124992647298 24:0.840961609692 25:0.707216428976 26:5.65923881401 27:-6.22151227717 28:-0.143754751229 29:3.3565878595 30:11.2666820585 
13 1:-3.06175903829 2:-5.44049698017 3:-3.7793923 4:0.820367197986 5:0.673002339531 6:4.0000491404 7:-2.73662631824 8:1.03092138001e-16 9:1.87795017188 10:3.52669684805 11:1.66945064269 12:-1.24275549231 13:0.0899282737047 14:0.919906537342 15:0.846228037444 16:3.68591627086 17:-4.13897175329 18:-0.139008473418 19:2.11010385529 20:4.45253828013 21:1.64994778636 22:-4.30480963883 23:-0.723405809176 24:1.68022966011 25:2.82317171072 26:2.6765838675 27:-3.92182597994 28:-0.40624858368 29:1.84179118942 30:3.39219478544 
13 1:-1.31527707157 2:-4.29276184591 3:-2.33754948911 4:1.03134986252 5:1.06368253892 6:0.787981589499 7:-0.874895277054 8:0.0 9:0.592596023989 10:0.351170047647 11:1.272510226 12:-0.921402598531 13:-0.0815797741193 14:0.645334392619 15:0.416456478297 16:1.34972082318 17:-3.69590640164 18:-0.447940736 19:1.56604626427 20:2.45250090183 21:4.82771931799 22:-1.35693622447 23:0.655640587787 24:1.70006866765 25:2.89023347474 26:1.9758634782 27:-3.38801437192 28:0.0642005546604 29:1.53039638157 30:2.34211308472 
13 1:-0.57694616125 2:-4.59487522579 3:-3.25309273476 4:1.37042337319 5:1.87806022178 6:1.03506406103 7:-1.31553796189 8:1.40760419194e-16 9:0.717592312743 10:0.514938727307 11:0.640802442117 12:-0.568666631464 13:0.00182193120675 14:0.365123082915 15:0.133314865677 16:0.500217582499 17:-0.576252434924 18:0.0485245253728 19:0.320174746401 20:0.102511868233 21:0.479043918713 22:-0.339211042907 23:0.0754771708253 24:0.271860525513 25:0.0739081453322 26:1.18992404078 27:-1.16499363478 28:0.120134698023 29:0.561565607201 30:0.315355931191 
13 1:0.637521537463 2:-0.90102671804 3:-0.382567193549 4:0.524352892002 5:0.274945955351 6:0.328907879636 7:-0.276686462895 8:8.92143501931e-18 9:0.207419189557 10:0.0430227201963 11:0.154601294185 12:-0.13666385879 13:0.0150490157268 14:0.10334205828 15:0.0106795810095 16:0.0616979722604 17:-0.0605713943684 18:0.00330030139872 19:0.0329849593032 20:0.00108800754023 21:0.0776914545609 22:-0.355856425764 23:-0.0600220254128 24:0.119650580362 25:0.014316261381 26:0.2640079077 27:-0.604194866478 28:-0.011188764128 29:0.226405136937 30:0.0512592860317 
13 1:1.09792671574 2:0.324566182957 3:0.567762345354 4:0.266216697097 5:0.070871329813 6:0.523305478897 7:-0.735019038336 8:-3.9650822308e-17 9:0.347493217888 10:0.120751536478 11:0.261641322372 12:-0.32831959165 13:0.0055851149512 14:0.178467488229 15:0.0318506443547 16:0.257148460558 17:-0.270873288345 18:-0.0225563050568 19:0.148848494303 20:0.0221558742562 21:0.0921867576565 22:-0.150253995219 23:-0.027606621694 24:0.073223556197 25:0.00536168918213 26:0.354492715787 27:-0.247968537044 28:-0.000135040748711 29:0.15715587544 30:0.0246979691852 
13 1:1.60243944065 2:-3.38466427946 3:-0.0486445564355 4:1.69932737046 5:2.88771351198 6:2.1643731864 7:-1.6436136579 8:7.93016446161e-17 9:1.10017951114 10:1.21039495674 11:0.690417059124 12:-0.699233867743 13:-0.0173284002331 14:0.403317362811 15:0.162664895144 16:2.20911529463 17:-2.65644852333 18:0.00620570670942 19:1.31152472206 20:1.72009709657 21:2.23063745288 22:-2.1750933936 23:-0.000591189949684 24:1.15482848806 25:1.33362883684 26:1.12952673047 27:-1.04737030886 28:-0.00261861999565 29:0.85321818109 30:0.727981264542 
13 1:1.88012343346 2:-0.840381377785 3:0.0843142061902 4:0.915925684086 5:0.838919858768 6:0.587198586731 7:-0.692142240394 8:-1.58603289232e-17 9:0.504253872137 10:0.254271967565 11:0.315520816818 12:-0.362558136311 13:-0.0196157130923 14:0.220472354803 15:0.0486080592324 16:1.65156425205 17:-3.20759092459 18:-0.371849205142 19:1.3444309989 20:1.80749471081 21:3.45795370073 22:-1.43626847726 23:0.403624761906 24:1.25289967049 25:1.56975758432 26:0.822462140405 27:-1.62139015643 28:-0.250828880341 29:0.722455443529 30:0.521941867884 
13 1:3.27393264738 2:-5.38643838209 3:0.299208382717 4:2.94191284294 5:8.65485117543 6:1.79947724706 7:-1.83139513732 8:-6.34413156929e-17 9:0.985484353178 10:0.971179410358 11:1.43493454031 12:-1.33038124049 13:-0.0435682386789 14:0.761379418458 15:0.579698618852 16:0.62208316001 17:-0.906230871637 18:-0.10848545817 19:0.546320197644 20:0.298465758354 21:2.73247226227 22:-2.81392320507 23:0.0808049001757 24:1.38123397269 25:1.90780728732 26:2.35178613623 27:-3.21889586793 28:0.0675839050822 29:1.66364699589 30:2.76772132694 
13 1:0.57977077953 2:-5.1723364324 3:-3.20270384757 4:1.95229715659 5:3.81146418761 6:1.16311625836 7:-1.07214467669 8:1.74463618155e-16 9:0.637908528545 10:0.406927290791 11:0.810272416167 12:-0.782232351796 13:0.0140283290725 14:0.443338907836 15:0.196549387201 16:0.612897553326 17:-0.683984698308 18:0.0279600413179 19:0.332172911573 20:0.110338843183 21:1.05832396408 22:-0.282080805887 23:0.132462927483 24:0.361566727559 25:0.130730498478 26:2.2331537219 27:-2.43792872021 28:0.0910356977588 29:1.086612078 30:1.18072580805 
13 1:0.342103254178 2:-0.140109713591 3:0.176601497285 4:0.163636900309 5:0.0267770351429 6:0.0699725640211 7:-0.0901076365054 8:-7.43452918276e-18 9:0.0522774494283 10:0.00273293171873 11:0.0693631714699 12:-0.0899023936903 13:0.00735066374865 14:0.0519203989457 15:0.00269572782668 16:0.0588122503036 17:-0.118524438697 18:-0.0167127134523 19:0.0547296025506 20:0.00299532939535 21:0.081402885127 22:-0.320271197258 23:-0.0535466564395 24:0.111161804525 25:0.0123569467852 26:0.070701448805 27:-0.224829932739 28:-0.0181897676217 29:0.0930176564817 30:0.00865228441734 
13 1:0.610672816501 2:-0.437869655454 3:-0.0788583311534 4:0.356107156747 5:0.126812307087 6:0.217176809126 7:-0.2112750379 8:1.9825411154e-18 9:0.11859313095 10:0.0140643307085 11:0.159971883307 12:-0.161841238997 13:1.38777878078e-17 14:0.0898606172172 15:0.00807493052665 16:0.143324872193 17:-0.166649158105 18:4.98732999343e-18 19:0.101384704685 20:0.0102788583441 21:0.168246381294 22:-0.180436193824 23:-0.00655288052262 24:0.105315289243 25:0.0110913101483 26:0.314421065091 27:-0.309518079056 28:0.0143859950904 29:0.189806649752 30:0.0360265642902 
