18:48:10		x: 1.536479	y: 4.4927197	z: 7.3627687
18:48:10		x: -1.8525136	y: 6.010045	z: 5.695806
18:48:11		x: -2.3247697	y: 2.6042929	z: 6.867768
18:48:11		x: -1.9764135	y: -0.24480712	z: 7.897873
18:48:11		x: 3.0663738	y: 0.7799112	z: 10.970831
18:48:11		x: 16.989256	y: -1.0414777	z: 4.4843397
18:48:11		x: 9.209297	y: -3.8420951	z: 5.3725886
18:48:12		x: 6.097433	y: -0.9564836	z: -0.5422867
18:48:12		x: 8.237849	y: -5.8424506	z: -2.5198972
18:48:12		x: 10.930129	y: -1.70946	z: 0.6500258
18:48:12		x: 6.51582	y: -3.281852	z: 1.6412252
18:48:12		x: 6.9126587	y: -5.683236	z: 1.3389573
18:48:12		x: 5.395334	y: 2.067393	z: 0.6242881
18:48:13		x: 4.931457	y: -17.050308	z: 2.8538885
18:48:13		x: 4.8787847	y: -9.018958	z: -2.7623103
18:48:13		x: 2.9161377	y: -12.410943	z: -3.405752
18:48:13		x: 0.7266402	y: -5.5671177	z: -1.4508862
18:48:13		x: 0.06344634	y: -5.199009	z: -7.8727336
18:48:13		x: 4.559159	y: -11.238981	z: -2.2331917
18:48:14		x: 3.9953241	y: -7.045537	z: -2.9257145
18:48:14		x: 2.6569653	y: -13.559562	z: -2.0332758
18:48:14		x: 1.7561469	y: -8.807071	z: 0.020949265
18:48:14		x: -3.8259344	y: -3.7235823	z: -4.9422307
18:48:14		x: 5.8723783	y: -10.409989	z: -1.5508442
18:48:15		x: 6.311714	y: -8.932168	z: -3.2638955
18:48:15		x: 2.7641058	y: -13.433268	z: -4.1461587
18:48:15		x: 1.9476831	y: -9.448118	z: -2.2481554
18:48:15		x: -4.1132383	y: -7.644686	z: -5.0637364
18:48:15		x: 7.1700354	y: -8.183381	z: -1.9644425
18:48:15		x: 6.9838862	y: -8.224083	z: -2.2583308
18:48:16		x: 3.1262288	y: -12.289437	z: -4.073136
18:48:16		x: 3.1118636	y: -7.778163	z: -1.9213469
18:48:16		x: 3.3680432	y: -2.9694088	z: 4.5112743
18:48:16		x: 4.938041	y: -8.1402855	z: -2.0003555
18:48:16		x: 7.8888946	y: -9.263166	z: -1.4610616
18:48:17		x: 4.571728	y: -11.357494	z: -3.300407
18:48:17		x: 0.623091	y: -3.957017	z: -1.204882
18:48:17		x: 1.7178397	y: -7.9086466	z: -0.56682724
18:48:17		x: 3.7044287	y: -6.7803793	z: -1.429937
18:48:17		x: 6.7570357	y: -9.281123	z: -0.61171854
18:48:17		x: 3.3081882	y: -12.93647	z: -6.689998
18:48:18		x: 1.1288661	y: -3.9618053	z: -1.7591397
18:48:18		x: 1.0672154	y: -3.5697548	z: -9.585187
18:48:18		x: 0.96187055	y: -9.210494	z: -1.0289081
18:48:18		x: 2.0308816	y: -7.0946183	z: -0.9911995
18:48:18		x: 4.296395	y: -11.119271	z: -1.1025299
18:48:19		x: 0.6171055	y: -14.156316	z: -0.0676362
18:48:19		x: -1.8327614	y: -2.8856115	z: 0.6937199
18:48:19		x: 1.364695	y: -6.167464	z: -7.7853456
18:48:19		x: 2.4941597	y: -13.979744	z: -3.2728736
18:48:19		x: 4.119224	y: -14.915876	z: -7.025785
18:48:19		x: 1.6573862	y: -15.401899	z: -1.1923125
18:48:20		x: 0.54527944	y: -1.5616181	z: -0.19752164
18:48:20		x: 9.433753	y: -9.032125	z: -1.1941081
18:48:20		x: 4.337695	y: -9.624092	z: -2.7168205
18:48:20		x: 2.36188	y: -14.017452	z: -3.7708676
18:48:20		x: 2.8419175	y: -5.6664767	z: -2.0506337
18:48:21		x: 10.907384	y: -2.8203697	z: 9.161413
18:48:21		x: 2.4558525	y: -5.685032	z: -1.5298948
18:48:21		x: 7.1550717	y: -9.32781	z: -1.3000516
18:48:21		x: 6.1824274	y: -11.653777	z: -5.2684407
18:48:21		x: -0.6691794	y: -0.41299978	z: -0.943914
18:48:21		x: 1.3227965	y: -15.252262	z: -5.725135
18:48:22		x: 5.2325277	y: -6.337452	z: -1.9153614
18:48:22		x: 6.3105173	y: -8.128315	z: -3.1878796
18:48:22		x: 4.214992	y: -12.739547	z: -0.42437226
18:48:22		x: 0.23582886	y: -2.594716	z: -1.0696096
18:48:22		x: 12.148778	y: -7.791331	z: 2.7132292
18:48:23		x: 6.017826	y: -7.9649105	z: -2.0380642
18:48:23		x: 5.6664767	y: -8.208521	z: -2.7461493
18:48:23		x: 2.3397336	y: -13.588292	z: -3.277662
18:48:23		x: 1.4012065	y: -10.1304655	z: -6.5206084
18:48:23		x: -0.45190558	y: -4.481347	z: -4.55856
18:48:23		x: -0.45190558	y: -11.326369	z: -7.9930425
18:48:24		x: -0.095768064	y: -10.977415	z: -1.4395138
18:48:24		x: 3.9282866	y: -7.89907	z: -0.9103952
18:48:24		x: 3.8786068	y: -9.660604	z: -0.712275
18:48:24		x: 4.385579	y: -10.527305	z: 0.24121583
18:48:24		x: 3.29502	y: -8.448539	z: -0.02633622
18:48:24		x: 5.1241903	y: -10.3770685	z: -1.2395979
18:48:25		x: 2.6647465	y: -10.361506	z: -4.809353
18:48:25		x: 14.255077	y: -4.0677485	z: -0.664391
18:48:25		x: 0.6889315	y: -10.939108	z: 0.02633622
18:48:25		x: -0.45848963	y: -0.5847838	z: 5.3498435
18:48:25		x: -0.12689269	y: 2.0859482	z: 9.692925
18:48:26		x: -1.3964181	y: 2.9885623	z: 9.92636
18:48:26		x: -0.88405895	y: 4.8069587	z: 8.056489
18:48:26		x: 0.05686229	y: 3.8672342	z: 9.622296
18:48:26		x: 1.894412	y: 3.7828386	z: 8.842984
18:48:26		x: 0.5722142	y: 4.494515	z: 9.444528
18:48:27		x: 0.20350714	y: 5.1002483	z: 8.294712
18:48:27		x: -0.08439561	y: 5.133168	z: 8.467094
18:48:27		x: 0.09756372	y: 5.3636103	z: 8.217499
18:48:27		x: -0.12868834	y: 5.5246205	z: 8.26239
18:48:27		x: 0.18794483	y: 5.6365495	z: 7.9571295
