18:48:10		x: 941.43
18:48:10		x: 941.44
18:48:11		x: 941.43
18:48:11		x: 941.46
18:48:11		x: 941.48
18:48:11		x: 941.48
18:48:11		x: 941.47
18:48:12		x: 941.46
18:48:12		x: 941.45
18:48:12		x: 941.41
18:48:12		x: 941.38
18:48:12		x: 941.44
18:48:12		x: 941.41
18:48:13		x: 941.47
18:48:13		x: 941.51
18:48:13		x: 941.43
18:48:13		x: 941.59
18:48:13		x: 941.56
18:48:14		x: 941.24
18:48:14		x: 941.38
18:48:14		x: 941.39
18:48:14		x: 941.43
18:48:14		x: 941.53
18:48:14		x: 941.12
18:48:15		x: 941.57
18:48:15		x: 941.23
18:48:15		x: 941.44
18:48:15		x: 941.55
18:48:15		x: 941.01
18:48:16		x: 941.45
18:48:16		x: 941.2
18:48:16		x: 941.31
18:48:16		x: 941.43
18:48:16		x: 941.02
18:48:16		x: 941.52
18:48:17		x: 941.15
18:48:17		x: 941.51
18:48:17		x: 941.46
18:48:17		x: 940.95
18:48:17		x: 941.43
18:48:17		x: 941.09
18:48:18		x: 941.38
18:48:18		x: 941.42
18:48:18		x: 941.28
18:48:18		x: 941.01
18:48:18		x: 941.46
18:48:19		x: 941.22
18:48:19		x: 941.4
18:48:19		x: 941.41
18:48:19		x: 941.02
18:48:19		x: 941.13
18:48:19		x: 941.19
18:48:20		x: 941.48
18:48:20		x: 941.12
18:48:20		x: 941.22
18:48:20		x: 941.12
18:48:20		x: 941.2
18:48:21		x: 941.28
18:48:21		x: 940.87
18:48:21		x: 941.25
18:48:21		x: 940.97
18:48:21		x: 941.36
18:48:21		x: 941.32
18:48:22		x: 940.84
18:48:22		x: 941.26
18:48:22		x: 941.02
18:48:22		x: 941.29
18:48:22		x: 941.2
18:48:23		x: 940.79
18:48:23		x: 941.13
18:48:23		x: 940.94
18:48:23		x: 941.19
18:48:23		x: 941.09
18:48:23		x: 941.07
18:48:24		x: 940.86
18:48:24		x: 941.02
18:48:24		x: 941.15
18:48:24		x: 941.01
18:48:24		x: 941.06
18:48:24		x: 940.97
18:48:25		x: 941.01
18:48:25		x: 941.06
18:48:25		x: 941.04
18:48:25		x: 941.1
18:48:25		x: 941.04
18:48:26		x: 941.0
18:48:26		x: 941.0
18:48:26		x: 941.01
18:48:26		x: 941.06
18:48:26		x: 940.98
18:48:27		x: 940.99
18:48:27		x: 941.02
18:48:27		x: 941.04
18:48:27		x: 941.02
18:48:27		x: 940.97
