18:48:10		x: 0.0
18:48:11		x: 0.0
18:48:11		x: 0.0
18:48:11		x: 0.0
18:48:11		x: 0.0
18:48:11		x: 0.0
18:48:11		x: 0.0
18:48:12		x: 0.0
18:48:12		x: 0.0
18:48:12		x: 0.0
18:48:12		x: 0.0
18:48:12		x: 0.0
18:48:12		x: 0.0
18:48:13		x: 0.0
18:48:13		x: 0.0
18:48:13		x: 0.0
18:48:13		x: 0.0
18:48:13		x: 0.0
18:48:14		x: 0.0
18:48:14		x: 0.0
18:48:14		x: 0.0
18:48:14		x: 0.0
18:48:14		x: 0.0
18:48:14		x: 0.0
18:48:15		x: 0.0
18:48:15		x: 0.0
18:48:15		x: 0.0
18:48:15		x: 0.0
18:48:15		x: 0.0
18:48:16		x: 0.0
18:48:16		x: 0.0
18:48:16		x: 0.0
18:48:16		x: 0.0
18:48:16		x: 0.0
18:48:16		x: 0.0
18:48:17		x: 0.0
18:48:17		x: 0.0
18:48:17		x: 0.0
18:48:17		x: 0.0
18:48:17		x: 0.0
18:48:17		x: 0.0
18:48:18		x: 0.0
18:48:18		x: 0.0
18:48:18		x: 0.0
18:48:18		x: 0.0
18:48:18		x: 0.0
18:48:19		x: 0.0
18:48:19		x: 0.0
18:48:19		x: 0.0
18:48:19		x: 0.0
18:48:19		x: 0.0
18:48:19		x: 0.0
18:48:20		x: 0.0
18:48:20		x: 0.0
18:48:20		x: 0.0
18:48:20		x: 0.0
18:48:20		x: 1.0
18:48:21		x: 0.0
18:48:21		x: 0.0
18:48:21		x: 0.0
18:48:21		x: 0.0
18:48:21		x: 0.0
18:48:21		x: 0.0
18:48:22		x: 0.0
18:48:22		x: 0.0
18:48:22		x: 0.0
18:48:22		x: 0.0
18:48:22		x: 0.0
18:48:23		x: 0.0
18:48:23		x: 0.0
18:48:23		x: 0.0
18:48:23		x: 0.0
18:48:23		x: 0.0
18:48:23		x: 0.0
18:48:24		x: 0.0
18:48:24		x: 0.0
18:48:24		x: 0.0
18:48:24		x: 0.0
18:48:24		x: 0.0
18:48:24		x: 0.0
18:48:25		x: 0.0
18:48:25		x: 13.0
18:48:25		x: 39.0
18:48:25		x: 32.0
18:48:25		x: 20.0
18:48:26		x: 17.0
18:48:26		x: 15.0
18:48:26		x: 19.0
18:48:26		x: 32.0
18:48:26		x: 36.0
18:48:27		x: 36.0
18:48:27		x: 36.0
18:48:27		x: 33.0
18:48:27		x: 32.0
18:48:27		x: 30.0
