18:02:15		x: -0.33638534	y: 3.25372	z: 7.65546
18:02:15		x: 1.234211	y: 2.8173769	z: 7.567473
18:02:15		x: -3.804985	y: -1.3503298	z: 12.328343
18:02:15		x: -1.079785	y: 0.9816227	z: 7.662044
18:02:15		x: -4.9021277	y: -7.6967597	z: 8.321647
18:02:16		x: -7.383718	y: -8.207323	z: 3.66672
18:02:16		x: -3.5805287	y: -9.154829	z: 3.667917
18:02:16		x: -2.5007436	y: -9.315839	z: 2.0147207
18:02:16		x: -2.8377275	y: -9.182362	z: -0.6362591
18:02:16		x: -2.6090813	y: -8.884284	z: -0.4758476
18:02:16		x: -3.2854433	y: -9.044696	z: 1.6555905
18:02:17		x: -3.127426	y: -9.152434	z: -0.18315643
18:02:17		x: -2.735974	y: -9.200917	z: -0.1933318
18:02:17		x: -2.8167782	y: -9.276335	z: -0.24181437
18:02:17		x: -2.3523033	y: -9.277532	z: -0.2681506
18:02:17		x: -2.5360582	y: -9.459491	z: -0.1400608
18:02:18		x: -2.3834279	y: -9.384073	z: -0.5243302
18:02:18		x: -2.5432408	y: -9.293094	z: -0.3465607
18:02:18		x: -2.3798366	y: -9.558251	z: -0.24061728
18:02:18		x: -2.498948	y: -9.276933	z: -0.31244332
18:02:18		x: -2.4534583	y: -9.414001	z: -0.45310268
18:02:18		x: -2.2894554	y: -9.32781	z: -0.46567222
18:02:19		x: -2.3983915	y: -9.576807	z: -0.23343466
18:02:19		x: -2.6940753	y: -9.215881	z: -0.15083471
18:02:19		x: -2.5115175	y: -9.292496	z: -0.16699557
18:02:19		x: -2.355296	y: -9.3104515	z: -0.41359833
18:02:19		x: -2.3223755	y: -9.338584	z: -0.3669114
18:02:20		x: -2.3840263	y: -9.397242	z: -0.27593175
18:02:20		x: -2.6611552	y: -9.474455	z: -0.1328782
18:02:20		x: -2.3385365	y: -9.277532	z: -0.55964464
18:02:20		x: -2.9897594	y: -9.252991	z: -0.58538234
18:02:20		x: -2.5791538	y: -9.331401	z: 0.17657238
18:02:20		x: -2.2816741	y: -9.42238	z: 0.08499416
18:02:21		x: -2.391209	y: -9.330204	z: -0.016759412
18:02:21		x: -2.4307132	y: -9.342773	z: -0.045489833
18:02:21		x: -2.4001873	y: -9.418191	z: 0.10235212
18:02:21		x: -2.5623944	y: -9.394249	z: -0.16998832
18:02:21		x: -2.5025394	y: -9.217078	z: 0.24420857
18:02:22		x: -2.4169466	y: -9.397242	z: 0.3752911
18:02:22		x: -2.3864205	y: -9.3026705	z: 0.43394905
18:02:22		x: -2.6527755	y: -9.374496	z: 0.50158525
18:02:22		x: -2.480393	y: -9.3343935	z: 0.50876784
18:02:22		x: -2.4600422	y: -9.296685	z: 0.5117606
18:02:22		x: -2.4929626	y: -9.340978	z: 0.55725044
18:02:23		x: -2.6072857	y: -9.281721	z: 0.5279215
18:02:23		x: -2.5240872	y: -9.357139	z: 0.4878186
18:02:23		x: -2.5264814	y: -9.334992	z: 0.533907
18:02:23		x: -2.6138697	y: -9.291897	z: 0.4381389
18:02:23		x: -2.6551697	y: -9.687539	z: 0.4866215
18:02:23		x: -2.5145104	y: -9.643246	z: 0.4261679
18:02:24		x: -2.6563668	y: -9.660006	z: 0.5674258
18:02:24		x: -2.6491842	y: -10.010756	z: 0.3657143
18:02:24		x: -2.6443958	y: -10.081984	z: 0.55006784
18:02:24		x: -2.742558	y: -10.121488	z: 0.39085343
18:02:24		x: -2.7012582	y: -10.0748005	z: 0.47884035
18:02:25		x: -2.6557682	y: -9.862914	z: 0.29688102
18:02:25		x: -2.695871	y: -9.826403	z: 0.3866636
18:02:25		x: -2.534861	y: -9.622895	z: 0.48841715
18:02:25		x: -2.5378537	y: -9.485827	z: 0.49559975
18:02:25		x: -2.5091233	y: -9.3499565	z: 0.44831428
18:02:25		x: -2.397793	y: -9.341577	z: 0.57041854
18:02:26		x: -2.6270378	y: -9.40203	z: 0.60932434
18:02:26		x: -2.6473885	y: -9.336788	z: 0.49320555
18:02:26		x: -2.5169046	y: -9.2787285	z: 0.44352585
18:02:26		x: -2.5623944	y: -9.368511	z: 0.599149
18:02:26		x: -2.508525	y: -9.188348	z: 0.5883751
18:02:27		x: -2.5181017	y: -9.291897	z: 0.5153519
18:02:27		x: -2.541445	y: -9.411008	z: 0.64942724
18:02:27		x: -2.529474	y: -9.419388	z: 0.46507367
18:02:27		x: -2.202067	y: -9.252393	z: 0.45609543
18:02:27		x: -2.6384103	y: -9.009381	z: 0.7332243
18:02:27		x: -2.6168625	y: -8.805874	z: 0.48841715
18:02:28		x: -1.9207484	y: -8.928576	z: 0.39264908
18:02:28		x: -1.95307	y: -8.364143	z: 0.50517654
18:02:28		x: -1.6753427	y: -8.58022	z: 0.42197806
18:02:28		x: -1.8375498	y: -8.613739	z: -0.05805939
18:02:28		x: -2.8592753	y: -8.605359	z: 1.1731589
18:02:29		x: -2.7820623	y: -8.872911	z: 0.56084174
18:02:29		x: -2.9358897	y: -8.988432	z: 1.091756
18:02:29		x: -2.7234044	y: -9.035717	z: 0.53689975
18:02:29		x: -2.9388826	y: -9.274539	z: 0.78050977
18:02:29		x: -2.915539	y: -9.214684	z: 0.21188685
18:02:29		x: -4.1545386	y: -9.193734	z: 0.6392518
18:02:30		x: -2.6264393	y: -9.132683	z: 0.43514615
18:02:30		x: -2.9167361	y: -9.196728	z: 0.40940848
18:02:30		x: -2.885013	y: -9.163208	z: 0.12928689
18:02:30		x: -2.96881	y: -9.252991	z: 0.6745663
18:02:30		x: -2.9245174	y: -9.069236	z: -0.28670564
18:02:31		x: -3.2423477	y: -9.114127	z: 0.24660277
18:02:31		x: -2.6473885	y: -9.287707	z: 0.6386533
18:02:31		x: -3.152565	y: -9.164406	z: 0.52852005
18:02:31		x: -2.355296	y: -9.209895	z: 0.44113165
18:02:31		x: -3.1789012	y: -9.135675	z: 0.4261679
18:02:31		x: -3.2435448	y: -9.035119	z: 0.712275
18:02:32		x: -5.659294	y: -10.910975	z: 1.1133038
18:02:32		x: -8.218098	y: -9.150639	z: 2.5420437
18:02:32		x: -7.8086886	y: -5.919065	z: 1.0660183
18:02:32		x: 4.5238442	y: -0.6901286	z: 18.87469
18:02:32		x: -2.882619	y: -1.5251064	z: 7.4124484
18:02:32		x: -1.3251907	y: -0.92655605	z: 9.412206
18:02:33		x: 0.65900403	y: -1.0384849	z: 10.638636
18:02:33		x: 0.6925228	y: -1.1007342	z: 10.358514
18:02:33		x: 0.5979519	y: -0.38845924	z: 9.988609
18:02:33		x: 1.1121067	y: -0.015562311	z: 9.904813
18:02:33		x: 1.3078327	y: 0.46028528	z: 10.093954
18:02:34		x: 1.5795746	y: 0.095768064	z: 9.980828
18:02:34		x: 1.22224	y: 0.39205053	z: 10.128671
18:02:34		x: 1.0426749	y: 0.6889315	z: 10.029909
18:02:34		x: 1.4927847	y: 0.66259533	z: 10.053851
18:02:34		x: 0.0011971008	y: 0.84575176	z: 8.966884
