18:02:15		x: 941.4
18:02:15		x: 941.42
18:02:15		x: 941.41
18:02:15		x: 941.43
18:02:15		x: 941.38
18:02:16		x: 941.39
18:02:16		x: 941.39
18:02:16		x: 941.38
18:02:16		x: 941.43
18:02:16		x: 941.38
18:02:16		x: 941.39
18:02:17		x: 941.43
18:02:17		x: 941.39
18:02:17		x: 941.38
18:02:17		x: 941.34
18:02:17		x: 941.35
18:02:18		x: 941.41
18:02:18		x: 941.41
18:02:18		x: 941.38
18:02:18		x: 941.37
18:02:18		x: 941.42
18:02:18		x: 941.38
18:02:19		x: 941.37
18:02:19		x: 941.38
18:02:19		x: 941.38
18:02:19		x: 941.35
18:02:19		x: 941.34
18:02:20		x: 941.35
18:02:20		x: 941.35
18:02:20		x: 941.37
18:02:20		x: 941.38
18:02:20		x: 941.4
18:02:20		x: 941.39
18:02:21		x: 941.38
18:02:21		x: 941.39
18:02:21		x: 941.32
18:02:21		x: 941.39
18:02:21		x: 941.31
18:02:22		x: 941.39
18:02:22		x: 941.36
18:02:22		x: 941.39
18:02:22		x: 941.44
18:02:22		x: 941.4
18:02:22		x: 941.43
18:02:23		x: 941.36
18:02:23		x: 941.39
18:02:23		x: 941.41
18:02:23		x: 941.38
18:02:23		x: 941.42
18:02:24		x: 941.4
18:02:24		x: 941.41
18:02:24		x: 941.39
18:02:24		x: 941.38
18:02:24		x: 941.38
18:02:24		x: 941.37
18:02:25		x: 941.38
18:02:25		x: 941.38
18:02:25		x: 941.33
18:02:25		x: 941.28
18:02:25		x: 941.31
18:02:25		x: 941.26
18:02:26		x: 941.29
18:02:26		x: 941.29
18:02:26		x: 941.26
18:02:26		x: 941.24
18:02:26		x: 941.16
18:02:27		x: 941.13
18:02:27		x: 941.16
18:02:27		x: 941.13
18:02:27		x: 941.11
18:02:27		x: 941.08
18:02:27		x: 941.11
18:02:28		x: 941.07
18:02:28		x: 941.02
18:02:28		x: 941.06
18:02:28		x: 941.01
18:02:28		x: 941.04
18:02:29		x: 941.01
18:02:29		x: 941.07
18:02:29		x: 941.02
18:02:29		x: 941.06
18:02:29		x: 941.02
18:02:29		x: 941.04
18:02:30		x: 941.05
18:02:30		x: 941.09
18:02:30		x: 941.06
18:02:30		x: 941.09
18:02:30		x: 941.07
18:02:31		x: 941.1
18:02:31		x: 941.09
18:02:31		x: 941.02
18:02:31		x: 941.1
18:02:31		x: 941.05
18:02:31		x: 941.06
18:02:32		x: 941.05
18:02:32		x: 941.07
18:02:32		x: 941.06
18:02:32		x: 941.0
18:02:32		x: 940.96
18:02:32		x: 941.04
18:02:33		x: 941.02
18:02:33		x: 941.01
18:02:33		x: 941.01
18:02:33		x: 940.97
18:02:33		x: 941.02
18:02:34		x: 941.05
18:02:34		x: 941.01
18:02:34		x: 940.99
18:02:34		x: 941.0
18:02:34		x: 940.97
