18:21:37		x: 0.4997896	y: 2.4480712	z: 10.200497
18:21:37		x: 1.6023195	y: 1.5119383	z: 10.295067
18:21:37		x: 2.791639	y: 0.6757634	z: 9.789292
18:21:37		x: 3.3321302	y: -0.18195933	z: 11.156382
18:21:37		x: 2.1631613	y: -1.7621324	z: 9.618107
18:21:38		x: 2.6503813	y: -2.4899697	z: 8.825626
18:21:38		x: 6.745663	y: 0.01436521	z: 6.7564373
18:21:38		x: 11.811195	y: 0.034117375	z: 5.450999
18:21:38		x: 8.683171	y: 0.39025488	z: 5.005677
18:21:38		x: 10.059837	y: 3.4314895	z: 1.2521675
18:21:39		x: 9.859323	y: 6.3344593	z: -0.51116204
18:21:39		x: 5.16549	y: 7.4812818	z: -0.8870517
18:21:39		x: 5.4264584	y: 7.8769236	z: 0.84575176
18:21:39		x: 3.4464533	y: 10.395025	z: -1.122282
18:21:39		x: 2.6120741	y: 10.156802	z: -0.74519527
18:21:39		x: 4.172495	y: 8.719084	z: 0.6171055
18:21:40		x: 4.5394063	y: 6.349423	z: 4.1653123
18:21:40		x: -2.5773582	y: 4.258686	z: 3.4979286
18:21:40		x: -3.7481227	y: 7.7374616	z: 1.2192472
18:21:40		x: 1.2898762	y: 10.839748	z: -2.3475149
18:21:40		x: -0.17657238	y: 9.494805	z: -0.09935937
18:21:41		x: -0.15263036	y: 9.116522	z: -0.8870517
18:21:41		x: 1.8872294	y: 8.711303	z: -0.8475474
18:21:41		x: 0.55725044	y: 8.593987	z: 1.021127
18:21:41		x: -2.067393	y: 15.789761	z: -2.1308396
18:21:41		x: 0.97743285	y: -0.89184016	z: 9.100959
18:21:41		x: 1.4808137	y: 3.3117795	z: 5.2397103
18:21:42		x: 1.3036429	y: 7.4788876	z: 2.4229321
18:21:42		x: -0.75357497	y: 10.530896	z: 1.2180501
18:21:42		x: -3.7972038	y: 5.4743423	z: 2.2774844
18:21:42		x: -3.3494883	y: 9.829395	z: 1.6412252
18:21:42		x: -2.6246436	y: 8.040328	z: -0.29747957
18:21:43		x: -0.9888053	y: 10.222044	z: -0.99538934
18:21:43		x: -0.4758476	y: 9.181165	z: -0.6266823
18:21:43		x: 2.1416135	y: 8.930971	z: -0.54408234
18:21:43		x: 0.092176765	y: 11.1073	z: -1.0169371
18:21:43		x: 3.1381998	y: 8.9519205	z: 2.2008698
18:21:43		x: 2.7473464	y: 11.063007	z: 0.06344634
18:21:44		x: 3.555988	y: 8.774749	z: -0.020949265
18:21:44		x: 5.4498014	y: 7.49445	z: -1.1911154
18:21:44		x: 10.018537	y: 4.358644	z: 0.16340427
18:21:44		x: 8.765771	y: 0.9487024	z: 4.084508
18:21:44		x: 3.7128084	y: -0.24600422	z: 8.145673
18:21:45		x: -0.51235914	y: -0.26276365	z: 10.580576
18:21:45		x: 0.47405192	y: 1.845331	z: 8.892065
18:21:45		x: -2.1481974	y: 1.5598224	z: 8.92738
18:21:45		x: -1.2653356	y: 2.3624785	z: 8.260594
18:21:45		x: -1.5939398	y: 1.816002	z: 9.872491
18:21:45		x: -1.3617022	y: 1.46585	z: 10.404003
18:21:46		x: -1.7657237	y: 1.846528	z: 9.23683
18:21:46		x: -1.7010803	y: 1.9752164	z: 9.572617
18:21:46		x: -2.1350293	y: 1.7657237	z: 9.749189
18:21:46		x: -2.421735	y: 1.846528	z: 9.163807
