13 1:35.7935101906 2:19.8583146797 3:25.0722079924 4:5.46746439305 5:29.8931668893 6:5.60068128452 7:-7.37036044457 8:-7.13714801545e-17 9:3.7705194226 10:14.2168167162 11:2.90387740889 12:-2.81432880882 13:0.2501850889 14:1.67883666338 15:2.8184925423 16:2.16472296718 17:-2.35859526696 18:0.0976208237912 19:1.38336758958 20:1.91370588789 21:3.41945923075 22:-10.7624545602 23:-1.68845162691 24:3.68113095583 25:13.550725114 26:6.4119149211 27:-6.52001283074 28:0.141436688202 29:4.56724809568 30:20.8597551675 
13 1:35.0207137413 2:19.5188256867 3:24.635195633 4:5.30637532847 5:28.1576191266 6:4.64479695378 7:-5.97734135838 8:-3.64787565234e-16 9:3.17379297483 10:10.0729618471 11:2.44519750032 12:-2.22588130279 13:0.201018252846 14:1.39668884773 15:1.95073973738 16:1.28615148961 17:-1.37508326647 18:0.0296155004787 19:0.787521625814 20:0.620190311125 21:4.67445806065 22:-7.77628974088 23:-1.25899407502 24:3.20182105807 25:10.2516580879 26:5.16366262223 27:-8.57214412724 28:0.00244843305537 29:4.55846459667 30:20.7795994791 
13 1:32.9021488437 2:22.491308381 3:25.9027574732 4:3.56907625545 5:12.7383053172 6:3.6088849091 7:-4.74387494186 8:3.9650822308e-17 9:2.42510097584 10:5.88111474303 11:1.76881058554 12:-1.69763293042 13:0.15873396634 14:1.02551168303 15:1.05167421204 16:2.74140400416 17:-2.61227298999 18:0.0721091854924 19:1.45071430245 20:2.10457198734 21:1.97039050201 22:-6.03550012792 23:-0.987217074718 24:2.09948921201 25:4.40785495135 26:6.74057618729 27:-8.40233495197 28:0.0729672045691 29:5.09914823055 30:26.0013126771 
13 1:32.9110924803 2:17.3258507388 3:22.4800732318 4:5.33704587116 5:28.4840586309 6:4.40812324372 7:-5.6272845677 8:-6.02692499082e-16 9:3.05517673247 10:9.3341048666 11:2.33354932288 12:-1.98950569393 13:0.204702855274 14:1.35345485996 15:1.83184005794 16:1.87009993074 17:-1.62051182038 18:0.206987272129 19:1.17666010734 20:1.38452900821 21:2.81429089254 22:-8.71384430977 23:-1.34495942967 24:3.12525947171 25:9.76724676552 26:5.87578569576 27:-7.65964463611 28:-0.203968539351 29:4.97924723045 30:24.7929029819 
