13:23:34		x: -29.731	y: 30.876	z: 44.894
13:23:34		x: -29.731	y: 30.876	z: 44.894
13:23:35		x: -29.426	y: 30.876	z: 44.894
13:23:35		x: -29.426	y: 30.876	z: 44.894
13:23:35		x: -29.426	y: 27.235	z: 47.555
13:23:35		x: -30.258	y: 24.383	z: 49.359
13:23:35		x: -28.096	y: -21.151	z: 58.209
13:23:35		x: -41.426	y: -34.988	z: 0.259
13:23:36		x: -34.115	y: -44.265	z: -5.442
13:23:36		x: -17.17	y: -44.757	z: -9.545
13:23:36		x: 4.493	y: -41.548	z: -14.276
13:23:36		x: -4.283	y: -36.528	z: -25.558
13:23:36		x: -11.891	y: -30.654	z: -31.738
13:23:36		x: -13.349	y: -27.651	z: -33.129
13:23:37		x: -11.444	y: -22.465	z: -33.129
13:23:37		x: -12.471	y: -11.392	z: -39.984
13:23:37		x: -11.595	y: -9.69	z: -39.984
13:23:37		x: -7.188	y: -5.555	z: -41.217
13:23:37		x: -7.188	y: -19.155	z: -43.969
13:23:38		x: -6.243	y: -16.204	z: -42.373
13:23:38		x: -5.845	y: -16.204	z: -42.912
13:23:38		x: -3.868	y: -16.204	z: -42.912
13:23:38		x: -3.065	y: -16.204	z: -43.235
13:23:38		x: -4.518	y: -16.204	z: -42.607
13:23:38		x: -4.518	y: -17.547	z: -41.928
13:23:39		x: -9.844	y: -20.501	z: -38.819
13:23:39		x: -10.766	y: -31.056	z: -33.235
13:23:39		x: -10.073	y: -39.225	z: -27.18
13:23:39		x: -7.539	y: -43.154	z: -24.565
13:23:39		x: -8.485	y: -47.821	z: -22.731
13:23:40		x: -5.493	y: -47.821	z: -22.731
13:23:40		x: -4.107	y: -47.821	z: -22.731
13:23:40		x: -4.107	y: -46.495	z: -24.464
13:23:40		x: -4.107	y: -47.5	z: -23.085
13:23:40		x: -4.107	y: -46.923	z: -24.421
13:23:40		x: -4.44	y: -47.54	z: -24.085
13:23:41		x: -4.44	y: -48.005	z: -21.342
13:23:41		x: -5.593	y: -42.77	z: -16.43
13:23:41		x: -8.125	y: -42.301	z: -12.533
13:23:41		x: -11.463	y: -43.528	z: -7.707
13:23:41		x: -15.768	y: -41.416	z: -10.456
13:23:42		x: -18.226	y: -40.382	z: -13.79
13:23:42		x: -27.671	y: -38.189	z: -6.835
13:23:42		x: -38.281	y: -24.372	z: 1.605
13:23:42		x: -42.205	y: -20.141	z: -1.455
13:23:42		x: -36.495	y: -17.797	z: 1.48
13:23:42		x: -24.574	y: -4.765	z: 54.287
13:23:43		x: -27.584	y: 21.177	z: 47.509
13:23:43		x: -28.544	y: 29.084	z: 47.949
13:23:43		x: -23.448	y: 37.286	z: 43.757
13:23:43		x: -20.533	y: 34.214	z: 42.999
