13:23:34		x: 940.11
13:23:34		x: 940.1
13:23:35		x: 940.16
13:23:35		x: 940.19
13:23:35		x: 940.09
13:23:35		x: 940.16
13:23:35		x: 940.16
13:23:35		x: 940.16
13:23:36		x: 940.14
13:23:36		x: 940.15
13:23:36		x: 940.13
13:23:36		x: 940.18
13:23:36		x: 940.2
13:23:36		x: 940.21
13:23:37		x: 940.16
13:23:37		x: 940.17
13:23:37		x: 940.15
13:23:37		x: 940.18
13:23:37		x: 940.17
13:23:38		x: 940.18
13:23:38		x: 940.15
13:23:38		x: 940.15
13:23:38		x: 940.16
13:23:38		x: 940.21
13:23:38		x: 940.24
13:23:39		x: 940.19
13:23:39		x: 940.16
13:23:39		x: 940.12
13:23:39		x: 940.09
13:23:39		x: 940.1
13:23:40		x: 940.12
13:23:40		x: 940.13
13:23:40		x: 940.13
13:23:40		x: 940.16
13:23:40		x: 940.19
13:23:40		x: 940.16
13:23:41		x: 940.18
13:23:41		x: 940.17
13:23:41		x: 940.18
13:23:41		x: 940.16
13:23:41		x: 940.17
13:23:42		x: 940.13
13:23:42		x: 940.18
13:23:42		x: 940.15
13:23:42		x: 940.15
13:23:42		x: 940.14
13:23:42		x: 940.15
13:23:43		x: 940.21
13:23:43		x: 940.19
13:23:43		x: 940.12
13:23:43		x: 940.12
