13:23:34		x: 42.64406
13:23:35		x: 42.64406
13:23:36		x: 42.64406
13:23:37		x: 42.44185
13:23:38		x: 42.44185
13:23:39		x: 42.44185
13:23:40		x: 43.223293
13:23:41		x: 43.223293
13:23:42		x: 43.223293
13:23:43		x: 44.879898
