17:26:48		x: 11.0
17:26:48		x: 7.0
17:26:49		x: 11.0
17:26:49		x: 11.0
17:26:49		x: 9.0
17:26:49		x: 6.0
17:26:49		x: 6.0
17:26:50		x: 5.0
17:26:50		x: 6.0
17:26:50		x: 6.0
17:26:50		x: 5.0
17:26:50		x: 2.0
17:26:50		x: 5.0
17:26:51		x: 5.0
17:26:51		x: 5.0
17:26:51		x: 4.0
17:26:51		x: 0.0
17:26:51		x: 0.0
17:26:52		x: 0.0
17:26:52		x: 0.0
17:26:52		x: 0.0
17:26:52		x: 0.0
17:26:52		x: 0.0
17:26:52		x: 0.0
17:26:53		x: 0.0
17:26:53		x: 0.0
17:26:53		x: 0.0
17:26:53		x: 0.0
17:26:53		x: 0.0
17:26:53		x: 0.0
17:26:54		x: 0.0
17:26:54		x: 0.0
17:26:54		x: 0.0
17:26:54		x: 0.0
17:26:54		x: 0.0
17:26:55		x: 0.0
17:26:55		x: 0.0
17:26:55		x: 0.0
17:26:55		x: 0.0
17:26:55		x: 0.0
17:26:55		x: 0.0
17:26:56		x: 0.0
17:26:56		x: 1.0
17:26:56		x: 4.0
17:26:56		x: 9.0
17:26:56		x: 9.0
17:26:57		x: 16.0
17:26:57		x: 18.0
17:26:57		x: 15.0
17:26:57		x: 15.0
17:26:57		x: 14.0
17:26:57		x: 14.0
17:26:58		x: 14.0
17:26:58		x: 14.0
17:26:58		x: 14.0
17:26:58		x: 14.0
17:26:58		x: 14.0
17:26:59		x: 14.0
17:26:59		x: 14.0
17:26:59		x: 14.0
