17:26:48		x: 2.0384574	y: -0.19120082	z: -0.77121735
17:26:48		x: -1.2687671	y: -1.6264287	z: 0.20433442
17:26:49		x: 1.3292428	y: -0.083383106	z: -0.7351763
17:26:49		x: 1.8081611	y: 0.56169057	z: -1.3539828
17:26:49		x: 1.2180653	y: -0.88056225	z: -3.77698
17:26:49		x: 2.003638	y: 1.3503176	z: -1.8319849
17:26:49		x: 2.9874365	y: -0.9596693	z: 0.48288897
17:26:50		x: -1.029308	y: -0.59040123	z: 1.5066991
17:26:50		x: -0.28130344	y: 0.9492846	z: -0.28191432
17:26:50		x: 0.28099802	y: 1.1355985	z: 2.5137105
17:26:50		x: -0.22296582	y: 1.2260065	z: 2.5867088
17:26:50		x: -0.093767814	y: 2.0589213	z: -2.1679606
17:26:50		x: -0.43066	y: -0.6072	z: -1.2330315
17:26:51		x: -0.8426886	y: 0.13561209	z: -0.23548855
17:26:51		x: -0.7254025	y: -0.5357288	z: -0.30665436
17:26:51		x: 0.112704635	y: -0.16584991	z: 0.9984592
17:26:51		x: -0.18936823	y: -0.9370673	z: -0.03359759
17:26:51		x: 0.39828414	y: -0.10293079	z: 0.7874053
17:26:52		x: 0.18936823	y: -0.3631594	z: 4.3233986
17:26:52		x: 0.14110987	y: 0.12370021	z: -0.1853976
17:26:52		x: 0.049785517	y: -0.20463985	z: -0.12034045
17:26:52		x: 0.22876903	y: 0.042760566	z: -0.058337633
17:26:52		x: 0.008857546	y: 0.21624629	z: -0.06505715
17:26:52		x: 0.20005837	y: 0.07788532	z: -0.109650314
17:26:53		x: 1.8365663	y: -0.24587326	z: -0.7281514
17:26:53		x: 1.4905112	y: -0.42180246	z: -1.078788
17:26:53		x: 1.7617353	y: -0.54153204	z: -0.9443977
17:26:53		x: 1.8661933	y: 0.029626964	z: -0.82986045
17:26:53		x: 0.19181168	y: 0.78984874	z: 0.45814893
17:26:53		x: -0.17989981	y: 0.4297437	z: -0.062308256
17:26:54		x: 0.017104227	y: -0.19975294	z: 0.056199603
17:26:54		x: -0.014966198	y: -0.0021380284	z: 0.004276057
17:26:54		x: -0.22204952	y: 0.0021380284	z: -0.13652839
17:26:54		x: -0.20066923	y: -0.19608775	z: -0.111177474
17:26:54		x: -0.13744467	y: 0.22785273	z: -0.06780604
17:26:55		x: -0.34391713	y: -0.52106804	z: -0.11911872
17:26:55		x: -0.11759156	y: -0.24617869	z: 0.057726767
17:26:55		x: -0.3472769	y: -0.11789699	z: -0.08307768
17:26:55		x: -0.28405234	y: 0.025961773	z: -0.21288654
17:26:55		x: -0.2012801	y: -0.48563787	z: -0.080634214
17:26:55		x: -0.0580322	y: 0.3109304	z: -0.8863655
17:26:56		x: -0.8194757	y: 0.3717115	z: -1.0555751
17:26:56		x: -3.2626312	y: 0.14844026	z: -0.03940081
17:26:56		x: -4.0931025	y: -0.96974856	z: 2.3182335
17:26:56		x: -1.7220291	y: 1.7101172	z: -0.86376345
17:26:56		x: -2.1688771	y: 1.2403619	z: -0.67164636
17:26:57		x: -1.0861185	y: 1.7602082	z: 1.5607607
17:26:57		x: 0.020158553	y: -0.95478237	z: 0.34025195
17:26:57		x: 0.1142318	y: -0.31215215	z: 0.10293079
17:26:57		x: -0.06261369	y: 0.0076358155	z: 0.042455133
17:26:57		x: 0.08399397	y: -0.16890424	z: 0.07391469
17:26:57		x: -0.059864793	y: 0.035430185	z: -0.018936822
17:26:58		x: 0.03145956	y: -0.15241088	z: -0.047647487
17:26:58		x: 0.07819075	y: 0.0070249503	z: 0.013744468
17:26:58		x: 0.011911872	y: 0.039095376	z: 0.04917465
17:26:58		x: -0.011911872	y: -0.0067195175	z: 0.106901415
17:26:58		x: 0.015577064	y: -0.0571159	z: 0.03573562
17:26:59		x: 0.07391469	y: 0.064446285	z: 0.011301007
17:26:59		x: -0.020463986	y: -0.019242255	z: -0.008857546
17:26:59		x: -0.30024028	y: -0.008246681	z: 0.041233405
