18:17:05		x: 24.57187
18:17:06		x: 24.57187
18:17:07		x: 24.57187
18:17:08		x: 24.57187
18:17:09		x: 24.519098
18:17:10		x: 24.519098
18:17:11		x: 24.519098
18:17:12		x: 24.519098
18:17:13		x: 24.519098
18:17:14		x: 24.519098
18:17:15		x: 24.42601
18:17:16		x: 24.42601
18:17:16		x: 24.42601
18:17:17		x: 24.42601
18:17:18		x: 24.42601
18:17:19		x: 24.42601
18:17:20		x: 24.337288
18:17:21		x: 24.337288
18:17:22		x: 24.337288
18:17:23		x: 24.337288
