18:17:05		x: 941.07
18:17:05		x: 940.93
18:17:05		x: 941.0
18:17:05		x: 941.0
18:17:06		x: 940.98
18:17:06		x: 941.08
18:17:06		x: 941.06
18:17:06		x: 941.05
18:17:06		x: 941.0
18:17:07		x: 941.05
18:17:07		x: 941.07
18:17:07		x: 941.05
18:17:07		x: 941.03
18:17:07		x: 941.0
18:17:07		x: 941.01
18:17:08		x: 941.01
18:17:08		x: 941.05
18:17:08		x: 940.99
18:17:08		x: 941.09
18:17:08		x: 941.06
18:17:09		x: 941.04
18:17:09		x: 941.03
18:17:09		x: 941.06
18:17:09		x: 941.03
18:17:09		x: 941.06
18:17:09		x: 941.08
18:17:10		x: 941.05
18:17:10		x: 941.03
18:17:10		x: 941.03
18:17:10		x: 941.06
18:17:10		x: 941.08
18:17:11		x: 941.03
18:17:11		x: 941.11
18:17:11		x: 941.09
18:17:11		x: 941.11
18:17:11		x: 941.1
18:17:11		x: 941.11
18:17:12		x: 941.14
18:17:12		x: 941.18
18:17:12		x: 941.17
18:17:12		x: 941.06
18:17:12		x: 941.14
18:17:12		x: 941.09
18:17:13		x: 941.2
18:17:13		x: 941.11
18:17:13		x: 941.23
18:17:13		x: 941.15
18:17:13		x: 941.19
18:17:14		x: 941.2
18:17:14		x: 941.25
18:17:14		x: 941.17
18:17:14		x: 941.2
18:17:14		x: 941.23
18:17:14		x: 941.22
18:17:15		x: 941.23
18:17:15		x: 941.27
18:17:15		x: 941.23
18:17:15		x: 941.26
18:17:15		x: 941.27
18:17:16		x: 941.31
18:17:16		x: 941.21
18:17:16		x: 941.26
18:17:16		x: 941.31
18:17:16		x: 941.26
18:17:16		x: 941.28
18:17:17		x: 941.29
18:17:17		x: 941.21
18:17:17		x: 941.33
18:17:17		x: 941.23
18:17:17		x: 941.34
18:17:18		x: 941.34
18:17:18		x: 941.25
18:17:18		x: 941.33
18:17:18		x: 941.26
18:17:18		x: 941.34
18:17:18		x: 941.39
18:17:19		x: 941.33
18:17:19		x: 941.28
18:17:19		x: 941.32
18:17:19		x: 941.35
18:17:19		x: 941.3
18:17:19		x: 941.33
18:17:20		x: 941.3
18:17:20		x: 941.36
18:17:20		x: 941.33
18:17:20		x: 941.34
18:17:20		x: 941.34
18:17:21		x: 941.36
18:17:21		x: 941.36
18:17:21		x: 941.32
18:17:21		x: 941.4
18:17:21		x: 941.34
18:17:21		x: 941.33
18:17:22		x: 941.33
18:17:22		x: 941.33
18:17:22		x: 941.35
18:17:22		x: 941.35
18:17:22		x: 941.37
18:17:23		x: 941.36
18:17:23		x: 941.34
18:17:23		x: 941.36
18:17:23		x: 941.4
18:17:23		x: 941.38
18:17:23		x: 941.41
18:17:24		x: 941.42
18:17:24		x: 941.4
