18:17:05		x: 2.0811598	y: 2.8880057	z: 9.444528
18:17:05		x: -1.2569559	y: 3.7630866	z: 8.70831
18:17:05		x: 2.6821043	y: 0.58119243	z: 9.420585
18:17:05		x: 8.006809	y: 3.3686419	z: 1.282095
18:17:06		x: 11.173739	y: 10.116699	z: 4.2371383
18:17:06		x: 4.2598834	y: 7.6051817	z: 5.060744
18:17:06		x: 3.3602622	y: 9.714474	z: 0.5931635
18:17:06		x: 0.005985504	y: 10.138845	z: 1.0779893
18:17:06		x: 0.95468795	y: 10.303447	z: 3.6774938
18:17:07		x: 2.6683378	y: 8.959103	z: 1.3694834
18:17:07		x: 3.441665	y: 8.513782	z: 2.0494366
18:17:07		x: 2.6324248	y: 11.157578	z: 2.1877017
18:17:07		x: 2.7635074	y: 9.7402115	z: -0.38307226
18:17:07		x: 2.8736405	y: 8.189367	z: 0.2825158
18:17:07		x: 2.9975405	y: 7.753622	z: -0.05207389
18:17:08		x: 3.0310593	y: 13.309367	z: 5.647323
18:17:08		x: 3.3913867	y: 7.81647	z: 3.4614172
18:17:08		x: 2.2631192	y: 6.205172	z: 2.31639
18:17:08		x: 3.2531216	y: 8.922591	z: 4.4765587
18:17:08		x: 4.196437	y: 13.229161	z: 0.51235914
18:17:08		x: 3.4638114	y: 8.097789	z: 1.745373
18:17:09		x: 2.9071593	y: 8.570643	z: 0.6440403
18:17:09		x: 3.6601357	y: 12.724584	z: 4.292804
18:17:09		x: 2.1374235	y: 4.736928	z: 3.2004492
18:17:09		x: 3.040636	y: 7.414244	z: 1.4790181
18:17:09		x: 0.9187749	y: 10.897807	z: 5.3438582
18:17:10		x: 1.1881226	y: 7.7530236	z: -0.6135142
18:17:10		x: 3.7391446	y: 6.974908	z: 1.5065514
18:17:10		x: 2.0129251	y: 10.630854	z: 2.6563668
18:17:10		x: 4.44723	y: 8.425795	z: 4.132991
18:17:10		x: 1.8309658	y: 6.509236	z: 1.7860745
18:17:10		x: 1.4586674	y: 8.834005	z: 3.4931402
18:17:11		x: 5.2385135	y: 11.528081	z: 1.9393034
18:17:11		x: 3.3967736	y: 7.111976	z: 0.8984242
18:17:11		x: 2.6402059	y: 7.1790137	z: 1.5352819
18:17:11		x: 3.7654808	y: 11.561002	z: 3.7253778
18:17:11		x: 1.7998412	y: 5.333683	z: 1.2587515
18:17:12		x: 4.173692	y: 7.8422074	z: 1.8596961
18:17:12		x: 6.7199254	y: 15.571888	z: -4.607043
18:17:12		x: 1.7423803	y: 5.928642	z: -0.022744916
18:17:12		x: 3.3985693	y: 6.5271926	z: 2.4791958
18:17:12		x: 4.257489	y: 6.593033	z: 2.4366987
18:17:12		x: 3.7989995	y: 7.1754227	z: 0.427365
18:17:12		x: 2.5264814	y: 7.0287776	z: -0.42078096
18:17:12		x: 2.9753942	y: 6.1716533	z: 0.06823475
18:17:12		x: 3.833117	y: 5.9424086	z: 0.42676646
18:17:12		x: 3.626617	y: 7.4986396	z: 0.51595044
18:17:12		x: 3.3261447	y: 7.4268136	z: 0.30346507
18:17:12		x: 3.091513	y: 7.056311	z: 0.84096336
18:17:12		x: 3.3800142	y: 7.6572556	z: 1.0576386
18:17:12		x: 2.9574378	y: 7.3765354	z: 0.65421563
18:17:12		x: 2.9071593	y: 6.5666966	z: 0.24001873
18:17:12		x: 2.203264	y: 6.8468184	z: 1.1845313
18:17:12		x: 2.2379801	y: 10.621876	z: 2.9340942
18:17:12		x: 3.3183637	y: 14.957176	z: 3.3446999
18:17:12		x: 2.698864	y: 18.246809	z: 5.1397524
18:17:12		x: 3.684078	y: 19.111715	z: 6.3003416
18:17:12		x: 7.249643	y: 14.541782	z: 3.9905357
18:17:12		x: 5.504868	y: 10.97502	z: 4.088698
18:17:12		x: 2.3654714	y: 9.389461	z: 4.055179
18:17:12		x: 1.6514006	y: 8.565256	z: 3.083732
18:17:12		x: 2.6384103	y: 8.909423	z: 3.639785
18:17:12		x: 3.2369606	y: 8.295909	z: 4.164714
18:17:12		x: 3.1992521	y: 7.5004354	z: 3.5500026
18:17:12		x: 2.6862943	y: 6.3105173	z: 2.9059622
18:17:12		x: 2.4193408	y: 5.41748	z: 2.741361
18:17:12		x: 2.2697031	y: 4.919486	z: 2.693477
18:17:13		x: 1.982399	y: 4.5543704	z: 2.3481133
18:17:13		x: 2.066196	y: 4.4448357	z: 1.7471687
18:17:13		x: 2.1906946	y: 5.3983264	z: 1.1204864
18:17:13		x: 2.6755204	y: 6.399701	z: 1.7280151
18:17:13		x: 2.9783869	y: 7.065888	z: 2.7551277
18:17:13		x: 3.8133647	y: 6.3165026	z: 3.120842
18:17:13		x: 4.06715	y: 7.0634937	z: 3.3039982
18:17:13		x: 3.3608606	y: 8.5862055	z: 2.747945
18:17:13		x: 3.2489316	y: 8.978256	z: 3.1238346
18:17:13		x: 3.769072	y: 8.566454	z: 3.0879216
18:17:13		x: 3.9246953	y: 8.182783	z: 3.0532057
18:17:13		x: 2.8335378	y: 7.662044	z: 2.8820202
18:17:13		x: 0.9552865	y: 7.4322004	z: 2.783858
18:17:13		x: 1.4454993	y: 12.989741	z: -0.46567222
18:17:13		x: 4.4562078	y: 13.157335	z: -0.6739678
18:17:13		x: 2.5773582	y: 11.382633	z: 0.09995792
18:17:13		x: 2.8604724	y: 14.254478	z: 2.1697452
18:17:13		x: 10.101137	y: 14.451402	z: -2.36188
18:17:13		x: 4.2556934	y: 12.460623	z: 1.5448587
18:17:13		x: 4.3981485	y: 11.416152	z: 0.08020575
18:17:13		x: 5.869984	y: 12.153566	z: 1.7657237
18:17:13		x: 4.3305125	y: 13.926473	z: 0.7248446
18:17:13		x: 4.0976763	y: 10.50875	z: 0.55485624
18:17:13		x: 2.5210943	y: 8.563461	z: 1.0187328
18:17:13		x: 1.9027919	y: 7.8787193	z: 0.45968673
18:17:13		x: 1.1791444	y: 7.1407065	z: 0.15023616
18:17:13		x: 1.2180501	y: 6.5068417	z: 0.53809685
18:17:13		x: 1.8339585	y: 6.6654577	z: 0.45489833
18:17:13		x: 2.5911248	y: 6.782175	z: 0.054468088
18:17:13		x: 2.8766334	y: 6.5631056	z: -0.66259533
18:17:13		x: 2.6970682	y: 5.7604494	z: 0.08798691
18:17:13		x: 3.3836055	y: 6.2530565	z: 0.84694886
18:17:13		x: 3.6613328	y: 7.141904	z: 0.9223662
18:17:13		x: 3.0280666	y: 7.9565306	z: 0.1436521
18:17:13		x: 3.0992942	y: 7.524976	z: 0.4417302
18:17:13		x: 4.262876	y: 7.2203135	z: 0.062249243
18:17:13		x: 4.3394904	y: 8.497022	z: -0.32621
18:17:13		x: 4.602853	y: 8.685565	z: -0.45310268
18:17:13		x: 4.687248	y: 8.3629465	z: -0.16519992
18:17:13		x: 4.4382515	y: 7.839215	z: 0.44472298
18:17:13		x: 3.8857894	y: 7.1730285	z: -0.95947635
18:17:13		x: 1.9422961	y: 7.979874	z: -1.6783354
18:17:13		x: -2.1188686	y: 15.509639	z: 1.929128
18:17:13		x: 1.7962499	y: 19.608511	z: 1.6897079
18:17:13		x: 3.5093012	y: 15.531186	z: 1.7010803
18:17:13		x: 1.6639702	y: 14.044986	z: 2.132635
18:17:13		x: -0.7505822	y: 19.487005	z: 3.8205473
18:17:13		x: 1.5472529	y: 16.391901	z: 3.141791
18:17:13		x: 3.0819361	y: 11.714231	z: 2.3169887
18:17:13		x: 2.5929205	y: 10.183139	z: 2.4091654
18:17:14		x: 1.9452889	y: 7.583634	z: 2.178125
18:17:14		x: 1.1330559	y: 6.0064535	z: 1.4921862
18:17:14		x: 1.2419921	y: 3.8391025	z: 0.3573346
18:17:14		x: 1.8549078	y: 3.0609868	z: 0.073023155
18:17:14		x: 1.2958617	y: 3.3680432	z: 0.9660604
18:17:14		x: 0.6667852	y: 3.8259344	z: 1.7687165
18:17:14		x: -0.20051439	y: 4.3688197	z: 3.1172507
18:17:14		x: 0.49799395	y: 5.33488	z: 3.7900212
18:17:14		x: 3.1884782	y: 7.2179193	z: 3.5535939
18:17:14		x: 4.9518075	y: 10.376471	z: 3.6218286
18:17:14		x: 6.861782	y: 12.36246	z: 3.9145198
18:17:14		x: 7.9864583	y: 12.008718	z: 6.5026517
18:17:14		x: 5.639542	y: 11.003751	z: 6.384139
18:17:14		x: 4.4220905	y: 12.087128	z: 5.2085857
18:17:14		x: 3.7834373	y: 16.025589	z: 1.2395979
18:17:14		x: 2.5187001	y: 13.174693	z: 2.148796
18:17:14		x: 0.9864111	y: 6.407482	z: 4.0132804
18:17:14		x: 0.4997896	y: 6.017826	z: 1.3126211
18:17:14		x: 3.0340521	y: 6.9605427	z: -2.823961
18:17:14		x: 1.6454151	y: 9.998785	z: -4.063559
18:17:14		x: 1.2797008	y: 10.272921	z: -1.3964181
18:17:14		x: 4.9524064	y: 8.057087	z: 1.1019313
18:17:14		x: 4.223372	y: 9.6288805	z: 0.86729956
18:17:14		x: 2.5743654	y: 10.328587	z: -0.33399114
18:17:14		x: 1.6053122	y: 8.837597	z: 0.13108255
18:17:14		x: 1.1779473	y: 7.9104424	z: 0.19572599
18:17:14		x: 1.3946224	y: 7.6584525	z: -0.22804771
18:17:14		x: 1.9835961	y: 7.5572977	z: -0.7529764
18:17:14		x: 2.565387	y: 7.7464395	z: -0.7026982
18:17:14		x: 2.8083985	y: 8.483853	z: 0.46567222
18:17:14		x: 2.7928362	y: 8.833407	z: 0.54288524
18:17:14		x: 3.5296519	y: 8.277354	z: 0.23283611
18:17:14		x: 3.7361517	y: 8.740033	z: 0.22685061
18:17:14		x: 3.3357215	y: 9.444528	z: 0.18794483
18:17:14		x: 2.7096379	y: 10.368689	z: -0.61650693
18:17:14		x: 3.0364463	y: 10.358514	z: -1.3628993
18:17:14		x: 3.1723173	y: 9.150639	z: -1.0408791
18:17:14		x: 4.0240545	y: 8.891466	z: -1.3521254
18:17:14		x: 2.9963434	y: 10.429143	z: -0.97743285
18:17:14		x: 2.070386	y: 12.041637	z: -1.6514006
18:17:14		x: 1.1713632	y: 13.116035	z: -0.65062433
18:17:14		x: 1.1504139	y: 10.268731	z: 0.47105917
18:17:14		x: -0.2693477	y: 8.868123	z: 2.0500352
18:17:14		x: -0.4758476	y: 10.939108	z: 1.1468226
18:17:14		x: 1.2330139	y: 13.490728	z: -1.2330139
18:17:14		x: 2.2732944	y: 14.102447	z: 0.30466217
18:17:14		x: 2.9466639	y: 11.959038	z: 3.3997664
18:17:14		x: 2.9101522	y: 9.593566	z: 3.7457285
18:17:14		x: 2.508525	y: 9.54209	z: 2.8550856
18:17:14		x: 1.9961656	y: 7.960122	z: 1.5634137
18:17:15		x: 1.5664065	y: 5.795764	z: 1.0594343
18:17:15		x: 1.3682863	y: 4.667496	z: 0.825401
18:17:15		x: 1.4030021	y: 4.9679685	z: 0.9343372
18:17:15		x: 1.7818847	y: 5.60722	z: 1.8285716
18:17:15		x: 1.441908	y: 4.751293	z: 2.6940753
18:17:15		x: 1.1611878	y: 4.563947	z: 2.837129
18:17:15		x: 1.4490906	y: 5.142745	z: 2.2379801
18:17:15		x: 1.7393875	y: 5.755062	z: 1.894412
18:17:15		x: 2.1799207	y: 6.1902084	z: 1.8423382
18:17:15		x: 2.6318262	y: 5.851429	z: 2.3056161
18:17:15		x: 3.3303347	y: 5.5383873	z: 1.9967642
18:17:15		x: 4.5962687	y: 4.6645036	z: 2.130241
18:17:15		x: 4.7500963	y: 6.2530565	z: 3.3752258
18:17:15		x: 3.7535098	y: 7.9732904	z: 3.9228995
18:17:15		x: 3.9085343	y: 8.503606	z: 3.739743
18:17:15		x: 4.5286326	y: 7.6363063	z: 3.691859
18:17:15		x: 4.5801077	y: 7.2831616	z: 3.4805708
18:17:15		x: 3.7062242	y: 8.387487	z: 2.504335
18:17:15		x: 1.5849615	y: 9.892841	z: 2.56419
18:17:15		x: 0.7942764	y: 13.995306	z: 0.82360536
18:17:15		x: 2.2260091	y: 12.373833	z: 0.10474633
18:17:15		x: 2.469619	y: 15.652094	z: 3.2740707
18:17:15		x: 9.066243	y: 19.608511	z: -5.149329
18:17:15		x: 9.575011	y: 16.8875	z: -0.016759412
18:17:15		x: 0.64463884	y: 9.360131	z: 1.4670471
18:17:15		x: 4.0587707	y: 11.318588	z: -2.0380642
18:17:15		x: 4.80636	y: 10.688913	z: -0.19033903
18:17:15		x: 3.9677908	y: 10.453085	z: 0.777517
18:17:15		x: 3.776853	y: 8.288726	z: 2.368464
18:17:15		x: 3.702633	y: 8.279748	z: 2.231396
18:17:15		x: 3.8510735	y: 8.397662	z: 1.489792
18:17:15		x: 3.2914288	y: 6.578069	z: 1.2090719
18:17:15		x: 2.710835	y: 5.4857144	z: 1.1270704
18:17:15		x: 3.2872388	y: 5.5910597	z: 1.2282255
18:17:15		x: 4.710592	y: 5.1463366	z: 1.0127473
18:17:15		x: 4.938041	y: 4.8548427	z: 0.7445967
18:17:15		x: 3.5116954	y: 5.6365495	z: 0.87448215
18:17:15		x: 1.8513165	y: 6.211158	z: 1.3389573
18:17:15		x: 2.8353333	y: 5.0284224	z: 0.207697
18:17:15		x: 2.6252422	y: 4.9302597	z: 0.026934769
18:17:15		x: 2.834735	y: 5.2648497	z: 0.2896984
18:17:15		x: 3.4757824	y: 6.851607	z: 0.50757074
18:17:15		x: 3.1543608	y: 7.7733746	z: 1.5155296
18:17:15		x: 2.947861	y: 7.041946	z: 1.9560628
18:17:15		x: 3.751714	y: 19.608511	z: 5.886145
18:17:15		x: 4.88477	y: 18.94472	z: 8.742428
18:17:15		x: 8.497621	y: 15.024813	z: 7.183802
18:17:16		x: 7.0132155	y: 12.303204	z: 5.213374
18:17:16		x: 3.815759	y: 9.988011	z: 5.119402
18:17:16		x: 2.9299042	y: 8.220491	z: 4.4304705
18:17:16		x: 2.882619	y: 7.523779	z: 3.3836055
18:17:16		x: 3.459023	y: 6.7708025	z: 2.6994624
18:17:16		x: 3.235165	y: 6.089652	z: 3.1453824
18:17:16		x: 2.520496	y: 5.0625396	z: 3.0095115
18:17:16		x: 1.857302	y: 4.6297874	z: 2.042254
18:17:16		x: 1.448492	y: 3.819949	z: 2.0667946
18:17:16		x: 1.6364368	y: 3.6194344	z: 1.9506758
18:17:16		x: 2.3762453	y: 4.0013094	z: 1.389834
18:17:16		x: 2.4672248	y: 4.6339774	z: 1.5801731
18:17:16		x: 1.6238673	y: 5.763442	z: 1.4640543
18:17:16		x: 1.6244658	y: 7.216124	z: 1.7890673
18:17:16		x: 2.4355016	y: 7.340024	z: 2.9813797
18:17:16		x: 4.248511	y: 7.671621	z: 2.5091233
18:17:16		x: 5.331289	y: 7.8667483	z: 1.3311762
18:17:16		x: 5.0038815	y: 6.9198413	z: 0.99299514
18:17:16		x: 4.144962	y: 5.553351	z: 2.4827871
18:17:16		x: 4.3819876	y: 5.7879825	z: 3.9258924
18:17:16		x: 3.8109705	y: 6.736685	z: 3.2213984
18:17:16		x: 3.7493198	y: 10.114903	z: 0.8194155
18:17:16		x: 2.2864625	y: 16.138716	z: 2.457648
18:17:16		x: 2.1254525	y: 19.608511	z: 2.6168625
18:17:16		x: 6.4062853	y: 18.844164	z: 0.9283517
18:17:16		x: 5.686229	y: 13.631986	z: -0.8900445
18:17:16		x: 4.518457	y: 10.647614	z: 0.074220255
18:17:16		x: 3.153762	y: 10.951078	z: 0.4285621
18:17:16		x: 4.196437	y: 12.0967045	z: -1.7016789
18:17:16		x: 4.789002	y: 10.324995	z: 0.21428105
18:17:16		x: 3.716998	y: 8.040926	z: 2.695871
18:17:16		x: 3.1262288	y: 7.45315	z: 1.6274586
18:17:16		x: 3.268684	y: 8.637681	z: -0.5291186
18:17:16		x: 2.6737247	y: 8.512584	z: -0.46686932
18:17:16		x: 2.4660277	y: 7.7757688	z: 0.55964464
18:17:16		x: 3.5847185	y: 7.4471645	z: 1.2300211
18:17:16		x: 4.4460325	y: 7.911041	z: 1.1821371
18:17:16		x: 5.228338	y: 8.857947	z: 1.6531962
18:17:16		x: 5.8604074	y: 8.701127	z: 1.7483658
18:17:16		x: 5.587468	y: 7.8368206	z: 1.584363
18:17:16		x: 5.1463366	y: 7.133524	z: 1.1707647
18:17:16		x: 4.8099513	y: 6.365584	z: 0.8122329
18:17:16		x: 4.605247	y: 6.019023	z: 0.31423897
18:17:16		x: 4.5178585	y: 5.153519	z: 0.37948096
18:17:16		x: 3.2513258	y: 5.6341553	z: -0.51475334
18:17:16		x: 2.5360582	y: 5.9944825	z: -0.08020575
18:17:16		x: 3.2716765	y: 6.217143	z: 0.1592144
18:17:16		x: 3.933075	y: 6.630143	z: 0.80684596
18:17:16		x: 3.304597	y: 8.096592	z: 1.2216414
18:17:16		x: 3.7732618	y: 9.119514	z: 0.207697
18:17:17		x: 4.7040076	y: 8.226477	z: 0.41240123
18:17:17		x: 5.229535	y: 8.622718	z: 1.3664906
18:17:17		x: 5.486912	y: 8.248025	z: 1.7729063
18:17:17		x: 5.195418	y: 7.953538	z: 1.7262194
18:17:17		x: 3.7307649	y: 8.403049	z: 2.2691047
18:17:17		x: 3.6355953	y: 10.144831	z: 3.7241807
18:17:17		x: 4.237737	y: 11.219828	z: 4.501099
18:17:17		x: 3.5529952	y: 13.06456	z: 3.5434184
18:17:17		x: 4.210802	y: 16.842012	z: 3.5990837
18:17:17		x: 5.864597	y: 16.052525	z: 4.6830587
18:17:17		x: 6.692991	y: 11.311406	z: 5.6904187
18:17:17		x: 4.653131	y: 9.706094	z: 5.463568
18:17:17		x: 3.3129766	y: 8.655039	z: 4.460996
18:17:17		x: 3.3411086	y: 7.1610575	z: 4.5160627
18:17:17		x: 3.6074634	y: 5.7598505	z: 3.4638114
18:17:17		x: 3.1603463	y: 4.7901993	z: 2.7790697
18:17:17		x: 2.379238	y: 4.502895	z: 2.0027497
18:17:17		x: 1.6023195	y: 4.213795	z: 2.3732524
18:17:17		x: 1.4826094	y: 4.267066	z: 2.4839842
18:17:17		x: 1.6531962	y: 4.7506948	z: 2.6521769
18:17:17		x: 1.9931729	y: 4.9320555	z: 2.4732103
18:17:17		x: 2.9352913	y: 5.9747305	z: 1.5101427
18:17:17		x: 2.991555	y: 7.1568675	z: 1.3120226
18:17:17		x: 2.4642322	y: 7.258621	z: 2.3774424
18:17:17		x: 2.4534583	y: 7.257424	z: 3.1681273
18:17:17		x: 3.819949	y: 7.7637978	z: 2.9137435
18:17:17		x: 4.957195	y: 8.746617	z: 3.2860417
18:17:17		x: 5.261258	y: 9.879673	z: 3.9085343
18:17:17		x: 5.4019175	y: 9.24521	z: 3.5224693
18:17:17		x: 5.077503	y: 7.4088573	z: 2.5839422
18:17:17		x: 4.2945995	y: 5.5503583	z: 2.4887726
18:17:17		x: 3.977966	y: 5.267244	z: 1.9758149
18:17:17		x: 3.4847605	y: 5.006874	z: 1.9764135
18:17:17		x: 2.8125885	y: 6.373365	z: 2.0350714
18:17:17		x: 2.9538465	y: 8.045714	z: 1.3497312
18:17:17		x: 1.8249803	y: 10.947487	z: 2.3421278
18:17:17		x: 3.8959646	y: 15.103223	z: 1.9614497
18:17:17		x: 6.3991027	y: 12.225991	z: 0.57520694
18:17:17		x: 4.5154643	y: 14.48073	z: 2.1080947
18:17:17		x: 7.839215	y: 19.296667	z: -2.2505496
18:17:17		x: 9.598354	y: 12.843695	z: 0.5518635
18:17:17		x: 2.794632	y: 10.572795	z: 0.2801216
18:17:17		x: 5.21098	y: 10.506954	z: 1.299453
18:17:17		x: 5.641338	y: 13.192051	z: 1.7262194
18:17:17		x: 5.029021	y: 11.555016	z: 0.6386533
18:17:17		x: 3.3321302	y: 8.385692	z: 1.0803835
18:17:17		x: 2.8078	y: 8.252214	z: 0.90620536
18:17:17		x: 2.582745	y: 7.860164	z: 1.0875661
18:17:17		x: 2.1045034	y: 6.333262	z: 0.9792285
18:17:17		x: 2.3648727	y: 5.415684	z: 0.9600749
18:17:18		x: 3.0262709	y: 5.1798553	z: 0.729633
18:17:18		x: 3.426701	y: 5.191228	z: 1.38325
18:17:18		x: 4.021062	y: 5.133168	z: 2.4271219
18:17:18		x: 4.1916485	y: 4.2515035	z: 2.0129251
18:17:18		x: 2.9472623	y: 4.5441947	z: 0.038905777
18:17:18		x: 1.7770962	y: 3.53863	z: 0.79128367
18:17:18		x: 3.3596635	y: 3.3973722	z: 1.9578584
18:17:18		x: 4.224569	y: 4.583699	z: 2.1140802
18:17:18		x: 3.2118216	y: 6.579266	z: 1.6118963
18:17:18		x: 2.3942018	y: 6.673837	z: 1.7848774
18:17:18		x: 2.369661	y: 5.837064	z: 0.28909984
18:17:18		x: 2.1583729	y: 6.50744	z: 1.1563994
18:17:18		x: 3.4213142	y: 10.165182	z: 3.6511576
18:17:18		x: 6.4840965	y: 17.050308	z: 5.0146556
18:17:18		x: 6.7588315	y: 19.608511	z: 7.651869
18:17:18		x: 8.845977	y: 19.099146	z: 7.757812
18:17:18		x: 11.6112795	y: 12.747927	z: 5.6245785
18:17:18		x: 7.813477	y: 12.238561	z: 4.8626237
18:17:18		x: 3.9163153	y: 10.821193	z: 5.5778913
18:17:18		x: 3.1238346	y: 7.8835077	z: 6.4846954
18:17:18		x: 3.4727895	y: 6.8557963	z: 5.781399
18:17:18		x: 5.288193	y: 7.2298903	z: 3.7600937
18:17:18		x: 5.389348	y: 6.8162923	z: 2.384625
18:17:18		x: 3.1334114	y: 5.369596	z: 2.5773582
18:17:18		x: 2.1452048	y: 4.629189	z: 2.428319
18:17:18		x: 1.6543933	y: 4.332308	z: 1.8620903
18:17:18		x: 1.4490906	y: 3.8738184	z: 2.010531
18:17:18		x: 1.3509283	y: 3.027468	z: 2.2104468
18:17:18		x: 1.632247	y: 2.8383262	z: 1.8650831
18:17:18		x: 2.360683	y: 3.4278982	z: 1.401805
18:17:18		x: 2.7509377	y: 4.759673	z: 2.0350714
18:17:18		x: 2.4660277	y: 6.1345434	z: 2.6078842
18:17:18		x: 3.0657754	y: 6.767211	z: 3.515885
18:17:18		x: 4.200627	y: 6.752846	z: 3.329736
18:17:18		x: 5.655703	y: 6.873753	z: 2.8951883
18:17:18		x: 5.5300074	y: 6.971317	z: 2.1703439
18:17:18		x: 4.3819876	y: 7.867347	z: 2.4408886
18:17:18		x: 3.9324763	y: 8.104373	z: 3.3674448
18:17:18		x: 2.6312277	y: 9.85633	z: 4.271256
18:17:18		x: 3.7295678	y: 14.026431	z: 2.7060466
18:17:18		x: 3.0538042	y: 14.900913	z: 1.5813702
18:17:18		x: 6.0262055	y: 16.701353	z: 3.276465
18:17:18		x: 13.245921	y: 19.434334	z: -2.1511903
18:17:18		x: 7.103596	y: 12.785037	z: 3.527856
18:17:18		x: 2.5181017	y: 11.431116	z: -1.3090298
18:17:18		x: 3.520075	y: 9.894637	z: 0.2088941
18:17:18		x: 4.1665096	y: 12.691663	z: 0.33518824
18:17:18		x: 4.1180267	y: 12.533646	z: 0.39085343
18:17:18		x: 3.6493618	y: 10.046669	z: 1.4000094
18:17:19		x: 2.7539306	y: 8.904634	z: 0.81522566
18:17:19		x: 1.1306617	y: 8.318055	z: 0.6063316
18:17:19		x: 1.2144588	y: 6.7342906	z: 0.07182605
18:17:19		x: 2.1523874	y: 6.099229	z: 0.20829555
18:17:19		x: 2.907758	y: 6.455366	z: 1.1528081
18:17:19		x: 3.954024	y: 6.9306154	z: 2.5420437
18:17:19		x: 5.6551046	y: 6.6445084	z: 1.8740613
18:17:19		x: 5.445612	y: 5.047576	z: 1.1420342
18:17:19		x: 2.4396915	y: 5.2008047	z: 0.2184709
18:17:19		x: 0.17537527	y: 4.059369	z: -0.12569559
18:17:19		x: 2.9346926	y: 3.0585926	z: 1.2162545
18:17:19		x: 3.8857894	y: 5.5365915	z: 1.3850456
18:17:19		x: 2.9777884	y: 6.447585	z: 1.3718776
18:17:19		x: 2.4642322	y: 6.905476	z: 0.8607155
18:17:19		x: 2.9125464	y: 6.4523735	z: 1.3892355
18:17:19		x: 3.9187095	y: 6.0621185	z: 0.9415198
18:17:19		x: 4.231153	y: 8.1642275	z: 1.8728642
18:17:19		x: 4.6261964	y: 12.103887	z: 4.5777135
18:17:19		x: 7.053318	y: 16.123154	z: 5.61979
18:17:19		x: 5.977723	y: 11.653777	z: 3.9175124
18:17:19		x: 1.951873	y: 9.219472	z: 5.1223946
18:17:19		x: 1.2012907	y: 8.34499	z: 5.589264
18:17:19		x: 3.0735564	y: 7.826047	z: 4.56275
18:17:19		x: 4.7500963	y: 8.409035	z: 3.3650506
18:17:19		x: 3.9516299	y: 7.7584105	z: 2.9885623
18:17:19		x: 3.0059202	y: 6.417059	z: 2.3331497
18:17:19		x: 2.0254946	y: 4.6417584	z: 2.2732944
18:17:19		x: 1.3251907	y: 3.240552	z: 2.4109612
18:17:19		x: 1.6304513	y: 3.2363622	z: 2.7018566
18:17:19		x: 2.1679497	y: 3.743933	z: 3.1908724
18:17:19		x: 2.2373815	y: 4.895544	z: 2.6701334
18:17:19		x: 2.9634233	y: 5.361216	z: 1.8974048
18:17:19		x: 2.882619	y: 5.471948	z: 1.5119383
18:17:19		x: 2.1739352	y: 6.220136	z: 2.2930467
18:17:19		x: 2.6521769	y: 7.033566	z: 2.5731683
18:17:19		x: 3.9665937	y: 7.16405	z: 2.4768016
18:17:19		x: 4.131195	y: 6.8557963	z: 3.122039
18:17:19		x: 4.0438066	y: 7.071873	z: 2.991555
18:17:19		x: 4.132392	y: 6.6983776	z: 2.5288756
18:17:19		x: 3.6655228	y: 6.039374	z: 2.8167782
18:17:19		x: 3.2848446	y: 6.232107	z: 2.7192147
18:17:19		x: 2.148796	y: 10.4405155	z: 2.4779987
18:17:19		x: 2.9287071	y: 15.263635	z: 1.3180081
18:17:19		x: 4.83928	y: 14.6441345	z: 1.5173253
18:17:19		x: 5.1355624	y: 16.151285	z: 3.5595794
18:17:19		x: 8.279149	y: 19.608511	z: -1.4610616
18:17:19		x: 8.292916	y: 12.385804	z: 0.89543146
18:17:20		x: 3.117849	y: 10.928333	z: 0.5201403
18:17:20		x: 5.09546	y: 9.986216	z: 0.53809685
18:17:20		x: 5.2780175	y: 10.3214035	z: 2.0829554
18:17:20		x: 5.1122193	y: 11.171345	z: 0.99419224
18:17:20		x: 4.594473	y: 10.204686	z: 1.2934675
18:17:20		x: 3.8774097	y: 9.612122	z: 1.4425066
18:17:20		x: 3.221997	y: 8.515577	z: 0.9516952
18:17:20		x: 2.4779987	y: 7.3603745	z: 1.1336545
18:17:20		x: 2.1410148	y: 6.3063273	z: 1.5987282
18:17:20		x: 2.7485435	y: 6.165668	z: 0.85772276
18:17:20		x: 3.17531	y: 6.6630635	z: 1.1821371
18:17:20		x: 3.846285	y: 6.743269	z: 0.8912416
18:17:20		x: 3.940856	y: 6.178836	z: 0.8619126
18:17:20		x: 3.5452142	y: 5.5258174	z: 0.6392518
18:17:20		x: 3.3854012	y: 4.8781857	z: 0.62847793
18:17:20		x: 2.5067291	y: 4.95899	z: -0.24181437
18:17:20		x: 1.1947067	y: 4.5256395	z: 0.9564836
18:17:20		x: 2.480393	y: 7.7350674	z: 0.8379706
18:17:20		x: 3.7062242	y: 9.202713	z: 0.29688102
18:17:20		x: 3.8630445	y: 8.583213	z: 0.5907693
18:17:20		x: 3.0705638	y: 7.341221	z: 1.9381063
18:17:20		x: 3.9079356	y: 7.380127	z: 2.1440077
18:17:20		x: 4.8482585	y: 7.061698	z: 2.3948002
18:17:20		x: 4.827309	y: 5.6299653	z: 1.9973627
18:17:20		x: 4.1419687	y: 6.6534867	z: 2.8568811
18:17:20		x: 5.16549	y: 10.157999	z: 3.3357215
18:17:20		x: 3.3225534	y: 15.71554	z: 6.2674217
18:17:20		x: 4.6591167	y: 19.608511	z: 10.172963
18:17:20		x: 9.337985	y: 15.042769	z: 6.1261635
18:17:20		x: 6.993463	y: 11.212646	z: 4.300585
18:17:20		x: 2.6222494	y: 11.360487	z: 6.123171
18:17:20		x: 3.3291376	y: 11.629835	z: 5.708974
18:17:20		x: 4.8775873	y: 10.010756	z: 4.6273932
18:17:20		x: 4.0641575	y: 9.186552	z: 4.1503487
18:17:20		x: 3.6822822	y: 7.795521	z: 3.5673606
18:17:20		x: 2.8191724	y: 6.479308	z: 3.0071173
18:17:20		x: 1.8495208	y: 5.3540335	z: 2.0398598
18:17:20		x: 1.2234371	y: 4.189853	z: 1.7543513
18:17:20		x: 0.84575176	y: 3.4183214	z: 1.532289
18:17:20		x: 1.0899603	y: 4.355053	z: 1.3120226
18:17:20		x: 1.1121067	y: 4.2341456	z: 1.8255788
18:17:20		x: 1.8596961	y: 4.1371803	z: 1.7076644
18:17:20		x: 1.7938557	y: 3.7553053	z: 1.9674352
18:17:20		x: 1.7316064	y: 3.9671922	z: 1.7495629
18:17:20		x: 2.8383262	y: 6.05733	z: 1.2623428
18:17:20		x: 3.9258924	y: 7.499837	z: 1.2180501
18:17:20		x: 5.9747305	y: 8.694544	z: 2.504335
18:17:20		x: 5.852626	y: 8.301296	z: 4.0898952
18:17:20		x: 5.2265425	y: 8.174403	z: 3.7403417
18:17:20		x: 5.455787	y: 7.626131	z: 3.252523
18:17:20		x: 5.276222	y: 7.5561004	z: 3.7660792
18:17:21		x: 4.7135844	y: 9.078215	z: 3.9468415
18:17:21		x: 4.6136265	y: 11.679515	z: 4.9464207
18:17:21		x: 6.633136	y: 11.565191	z: 2.5773582
18:17:21		x: 4.0462008	y: 15.345635	z: 0.40821138
18:17:21		x: 4.5765166	y: 19.608511	z: -2.5049336
18:17:21		x: 10.056246	y: 12.897565	z: -6.0764837
18:17:21		x: 2.1829133	y: 10.704475	z: 4.514866
18:17:21		x: 5.1439424	y: 13.910911	z: -1.4544775
18:17:21		x: 5.000889	y: 11.844116	z: 1.4586674
18:17:21		x: 4.301782	y: 12.583924	z: 0.6697779
18:17:21		x: 3.122039	y: 8.810063	z: 0.39983168
18:17:21		x: 1.8956091	y: 5.1277814	z: 2.3307555
18:17:21		x: 2.6497827	y: 5.864597	z: 3.6499605
18:17:21		x: 4.033033	y: 5.2941785	z: 4.8775873
18:17:21		x: 5.6341553	y: 6.405088	z: 4.437054
18:17:21		x: 5.832874	y: 6.0800753	z: 4.699818
18:17:21		x: 3.5087025	y: 5.0062757	z: 7.447763
18:17:21		x: 4.9057193	y: 8.045116	z: 8.293514
18:17:21		x: 7.7428484	y: 9.763555	z: 7.4723034
18:17:21		x: 9.094974	y: 8.416218	z: 7.293337
18:17:21		x: 9.679757	y: 10.784681	z: 5.2301335
18:17:21		x: 7.086837	y: 8.994417	z: 5.8400564
18:17:21		x: 7.138911	y: 7.513005	z: 8.740632
18:17:21		x: 9.57561	y: 9.41041	z: 8.281544
18:17:21		x: 7.7949224	y: 7.8146744	z: 6.365584
18:17:21		x: 5.9825115	y: 5.077503	z: 6.7085533
18:17:21		x: 5.5030727	y: 2.8335378	z: 8.304887
18:17:21		x: 5.415086	y: 1.1168951	z: 8.453926
18:17:21		x: 8.936956	y: 7.700351	z: 5.3713913
18:17:21		x: 9.1590185	y: 10.44231	z: 3.0663738
18:17:21		x: 4.1000705	y: 4.197036	z: 7.563882
18:17:21		x: 0.3609259	y: -0.4345476	z: 8.685565
18:17:21		x: 0.57041854	y: 2.0093338	z: 8.180388
18:17:21		x: 2.2942438	y: 7.256227	z: 6.039374
18:17:21		x: 3.5895069	y: 7.545925	z: 6.1824274
18:17:21		x: 2.2212207	y: 3.977966	z: 7.9008656
18:17:21		x: 1.9249382	y: 3.3806129	z: 6.671443
18:17:21		x: 1.1372458	y: 7.5453267	z: 5.251083
18:17:21		x: 3.8606503	y: 8.941745	z: 5.315128
18:17:21		x: 1.3640964	y: 4.9757495	z: 7.015011
18:17:21		x: 2.36188	y: 5.203199	z: 5.707178
18:17:21		x: 1.5358804	y: 7.2227077	z: 4.1922474
18:17:21		x: 0.86610246	y: 7.6811976	z: 7.2286935
18:17:21		x: 0.35793316	y: 6.9126587	z: 9.289502
18:17:21		x: 0.260968	y: 6.6265516	z: 8.385692
18:17:21		x: -0.29508537	y: 6.758233	z: 6.83784
18:17:21		x: 0.047285482	y: 7.2221093	z: 5.068525
18:17:21		x: 1.3311762	y: 7.491457	z: 5.331289
18:17:21		x: 0.20231004	y: 7.176021	z: 7.6626425
18:17:22		x: -0.59855044	y: 5.8262897	z: 12.54023
18:17:22		x: -0.76195467	y: 4.11683	z: 9.607931
18:17:22		x: -0.7757214	y: 4.6782703	z: 5.8801594
18:17:22		x: 0.061052144	y: 5.990891	z: 4.6022544
18:17:22		x: -1.8543092	y: 7.192182	z: 4.941034
18:17:22		x: -3.7229836	y: 6.069301	z: 6.7708025
18:17:22		x: -4.701015	y: 5.8681884	z: 8.170214
18:17:22		x: -4.0545807	y: 6.362591	z: 8.523358
18:17:22		x: -3.489549	y: 4.0078936	z: 10.103531
18:17:22		x: 0.91697925	y: 3.8073792	z: 10.772711
18:17:22		x: 1.0690111	y: 2.8939912	z: 10.668563
18:17:22		x: 1.7220296	y: 4.673482	z: 9.714474
18:17:22		x: 0.90500826	y: 5.6323595	z: 7.8823104
18:17:22		x: 0.37708676	y: 5.544971	z: 5.0146556
18:17:22		x: 0.4938041	y: 4.863222	z: 2.72939
18:17:22		x: 1.5939398	y: 4.4167037	z: 5.9890957
18:17:22		x: 2.3056161	y: 4.223372	z: 10.286688
18:17:22		x: 1.7286136	y: 3.256713	z: 11.450869
18:17:22		x: 0.60812724	y: 3.357868	z: 9.528923
18:17:22		x: 0.059855044	y: 3.606865	z: 7.107786
18:17:22		x: 1.3904326	y: 3.5703533	z: 7.000047
18:17:22		x: 1.6711528	y: 3.4320881	z: 9.464279
18:17:22		x: 0.91578215	y: 3.4201171	z: 10.590752
18:17:22		x: -0.84934306	y: 3.5344403	z: 9.3260145
18:17:22		x: -0.82001406	y: 3.520075	z: 9.313444
18:17:22		x: -0.24839842	y: 3.311181	z: 9.889849
18:17:22		x: 0.1400608	y: 3.1651347	z: 9.8515415
18:17:22		x: 0.52373165	y: 3.6511576	z: 8.879496
18:17:22		x: 0.32680854	y: 3.7720647	z: 8.789713
18:17:22		x: -0.11791443	y: 3.6523547	z: 9.420585
18:17:22		x: -0.6159084	y: 3.8007953	z: 9.173983
18:17:22		x: -0.21308395	y: 4.0863037	z: 8.69993
18:17:22		x: 0.59495914	y: 4.158728	z: 9.332
18:17:22		x: -0.142455	y: 4.257489	z: 9.276335
18:17:22		x: -1.0247183	y: 4.3520603	z: 9.024344
18:17:22		x: -0.6392518	y: 4.226963	z: 9.580399
18:17:22		x: 0.58657944	y: 3.6954503	z: 10.452486
18:17:22		x: -0.38726214	y: 2.2439656	z: 12.602479
18:17:22		x: -0.4830302	y: 4.2275615	z: 6.733692
18:17:22		x: 0.026934769	y: 5.057751	z: 4.019266
18:17:22		x: -0.035314474	y: 5.079299	z: 7.125743
18:17:22		x: 0.27593175	y: 4.0982747	z: 9.595362
18:17:22		x: 0.65660983	y: 3.8857894	z: 10.872668
18:17:22		x: -0.30645782	y: 3.750517	z: 10.597934
18:17:23		x: -0.09756372	y: 4.421492	z: 7.7308774
18:17:23		x: -1.1599907	y: 4.2143936	z: 9.023148
18:17:23		x: 0.14963761	y: 4.6160207	z: 9.467272
18:17:23		x: 0.19752164	y: 4.541202	z: 9.002198
18:17:23		x: 0.2220622	y: 4.52145	z: 8.688558
18:17:23		x: 0.53450555	y: 4.4208937	z: 8.932767
18:17:24		x: -0.18914193	y: 4.514866	z: 8.869919
18:17:24		x: 0.63206923	y: 3.7247794	z: 11.576564
