17:28:11		x: 7.0
17:28:11		x: 7.0
17:28:12		x: 18.0
17:28:12		x: 21.0
17:28:12		x: 16.0
17:28:12		x: 7.0
17:28:12		x: 6.0
17:28:12		x: 10.0
17:28:13		x: 11.0
17:28:13		x: 11.0
17:28:13		x: 7.0
17:28:13		x: 8.0
17:28:13		x: 0.0
17:28:13		x: 0.0
17:28:14		x: 0.0
17:28:14		x: 0.0
17:28:14		x: 0.0
17:28:14		x: 0.0
17:28:14		x: 0.0
17:28:15		x: 0.0
17:28:15		x: 0.0
17:28:15		x: 0.0
17:28:15		x: 0.0
17:28:15		x: 0.0
17:28:15		x: 0.0
17:28:16		x: 0.0
17:28:16		x: 0.0
17:28:16		x: 0.0
17:28:16		x: 0.0
17:28:16		x: 0.0
17:28:17		x: 0.0
17:28:17		x: 0.0
17:28:17		x: 0.0
17:28:17		x: 0.0
17:28:17		x: 0.0
17:28:17		x: 0.0
17:28:18		x: 2.0
17:28:18		x: 3.0
17:28:18		x: 7.0
17:28:18		x: 8.0
17:28:18		x: 11.0
17:28:19		x: 11.0
17:28:19		x: 10.0
17:28:19		x: 10.0
17:28:19		x: 9.0
17:28:19		x: 9.0
17:28:19		x: 9.0
17:28:20		x: 9.0
17:28:20		x: 9.0
