17:28:11		x: 1.8082209	y: 2.3624785	z: 7.447763
17:28:11		x: -4.449025	y: 3.448249	z: 9.479243
17:28:11		x: -9.401431	y: 1.1019313	z: 8.382699
17:28:12		x: -7.2951326	y: 2.6318262	z: 4.6232033
17:28:12		x: -4.7285485	y: 4.1718965	z: 6.3470287
17:28:12		x: -9.316438	y: 2.6138697	z: 7.9714947
17:28:12		x: -6.835446	y: 5.8999114	z: 5.088876
17:28:12		x: -6.817489	y: 5.5790887	z: 3.3051953
17:28:13		x: -5.551555	y: 7.7248917	z: 5.9717374
17:28:13		x: -7.3298483	y: 3.445855	z: 0.84335756
17:28:13		x: -7.2604165	y: 9.965864	z: 0.8002619
17:28:13		x: -8.520366	y: 3.3518825	z: 2.1230583
17:28:13		x: -6.06571	y: 18.550873	z: -2.8526914
17:28:13		x: -0.362123	y: 9.936536	z: -0.9840169
17:28:14		x: -7.474099	y: 19.608511	z: -4.4699745
17:28:14		x: 1.1162965	y: 11.143812	z: 1.5251064
17:28:14		x: 1.5699978	y: 9.794081	z: 2.1505916
17:28:14		x: -0.56802434	y: 8.342596	z: 4.5447936
17:28:14		x: -0.06344634	y: 6.602011	z: -4.4657845
17:28:15		x: 5.835268	y: 5.713164	z: 4.75668
17:28:15		x: 0.3429694	y: 8.356362	z: 3.3746274
17:28:15		x: 0.878672	y: 8.8364	z: 3.1489737
17:28:15		x: 1.4927847	y: 9.591172	z: 1.8177977
17:28:15		x: 1.3856442	y: 9.486425	z: 1.6430209
17:28:15		x: 1.4879963	y: 8.822633	z: -1.1575965
17:28:16		x: 1.5394717	y: 9.897031	z: 1.7543513
17:28:16		x: 1.4269443	y: 9.037513	z: 1.4909891
17:28:16		x: 1.8908207	y: 9.695918	z: 1.4197617
17:28:16		x: 1.5113398	y: 9.53012	z: 1.6226702
17:28:16		x: 2.0416555	y: 9.56723	z: 1.881244
17:28:17		x: 0.0664391	y: 6.7983356	z: 3.1202433
17:28:17		x: 3.205836	y: 9.275137	z: 2.1829133
17:28:17		x: 1.939902	y: 10.633248	z: -0.10654198
17:28:17		x: 2.4672248	y: 9.983223	z: 1.963844
17:28:17		x: -1.3958195	y: 12.58991	z: -2.8293478
17:28:17		x: -1.3772645	y: 7.345411	z: 0.40102878
17:28:18		x: -3.5811272	y: 9.144054	z: 3.6343982
17:28:18		x: -2.878429	y: 6.6205664	z: 5.1613
17:28:18		x: -1.4508862	y: 3.5571852	z: 8.723274
17:28:18		x: 0.16400282	y: 1.6160861	z: 10.746973
17:28:18		x: 0.13467385	y: 1.6490064	z: 9.8683
17:28:19		x: -1.5298948	y: 1.951873	z: 10.42196
17:28:19		x: -1.0372878	y: 2.291251	z: 10.004171
17:28:19		x: -0.32680854	y: 2.4672248	z: 9.881469
17:28:19		x: 0.18435353	y: 2.5127146	z: 9.766547
17:28:19		x: -0.14724341	y: 2.7042508	z: 9.513959
17:28:19		x: 0.29508537	y: 2.5384524	z: 10.136452
17:28:20		x: 0.10534488	y: 2.7670987	z: 9.437943
17:28:20		x: -0.15203181	y: 2.7868507	z: 9.920375
