14 1:255.528801554 2:254.896189585 3:255.317201606 4:0.19768750273 5:0.0390803487356 6:0.187351868554 7:-0.158022705466 8:-1.14723045878e-15 9:0.104422597285 10:0.0109040788237 11:0.18609356189 12:-0.163028545204 13:-3.51570624465e-15 14:0.106258495191 15:0.0112908678002 16:0.273694699248 17:-0.264383697126 18:-5.75465601097e-15 19:0.166201048561 20:0.0276227885428 21:0.0861817954444 22:-0.0910850243155 23:-3.88578058619e-16 24:0.0544871415938 25:0.00296884859906 26:0.0381921618402 27:-0.0385157397521 28:0.000333860020133 29:0.026163457301 30:0.000684526497939 
14 1:254.886029657 2:254.886029657 3:254.886029657 4:0.0 5:0.0 6:-1.79856129989e-14 7:-1.79856129989e-14 8:-1.79856129989e-14 9:0.0 10:0.0 11:-6.66133814775e-15 12:-6.66133814775e-15 13:-6.66133814775e-15 14:0.0 15:0.0 16:1.44328993201e-15 17:1.44328993201e-15 18:1.44328993201e-15 19:0.0 20:0.0 21:-1.33226762955e-15 22:-1.33226762955e-15 23:-1.33226762955e-15 24:0.0 25:0.0 26:-3.88578058619e-15 27:-3.88578058619e-15 28:-3.88578058619e-15 29:0.0 30:0.0 
14 1:258.987999271 2:258.09259757 3:258.383271193 4:0.282231377135 5:0.0796545502394 6:0.303696667729 7:-0.314549931576 8:-4.88498130835e-15 9:0.200012506478 10:0.0400050027476 11:0.303870952073 12:-0.343860093577 13:-3.81176571788e-15 14:0.232980133902 15:0.0542797427931 16:0.471428679101 17:-0.440387801906 18:1.35077134663e-15 19:0.284895287476 20:0.0811653248258 21:0.857840977728 22:-0.762325001428 23:-0.0435906005268 24:0.504899391201 25:0.254923395235 26:0.174485875484 27:-0.119405502345 28:-0.0348971750969 29:0.108571911271 30:0.0117878599171 
