13:03:41		x: 943.56
13:03:42		x: 943.63
13:03:42		x: 943.61
13:03:42		x: 943.63
13:03:42		x: 943.58
13:03:42		x: 943.64
13:03:43		x: 943.64
13:03:43		x: 943.64
13:03:43		x: 943.65
13:03:43		x: 943.63
13:03:43		x: 943.6
13:03:43		x: 943.62
13:03:44		x: 943.65
13:03:44		x: 943.67
13:03:44		x: 943.64
13:03:44		x: 943.65
13:03:44		x: 943.59
13:03:45		x: 943.63
13:03:45		x: 943.61
13:03:45		x: 943.57
13:03:45		x: 943.59
