18:46:46		x: -0.25737667	y: 0.6428431	z: 8.258799
18:46:46		x: 4.624999	y: -0.5398925	z: 9.148245
18:46:46		x: 12.322357	y: -1.4383167	z: 10.214862
18:46:46		x: 12.479177	y: 0.08499416	z: -3.425504
18:46:47		x: 8.756194	y: -3.1824925	z: 1.7142484
18:46:47		x: 9.221867	y: 2.0362685	z: -0.1352724
18:46:47		x: 14.289793	y: -6.4745197	z: 0.87328506
18:46:47		x: 7.1245456	y: -6.0758853	z: 1.115698
18:46:47		x: 5.627571	y: -8.489241	z: 0.45010993
18:46:48		x: 4.2730513	y: -8.78672	z: 0.35673606
18:46:48		x: 3.1723173	y: -8.616134	z: -1.6334441
18:46:48		x: 1.4867992	y: -13.507487	z: -0.05746084
18:46:48		x: 1.7357962	y: -7.61835	z: -4.7279496
18:46:48		x: 0.4818331	y: -9.107543	z: -0.85173726
18:46:48		x: 5.0146556	y: -8.79091	z: -1.1001357
18:46:49		x: 4.5358152	y: -6.747459	z: -4.583101
18:46:49		x: 7.5644803	y: -13.882778	z: -4.787206
18:46:49		x: -1.5939398	y: -2.939481	z: -2.1631613
18:46:49		x: 17.764977	y: -18.890251	z: -2.4642322
18:46:49		x: 4.674679	y: -0.52073884	z: -0.39564183
18:46:50		x: 7.4962454	y: -19.608511	z: -8.340201
18:46:50		x: -2.5851393	y: -3.6326025	z: -1.1312603
18:46:50		x: 14.985907	y: -19.594147	z: 6.7402763
18:46:50		x: 5.3737855	y: 0.878672	z: -2.9454668
18:46:50		x: 9.892841	y: -19.608511	z: -6.7570357
18:46:50		x: -2.2541409	y: -5.752668	z: -4.189853
18:46:51		x: 19.607914	y: -19.608511	z: -0.6865373
18:46:51		x: 0.02633622	y: -0.42916065	z: -2.64679
18:46:51		x: 9.120112	y: -12.832921	z: -4.246715
18:46:51		x: 0.272939	y: -7.2568254	z: -2.0254946
18:46:51		x: 19.607914	y: -19.608511	z: 14.818912
18:46:52		x: -1.3395559	y: 0.41359833	z: -3.210026
18:46:52		x: 10.635044	y: -7.5531077	z: -1.9937714
18:46:52		x: 4.851251	y: -15.499463	z: -10.320805
18:46:52		x: 2.7647045	y: -19.608511	z: -18.81603
18:46:52		x: -3.7882257	y: 0.8984242	z: 0.18435353
18:46:52		x: 5.1996074	y: 1.0007763	z: 1.809418
18:46:53		x: 6.8013287	y: -16.885107	z: -12.348694
18:46:53		x: -1.1731589	y: -19.608511	z: -19.608511
18:46:53		x: -1.5035586	y: -0.8439561	z: -0.1352724
18:46:53		x: -5.8358665	y: 5.591658	z: 1.2354081
18:46:53		x: 14.908095	y: -13.441049	z: -14.946403
18:46:53		x: -6.302736	y: -17.492636	z: -15.940595
18:46:54		x: -0.5943606	y: 0.19632454	z: -1.804031
18:46:54		x: -5.4617724	y: 5.21936	z: 3.7499185
18:46:54		x: 15.468339	y: -9.282919	z: -11.227011
18:46:54		x: 9.425972	y: -12.975376	z: -8.780136
18:46:54		x: 1.009156	y: -4.098873	z: -2.7455509
18:46:55		x: -3.6044707	y: 2.6605566	z: 7.442376
18:46:55		x: 7.3609734	y: -2.8640637	z: 2.1799207
18:46:55		x: 10.458471	y: -11.431116	z: -6.043564
18:46:55		x: 0.78410107	y: -6.7863646	z: -0.5279215
18:46:55		x: -1.027711	y: 2.7850552	z: 5.6976013
18:46:55		x: 11.871051	y: -6.31351	z: -3.1292217
18:46:56		x: 8.282143	y: -13.229161	z: -8.550891
18:46:56		x: -0.8774749	y: -4.5914803	z: -2.9670146
18:46:56		x: -5.2702365	y: 3.309984	z: 9.269751
18:46:56		x: 14.657902	y: -11.373056	z: -11.325172
18:46:56		x: -7.2328835	y: -15.230714	z: -8.736442
18:46:57		x: 0.088585466	y: -3.8133647	z: -2.0506337
18:46:57		x: -2.9771898	y: 4.614824	z: 2.7114334
18:46:57		x: 8.561067	y: -6.4266357	z: 13.959991
18:46:57		x: 4.2060137	y: -5.9621606	z: -3.6445735
18:46:57		x: 2.0638018	y: -10.261548	z: -1.4083891
18:46:57		x: -1.7399861	y: 3.425504	z: 9.8916445
18:46:58		x: 2.8568811	y: -12.087128	z: 11.188105
18:46:58		x: 12.096106	y: -7.1622543	z: -7.627328
18:46:58		x: -1.0360907	y: -6.9731126	z: -2.819771
18:46:58		x: -2.6611552	y: 3.6529531	z: 3.1064768
18:46:58		x: -17.68118	y: -12.747927	z: 11.428721
18:46:59		x: 0.25677812	y: -9.9951935	z: -3.7187939
18:46:59		x: -0.10295067	y: -4.9787426	z: -0.60333884
18:46:59		x: -2.565387	y: 3.390788	z: 2.5300727
18:46:59		x: 7.615357	y: -10.040684	z: -3.429694
18:46:59		x: 17.122133	y: -19.608511	z: -6.1345434
18:46:59		x: 0.12210429	y: -1.3054385	z: -4.0880995
18:47:00		x: 10.075998	y: -19.608511	z: -1.9243397
18:47:00		x: 4.7494974	y: -2.7856536	z: -2.594716
18:47:00		x: 6.715137	y: -15.610794	z: 0.5446809
18:47:00		x: 5.0930657	y: -8.127118	z: -3.0669725
18:47:00		x: 2.7473464	y: -15.521609	z: 0.42437226
18:47:01		x: 2.493561	y: -4.4304705	z: 0.9708488
18:47:01		x: 2.9891608	y: -8.329428	z: -3.554791
18:47:01		x: 2.0350714	y: -10.5440645	z: 0.5081693
18:47:01		x: 2.428319	y: -7.615956	z: -1.6472107
18:47:01		x: 3.3476925	y: -10.240001	z: -2.557606
18:47:01		x: 7.4226236	y: -12.287044	z: -1.2294226
18:47:02		x: 5.318719	y: -6.777985	z: -3.8402996
18:47:02		x: 10.718841	y: -3.639785	z: 5.0403934
18:47:02		x: 4.1138372	y: -5.7658362	z: 7.104195
18:47:02		x: 3.6601357	y: 0.6655881	z: 8.683769
18:47:02		x: -0.018555064	y: 3.7307649	z: 8.529344
18:47:03		x: 0.39923313	y: 4.3568487	z: 8.989629
18:47:03		x: 1.0618285	y: 6.365584	z: 6.497265
18:47:03		x: 1.5155296	y: 5.315128	z: 7.363966
18:47:03		x: 0.47285482	y: 4.3676224	z: 10.074203
18:47:03		x: 0.700304	y: 4.6950297	z: 9.081805
18:47:03		x: 0.35075054	y: 5.2480903	z: 8.554482
18:47:04		x: 0.09636662	y: 5.3737855	z: 8.073248
18:47:04		x: 0.09636662	y: 5.45459	z: 8.2995
18:47:04		x: 0.1400608	y: 5.605425	z: 8.282741
18:47:04		x: -0.26156655	y: 5.946	z: 7.5824366
