5 1:-67.5069033413 2:-134.946851504 3:-112.55717052 4:23.0622024307 5:531.865180956 6:17.3780019558 7:-21.7878227961 8:1.55431223448e-15 9:12.2141942948 10:149.186542271 11:8.72511271547 12:-7.00276722676 13:0.905678876912 14:5.2549435176 15:27.6144313732 16:12.7191024704 17:-11.5486556244 18:0.421794307262 19:6.41848044893 20:41.1968912732 21:9.26910037356 22:-31.960390607 23:-5.35442154981 24:10.9136968311 25:119.10877852 26:39.7873533836 27:-31.0899592586 28:1.46938513811 29:24.2679358027 30:588.932708125 
5 1:-6.09848561918 2:-149.208933265 3:-101.829222422 4:48.9144276139 5:2392.62122879 6:42.3862075023 7:-54.7073806286 8:4.69465736127e-15 9:28.8507095459 10:832.363441304 11:22.8270845978 12:-21.0279404055 13:1.17695247475 14:12.812237501 15:164.153429782 16:12.3539050965 17:-12.2346452305 18:0.626384701971 19:6.55010556744 20:42.9038829446 21:8.15434718746 22:-36.4389714841 23:-5.87484488932 24:12.5718169985 25:158.050582645 26:47.580892457 27:-34.8802106209 28:1.13137888266 29:28.3420075284 30:803.26939074 
5 1:-87.3139360275 2:-104.90724144 3:-93.4121188055 4:5.91882143115 5:35.0324471339 6:5.5902322554 7:-4.11998574188 8:5.70971841236e-16 9:2.94976245382 10:8.70109853399 11:9.02639995098 12:-4.34279735073 13:1.20821739926 14:4.09109558153 15:16.7370630572 16:5.51919708542 17:-4.07498950419 18:-0.679545174506 19:2.9031552341 20:8.42831031327 21:9.60103048474 22:-45.838390947 23:-7.58030618045 24:15.8320429358 25:250.653583522 26:36.2201885966 27:-25.2940956142 28:2.30408347395 29:16.7533699029 30:280.675403104 
5 1:-78.9173720164 2:-110.667681076 3:-89.3043568336 4:10.8588010686 5:117.913560648 6:16.6497433229 7:-12.430783444 8:2.72797657479e-15 9:8.23358857224 10:67.791980777 11:6.93307253625 12:-6.44195517083 13:-0.213134455095 14:3.77045482972 15:14.216329623 16:4.80952771792 17:-4.75987197966 18:0.500223528404 19:2.79739403565 20:7.82541339068 21:10.8290648959 22:-9.28098018324 23:1.26132310318 24:6.0393007666 25:36.4731537494 26:27.0187936317 27:-37.2595615626 28:-0.472951670891 29:20.9909327922 30:440.619259487 
5 1:-67.4556157399 2:-108.636535282 3:-81.417900824 4:14.0836203737 5:198.348362831 6:8.04254461865 7:-9.33006147445 8:-4.4408920985e-16 9:4.86788846469 10:23.6963381047 11:9.71875178581 12:-7.97666901977 13:6.34413156929e-16 14:5.82853373173 15:33.971805462 16:2.52652253489 17:-2.50413839659 18:-0.327208012294 19:1.59164460247 20:2.53333254056 21:29.9145081936 22:-20.0504568651 23:2.36750927613 24:15.6799762209 25:245.861654289 26:18.4571923559 27:-22.2858591189 28:-0.191054219264 29:12.6783458572 30:160.740453674 
