13:38:02		x: -25.466	y: 120.129	z: -4.748
13:38:03		x: -25.466	y: 120.613	z: -4.748
13:38:03		x: -26.264	y: 121.023	z: -4.748
13:38:03		x: -27.799	y: 121.023	z: -5.088
13:38:03		x: -28.585	y: 120.602	z: -4.321
13:38:03		x: -29.351	y: 120.602	z: -4.321
13:38:03		x: -35.615	y: 115.737	z: -4.321
13:38:04		x: -36.799	y: 114.474	z: -4.745
13:38:04		x: -33.949	y: 118.823	z: -4.04
13:38:04		x: -31.932	y: 120.396	z: -4.826
13:38:04		x: -24.188	y: 129.045	z: -4.335
13:38:04		x: -23.835	y: 124.919	z: 45.448
13:38:05		x: -12.17	y: 81.956	z: 62.997
13:38:05		x: -21.888	y: 41.41	z: 60.194
13:38:05		x: -21.337	y: -19.464	z: -14.744
13:38:05		x: -19.311	y: -21.882	z: -20.826
13:38:05		x: -29.278	y: -12.278	z: 9.107
13:38:05		x: -24.85	y: 0.3	z: 13.533
13:38:06		x: -26.892	y: -0.685	z: 14.082
13:38:06		x: -26.892	y: 3.086	z: 12.097
13:38:06		x: -22.738	y: 8.796	z: 10.159
13:38:06		x: -14.608	y: 10.003	z: 16.67
13:38:06		x: -8.531	y: 13.114	z: 16.67
13:38:07		x: 4.277	y: 19.055	z: 11.056
13:38:07		x: 5.209	y: 19.055	z: 12.214
13:38:07		x: 13.148	y: 16.302	z: 9.361
13:38:07		x: 12.239	y: 16.636	z: 10.252
13:38:07		x: 7.563	y: 15.754	z: 15.257
13:38:07		x: 4.414	y: 14.686	z: 18.014
13:38:08		x: -0.076	y: 12.788	z: 20.043
13:38:08		x: -0.921	y: 13.838	z: 19.519
13:38:08		x: -1.536	y: 12.907	z: 20.153
13:38:08		x: -3.715	y: 12.585	z: 20.487
13:38:08		x: 5.903	y: 11.639	z: 18.19
13:38:09		x: 12.052	y: 10.894	z: 14.82
13:38:09		x: 18.902	y: 8.599	z: 5.097
13:38:09		x: 15.307	y: 9.854	z: 10.45
13:38:09		x: 15.307	y: 11.52	z: 7.777
13:38:09		x: 13.38	y: 11.52	z: 9.091
13:38:09		x: 10.423	y: 13.092	z: 11.218
13:38:10		x: 9.336	y: 12.673	z: 12.246
13:38:10		x: 9.832	y: 12.673	z: 13.146
13:38:10		x: 9.132	y: 10.331	z: 16.487
13:38:10		x: 7.791	y: 9.706	z: 17.835
13:38:10		x: 5.812	y: 9.706	z: 19.834
13:38:11		x: 2.742	y: 9.706	z: 20.863
13:38:11		x: 1.393	y: 9.706	z: 21.392
13:38:11		x: -2.088	y: 10.356	z: 20.242
13:38:11		x: -13.143	y: 18.103	z: 7.33
13:38:11		x: 0.779	y: 18.859	z: 7.637
13:38:11		x: 4.463	y: 13.291	z: 15.032
13:38:12		x: -5.01	y: 20.242	z: -2.374
13:38:12		x: 0.564	y: 23.571	z: 1.623
13:38:12		x: 3.007	y: 22.676	z: -0.115
13:38:12		x: -5.073	y: 19.737	z: -2.319
13:38:12		x: -12.677	y: 5.198	z: 2.766
13:38:12		x: -15.286	y: -2.174	z: 23.863
13:38:13		x: -14.895	y: -14.251	z: 26.602
13:38:13		x: -18.417	y: -8.888	z: 58.412
13:38:13		x: -10.586	y: 23.132	z: 59.667
13:38:13		x: -4.856	y: 36.984	z: 58.09
13:38:13		x: -0.013	y: 45.254	z: 59.304
13:38:14		x: -6.732	y: 39.068	z: 63.598
13:38:14		x: -11.299	y: 44.192	z: 63.598
13:38:14		x: -14.903	y: 54.801	z: 71.093
13:38:14		x: -34.487	y: 109.297	z: 56.84
13:38:14		x: -15.658	y: 122.323	z: -10.6
13:38:14		x: -15.658	y: 120.806	z: -6.364
13:38:15		x: -15.658	y: 120.106	z: -4.949
