8 1:275.640646328 2:275.097217484 3:275.461868973 4:0.170878371499 5:0.0291994178462 6:0.167585654401 7:-0.164342683668 8:-4.36687723019e-15 9:0.109394654653 10:0.0119671904666 11:0.198517822757 12:-0.152695822123 13:-3.25665420557e-15 14:0.108498737657 15:0.0117719760732 16:0.476203833713 17:-0.494538569233 18:-1.96139401017e-15 19:0.294859543323 20:0.0869421502886 21:0.600543638101 22:-0.615206435715 23:-2.70154269325e-15 24:0.367153288464 25:0.13480153723 26:0.0953857729872 27:-0.138161721442 28:0.00839263386957 29:0.0740245386278 30:0.00547963231906 
8 1:274.870971643 2:274.870971643 3:274.870971643 4:0.0 5:0.0 6:-6.66133814775e-15 7:-6.66133814775e-15 8:-6.66133814775e-15 9:0.0 10:0.0 11:8.65973959208e-15 12:8.65973959208e-15 13:8.65973959208e-15 14:0.0 15:0.0 16:-6.88338275268e-15 17:-6.88338275268e-15 18:-6.88338275268e-15 19:0.0 20:0.0 21:4.4408920985e-16 22:4.4408920985e-16 23:4.4408920985e-16 24:0.0 25:0.0 26:1.11022302463e-16 27:1.11022302463e-16 28:1.11022302463e-16 29:0.0 30:0.0 
8 1:279.034028958 2:276.980222927 3:277.664388939 4:0.642630294735 5:0.412973695711 6:0.539216631857 7:-0.61659953185 8:-2.59052039079e-15 9:0.352666672665 10:0.124373782009 11:0.528474369513 12:-0.632475094486 13:-6.10622663544e-15 14:0.350374241007 15:0.122762108761 16:1.06833171446 17:-1.07416437361 18:-4.4408920985e-16 19:0.647804781927 20:0.419651035488 21:0.469428899828 22:-0.389759811417 23:-2.27595720048e-15 24:0.310663755643 25:0.0965119690703 26:0.319093873708 27:-0.350555779116 28:0.0210317822888 29:0.212453275004 30:0.0451363940598 
8 1:281.770580198 2:280.777140332 3:281.10762058 4:0.31103855449 5:0.0967449823794 6:0.265468179941 7:-0.298250528399 8:-1.31006316906e-14 9:0.173293265233 10:0.030030555775 11:0.263607047739 12:-0.315601431187 13:-1.02880666949e-14 14:0.174801934523 15:0.0305557163129 16:0.57687188723 17:-0.575592604882 18:-3.47869881049e-15 19:0.347564380732 20:0.120800998753 21:0.351026753483 22:-0.321433309873 23:-2.23894976633e-15 24:0.212833546521 25:0.0452981185247 26:0.141540663468 27:-0.164342218369 28:-0.00706833952735 29:0.107515949969 30:0.0115596794977 
8 1:282.51809955 2:282.51809955 3:282.51809955 4:0.0 5:0.0 6:3.5527136788e-15 7:3.5527136788e-15 8:3.5527136788e-15 9:0.0 10:0.0 11:-2.22044604925e-15 12:-2.22044604925e-15 13:-2.22044604925e-15 14:0.0 15:0.0 16:-9.54791801178e-15 17:-9.54791801178e-15 18:-9.54791801178e-15 19:0.0 20:0.0 21:-4.99600361081e-15 22:-4.99600361081e-15 23:-4.99600361081e-15 24:0.0 25:0.0 26:-5.10702591328e-15 27:-5.10702591328e-15 28:-5.10702591328e-15 29:0.0 30:0.0 
8 1:282.51809955 2:282.51809955 3:282.51809955 4:0.0 5:0.0 6:3.5527136788e-15 7:3.5527136788e-15 8:3.5527136788e-15 9:0.0 10:0.0 11:-2.22044604925e-15 12:-2.22044604925e-15 13:-2.22044604925e-15 14:0.0 15:0.0 16:-9.54791801178e-15 17:-9.54791801178e-15 18:-9.54791801178e-15 19:0.0 20:0.0 21:-4.99600361081e-15 22:-4.99600361081e-15 23:-4.99600361081e-15 24:0.0 25:0.0 26:-5.10702591328e-15 27:-5.10702591328e-15 28:-5.10702591328e-15 29:0.0 30:0.0 
