18:17:54		x: -0.03848451	y: 0.122783914	z: 0.004581489
18:17:54		x: -0.053145275	y: -0.049480084	z: -0.015577064
18:17:54		x: -0.033292156	y: -0.011911872	z: -0.004276057
18:17:54		x: 0.009468411	y: -0.030848695	z: -0.0018325958
18:17:55		x: -0.014966198	y: -0.0018325958	z: -0.007330383
18:17:55		x: -0.02076942	y: -0.026267206	z: -0.016187929
18:17:55		x: -0.023823744	y: -0.070249505	z: -0.00580322
18:17:55		x: -0.018020526	y: 0.013439035	z: 0.0061086523
18:17:55		x: -0.007330383	y: -0.020463986	z: 0.013439035
18:17:55		x: -0.03481932	y: -0.027183503	z: -0.011301007
18:17:56		x: -0.003970624	y: -0.0290161	z: 0.032375857
18:17:56		x: -0.012217305	y: -0.13744467	z: 0.014660766
18:17:56		x: -0.42332962	y: 0.0015271631	z: -0.0021380284
18:17:56		x: 0.28099802	y: 0.18325958	z: 0.06872234
18:17:56		x: -0.086132	y: 0.049480084	z: -0.07422013
18:17:57		x: -0.03023783	y: -0.025350908	z: -0.03573562
18:17:57		x: 0.15271631	y: -0.016187929	z: -0.090713486
18:17:57		x: -0.027794369	y: -0.087659165	z: -0.032375857
18:17:57		x: -0.0106901415	y: -0.0021380284	z: 0.009468411
18:17:57		x: -0.0571159	y: -0.0021380284	z: 0.01740966
18:17:57		x: 0.015882496	y: 0.008552114	z: -0.0018325958
18:17:58		x: -0.033292156	y: -0.028710667	z: -0.018020526
18:17:58		x: 0.01740966	y: 0.0033597588	z: -0.02687807
18:17:58		x: -0.022907447	y: -0.012217305	z: -0.018936822
18:17:58		x: -0.043066	y: -0.037873644	z: -0.021685716
18:17:58		x: 0.0106901415	y: -0.043066	z: -0.018020526
18:17:58		x: -0.037873644	y: 0.010995574	z: -0.005497787
18:17:59		x: 0.02321288	y: -0.02076942	z: -0.003970624
18:17:59		x: -0.027488936	y: -0.0125227375	z: -0.02443461
18:17:59		x: -0.019547688	y: -0.008857546	z: 0.008246681
18:17:59		x: -0.054061573	y: 0.008552114	z: -0.011911872
18:17:59		x: -0.009468411	y: -0.03176499	z: -0.010995574
18:18:00		x: 0.008246681	y: 0.03145956	z: -0.020158553
18:18:00		x: -0.02443461	y: -0.0125227375	z: -0.011301007
18:18:00		x: 0.018325957	y: -0.011911872	z: 0.009773844
18:18:00		x: -0.069027774	y: 0.007941248	z: 0.0021380284
18:18:00		x: 0.051923547	y: -0.02107485	z: -0.012217305
18:18:00		x: -0.05681047	y: -0.017104227	z: -0.022907447
18:18:01		x: -0.02076942	y: 0.056505036	z: -0.015271631
18:18:01		x: 0.032986723	y: -0.0290161	z: -0.02321288
18:18:01		x: 0.076052725	y: 0.038179077	z: -0.04550946
18:18:01		x: 0.22388211	y: -0.034513887	z: 0.015577064
18:18:01		x: -0.30695978	y: 0.06719518	z: -0.009773844
18:18:02		x: 0.082161374	y: -0.06841691	z: 0.004276057
18:18:02		x: -0.07513642	y: -0.03268129	z: -0.025045475
18:18:02		x: -0.03604105	y: -0.015882496	z: -0.0036651916
18:18:02		x: 0.038179077	y: -0.04337143	z: -0.0070249503
18:18:02		x: -0.045814894	y: 0.031154128	z: -0.019547688
18:18:02		x: 0.04337143	y: -0.002443461	z: -0.01985312
18:18:03		x: -0.04520403	y: 0.030848695	z: 0.0
18:18:03		x: 0.03481932	y: -0.029626964	z: -0.004276057
18:18:03		x: 0.038179077	y: 0.023823744	z: -9.162979E-4
18:18:03		x: -0.016493361	y: -0.003970624	z: 0.0027488936
18:18:03		x: -0.016798794	y: -0.014049901	z: -0.026267206
18:18:04		x: 0.0033597588	y: 0.010995574	z: -0.0061086523
18:18:04		x: 0.019547688	y: 6.1086525E-4	z: -0.0125227375
