8 1:5325.50918743 2:5325.45507293 3:5325.47310561 4:0.0169253579011 5:0.000286467740081 6:0.0141071339477 7:-0.0163837115455 8:-8.52651282912e-14 9:0.00925623178668 10:8.56778268887e-05 11:0.0130025536816 12:-0.0160269128671 13:-3.49350178415e-14 14:0.00878028362408 15:7.70933805192e-05 16:0.0247372276912 17:-0.0249667233464 18:-5.92118946467e-14 19:0.0150631334132 20:0.000226897988225 21:0.0094274073628 22:-0.00732439371766 23:-2.93098878501e-14 24:0.0053108674846 25:2.8205313439e-05 26:0.0468702343612 27:-0.0450507781671 28:0.00253371495127 29:0.0290743409725 30:0.000845317302987 
8 1:5325.41978104 2:5325.41801537 3:5325.41921597 4:0.000609490983061 5:3.71479258433e-07 6:0.0027740336793 7:-0.00256655065198 8:-2.48689957516e-13 9:0.00172627981183 10:2.98004198872e-06 11:0.00210780708295 12:-0.00172926985904 13:-7.57912251477e-14 14:0.00152816873146 15:2.33529967182e-06 16:0.0106801874789 17:-0.0116914202134 18:-8.40808903983e-14 19:0.00722869824194 20:5.22540782731e-05 21:0.0269202208333 22:-0.0271975402275 23:-6.48370246381e-14 24:0.0162945312516 25:0.00026551174871 26:0.0156570962351 27:-0.0245093909379 28:0.000535216684735 29:0.0137275582396 30:0.000188445855223 
8 1:5325.7225 2:5325.62919983 3:5325.66016928 4:0.0292274990694 5:0.000854246701854 6:0.0255319467001 7:-0.0283350550226 8:-2.08425869156e-13 9:0.0166587358521 10:0.000277513480191 11:0.0240094147724 12:-0.0298720519196 13:5.92118946467e-16 14:0.0163370422489 15:0.000266898949443 16:0.0569405939342 17:-0.0562358172837 18:-1.592799966e-13 19:0.0340976014552 20:0.001162646425 21:0.0426152069006 22:-0.0384141975718 23:-4.02640883597e-14 24:0.0258639286738 25:0.000668942806444 26:0.0264593006276 27:-0.0356044112413 28:0.00196135986831 29:0.0236191541065 30:0.000557864440709 
8 1:5325.46449697 2:5325.42356548 3:5325.43746568 4:0.0127320742637 5:0.000162105715057 6:0.00818286654974 7:-0.011805352396 8:3.90798504668e-14 9:0.00657743588261 10:4.32626627898e-05 11:0.00878371692402 12:-0.00878785145345 13:5.92118946467e-16 14:0.00592754660878 15:3.51358087993e-05 16:0.0115985604512 17:-0.0125886440144 18:-7.40148683083e-14 19:0.00749096873727 20:5.61146126228e-05 21:0.0534113477398 22:-0.0513087484037 23:4.73695157173e-15 24:0.0319724967057 25:0.00102224054559 26:0.0395930048755 27:-0.0414363273052 28:0.00247003759636 29:0.0257567603882 30:0.000663410705694 
8 1:5325.31191821 2:5325.27918934 3:5325.30116686 4:0.0102959594291 5:0.000106006780566 6:0.0101554808754 7:-0.0100407361618 8:-1.85925349191e-13 9:0.00670689216827 10:4.49824025568e-05 11:0.0120575547979 12:-0.00909897613769 13:-5.21064672891e-14 14:0.00660979185862 15:4.36893484143e-05 16:0.0294254599065 17:-0.0306716181912 18:-2.72374715375e-14 19:0.0182959907277 20:0.000334743276707 21:0.0397249533571 22:-0.0414026091942 23:-4.79616346638e-14 24:0.024600813971 25:0.000605200048035 26:0.0239896994096 27:-0.0319676445805 28:-0.000118569938034 29:0.0165202691368 30:0.000272919292353 
8 1:5325.09450139 2:5324.79523858 3:5324.99459199 4:0.0935795219576 5:0.00875712692981 6:0.0890266001104 7:-0.0765761930032 8:-9.00020798629e-14 9:0.0502703150831 10:0.00252710457855 11:0.0905772497593 12:-0.0780701581992 13:-1.65793305011e-14 14:0.0510870092604 15:0.00260988251517 16:0.145248732153 17:-0.142500407495 18:1.06581410364e-14 19:0.0876573467881 20:0.00768381044594 21:0.0256613067361 22:-0.0410410538972 23:-2.22044604925e-14 24:0.0262672822883 25:0.000689970118815 26:0.0723800331534 27:-0.0551376025893 28:0.00178751556864 29:0.0413707703839 30:0.00171154064215 
8 1:5324.85205306 2:5324.69076446 3:5324.74459665 4:0.0504403028092 5:0.00254422414748 6:0.0414121506005 7:-0.047994674423 8:-1.75267208154e-13 9:0.0271638766599 10:0.000737876195193 11:0.0422412843321 12:-0.0490668422775 13:-7.69754630407e-15 14:0.0276511334256 15:0.00076458517972 16:0.0784170677935 17:-0.0797557630354 18:-1.66977542904e-13 19:0.0481130816123 20:0.00231486862223 21:0.0273680460553 22:-0.0192604974046 23:3.34547204754e-14 24:0.0191263732481 25:0.000365818153627 26:0.034230064735 27:-0.0236399276127 28:-0.000619476895551 29:0.0201372106151 30:0.000405507251356 
8 1:5324.81147028 2:5324.75403737 3:5324.7733717 4:0.0179124653913 5:0.000320856416396 6:0.013187841064 7:-0.0166480662283 8:-4.38168020385e-14 9:0.00905116055071 10:8.19235073147e-05 11:0.0147914380567 12:-0.0156163464856 13:-5.80276567537e-14 14:0.00968672130951 15:9.38325697281e-05 16:0.0145824436211 17:-0.0165126651214 18:-4.73695157173e-14 19:0.0112206799012 20:0.000125903657446 21:0.0262014207091 22:-0.0247726129895 23:-2.54611146981e-14 24:0.0158073690761 25:0.000249872917108 26:0.0248192045842 27:-0.0252288254482 28:-0.00118291337623 29:0.0188201613306 30:0.000354198472511 
8 1:5324.65784124 2:5324.47106089 3:5324.59548445 4:0.0584125945263 5:0.00341203119929 6:0.0554029568071 7:-0.0478412310407 8:-2.55795384874e-13 9:0.0313764680033 10:0.000984482744363 11:0.0571353868218 12:-0.049688713342 13:-3.5527136788e-14 14:0.0324283482653 15:0.00105159777121 16:0.0937198840861 17:-0.0920398716769 18:-6.51330841113e-15 19:0.0565378234011 20:0.00319652547493 21:0.0244897510161 22:-0.0309934198692 23:4.23365046724e-14 24:0.0217963651571 25:0.00047508153406 26:0.0568708907961 27:-0.0555765634284 28:0.00281961189742 29:0.0352775441415 30:0.00124450512066 
8 1:5324.45966954 2:5324.38883741 3:5324.41254865 4:0.0221236004366 5:0.000489453696277 6:0.0174625293359 7:-0.0211121762473 8:-7.93439388265e-14 9:0.0116441929041 10:0.000135587228388 11:0.0171217104325 12:-0.0199349426909 13:4.14483262527e-15 14:0.0112228080889 15:0.0001259514214 16:0.0245409700824 17:-0.0257744044074 18:-3.49350178415e-14 19:0.0158378141351 20:0.000250836356578 21:0.015951801948 22:-0.0141046800017 23:-5.95079541199e-14 24:0.0112185793012 25:0.000125856521537 26:0.0392313570444 27:-0.0415484424139 28:0.00241333557249 29:0.0249845505558 30:0.000624227766474 
8 1:5324.3477366 2:5324.33052594 3:5324.34215169 4:0.00543785488287 5:2.95702657272e-05 6:0.00556521066265 7:-0.00591632688692 8:-1.78819921833e-13 9:0.00411636263451 10:1.69444413388e-05 11:0.00695978437716 12:-0.00464496413659 13:-4.38168020385e-14 14:0.00405339587103 15:1.64300180873e-05 16:0.019641363297 17:-0.0208936849456 18:-3.84877315203e-14 19:0.0125650752552 20:0.000157881116168 21:0.0322685005311 22:-0.0334109197557 23:-8.58572472377e-15 24:0.019867072946 25:0.000394700587442 26:0.019745519822 27:-0.0211763225419 28:-0.000949437963461 29:0.0151957805137 30:0.000230911745421 
8 1:5324.26369057 2:5324.13724241 3:5324.22149898 4:0.0395476230699 5:0.00156401449048 6:0.0376773944967 7:-0.032576089844 8:-1.69346018689e-13 9:0.0213570203004 10:0.000456122316111 11:0.0385384401205 12:-0.0330298734849 13:-4.79616346638e-14 14:0.0216540120815 15:0.000468896239224 16:0.0630671568158 17:-0.0621209550145 18:-1.66385423957e-13 19:0.0380365819166 20:0.0014467815639 21:0.0164313236357 22:-0.0216705464605 23:-6.2172489379e-14 24:0.0155668790029 25:0.000242327721891 26:0.0155050229758 27:-0.0231099125798 28:0.000219211507932 29:0.012810443237 30:0.000164107455928 
8 1:5324.21748286 2:5324.02358748 3:5324.15241697 4:0.0605297609543 5:0.00366385196118 6:0.0568396898468 7:-0.0464547839575 8:-2.25005199657e-13 9:0.0311880358015 10:0.000972693577156 11:0.0547493548994 12:-0.0497696796472 13:-1.11910480882e-13 14:0.0323600246551 15:0.00104717119568 16:0.0691270278492 17:-0.0644304216976 18:-1.24344978758e-14 19:0.0433293859647 20:0.00187743568808 21:0.0422379500939 22:-0.049144573723 23:-6.92779167366e-14 24:0.0317811593749 25:0.00101004209121 26:0.0305075362342 27:-0.0330318227115 28:0.00136648791301 29:0.019815337274 30:0.000392647591283 
8 1:5324.04176223 2:5324.02577912 3:5324.03103327 4:0.00502896676298 5:2.52905067032e-05 6:0.00487911319397 7:-0.00491365074777 8:-1.87109587083e-13 9:0.00326707751827 10:1.06737955104e-05 11:0.00465582089306 12:-0.00598263508045 13:-7.1054273576e-14 14:0.00326847481118 15:1.06829275913e-05 16:0.0153710342578 17:-0.0148097717098 18:-7.04621546295e-14 19:0.00916782565206 20:8.40490271866e-05 21:0.0143264213428 22:-0.0158268341456 23:-1.71714494475e-14 24:0.00938552378117 25:8.8088056647e-05 26:0.0590368030613 27:-0.0805843465111 28:-0.00130877188805 29:0.0422334818633 30:0.0017836669903 
8 1:5324.11502687 2:5323.98222328 3:5324.02700099 4:0.0413913516138 5:0.00171324398841 6:0.0297138948005 7:-0.0387117959295 8:-1.00660220899e-13 9:0.0209877232636 10:0.000440484527791 11:0.0316798711916 12:-0.0338095452351 13:-1.23160740865e-13 14:0.0207295141243 15:0.000429712755829 16:0.0202963681245 17:-0.0326225943541 18:-9.35547935417e-14 19:0.0210773995562 20:0.000444256772052 21:0.087262149128 22:-0.0799734593736 23:-3.61192557345e-14 24:0.0528964743617 25:0.0027980369999 26:0.0464312057065 27:-0.0597568020859 28:0.00368028536873 29:0.0398497037454 30:0.00158799888859 
8 1:5323.9463267 2:5323.68050418 3:5323.85720954 4:0.0830094341642 5:0.00689056616026 6:0.0781293657205 7:-0.064500287173 8:-3.5527136788e-14 9:0.04305433063 10:0.001853675386 11:0.0761089530249 12:-0.068506469477 13:1.7763568394e-15 14:0.0445296708579 15:0.00198289158671 16:0.101380756028 17:-0.0956907170141 18:-7.69754630407e-14 19:0.0626730498631 20:0.00392791117914 21:0.0423853746991 22:-0.0504957383764 23:-2.48689957516e-14 24:0.0347954815563 25:0.00121072553673 26:0.0389176822462 27:-0.046107906413 28:0.00196309031512 29:0.0281002243642 30:0.000789622609316 
8 1:5323.81107035 2:5323.75732679 3:5323.77497078 4:0.0169019078563 5:0.000285674489184 6:0.0165443052554 7:-0.016857431037 8:-7.93439388265e-14 9:0.0110092066266 10:0.000121202630547 11:0.0140473271191 12:-0.0193502004907 13:-4.26325641456e-14 14:0.0107257689431 15:0.00011504211942 16:0.0483055494239 17:-0.0461872362026 18:-7.16463925225e-14 19:0.0288266782478 20:0.000830977378804 21:0.0630510939075 22:-0.0599097220054 23:-7.93439388265e-14 24:0.0374637292571 25:0.00140353100985 26:0.0426814752002 27:-0.0446816064872 28:0.00232947856467 29:0.0335051021544 30:0.00112259187037 
8 1:5323.65524815 2:5323.5043854 3:5323.55513488 4:0.0470568119699 5:0.00221434355277 6:0.034932729819 7:-0.0440361332381 8:-4.14483262527e-14 9:0.0239498228906 10:0.00057359401649 11:0.0376770110347 12:-0.0406681077716 13:-1.36187357687e-13 14:0.0245654753731 15:0.000603462580307 16:0.0373644070265 17:-0.0421092378291 18:-6.92779167366e-14 19:0.028452890943 20:0.000809567003012 21:0.0651264417889 22:-0.057678625507 23:-6.33567272719e-14 24:0.0403873995608 25:0.00163114204329 26:0.0607675441768 27:-0.0423677041862 28:0.00108487668646 29:0.0312938215764 30:0.000979303268856 
8 1:5323.54326939 2:5323.53380891 3:5323.54008103 4:0.00294861209617 5:8.69431329366e-06 6:0.00283405354683 7:-0.00210938895678 8:-1.31450406116e-13 9:0.00154219378511 10:2.37836167082e-06 11:0.00215378843755 12:-0.00182535210526 13:-4.38168020385e-14 14:0.00120401322194 15:1.4496478386e-06 16:0.00206876845742 17:-0.00158086745502 18:2.96059473233e-15 19:0.00112795914718 20:1.27229183771e-06 21:0.00633666376999 22:-0.00755291675267 23:-7.6087284621e-14 24:0.00508311040297 25:2.58380113688e-05 26:0.0324448003739 27:-0.038790054116 28:-0.00161201458711 29:0.0250172596336 30:0.000625863279574 
8 1:5323.68303639 2:5323.3651094 3:5323.47199704 4:0.0991861904556 5:0.0098379003771 6:0.0742188110004 7:-0.0928909247776 8:-3.351393237e-13 9:0.0506013556177 10:0.00256049719035 11:0.0799487481596 12:-0.0866778380045 13:-5.92118946467e-14 14:0.0520812428017 15:0.00271245585177 16:0.0851479780453 17:-0.0946370813493 18:-6.63173220043e-14 19:0.0624221816136 20:0.0038965287574 21:0.130789098598 22:-0.119549347705 23:-3.25665420557e-15 24:0.0800174706585 25:0.00640279561059 26:0.0444304441074 27:-0.0555589859183 28:-0.000151831048721 29:0.0301414930808 30:0.000908509605141 
8 1:5322.99454793 2:5322.81786052 3:5322.93654969 4:0.0556002699686 5:0.00309139002058 6:0.0549173420931 7:-0.0546193119857 8:-6.39488462184e-14 9:0.0365857019525 10:0.00133851358736 11:0.0656660146862 12:-0.0493283486856 13:-1.03620815632e-13 14:0.0360384007826 15:0.00129876633097 16:0.162429827623 17:-0.169510499749 18:-1.89478062869e-14 19:0.101146938982 20:0.0102307032655 21:0.217339030276 22:-0.223236478573 23:-2.72374715375e-14 24:0.133099896102 25:0.0177155823424 26:0.0325757334979 27:-0.0370247798613 28:0.000703339132401 29:0.0206086046968 30:0.00042471458755 
8 1:5322.88217784 2:5322.6886179 3:5322.81732903 4:0.0604541768165 5:0.00365470749456 6:0.0570645218271 7:-0.0473475580353 8:-2.0605739337e-13 9:0.0315215360467 10:0.000993607234744 11:0.0556675624264 12:-0.0495855688452 13:-7.46069872548e-14 14:0.0322488362077 15:0.00103998743675 16:0.0757166127777 17:-0.0719262333742 18:5.92118946467e-16 19:0.0465352013355 20:0.00216552496334 21:0.0282360784729 22:-0.033686062993 23:-9.2666615122e-14 24:0.0233155483934 25:0.000543614796887 26:0.0598385865135 27:-0.0453257296548 28:0.000802922830866 29:0.0320837146009 30:0.00102936474259 
8 1:5322.88958558 2:5322.72426413 3:5322.83383808 4:0.0515244232617 5:0.00265476619245 6:0.0482000163145 7:-0.0369297679846 8:-2.36847578587e-14 9:0.0261324244765 10:0.000682903609019 11:0.0419361426604 12:-0.0392870593979 13:-1.0717352931e-13 14:0.0257087190552 15:0.00066093823546 16:0.0407738256404 17:-0.0243505049823 18:-7.1054273576e-14 19:0.0260266640455 20:0.000677387241336 21:0.108574178002 22:-0.115475279039 23:-3.75995531006e-14 24:0.0695157029545 25:0.00483243295726 26:0.0633817892119 27:-0.0639562281504 28:-0.00403174810453 29:0.0434005964153 30:0.00188361176921 
