10 1:3.8188153597 2:3.31136464586 3:3.48240379671 4:0.158152256932 5:0.0250121363728 6:0.113445507846 7:-0.150377304706 8:-1.61907524425e-17 9:0.0816413667226 10:0.00666531276033 11:0.107495076537 12:-0.121325737264 13:-4.79940161687e-17 14:0.0701592906143 15:0.0049223260595 16:0.0800155737129 17:-0.11754795305 18:-5.66676335486e-17 19:0.0671472142713 20:0.00450874838439 21:0.474410462624 22:-0.461086282825 23:-1.85037170771e-17 24:0.285099316037 25:0.081281620005 26:0.841014601187 27:-0.868998370604 28:0.0379200334816 29:0.604369556945 30:0.365262561362 
10 1:3.8188153597 2:3.31136464586 3:3.48240379671 4:0.158152256932 5:0.0250121363728 6:0.113445507846 7:-0.150377304706 8:-1.61907524425e-17 9:0.0816413667226 10:0.00666531276033 11:0.107495076537 12:-0.121325737264 13:-4.79940161687e-17 14:0.0701592906143 15:0.0049223260595 16:0.0800155737129 17:-0.11754795305 18:-5.66676335486e-17 19:0.0671472142713 20:0.00450874838439 21:0.474410462624 22:-0.461086282825 23:-1.85037170771e-17 24:0.285099316037 25:0.081281620005 26:0.841014601187 27:-0.868998370604 28:0.0379200334816 29:0.604369556945 30:0.365262561362 
10 1:1.38562755775 2:0.192930646016 3:0.998443199413 4:0.375939080044 5:0.141330191904 6:0.418988183046 7:-0.404531370811 8:-7.86407975776e-17 9:0.266421538406 10:0.0709804361265 11:0.458030033922 12:-0.40476352181 13:-3.70074341542e-17 14:0.310335222458 15:0.0963079502978 16:0.586607296437 17:-0.627954502177 18:-1.85037170771e-17 19:0.37948747361 20:0.144010742627 21:1.01543550062 22:-1.14266511139 23:0.0580637433972 24:0.672538307291 25:0.452307774774 26:0.159051042302 27:-0.23241944314 28:0.046483888628 29:0.144620434681 30:0.0209150701274 
