18:18:25		x: -0.60048056	y: -0.5213735	z: -0.47342056
18:18:26		x: -0.37507126	y: -0.5742133	z: -1.5540411
18:18:26		x: -0.8029824	y: -0.874759	z: -1.6316211
18:18:26		x: -3.2119296	y: -1.1004738	z: -7.175834
18:18:26		x: -0.124005646	y: -5.979149	z: -5.9788437
18:18:26		x: 0.05131268	y: -4.893947	z: -1.597718
18:18:27		x: -0.05131268	y: -2.3848178	z: -0.473726
18:18:27		x: 0.055588737	y: -0.17287487	z: -0.65668017
18:18:27		x: 0.009773844	y: 0.0852157	z: 0.04642576
18:18:27		x: 0.004276057	y: -0.19028452	z: -0.06169739
18:18:27		x: 0.07452556	y: -0.15363261	z: -0.030848695
18:18:27		x: 0.05222898	y: 0.13713925	z: -0.019547688
18:18:28		x: 0.14446963	y: 0.1386664	z: -0.19272798
18:18:28		x: 0.013439035	y: 0.3539964	z: -0.0027488936
18:18:28		x: -0.13041973	y: 0.086437434	z: 0.02076942
18:18:28		x: -0.026572637	y: -0.20861048	z: -0.0036651916
18:18:28		x: 3.0543262E-4	y: -0.08093964	z: -0.006414085
18:18:29		x: -0.0067195175	y: 0.0070249503	z: 0.004276057
18:18:29		x: -0.02443461	y: -0.06261369	z: 0.034208454
18:18:29		x: 9.162979E-4	y: 0.007941248	z: 0.025961773
18:18:29		x: -0.009162978	y: -0.06841691	z: 0.020463986
18:18:29		x: -0.032986723	y: 0.0067195175	z: 0.007941248
18:18:29		x: -0.03481932	y: 0.05375614	z: -0.009468411
18:18:30		x: -0.008246681	y: 0.04795292	z: 0.013439035
18:18:30		x: -0.0018325958	y: -0.005192355	z: 0.024740042
18:18:30		x: -0.012217305	y: -0.002443461	z: 0.0067195175
18:18:30		x: -0.03176499	y: -0.034208454	z: 0.013439035
18:18:30		x: 0.013133603	y: -0.036957346	z: 0.010079277
18:18:31		x: 0.036957346	y: -0.027488936	z: 0.009773844
18:18:31		x: 0.011911872	y: -0.0070249503	z: -0.0106901415
18:18:31		x: -0.0036651916	y: 0.008552114	z: -0.008552114
18:18:31		x: -0.014966198	y: 0.03481932	z: 0.007330383
18:18:31		x: -0.0012217305	y: 0.034208454	z: 0.008857546
18:18:31		x: -0.0125227375	y: -0.007330383	z: 0.007941248
18:18:32		x: -0.015577064	y: -0.033292156	z: 0.019547688
18:18:32		x: -0.015271631	y: -0.043676864	z: 0.015271631
18:18:32		x: -0.0067195175	y: 0.005192355	z: 0.010079277
18:18:32		x: -0.0018325958	y: -9.162979E-4	z: 0.0061086523
18:18:32		x: -0.016493361	y: 0.06688975	z: 6.1086525E-4
18:18:32		x: -0.01038471	y: -0.046731193	z: 0.006414085
18:18:33		x: -0.017104227	y: -0.04062254	z: 0.01740966
18:18:33		x: -0.01282817	y: -0.012217305	z: 0.02321288
18:18:33		x: -0.0015271631	y: 0.019242255	z: 0.0076358155
18:18:33		x: -0.011301007	y: -0.013439035	z: 0.0143553335
18:18:33		x: -0.015882496	y: -0.01160644	z: 0.007941248
18:18:34		x: -0.0018325958	y: 0.02321288	z: 0.0067195175
18:18:34		x: -0.005497787	y: 0.043066	z: 0.016493361
18:18:34		x: -0.010079277	y: 0.012217305	z: 0.009773844
18:18:34		x: -0.021380283	y: 0.008552114	z: 0.027183503
18:18:34		x: -0.03023783	y: -0.028099801	z: 0.020463986
18:18:34		x: -0.012217305	y: 0.006414085	z: 0.018325957
18:18:35		x: -0.011301007	y: 0.01740966	z: 0.01038471
18:18:35		x: -0.006414085	y: -0.009773844	z: 0.009773844
18:18:35		x: -0.011911872	y: 0.0106901415	z: 0.009162978
18:18:35		x: -0.008552114	y: 0.01282817	z: 0.0018325958
18:18:35		x: -0.02076942	y: 0.021685716	z: 0.027183503
18:18:36		x: -0.004886922	y: -0.022907447	z: 0.0021380284
18:18:36		x: -0.016493361	y: -0.017715093	z: 0.0076358155
18:18:36		x: -0.022296581	y: 0.023518313	z: 0.013133603
18:18:36		x: -0.02076942	y: -0.037873644	z: 0.01863139
18:18:36		x: -0.008857546	y: -0.042455133	z: 0.010995574
18:18:36		x: -0.006414085	y: -0.018020526	z: 0.018325957
18:18:37		x: -0.017104227	y: 0.01160644	z: 0.016187929
18:18:37		x: -0.014966198	y: -0.007941248	z: 0.03359759
18:18:37		x: -0.024129177	y: -0.061086524	z: 0.01863139
18:18:37		x: -0.0143553335	y: -0.004886922	z: 0.016187929
18:18:37		x: -0.022296581	y: -0.048563786	z: 0.009468411
18:18:38		x: -0.016187929	y: -0.02076942	z: 0.01038471
18:18:38		x: 0.003970624	y: -0.0580322	z: -3.0543262E-4
18:18:38		x: -0.003970624	y: -0.027488936	z: 0.0030543262
18:18:38		x: -0.0027488936	y: -0.0571159	z: 0.009468411
18:18:38		x: -0.0036651916	y: -0.01985312	z: -0.0061086523
18:18:38		x: -0.009468411	y: 0.013439035	z: 0.005497787
18:18:39		x: -0.007330383	y: -0.014660766	z: 0.0036651916
18:18:39		x: -0.008552114	y: -0.025045475	z: 0.013744468
18:18:39		x: -0.0125227375	y: -0.025045475	z: 0.0106901415
18:18:39		x: 0.004886922	y: -0.025045475	z: 0.0106901415
18:18:39		x: -0.006414085	y: -0.008246681	z: 0.011301007
18:18:40		x: -0.013133603	y: 0.009468411	z: 0.012217305
18:18:40		x: -0.012217305	y: -0.014966198	z: 0.016187929
18:18:40		x: -0.017104227	y: 0.0018325958	z: 0.0070249503
18:18:40		x: -0.02076942	y: 0.0	z: 0.009162978
18:18:40		x: -0.011911872	y: -0.037873644	z: 0.018020526
18:18:40		x: -0.047647487	y: 0.004886922	z: 0.02107485
18:18:41		x: -0.014049901	y: -0.1563815	z: 0.021380283
18:18:41		x: -0.013744468	y: -0.02107485	z: 0.006414085
18:18:41		x: -0.015271631	y: -0.01038471	z: 0.009162978
18:18:41		x: -0.004886922	y: -0.020463986	z: 0.018020526
18:18:41		x: -0.0036651916	y: -0.003970624	z: 0.026267206
18:18:41		x: -0.007330383	y: -0.009468411	z: 9.162979E-4
18:18:42		x: -3.0543262E-4	y: -0.018936822	z: 0.003970624
18:18:42		x: -0.010079277	y: -0.016493361	z: 0.013744468
18:18:42		x: -0.0143553335	y: -0.037873644	z: 0.013439035
18:18:42		x: -0.015882496	y: -0.052839845	z: 0.0070249503
18:18:42		x: 0.3707952	y: -0.035124753	z: 0.548557
18:18:43		x: -0.009162978	y: 0.3399465	z: 2.2137756
18:18:43		x: -0.083383106	y: 5.429981	z: 3.5909712
18:18:43		x: -0.42180246	y: 6.86582	z: 2.7433958
18:18:43		x: -0.18692477	y: 4.091881	z: 2.0503693
18:18:43		x: -1.035722	y: 1.5781704	z: 2.997821
18:18:43		x: -0.16615535	y: 0.016493361	z: 0.79809546
18:18:44		x: 0.23823744	y: 0.25870144	z: 0.29993483
18:18:44		x: -0.74372846	y: 0.37201694	z: 0.19639318
18:18:44		x: 0.3662137	y: -0.39461896	z: 0.008552114
18:18:44		x: 0.109650314	y: 0.24617869	z: 0.031154128
18:18:44		x: 0.100792766	y: 0.049480084	z: 0.01740966
18:18:45		x: 0.28955013	y: 0.011301007	z: 0.22510384
18:18:45		x: 0.13622294	y: 0.24556783	z: 0.14385876
