9 1:5323.09380005 2:5323.07330871 3:5323.08058624 4:0.0063506270646 5:4.03304641136e-05 6:0.00908474756574 7:-0.00963304714913 8:-8.881784197e-14 9:0.0060146506502 10:3.61760224439e-05 11:0.00745249105549 12:-0.00736915528368 13:-1.03620815632e-13 14:0.00448799322811 15:2.01420832155e-05 16:0.0291410146882 17:-0.0331931025803 18:-1.35003119794e-13 19:0.0217658967187 20:0.000473754259967 21:0.0984238102842 22:-0.0957429806407 23:-6.18764299058e-14 24:0.0588327653835 25:0.00346129428267 26:0.0531363299877 27:-0.0705232307414 28:0.00413875420721 29:0.0400765880693 30:0.00160613291128 
9 1:5323.31403353 2:5323.17962927 3:5323.26864627 4:0.0418733151903 5:0.00175337452503 6:0.0389088930381 7:-0.029437754483 8:-1.12502599829e-13 9:0.0211055638321 10:0.000445444824671 11:0.0337428594998 12:-0.0324517105788 13:-7.51991062013e-14 14:0.021402941924 15:0.000458085923001 16:0.0353101807411 17:-0.0223435350375 18:-1.18423789293e-14 19:0.0212594471333 20:0.000451964092413 21:0.0961476871196 22:-0.101438407948 23:-7.34227493619e-14 24:0.0608984710756 25:0.00370862377934 26:0.0307031903275 27:-0.0223151189552 28:-0.00159734747932 29:0.0199299176313 30:0.00039720161679 
9 1:5323.33051173 2:5323.3014217 3:5323.32045078 4:0.00901176178796 5:8.1211850523e-05 6:0.00782286585241 7:-0.00577041325043 8:-7.22385114689e-14 9:0.00531556175952 10:2.82551968192e-05 11:0.00851690836846 12:-0.00766511295236 13:-1.48621855563e-13 14:0.00580350821234 15:3.36807075706e-05 16:0.0162997686817 17:-0.0172977608094 18:-2.36847578587e-15 19:0.0128234007781 20:0.000164439607516 21:0.0675062530648 22:-0.0687351861926 23:-1.80596278672e-14 24:0.0411717869488 25:0.00169511604056 26:0.00971643220671 27:-0.0101469690417 28:6.86690619922e-05 29:0.00660994807091 30:4.36914135001e-05 
9 1:5323.29993824 2:5323.19606994 3:5323.23093096 4:0.0324209161832 5:0.00105111580616 6:0.0248042638401 7:-0.0305294597171 8:-3.67113746809e-14 9:0.0167146435838 10:0.000279379310135 11:0.0260807988779 12:-0.0289074000682 13:-8.46730093447e-14 14:0.0169604339361 15:0.000287656319301 16:0.0322199350546 17:-0.0348022722492 18:-1.22568621919e-13 19:0.0220156281334 20:0.000484687882107 21:0.032781838974 22:-0.0292074144333 23:-3.46389583683e-14 24:0.0205339459906 25:0.000421642937947 26:0.0175735435937 27:-0.0262376994129 28:0.000420619223564 29:0.0135552508908 30:0.000183744826712 
9 1:5323.40784911 2:5323.34946044 3:5323.36889873 4:0.0182661218883 5:0.000333651208839 6:0.0153796591853 7:-0.0177889360383 8:-6.75015598972e-14 9:0.0100798570206 10:0.000101603517555 11:0.0136915847539 12:-0.0172735131082 13:-8.52651282912e-14 14:0.00941847206973 15:8.87076161283e-05 16:0.027025237472 17:-0.0271109208452 18:-1.11910480882e-13 19:0.0163648790923 20:0.000267809267704 21:0.0133530735669 22:-0.00994965873055 23:-3.84877315203e-14 24:0.00780918548256 25:6.09833779011e-05 26:0.0608711533701 27:-0.0713373507682 28:0.00395438423079 29:0.04171539609 30:0.00174017427094 
9 1:5323.37657379 2:5323.34322745 3:5323.35432067 4:0.0104369508307 5:0.000108929942643 6:0.00888403060375 7:-0.0101001343641 8:3.5527136788e-14 9:0.00580458045324 10:3.36931542381e-05 11:0.00831710639271 12:-0.010260144452 13:-1.58095758707e-13 14:0.00562093929452 15:3.15949585527e-05 16:0.0176482677358 17:-0.0176217881684 18:-8.46730093447e-14 19:0.0106410480218 20:0.000113231903002 21:0.00668393547207 22:-0.00579522033244 23:-1.48029736617e-15 24:0.00437858138969 25:1.91719749862e-05 26:0.0220494171896 27:-0.0258580030825 28:0.000857714995682 29:0.0164098794323 30:0.000269284142983 
9 1:5323.40725444 2:5323.26039645 3:5323.35814893 4:0.0458944875115 5:0.00210630398394 6:0.0436175426925 7:-0.0368163187989 8:-1.5750363976e-13 9:0.0243209089319 10:0.000591506611275 11:0.0430854004358 12:-0.0373910468135 13:-8.70414851306e-14 14:0.0244252702196 15:0.0005965938253 16:0.0631917791859 17:-0.0611635475853 18:-3.25665420557e-14 19:0.0383416727146 20:0.00147008386655 21:0.0209954064704 22:-0.0220409629241 23:1.48029736617e-14 24:0.0132627876728 25:0.000175901536855 26:0.016001430734 27:-0.011591166858 28:-0.0011097348039 29:0.00978410313113 30:9.57286740805e-05 
9 1:5323.52584865 2:5323.43613412 3:5323.46593038 4:0.0281028784893 5:0.000789771779382 6:0.0244189426629 7:-0.0271033230774 8:-1.53950926081e-13 9:0.0159345782946 10:0.000253910785426 11:0.023644933126 12:-0.0288981779872 13:-7.22385114689e-14 14:0.0158783666239 15:0.000252122526642 16:0.0552484773816 17:-0.0547242382664 18:-1.09542005096e-13 19:0.0331334844444 20:0.00109782779143 21:0.0358591239082 22:-0.0341348802878 23:-6.30606677987e-14 24:0.021546315221 25:0.000464243699601 26:0.0426514344067 27:-0.0636724749115 28:-0.000312923328694 29:0.0321070255637 30:0.00103086109055 
9 1:5323.70845988 2:5323.68406314 3:5323.69224769 4:0.00761487609019 5:5.7986337869e-05 6:0.00584610655956 7:-0.00723078275925 8:-1.14871075615e-13 9:0.00395242737037 10:1.5621682118e-05 11:0.00583234961164 12:-0.00664388910897 13:-6.39488462184e-14 14:0.00380346257475 15:1.44663275575e-05 16:0.00690347864922 17:-0.00748479727939 18:-8.46730093447e-14 19:0.00476962233162 20:2.27492971862e-05 21:0.00937138368329 22:-0.00838160843245 23:-2.48689957516e-14 24:0.00584381219589 25:3.41501409808e-05 26:0.0144105398728 27:-0.0136882636003 28:0.000809802972649 29:0.00927318154932 30:8.59918960467e-05 
9 1:5323.87532758 2:5323.69379199 3:5323.81428093 4:0.056633131621 5:0.0032073115972 6:0.0529281402187 7:-0.0422680948673 8:3.19744231092e-14 9:0.0288280536649 10:0.000831056678107 11:0.0496149662459 12:-0.046076925741 13:-1.35003119794e-13 14:0.0300437718247 15:0.000902628225456 16:0.0544590088408 17:-0.0489192436523 18:-6.75015598972e-14 19:0.0359903501039 20:0.0012953053006 21:0.0706451688258 22:-0.07585150506 23:-1.65793305011e-14 24:0.0460571060868 25:0.00212125702109 26:0.0721020692505 27:-0.0587420254991 28:0.00156101548684 29:0.0418088233673 30:0.00174797771135 
9 1:5323.89387664 2:5323.75524417 3:5323.80139236 4:0.0434011991781 5:0.0018836640901 6:0.0367985399427 7:-0.0413994102041 8:-4.73695157173e-15 9:0.0240261729304 10:0.000577256985681 11:0.0375661428682 12:-0.0442170881518 13:-6.03961325396e-14 14:0.0247069532393 15:0.00061043353837 16:0.0807064054658 17:-0.0807546249256 18:-5.03301104497e-14 19:0.0487256975733 20:0.00237419360401 21:0.0564097309854 22:-0.0503992650109 23:-5.24025267623e-14 24:0.0342575467977 25:0.0011735795126 26:0.0847034327731 27:-0.0612807742341 28:-0.00215235158037 29:0.0507350030319 30:0.00257404053265 
9 1:5324.15190612 2:5324.08491135 3:5324.10703335 4:0.02104895862 5:0.000443058658987 6:0.0195435016533 7:-0.0202435809435 8:-2.52242671195e-13 9:0.0129364298659 10:0.000167351217676 11:0.0198746774068 12:-0.0242866140626 13:-1.10726242989e-13 14:0.0133516596389 15:0.000178266815114 16:0.0581134835668 17:-0.0565460209481 18:-1.07765648257e-13 19:0.034655211933 20:0.00120098371412 21:0.0684093005519 22:-0.0673818210222 23:-7.87518198801e-14 24:0.040940310728 25:0.0016761090425 26:0.0748619766109 27:-0.0640042011834 28:-0.00416132068706 29:0.0428533255424 30:0.00183640751004 
9 1:5324.30114263 2:5324.28615821 3:5324.2912365 4:0.00467218393039 5:2.18293026794e-05 6:0.00317729589334 7:-0.00405730730449 8:-5.80276567537e-14 9:0.00219975712663 10:4.83893141617e-06 11:0.004973253519 12:-0.00442222169777 13:-6.63173220043e-14 14:0.00358352421428 15:1.28416457943e-05 16:0.00480583826705 17:-0.00558323290279 18:2.90138283769e-14 19:0.00391209229094 20:1.53044660929e-05 21:0.00486313071263 22:-0.00546868673926 23:-2.30926389122e-14 24:0.00324777836657 25:1.05480643184e-05 26:0.0615229594258 27:-0.0504608760713 28:-0.00330558931525 29:0.0362304442032 30:0.00131264508716 
9 1:5324.49813444 2:5324.4218213 3:5324.44735056 4:0.0238453673286 5:0.000568601543035 6:0.0190204370948 7:-0.0226199563734 8:-1.61056353439e-13 9:0.0125845231661 10:0.000158370223318 11:0.0194871911707 12:-0.0223001291914 13:-1.48029736617e-14 14:0.0127089909616 15:0.000161518451262 16:0.0310497012051 17:-0.0322013973681 18:-2.72374715375e-14 19:0.0195800201754 20:0.00038337719007 21:0.0133245052095 22:-0.0126938866727 23:-2.93098878501e-14 24:0.00794826988879 25:6.3174994225e-05 26:0.0364040854074 27:-0.0269996048166 28:0.000636211850021 29:0.0190876340852 30:0.000364337774972 
9 1:5324.55390553 2:5324.51246097 3:5324.53983553 4:0.0128933522624 5:0.000166238532563 6:0.0117893110219 7:-0.00837814875855 8:-1.65793305011e-14 9:0.00649160774325 10:4.21409710923e-05 11:0.00960483713941 12:-0.00995178182845 13:-5.56591809679e-14 14:0.00683333443817 15:4.66944595439e-05 16:0.0131176341095 17:-0.0107380739983 18:-7.69754630407e-14 19:0.00721642224666 20:5.20767500421e-05 21:0.048002988515 22:-0.048085630202 23:-5.80276567537e-14 24:0.0289739750348 25:0.000839491229317 26:0.0763598537197 27:-0.055986065058 28:0.000511243967092 29:0.0392920262003 30:0.00154386332292 
9 1:5324.62541753 2:5324.58643259 3:5324.59903311 4:0.0123433411781 5:0.000152358071438 6:0.0138956439387 7:-0.0126694924304 8:-1.40924309259e-13 9:0.00988329405338 10:9.76795013456e-05 11:0.0110242837148 12:-0.0165952930325 13:-1.03028696685e-13 14:0.00971089448596 15:9.43014717174e-05 16:0.0527427530886 17:-0.0494720482931 18:-1.55135163974e-13 19:0.0317775261651 20:0.00100981116917 21:0.083218414297 22:-0.0825124172042 23:-8.61533067109e-14 24:0.0499223768889 25:0.00249224371424 26:0.0261456258292 27:-0.0226242422313 28:0.000713973697595 29:0.0161342447341 30:0.000260313853139 
9 1:5324.61932986 2:5324.61503042 3:5324.61670966 4:0.00132589002837 5:1.75798436732e-06 6:0.00440327739712 7:-0.00431059341962 8:-6.86857977901e-14 9:0.00262794454986 10:6.90609255716e-06 11:0.00673272233386 12:-0.00667146410158 13:-5.26985862355e-14 14:0.00403638218628 15:1.62923811537e-05 16:0.013039307756 17:-0.0151771046594 18:-5.92118946467e-14 19:0.010251312263 20:0.000105089403113 21:0.0357397433046 22:-0.0340205347621 23:-4.11522667794e-14 24:0.0212243631101 25:0.000450473589431 26:0.0916760160672 27:-0.0657866037377 28:-0.00199332714727 29:0.0534726570759 30:0.00285932505476 
9 1:5324.79503177 2:5324.74081049 3:5324.77636185 4:0.0168128546726 5:0.000282672082243 6:0.0148684625659 7:-0.00924009685339 8:3.19744231092e-14 9:0.00951775153265 10:9.05875942372e-05 11:0.013503637118 12:-0.0118402407885 13:-9.11863177559e-14 14:0.00973581649488 15:9.4786122822e-05 16:0.0249635818994 17:-0.0282088482151 18:-9.82917451135e-14 19:0.0204341680937 20:0.000417555225682 21:0.106509862962 22:-0.111131764463 23:2.07241631263e-14 24:0.0663327176187 25:0.00440002942668 26:0.0521591608226 27:-0.0734149648347 28:-0.00192952641991 29:0.0391448760353 30:0.00153232131982 
9 1:5325.14008689 2:5324.93087621 3:5325.00088218 4:0.0653609645935 5:0.00427205569259 6:0.051926207122 7:-0.062128852329 8:-4.73695157173e-14 9:0.034447332258 10:0.00118661869969 11:0.0524136446914 12:-0.0603178267092 13:-3.84877315203e-14 14:0.03423280449 15:0.00117188490325 16:0.0805074920738 17:-0.0838529772032 18:-1.62832710278e-13 19:0.051147482855 20:0.0026160650024 21:0.0342524651555 22:-0.0372878883076 23:-6.03961325396e-14 24:0.0243111302612 25:0.000591031054577 26:0.0544193294382 27:-0.0601060485009 28:0.00363435696968 29:0.0431574730452 30:0.00186256747965 
9 1:5324.93649936 2:5324.8768631 3:5324.8968956 4:0.0186072688268 5:0.000346230453191 6:0.014051223589 7:-0.0175877086192 8:-4.97379915032e-14 9:0.00958128676164 10:9.18010560088e-05 11:0.0143229855151 12:-0.0160158935367 13:-1.95399252334e-14 14:0.00932270401945 15:8.69128102343e-05 16:0.0151281112385 17:-0.0167608977783 18:-7.28306304154e-14 19:0.0110367895179 20:0.000121810722863 21:0.0241088937721 22:-0.0203608202858 23:-3.40468394218e-14 24:0.0155392546763 25:0.000241468435895 26:0.0414430786639 27:-0.0370811682589 28:0.00216149517653 29:0.0289025153497 30:0.000835355393539 
9 1:5325.01982871 2:5324.91530739 3:5324.95022921 4:0.0326780900367 5:0.00106785756845 6:0.0265081822679 7:-0.0309518397742 8:-9.59232693276e-14 9:0.0174242715841 10:0.000303605240237 11:0.0276342325428 12:-0.0315852064719 13:-1.37963714527e-13 14:0.0180111807157 15:0.000324402630775 16:0.048888338338 17:-0.0500658186579 18:-8.58572472377e-14 19:0.0302488199914 20:0.000914991110873 21:0.0170924987845 22:-0.0112998565483 23:-1.95399252334e-14 24:0.0108433543762 25:0.000117578334127 26:0.0333604564658 27:-0.0324596944885 28:-0.00120079616254 29:0.0230165721805 30:0.00052976259494 
9 1:5325.13126167 2:5325.04237038 3:5325.07205339 4:0.0277939471585 5:0.000772503498649 6:0.0226813643542 7:-0.0264365135563 8:-7.1054273576e-14 9:0.0149003403258 10:0.000222020141826 11:0.0231188502742 12:-0.0267935052267 13:-1.71122375529e-13 14:0.0151236834933 15:0.000228725802406 16:0.0416090089844 17:-0.0424782503575 18:-2.54611146981e-14 19:0.0256468599942 20:0.000657761427564 21:0.0139273344547 22:-0.0093685269293 23:-7.90478793533e-14 24:0.00860128954014 25:7.39821817534e-05 26:0.00544396638246 27:-0.00641001472485 28:-0.00018207310977 29:0.00420382134746 30:1.76721139214e-05 
9 1:5325.09135938 2:5325.01702597 3:5325.06638358 4:0.0232018842324 5:0.000538327431933 6:0.0215304259945 7:-0.0175618718499 8:-1.56319401867e-13 9:0.0118044340314 10:0.000139344662801 11:0.0212884437881 12:-0.0200783842461 13:-1.6756966185e-13 14:0.0131173820988 15:0.000172065713126 16:0.0275601080915 17:-0.0255068258029 18:-8.64493661841e-14 19:0.0173906000085 20:0.000302432968656 21:0.0144366332628 22:-0.0165581775366 23:-6.95739762098e-14 24:0.010542519117 25:0.000111144709333 26:0.056099622101 27:-0.0595719397957 28:0.00308390675742 29:0.0352371302572 30:0.00124165534876 
9 1:5325.07846567 2:5324.99863578 3:5325.02533777 4:0.0249463692006 5:0.000622321336293 6:0.0199410316698 7:-0.0236421059446 8:-2.03688917585e-13 9:0.013177184338 10:0.000173638187077 11:0.020572723226 12:-0.0234833190602 13:-1.35595238741e-13 14:0.0134088579962 15:0.000179797472763 16:0.0333628237902 17:-0.034537787778 18:2.30926389122e-14 19:0.020973064365 20:0.00043986942886 21:0.0114941036425 22:-0.0108753606468 23:-3.99680288865e-14 24:0.00687578290036 25:4.72763904929e-05 26:0.00486033689844 27:-0.0048195043019 28:-4.21301054378e-05 29:0.00330159092698 30:1.09005026491e-05 
9 1:5325.12032668 2:5325.08157041 3:5325.107306 4:0.0120929181876 5:0.000146238670291 6:0.0113790754299 7:-0.00912571160357 8:-2.5816386066e-13 9:0.00620480128781 10:3.84995590212e-05 11:0.0105551942966 12:-0.00957616795997 13:-9.53311503811e-14 14:0.00623035055035 15:3.88172679802e-05 16:0.0116124909093 17:-0.0105377551751 18:-9.47390314347e-14 19:0.00756756211786 20:5.72679964076e-05 21:0.0123487731339 22:-0.0144073950239 23:-5.03301104497e-14 24:0.00919022017517 25:8.44601468681e-05 26:0.0144024057562 27:-0.0182604837441 28:-0.000673350248377 29:0.0107418153231 30:0.000115386596436 
9 1:5325.43302533 2:5325.30813493 3:5325.34978886 4:0.0390685679259 5:0.00152635299978 6:0.0323622293406 7:-0.0371957710215 8:-1.38555833473e-13 9:0.0211883186127 10:0.000448944845634 11:0.0330404547754 12:-0.0385083726169 13:-5.50670620214e-14 14:0.0216509857231 15:0.00046876518278 16:0.0640487784839 17:-0.0648232595566 18:-1.28489811383e-13 19:0.0390795940195 20:0.00152721466873 21:0.025658221965 22:-0.021505543327 23:-2.30926389122e-14 24:0.0168550569234 25:0.00028409294389 26:0.0257935319869 27:-0.0224110650208 28:-0.00127675379835 29:0.0146707765133 30:0.000215231683502 
9 1:5325.41477627 2:5325.40260379 3:5325.41038965 4:0.00394606190524 5:1.557140456e-05 6:0.00634732307655 7:-0.00541340919236 8:-5.44749430749e-14 9:0.00355079378994 10:1.26081365387e-05 11:0.0213175323808 12:-0.0217591299253 13:-6.45409651649e-14 14:0.0130382317167 15:0.000169995486298 16:0.0104017466177 17:-0.0115929749288 18:0.000538756467941 19:0.00851728020221 20:7.2544062043e-05 21:0.0236272943475 22:-0.0236272943475 23:0.00146314305211 24:0.0159144789907 25:0.000253270641546 26:0.00163848345578 27:-0.00163848345583 28:-2.39808173319e-14 29:0.0016384834558 30:2.68462803494e-06 
