2 1:233.177985659 2:230.498895368 3:231.53635283 4:0.818603697023 5:0.670112012779 6:10.6775477408 7:-15.9835983804 8:-8.881784197e-15 9:7.66384090753 10:58.7344574559 11:6.20112017374 12:-7.97481038665 13:-0.124744032478 14:4.3016950117 15:18.5045799737 16:14.010392473 17:-12.4001851389 18:1.46061529278 19:7.75390042107 20:60.1229717399 21:32.4362021596 22:-33.8171467323 23:-1.32854673586 24:20.8402675882 25:434.316753148 26:92.3827443978 27:-68.5921611 28:-8.2542531993 29:61.6209372094 30:3797.13990257 
2 1:244.777580876 2:230.181649778 3:234.530193398 4:5.11678835923 5:26.1815231131 6:15.2821561079 7:-22.1206992704 8:-7.80328183022e-15 9:10.4594852926 10:109.400832587 11:8.63578738831 12:-10.4930194767 13:-0.107551492416 14:5.59066853566 15:31.2555746756 16:14.0737015466 17:-12.5525106611 18:1.47347937391 19:7.62000742514 20:58.0645131592 21:33.6997077772 22:-34.9564621463 23:-1.24205086316 24:21.2545861434 25:451.757432128 26:89.45480375 27:-68.39059166 28:-8.27589626128 29:60.8668262876 30:3704.77054233 
2 1:296.515244935 2:231.28527971 3:252.557619469 4:22.3673211495 5:500.297055407 6:27.9242904811 7:-38.0778814351 8:-5.83660104374e-15 9:18.5748581244 10:345.025354343 11:15.4855384985 12:-16.1441824419 13:-0.0242574797769 14:8.9241057564 15:79.6396635514 16:16.5493793516 17:-11.7265508684 18:1.84501244152 19:7.9127480778 20:62.6115821428 21:25.1171827156 22:-37.4775822762 23:-1.84062731579 24:20.3418968444 25:413.79276723 26:82.8367050323 27:-64.996865249 28:-7.96114967591 29:53.1345552043 30:2823.28095676 
2 1:329.891255873 2:243.071732955 3:271.153499578 4:29.8417780611 5:890.531717847 6:40.8877243403 7:-56.1652124807 8:-1.6114094186e-14 9:27.2201057933 10:740.934159397 11:20.9617639893 12:-22.0992384117 13:0.441977672068 14:12.05484105 15:145.319192742 16:30.9787942892 17:-25.4558209236 18:3.43972106036 19:19.4759758342 20:379.313634693 21:43.1814626648 22:-47.4149136197 23:-4.82820707022 24:32.1855904687 25:1035.91223382 26:120.099931059 27:-115.083185319 28:-8.44483556716 29:79.4121687525 30:6306.29254598 
2 1:343.676566309 2:183.348294965 3:235.830599307 4:55.0284181461 5:3028.12680366 6:57.8452367789 7:-76.7891423976 8:-5.64627709667e-15 9:38.9895425991 10:1520.18443209 11:30.8597120915 12:-29.5356191538 13:1.80190008306 14:17.3885569663 15:302.361913372 16:35.4578288486 17:-27.0991413118 18:3.88618671417 19:19.482286815 20:379.55949954 21:35.2414032035 22:-100.550332858 23:-14.3677866185 24:43.0427942789 25:1852.68213933 26:132.136890802 27:-123.933172898 28:-11.1129007286 29:91.5377284465 30:8379.15572914 
2 1:338.736710367 2:222.184805879 3:260.277573772 4:40.0514561461 5:1604.11913943 6:42.0556164947 7:-55.7590914179 8:-6.97854472622e-16 9:28.5038621341 10:812.470156562 11:22.0670886333 12:-20.6480001106 13:1.63125623869 14:12.5439103385 15:157.349686581 16:32.4037075353 17:-24.3947016819 18:3.54603675486 19:17.8189509412 20:317.515012644 21:38.4029268489 22:-93.3119648854 23:-13.3545738116 24:40.2103884422 25:1616.87533867 26:137.642715988 27:-108.169876805 28:-10.152564181 29:85.6963334069 30:7343.86155939 
2 1:330.694164978 2:217.164065044 3:254.333418169 4:38.9833598126 5:1519.70234228 6:39.7611853058 7:-52.4761757101 8:-8.05704709299e-15 9:26.9450780851 10:726.037233013 11:21.3279220839 12:-20.0642408708 13:1.53620621851 14:12.0907768897 15:146.186885798 16:24.7211774806 17:-20.2617311761 18:2.65041641891 19:13.1864540528 20:173.882570487 21:33.5122582868 22:-84.3644658593 23:-12.1908713111 24:36.5863680475 25:1338.5623269 26:122.190616092 27:-87.4145471824 28:-9.31681452731 29:74.2892408584 30:5518.89130731 
2 1:328.763442301 2:248.976600396 3:274.721166559 4:27.4621229297 5:754.168195804 6:36.5631469188 7:-49.8198055909 8:-3.67959631019e-15 9:24.3830681073 10:594.534010325 11:19.198747006 12:-20.2009728506 13:1.00698837687 14:11.1293148153 15:123.861648257 16:20.4208255168 17:-19.5981682298 18:2.11683203398 19:12.7486236501 20:162.527404973 21:39.5694314964 22:-60.6747278419 23:-8.49415577359 24:31.6168297443 25:999.623923081 26:119.433075365 27:-103.42774862 28:-9.96586944425 29:78.7585942207 30:6202.91616362 
2 1:348.504178387 2:216.044291229 3:259.499918017 4:45.4169595681 5:2062.70021641 6:46.3344685053 7:-61.2614336249 8:-8.37425367146e-15 9:31.1996903197 10:973.420676047 11:24.6986590429 12:-23.6437569212 13:1.3638466202 14:13.8984963753 15:193.168201493 16:23.4342550063 17:-19.247087838 18:2.52419047646 19:13.4495892138 20:180.89145002 21:37.0940855357 22:-74.1370839148 23:-10.6816114239 24:36.8833585357 25:1360.38213687 26:130.054852509 27:-110.082162742 28:-10.4743296405 29:84.9129357027 30:7210.20664965 
2 1:337.942253082 2:228.573194082 3:263.837669123 4:37.6464432992 5:1417.25469308 6:50.610271585 7:-69.0012307311 8:-2.91830052187e-15 9:33.7325215458 10:1137.88300984 11:26.9763406574 12:-28.6234552659 13:1.37296833845 14:15.7147384345 15:246.953004064 16:24.2826805966 17:-25.0973147467 18:2.46920225403 19:15.2716628042 20:233.223684806 21:37.4759665128 22:-80.6938150593 23:-11.2829572497 24:38.2274774612 25:1461.34003305 26:133.65233136 27:-110.431531171 28:-10.3562129546 29:85.8712077353 30:7373.86431791 
2 1:304.145862954 2:224.460576778 3:250.237750674 4:27.4618483106 5:754.153112634 6:33.5491846132 7:-45.241169025 8:-1.45915026094e-15 9:22.6297180172 10:512.104137537 11:17.3977808171 12:-17.1644830559 13:1.3508600923 14:10.0010116689 15:100.020234401 16:27.64824108 17:-23.4735447135 18:2.93042605887 19:15.7602927441 20:248.386827379 21:41.1103222287 22:-81.9814500818 23:-11.6599083224 24:39.6731547433 25:1573.95920728 26:133.462188717 27:-114.45919647 28:-10.3656754076 29:87.8765338831 30:7722.28520731 
2 1:330.999010844 2:200.241358901 3:243.323725353 4:44.8332302019 5:2010.01853034 6:41.4417834695 7:-54.1128491258 8:-2.22044604925e-15 9:28.3414776433 10:803.239355008 11:22.6873599249 12:-20.2771737729 13:1.31396698803 14:12.8228335079 15:164.42505917 16:32.0392479073 17:-20.8734803005 18:3.5988201508 19:14.8186325523 20:219.591870719 21:36.0760588232 22:-77.0730773623 23:-10.763698176 24:36.344065071 25:1320.89106588 26:130.807867902 27:-101.695737664 28:-10.9886119983 29:83.4518831491 30:6964.21680112 
2 1:321.169878764 2:245.689194003 3:269.974072174 4:26.0142638021 5:676.741921164 6:35.700783643 7:-48.7933781842 8:2.79141789049e-15 9:23.8820909126 10:570.354266358 11:19.2515429574 12:-20.2828850099 13:0.981910315081 14:11.1586394413 15:124.515234181 16:22.5223600792 17:-21.1331258735 18:2.33659385037 19:12.6271009926 20:159.443679477 21:34.7247517655 22:-65.2966874502 23:-8.91744637504 24:33.1579027533 25:1099.446515 26:122.475215089 27:-91.1407641437 28:-9.79301001457 29:77.3164863929 30:5977.83906814 
2 1:324.715721414 2:241.069014462 3:268.321966384 4:28.74938248 5:826.526992982 6:32.8044422742 7:-44.0167298598 8:-3.80647894157e-16 9:22.0590684651 10:486.602501549 11:17.6385443708 12:-17.3310955181 13:0.940129433612 14:9.95124050449 15:99.0271875782 16:24.487667928 17:-19.2781121089 18:2.64742741226 19:12.5732458325 20:158.086510764 21:39.1891152109 22:-59.9134562247 23:-8.18920520245 24:32.9805146889 25:1087.71434914 26:119.861192395 27:-94.8973913012 28:-9.63349362462 29:79.0320011145 30:6246.05720016 
2 1:347.035235807 2:262.186488644 3:290.145537414 4:29.1228208251 5:848.138692813 6:26.6812955261 7:-34.8704386333 8:-7.42263393607e-15 9:18.4237148596 10:339.433269228 11:14.8950584956 12:-12.8693089105 13:0.808820899375 14:8.50446990085 15:72.3260082945 16:30.2970464033 17:-18.1918122852 18:3.43648773011 19:13.1022148934 20:171.668035112 21:35.235010007 22:-57.5790585057 23:-7.66193319279 24:30.347683033 25:920.981865468 26:117.115254641 27:-83.3596994043 28:-10.2200285084 29:76.0761643096 30:5787.58277606 
2 1:343.652375486 2:293.087714021 3:309.129050176 4:17.474892521 5:305.371868621 6:29.1807554379 7:-40.6171839262 8:-1.3830206821e-14 9:19.5272304691 10:381.312729795 11:16.0107965282 12:-17.8508029999 13:0.532069347377 14:9.58466188018 15:91.8657433573 16:18.3865191018 17:-18.3832608556 18:1.87031795589 19:10.5948612784 20:112.251085508 21:35.3736071816 22:-45.4698603696 23:-5.79717933125 24:28.8847554659 25:834.329098323 26:114.532610565 27:-81.0221798154 28:-9.80304183518 29:75.2037643484 30:5655.60617217 
2 1:354.338712769 2:291.396736435 3:311.6320533 4:21.6816498208 5:470.093938951 6:31.147070606 7:-42.8604514918 8:-6.09036630652e-15 9:20.7919458623 10:432.305012741 11:16.723713744 12:-17.903916398 13:0.554068750564 14:9.70144076301 15:94.1179528782 16:21.7007330792 17:-18.744517754 18:2.30377708713 19:11.7466351836 20:137.983438137 21:41.2711789545 22:-45.2663836988 23:-5.79382615643 24:30.2847801037 25:917.167905928 26:114.402389202 27:-83.2381342026 28:-9.84605541095 29:75.3881890013 30:5683.37904089 
2 1:361.606534954 2:296.940833235 3:317.901358827 4:22.2497601353 5:495.051826079 6:27.9024113497 7:-37.8691093875 8:-7.61295788314e-15 9:18.7034111097 10:349.817587137 11:15.1277290076 12:-15.3885872733 13:0.645601936819 14:8.58226064501 15:73.6551977789 16:21.2045695804 17:-17.137411051 18:2.27794636936 19:10.8300938879 20:117.29093362 21:35.2507722181 22:-49.3815332729 23:-6.58449053282 24:28.9974915348 25:840.854515312 26:108.424083314 27:-79.9929581203 28:-9.89276294959 29:71.6612556613 30:5135.33556296 
2 1:366.74160686 2:291.772225817 3:316.008282143 4:25.7863745539 5:664.937112632 6:34.0969297865 7:-46.5018743736 8:-9.51619735393e-16 9:22.7334849123 10:516.811336258 11:18.3679805592 12:-19.3383779992 13:0.696249148361 14:10.5759107441 15:111.849888067 16:18.9469803323 17:-17.7478982442 18:1.96935071326 19:10.8018299532 20:116.679530337 21:32.1172300645 22:-50.6186965928 23:-6.82458707688 24:30.3956354019 25:923.894651483 26:112.417627202 27:-85.601180261 28:-8.83838142442 29:71.0949876262 30:5054.49726557 
2 1:366.487376498 2:286.935434077 3:312.561491322 4:27.3887718495 5:750.144823422 6:37.7545208798 7:-51.6712991822 8:-2.03012210217e-15 9:25.1718093598 10:633.619986445 11:19.7509463115 12:-20.9469164905 13:0.897299148987 14:11.4495980274 15:131.093294988 16:22.8267962791 17:-20.9466917005 18:2.39497937318 19:14.1196218171 20:199.363720257 21:39.8116144267 22:-58.738230445 23:-8.03752612461 24:33.0297771927 25:1090.9661814 26:117.990412879 27:-98.3992605642 28:-9.32776907455 29:75.4379282724 30:5690.88102204 
2 1:372.974485412 2:271.081879778 3:304.418830316 4:34.986835362 5:1224.07864865 6:36.8674767447 7:-48.9558458619 8:6.34413156929e-17 9:24.8976447281 10:619.892713005 11:19.9182206578 12:-19.0118175075 13:1.17629670818 14:11.2157459577 15:125.792957388 16:25.4583694979 17:-19.6243036361 18:2.76800196955 19:12.9086013686 20:166.631989293 21:36.2063975131 22:-69.4872923913 23:-9.73451929459 24:33.8445912593 25:1145.45635751 26:114.35821271 27:-95.3182712903 28:-9.82632091462 29:77.2106815142 30:5961.48933989 
2 1:372.699760095 2:285.597237257 3:313.995263876 4:29.9362377983 5:896.178333517 6:33.5081544855 7:-44.8271194519 8:-5.58283578097e-15 9:22.5744528781 10:509.605922746 11:18.5011226549 12:-18.1507285955 13:0.999454700276 14:10.4271236 15:108.724906569 16:22.8560359112 17:-18.9207197744 18:2.43531325449 19:11.5763646664 20:134.012218889 21:32.8558294102 22:-63.761907996 23:-8.72646814821 24:33.3688102334 25:1113.4774964 26:125.158625318 27:-88.0209077004 28:-9.38855972364 29:77.7264476761 30:6041.40066835 
2 1:332.910485149 2:318.666740657 3:322.607466754 4:5.12570384079 5:26.2728398635 6:18.8886755945 7:-27.3445371542 8:-1.29420284013e-14 9:13.1183414149 10:172.090881478 11:9.81151246803 12:-11.8494205138 13:0.572654227759 14:6.45894693867 15:41.7179955566 16:20.7961104159 17:-20.301076233 18:2.11757702107 19:11.9907065527 20:143.777043634 21:39.7170786457 22:-51.7076635587 23:-6.78091538581 24:30.2623682027 25:915.810929234 26:112.760466735 27:-79.3463374855 28:-9.80848738506 29:74.8910948677 30:5608.67609049 
2 1:308.876702932 2:297.061400995 3:300.460232592 4:4.22584461527 5:17.8577627124 6:13.2346527183 7:-19.1067835029 8:-5.90004235944e-15 9:9.2761539857 10:86.0470327664 11:7.33858888938 12:-8.45108652379 13:0.312505480663 14:4.52095859306 15:20.4390666001 16:19.7852781978 17:-16.7394072545 18:2.08175951689 19:10.1630025982 20:103.286621811 21:37.3711798398 22:-40.0043291574 23:-4.88047444461 24:27.1075560239 25:734.81959359 26:111.531710614 27:-75.6151611076 28:-9.95597094101 29:74.0326996003 30:5480.84061011 
2 1:298.615558959 2:282.866207394 3:287.41595115 4:5.57273364886 5:31.0553603211 6:18.572780538 7:-26.894057492 8:-1.75098031312e-14 9:12.7621273453 10:162.871894377 11:10.5138367064 12:-12.8853551247 13:0.1261059563 14:6.91042622153 15:47.7539905633 16:15.6703838191 17:-16.3102719597 18:1.55991017493 19:9.82354966461 20:96.502128013 21:40.5373248394 22:-43.0606031257 23:-3.31238742274 24:27.739346438 25:769.47134081 26:119.025932837 27:-82.3259474948 28:-10.0234936746 29:78.3651029402 30:6141.08935883 
2 1:284.975585559 2:249.310427995 3:272.254337792 4:11.9773111866 5:143.455983262 6:12.3484468552 7:-14.2329052285 8:-3.04518315326e-15 9:8.48389512978 10:71.9764765731 11:8.79264301686 12:-7.73599363818 13:-0.0754923758476 14:5.22776414462 15:27.3295179517 16:19.3376034763 17:-20.1235103809 18:1.91873893622 19:11.4576018478 20:131.276640102 21:46.7376587378 22:-48.7007526725 23:-3.19038227474 24:30.2135599154 25:912.859202763 26:133.00122907 27:-92.7889856974 28:-11.2538776084 29:85.7711637908 30:7356.69253803 
2 1:268.430111932 2:237.113339769 3:246.984315283 4:10.8577735462 5:117.891246379 6:20.6335842633 7:-29.212421098 8:-7.42263393607e-15 9:13.9898611658 10:195.716215439 11:11.8102468756 12:-13.1066644302 13:-0.0945060714074 14:7.02412446197 15:49.3383244572 16:25.2767548099 17:-18.5600985656 18:2.75907970002 19:12.0290972879 20:144.699181561 21:47.2146071491 22:-50.4063063024 23:-2.3554067454 24:32.0324797115 25:1026.07975647 26:135.746614225 27:-92.346235724 28:-12.5102091613 29:91.4580014714 30:8364.56603313 
2 1:283.119779372 2:226.533580303 3:244.456751618 4:19.5353658808 5:381.630520096 6:34.358312697 7:-48.0712219671 8:-6.28069025359e-15 9:22.9383081045 10:526.165978695 11:19.1717718054 12:-21.9490658882 13:0.315270683459 14:11.7163172501 15:137.272089904 16:17.5916624379 17:-19.3528501811 18:1.73726019769 19:11.319167948 20:128.123563035 21:48.9787111197 22:-52.210222712 23:-4.51685326271 24:33.9926693434 25:1155.50156909 26:135.041928171 27:-94.5226669807 28:-12.2212362618 29:92.1001601889 30:8482.43950683 
2 1:248.921166715 2:239.17933838 3:241.971196278 4:3.39281163551 5:11.511170794 6:22.12281634 7:-32.6003944535 8:7.61295788314e-16 9:15.5723214809 10:242.497196303 11:11.6333723754 12:-14.7592144771 13:0.310238885282 14:7.96134828906 15:63.3830665796 16:24.399391168 17:-23.7837336351 18:2.48774446561 19:13.9542089995 20:194.719948802 21:50.2378873445 22:-53.8677808439 23:-5.86676092583 24:35.8530426721 25:1285.44066885 26:136.755653399 27:-92.4745109452 28:-12.2634033775 29:92.9578234501 30:8641.15694058 
2 1:263.387902434 2:211.101823524 3:227.962689508 4:18.03899384 5:325.405298759 6:24.8891563633 7:-34.2579078073 8:-5.07530525543e-16 9:16.8198830018 10:282.908464195 11:13.9951573996 12:-14.2588747967 13:0.289205999639 14:7.92244922549 15:62.7652017305 16:30.3117493824 17:-21.1265882238 18:3.34429988883 19:13.9032658332 20:193.300800829 21:47.3771098044 22:-51.5109930699 23:-5.10659594681 24:34.9339705969 25:1220.38230167 26:138.998492976 27:-98.2099883776 28:-12.7638328077 29:94.4317487794 30:8917.35517753 
2 1:281.518386087 2:207.089417918 3:230.989849176 4:25.6340053589 5:657.10223074 6:37.6605295032 7:-51.9133817185 8:-2.41076999633e-15 9:25.1056501989 10:630.293671908 11:21.0364182752 12:-22.9545136286 13:0.553361621046 14:12.3634829229 15:152.855709984 16:21.2394355091 17:-20.6993496029 18:2.17802887053 19:12.2684203617 20:150.51413817 21:48.7788827449 22:-52.2961867927 23:-6.036569051 24:35.4155510704 25:1254.26125762 26:138.31058024 27:-94.9118231738 28:-12.3881327488 29:94.0561718372 30:8846.56346067 
2 1:260.910844755 2:239.066947117 3:245.493123909 4:7.72354061102 5:59.6530795701 6:22.6487667898 7:-32.6365988765 8:-5.70971841236e-15 9:15.6212576546 10:244.023690712 11:12.1837111877 12:-14.3356462422 13:0.35448909944 14:7.61469476811 15:57.9835764115 16:26.8900697433 17:-23.3503890065 18:2.82733272754 19:14.1050426956 20:198.952229443 21:49.2827690197 22:-52.9855850458 23:-5.98353648855 24:35.6482328497 25:1270.79650531 26:138.916184984 27:-93.9829948616 28:-12.4519766483 29:94.351056713 30:8902.12190286 
2 1:287.025490304 2:232.045308347 3:249.905161305 4:18.9370991414 5:358.61372389 6:23.6476464942 7:-32.2689265816 8:-2.6645352591e-15 9:16.0119695342 10:256.383168365 11:13.4620313362 12:-13.2512790989 13:0.224747239714 14:7.58464663051 15:57.5268645096 16:30.4732579957 17:-19.7476520733 18:3.40841262247 19:13.4769935705 20:181.629355701 21:44.2617152663 22:-48.0035915424 23:-4.62081718971 24:32.625733095 25:1064.43845999 26:133.902030947 27:-94.0534819903 28:-12.5323281243 29:89.6697991131 30:8040.67287297 
2 1:292.992264603 2:239.459669934 3:256.376591479 4:18.5032108637 5:342.368812265 6:32.9093412661 7:-46.0662685151 8:-3.5527136788e-15 9:22.0139020287 10:484.611882527 11:18.1485350606 12:-20.6546267325 13:0.408529239432 14:11.0290162591 15:121.639199644 16:19.3616780519 17:-20.0024305569 18:1.95199232837 19:11.4973752857 20:132.18963846 21:44.336950824 22:-47.869305419 23:-5.3222024763 24:32.6607912255 25:1066.72728347 26:128.2121955 27:-90.0980056271 28:-11.5746011583 29:86.8228529014 30:7538.20778593 
2 1:256.894837157 2:243.786145633 3:247.389756944 4:4.73618172567 5:22.4314173386 6:18.0547567207 7:-26.2270281536 8:-4.18712683573e-15 9:12.6353681474 10:159.652528221 11:9.63115577079 12:-11.489601035 13:0.428822523788 14:6.16450116439 15:38.0010746058 16:23.8945781804 17:-21.4941794225 18:2.48054635684 19:12.8020875351 20:163.893445255 21:45.398022479 22:-49.9142201317 23:-6.28666650134 24:33.8511616099 25:1145.90114234 26:130.365484225 27:-90.4462824518 28:-11.5167913025 29:88.5290352005 30:7837.39007352 
2 1:288.850704058 2:222.200152059 3:243.94495022 4:22.91912586 5:525.286330186 6:26.7423884995 7:-36.2009664484 8:-1.02774931422e-14 9:18.0686640969 10:326.476622248 11:15.105574564 12:-14.6625356859 13:0.300083352282 14:8.49748640659 15:72.2072752302 16:31.3712362062 17:-19.9536614513 18:3.52660468274 19:13.777049368 20:189.807089288 21:44.2753333646 22:-47.8406825871 23:-4.77400693477 24:32.4849785264 25:1055.27382986 26:131.300478486 27:-92.7445730171 28:-12.2318950545 29:89.4905267993 30:8008.55438682 
2 1:312.767719817 2:235.667054519 3:260.448398701 4:26.5444081015 5:704.605601458 6:38.7273232559 7:-53.3663923616 8:-6.53445551637e-15 9:25.8027927498 10:665.784113689 11:21.6092784712 12:-23.5716932169 13:0.528488765123 14:12.6914646411 15:161.073274735 16:21.1435676881 17:-20.178993108 18:2.1900681366 19:11.9058033102 20:141.748152462 21:42.7267437981 22:-46.7111140537 23:-5.70249414386 24:31.9113240223 25:1018.33260086 26:131.413699725 27:-88.0806391859 28:-11.6622047691 29:86.3591448054 30:7457.90189152 
2 1:307.072310751 2:261.209969431 3:275.815846885 4:15.8600515033 5:251.541233688 6:24.9904651047 7:-34.6658751894 8:-4.25056815142e-15 9:16.8224747397 10:282.995656368 11:13.5293207484 12:-14.4849995514 13:0.517797589239 14:7.85117160935 15:61.6408956394 16:23.7968039704 17:-19.7478651294 18:2.5325509685 19:12.1996681891 20:148.831903924 21:42.4831657882 22:-48.8771010328 23:-6.25400159457 24:32.4321416696 25:1051.84381328 26:124.993488485 27:-92.205028993 28:-10.9794373976 29:83.9473874075 30:7047.16385254 
2 1:345.902193657 2:248.125893481 3:280.222028079 4:33.5355379243 5:1124.63230387 6:34.6934401611 7:-46.1336977555 8:-4.69465736127e-15 9:23.403117646 10:547.705915552 11:19.1229050844 12:-18.1595746768 13:0.666062508224 14:10.7192862663 15:114.90309806 16:27.3443153869 17:-18.0784817263 18:3.06620102173 19:12.5559406571 20:157.651645784 21:37.033568513 22:-50.4538012386 23:-6.58368039442 24:30.747310303 25:945.39709087 26:122.049031518 27:-93.3564696932 28:-11.1188326593 29:80.5453847708 30:6487.55900788 
2 1:364.374868832 2:268.715326695 3:299.655011266 4:32.8912712454 5:1081.83572414 6:43.3978534632 7:-59.17555848 8:-1.05946997207e-14 9:28.9055922784 10:835.533264967 11:23.636942268 12:-25.0379686845 13:0.849074782409 14:13.6545351583 15:186.446330388 16:21.9834341244 17:-20.7089495031 18:2.29461837317 19:12.3413123489 20:152.307990494 21:36.213030378 22:-56.7179137474 23:-7.50402386921 24:31.7717700452 25:1009.4453718 26:123.308871199 27:-94.4680814598 28:-10.3618415228 29:79.436886532 30:6310.2189419 
2 1:344.192880199 2:285.471821071 3:304.397011761 4:20.26103264 5:410.509443638 6:26.3651937162 7:-35.8451731115 8:-5.45595314959e-15 9:17.7966673314 10:316.721368104 11:13.9672502272 12:-14.0233214644 13:0.920204627628 14:7.9863964482 15:63.7825282278 16:24.8337385407 17:-20.1926718038 18:2.65616903525 19:12.9953168628 20:168.878260366 21:38.5325979505 22:-62.7906392765 23:-8.61662731454 24:33.0691795149 25:1093.57063379 26:118.479398331 27:-94.9603103078 28:-9.55360036978 29:78.6629069248 30:6187.85292586 
2 1:368.009013471 2:268.007576586 3:300.793515705 4:34.3124600436 5:1177.34491424 6:35.6834544617 7:-47.4047161749 8:-1.07850236678e-15 9:24.0796835962 10:579.831162091 11:19.3346318614 12:-18.3466716885 13:0.888130548118 14:10.8467088689 15:117.651093286 16:26.3975648535 17:-18.4785078272 18:2.930881975 19:12.9346914397 20:167.30624264 21:34.0322157974 22:-58.9449922262 23:-8.06836194756 24:31.2711434585 25:977.8844132 26:118.015735735 27:-93.1212970347 28:-10.045870332 29:75.4032234489 30:5685.64610648 
2 1:374.595394428 2:280.398874495 3:310.742505905 4:32.4136066809 5:1050.64189807 6:45.1889347435 7:-61.9234340871 8:-5.70971841236e-15 9:30.067939502 10:904.080985897 11:23.6081500681 12:-25.3315225799 13:0.963193540208 14:13.7597287196 15:189.330134438 16:23.7533679314 17:-22.8730292624 18:2.46983354653 19:15.6630574523 20:245.331368753 21:43.3516652628 22:-62.143529184 23:-8.5070241466 24:35.7749910036 25:1279.84998131 26:122.342341934 27:-107.801378711 28:-9.64024789793 29:79.3450040945 30:6295.62967476 
2 1:364.605003011 2:235.781817571 3:277.83803155 4:44.2433945711 5:1957.47796317 6:48.4806378959 7:-64.6526456609 8:-6.09036630652e-15 9:32.5971013397 10:1062.57101575 11:25.3851661436 12:-24.6350047703 13:1.59437946694 14:14.3741771532 15:206.616968831 16:30.2422989246 17:-24.8247660925 18:3.25325840573 19:17.9800271491 20:323.281376281 21:39.2965838084 22:-88.5483543405 23:-12.7094572705 24:42.3403714755 25:1792.70705668 26:136.330102858 27:-124.819967423 28:-9.49664842167 29:90.7100798754 30:8228.318591 
2 1:262.690013007 2:225.861691685 3:238.260294668 4:12.7775064843 5:163.264671956 6:11.9285364974 7:-9.79490708042 8:-5.3290705182e-15 9:7.37143276119 10:54.3380209528 11:9.50444260309 12:-10.9378785216 13:1.64214746701 14:6.0307482135 15:36.3699240146 16:26.1941425528 17:-25.2204542349 18:2.83155871446 19:17.0081881529 20:289.278464243 21:32.9972761789 22:-97.3090854128 23:-14.1180694988 24:40.26657441 25:1621.39701472 26:145.2688595 27:-94.3137773662 28:-10.0501789703 29:84.3422665744 30:7113.61793091 
2 1:246.730905367 2:214.323493362 3:234.825373102 4:10.8927824094 5:118.65270862 6:15.0677479266 7:-24.4245291136 8:-4.56777472989e-15 9:12.5489054855 10:157.475028884 11:15.5119956669 12:-14.3921566508 13:-0.0675044086717 14:9.50851782952 15:90.4119113143 16:20.51461861 17:-15.638192964 18:-0.198890557108 19:10.8310903652 20:117.312518499 21:47.0258450917 22:-48.0630123367 23:-1.75978118451 24:28.0170740852 25:784.956440295 26:150.105990297 27:-106.354001446 28:-11.1910249848 29:89.272907001 30:7969.65192441 
2 1:231.690089117 2:208.092429429 3:223.200073287 4:7.91511086962 5:62.6489800783 6:10.0186452622 7:-13.5440875051 8:-4.56777472989e-15 9:7.55515930223 10:57.0804320821 11:7.18923903801 12:-7.92856781717 13:-0.454058897965 14:4.74097644571 15:22.4768576588 16:21.3533811594 17:-18.0774468403 18:2.24077684951 19:11.8817063878 20:141.174946686 21:49.1153339033 22:-50.6582802687 23:-0.802916226758 24:30.7634784651 25:946.391607273 26:140.358903241 27:-111.348963174 28:-13.0940590878 29:94.6242917369 30:8953.75658671 
2 1:222.18320935 2:210.316626101 3:217.612367495 4:3.94191563474 5:15.5386988714 6:10.9874565709 7:-17.3650513533 8:-5.01186393974e-15 9:8.69547180312 10:75.6112298788 11:7.42977400381 12:-9.7216458028 13:-0.432897405171 14:5.51240104028 15:30.3865652289 16:18.7635251829 17:-16.5553227103 18:1.95041302155 19:11.4466162166 20:131.025022811 21:47.3771328128 22:-48.7992278362 23:-0.309667842369 24:29.3352401195 25:860.556312871 26:138.112864301 27:-108.910879154 28:-12.4053261833 29:91.9353666673 30:8452.11164426 
2 1:228.725139171 2:218.612295754 3:225.258015826 4:3.44345800889 5:11.857403059 6:5.01539095619 7:-4.49637505895 8:-4.94842262404e-15 9:2.84729371841 10:8.10708151891 11:3.34336044944 12:-2.90225667517 13:-1.83979815509e-15 14:2.1279456173 15:4.52815255018 16:27.2134289745 17:-41.7224883372 18:5.07530525543e-16 19:22.1865506895 20:492.243031497 21:34.0224677506 22:-28.5653009881 23:-2.15369699146 24:19.5729374987 25:383.099882329 26:138.358668006 27:-100.333746979 28:-16.8608197179 29:89.2748340716 30:7969.99599852 
