5 1:-321.120670809 2:-427.03242847 3:-356.848389778 4:36.0832494225 5:1302.00088889 6:17.8637289354 7:-22.905854059 8:1.11656715619e-14 9:13.6078571109 10:185.173775151 11:11.5925709353 12:-9.66279424895 13:-1.75807193745 14:7.04614665571 15:49.6481826937 16:23.969656686 17:-29.184785177 18:1.32223620797 19:15.8967007411 20:252.705094454 21:48.0229015993 22:-46.769068697 23:7.71887648197 24:30.2121542918 25:912.774266951 26:159.426142061 27:-149.445419805 28:-13.9600444729 29:109.207620618 30:11926.304401 
5 1:-90.1906279094 2:-348.263631226 3:-263.543975851 4:88.14626636 5:7769.76427321 6:104.065977406 7:-141.107087033 8:0.0 9:68.879624343 10:4744.40264963 11:59.2329415455 12:-63.9256743698 13:-1.19831627554 14:35.1135060869 15:1232.95830971 16:10.221421529 17:-7.41845957547 18:1.03213458467 19:6.36267338573 20:40.4836126135 21:48.6832020136 22:-38.1490352036 23:9.69747914546 24:26.838107577 25:720.284018315 26:198.43969659 27:-160.393401956 28:-12.8001974206 29:116.338728439 30:13534.6997347 
5 1:388.139694207 2:151.608332975 3:229.944903225 4:80.7731681296 5:6524.30468969 6:86.9554895238 7:-117.990647734 8:9.96028656378e-15 9:57.8884951546 10:3351.07787127 11:50.904282756 12:-50.5857481964 13:-3.32181753118 14:31.8930697622 15:1017.16789886 16:82.7066311393 17:-31.1556113492 18:10.0797470989 19:31.5176507415 20:993.362308266 21:109.890183812 22:-104.024928977 23:17.7258258537 24:66.3900896762 25:4407.64400722 26:197.155002779 27:-164.335024015 28:-18.7111023036 29:129.956623196 30:16888.7239125 
5 1:360.050276671 2:232.757355574 3:273.840319691 4:43.8768937374 5:1925.18180404 6:56.6144341801 7:-76.897927513 8:-5.96348367513e-15 9:38.068460674 10:1449.20769809 11:30.1997967898 12:-30.6731538316 13:1.85488227866 14:17.2926164033 15:299.034582071 16:45.0266254235 17:-37.6835892966 18:4.80236713566 19:24.0027003494 20:576.129624065 21:60.8653963354 22:-119.534907708 23:-16.4641491615 24:57.8258250912 25:3343.82604748 26:188.853077605 27:-153.40037242 28:-14.3324402963 29:123.540036476 30:15262.1406124 
5 1:437.912970634 2:200.564514081 3:278.410160589 4:81.3377538186 5:6615.83019626 6:85.5807645888 7:-113.757513707 8:-7.54951656745e-15 9:57.3387516595 10:3287.73244187 11:46.2628172919 12:-45.479529553 13:1.90128634588 14:26.011829583 15:676.615278257 16:37.9044679394 17:-31.2229075268 18:4.10271615348 19:20.9491785488 20:438.86808187 21:64.3910309893 22:-104.395233818 23:-14.5900929436 24:57.2144690778 25:3273.49547185 26:194.767676642 27:-170.961614958 28:-15.9889917614 29:128.34879932 30:16473.4142868 
5 1:468.712781693 2:247.728575147 3:319.935804861 4:75.8458072184 5:5752.58647262 6:83.3845894634 7:-111.348107796 8:-1.43377373466e-14 9:55.9228148655 10:3127.36122248 11:44.3582370968 12:-43.6061090619 13:2.30660831484 14:25.0298925578 15:626.495521455 16:46.2714831018 17:-37.69011863 18:5.00657056445 19:26.5756803136 20:706.266784129 21:56.9621625478 22:-130.772669906 23:-18.5515432342 24:61.7033339271 25:3807.30141771 26:198.282791756 27:-183.259479359 28:-15.6713684642 29:131.452770551 30:17279.8308855 
5 1:458.6618126 2:243.576747902 3:313.893786774 4:73.8538917014 5:5454.39731945 6:78.2824380811 7:-103.892469786 8:-2.53765262771e-15 9:52.7768335588 10:2785.39416049 11:41.4607664144 12:-39.7916520083 13:2.7756477271 14:23.4853092911 15:551.559752501 16:45.9677890194 17:-37.9892393912 18:4.9412037551 19:26.3938444847 20:696.635026681 21:52.9391030118 22:-148.681036873 23:-21.5348487698 24:64.1143251036 25:4110.64668349 26:198.217450821 27:-184.194792639 28:-14.6983809269 29:131.994469071 30:17422.5398654 
5 1:397.321341443 2:-329.428973565 3:150.34853933 4:246.754774294 5:60887.9186371 6:112.12254599 7:-143.104590195 8:6.09036630652e-15 9:88.9285677486 10:7908.29016181 11:62.3733601069 12:-83.0196553574 13:-0.674991249314 14:47.7581030819 15:2280.83640999 16:64.7035710927 17:-88.2780914727 18:4.20040857674 19:45.9788463543 20:2114.05431207 21:48.1344159827 22:-140.357252913 23:-16.796766989 24:53.3814264505 25:2849.57668989 26:203.205607887 27:-124.702688924 28:-11.4643232449 29:114.974866564 30:13219.2199413 
5 1:-254.336335667 2:-409.143211842 3:-306.685574349 4:52.6692399985 5:2774.04884202 6:25.4756955162 7:-32.3496113926 8:-4.82153999266e-15 9:19.5864252287 10:383.628053241 11:15.1746889445 12:-14.6749846183 13:-1.80379975583 14:9.50201579778 15:90.2883042213 16:22.2796598413 17:-28.8244581054 18:2.20899041574 19:18.5992273016 20:345.931256216 21:63.5808697051 22:-62.426003258 23:6.55600322993 24:38.5760888713 25:1488.1146326 26:187.809403302 27:-177.301193727 28:-14.361721606 29:124.561620365 30:15515.5972679 
5 1:-291.082280718 2:-403.839570529 3:-329.283997077 4:38.3851429545 5:1473.41919964 6:21.2134546271 7:-24.5075278702 8:5.3290705182e-15 9:13.6979988817 10:187.635173363 11:13.8040387839 12:-10.5702792145 13:-1.94680303374 14:7.8202979413 15:61.1570598908 16:19.8946487255 17:-24.8525801265 18:2.05799313507 19:15.9670229354 20:254.945821419 21:67.2754414525 22:-65.1946274588 23:8.06678840087 24:39.6321888937 25:1570.71039651 26:189.74462124 27:-169.406805633 28:-16.6550759691 29:125.407144046 30:15726.9517778 
5 1:-287.019303928 2:-501.46339948 3:-360.112387564 4:73.0400710678 5:5334.85198159 6:42.2524114818 7:-45.4059322008 8:8.75490156562e-15 9:24.1453284928 10:582.996888026 11:34.4398169146 12:-29.9048372551 13:7.1054273576e-15 14:22.9592561615 15:527.127443491 16:16.9962637213 17:-25.2162185217 18:1.54561931257 19:13.5710409487 20:184.173152431 21:141.899226709 22:-104.772882223 23:1.98041415606 24:70.0272728499 25:4903.8189428 26:183.653702997 27:-165.859308684 28:-0.00739704407677 29:125.159399545 30:15664.8752944 
