17:20:19		x: -0.35033122	y: -0.20341812	z: -0.47586402
17:20:19		x: 0.5488624	y: -0.28619036	z: -0.47128254
17:20:19		x: -0.07941248	y: 0.7156286	z: -1.3420709
17:20:20		x: 0.1432479	y: -1.0320568	z: 0.7492262
17:20:20		x: -0.21594086	y: 1.151481	z: -0.8671232
17:20:20		x: 1.4758505	y: 1.4816537	z: -1.6010778
17:20:20		x: 0.10629055	y: -1.1249083	z: 0.005192355
17:20:20		x: 0.16218472	y: -0.52931476	z: -1.1988231
17:20:21		x: 1.1215485	y: -0.30543262	z: 0.24587326
17:20:21		x: 0.473726	y: 1.0253373	z: 0.034208454
17:20:21		x: 0.61453044	y: 0.8979719	z: 0.24281894
17:20:21		x: 3.5094209	y: 3.1355712	z: 0.49021935
17:20:21		x: -0.13347405	y: 1.9263636	z: 2.0045543
17:20:21		x: -1.368949	y: 0.24404067	z: 0.40286562
17:20:22		x: 0.036957346	y: -1.1181889	z: 0.052534413
17:20:22		x: 0.119729586	y: -0.098043874	z: -0.046120327
17:20:22		x: -0.064446285	y: 0.003970624	z: -0.0030543262
17:20:22		x: 0.036957346	y: -0.3109304	z: 0.09987647
17:20:22		x: 0.051923547	y: 0.37110063	z: 0.024740042
17:20:22		x: -0.06719518	y: 0.20463985	z: 0.0067195175
17:20:23		x: -0.011911872	y: 0.036651913	z: -0.006414085
17:20:23		x: -0.03634648	y: 9.162979E-4	z: -0.008246681
17:20:23		x: -0.023823744	y: -0.040011674	z: 0.00580322
17:20:23		x: -0.0143553335	y: 0.005497787	z: 0.004276057
17:20:23		x: -0.026267206	y: 0.028405234	z: 0.0067195175
17:20:24		x: -0.019547688	y: 0.0	z: 0.005192355
17:20:24		x: -0.019547688	y: -0.017715093	z: 0.004886922
17:20:24		x: -0.016798794	y: -0.017715093	z: 0.011911872
17:20:24		x: -0.01863139	y: 0.0012217305	z: 0.019547688
17:20:24		x: -0.011301007	y: -0.016187929	z: 0.011911872
17:20:24		x: -0.029626964	y: -0.014966198	z: 0.011911872
17:20:25		x: -0.007941248	y: -0.029932396	z: 6.1086525E-4
17:20:25		x: -0.0015271631	y: -0.02687807	z: 0.0076358155
17:20:25		x: 0.009773844	y: -0.01160644	z: 0.002443461
17:20:25		x: -0.00580322	y: -0.016493361	z: 0.0018325958
17:20:25		x: -0.0067195175	y: -0.029321533	z: 0.009162978
17:20:26		x: -0.0021380284	y: -0.016493361	z: 0.011301007
17:20:26		x: -0.0033597588	y: -0.015271631	z: 0.010995574
17:20:26		x: -0.006414085	y: -0.01863139	z: 0.00580322
17:20:26		x: -0.005497787	y: -0.021685716	z: 0.010079277
17:20:26		x: -0.0018325958	y: -0.010995574	z: 0.009162978
17:20:26		x: -0.013439035	y: -0.0106901415	z: 0.010079277
17:20:27		x: -0.005192355	y: -0.01985312	z: 0.01038471
17:20:27		x: -0.007941248	y: -0.0067195175	z: 0.007330383
17:20:27		x: -0.013133603	y: -0.014966198	z: 0.01160644
17:20:27		x: -0.009468411	y: -0.0021380284	z: 0.0125227375
17:20:27		x: -0.0033597588	y: -0.011911872	z: 0.0076358155
17:20:28		x: -0.003970624	y: -0.014049901	z: 0.01038471
17:20:28		x: -0.015271631	y: -0.0030543262	z: 0.006414085
17:20:28		x: -0.009162978	y: -0.03634648	z: 0.008246681
17:20:28		x: -0.003970624	y: -0.021991149	z: 0.0036651916
17:20:28		x: -0.009773844	y: -0.030848695	z: 0.0061086523
17:20:28		x: -0.0033597588	y: -0.027794369	z: 0.0018325958
17:20:29		x: -0.010995574	y: -0.015577064	z: -0.0033597588
17:20:29		x: -0.02443461	y: -0.007330383	z: -0.006414085
17:20:29		x: -0.010995574	y: -0.013744468	z: -0.004276057
17:20:29		x: -0.02321288	y: -0.007330383	z: 0.0030543262
17:20:29		x: -0.008552114	y: 0.0076358155	z: 0.0027488936
17:20:30		x: -0.004276057	y: 9.162979E-4	z: 0.004886922
17:20:30		x: -0.00580322	y: -0.007330383	z: 0.005192355
17:20:30		x: -0.009468411	y: -0.006414085	z: 0.0061086523
17:20:30		x: -0.009468411	y: -0.016493361	z: 0.003970624
17:20:30		x: -0.0125227375	y: -0.013439035	z: 0.0030543262
17:20:30		x: -0.009773844	y: -0.012217305	z: -0.0036651916
17:20:31		x: -0.016798794	y: -0.00580322	z: 0.0
17:20:31		x: -0.024129177	y: 0.040927973	z: 0.0033597588
17:20:31		x: -3.0543262E-4	y: 0.07971791	z: 0.01282817
17:20:31		x: -0.0290161	y: 0.09101892	z: 0.004581489
17:20:31		x: -0.018936822	y: -0.009468411	z: -3.0543262E-4
17:20:31		x: -0.032070424	y: -0.032070424	z: 0.009162978
17:20:32		x: -0.13744467	y: 0.050701816	z: 0.048258353
17:20:32		x: 0.06841691	y: -0.13225232	z: -0.1881465
17:20:32		x: 0.1151481	y: -0.9056077	z: 0.37720928
17:20:32		x: -0.25961772	y: 0.2950479	z: -0.8903361
17:20:32		x: 0.0421497	y: -0.9465357	z: -0.6462954
17:20:33		x: 0.014049901	y: -0.82863873	z: -0.046120327
17:20:33		x: -0.0125227375	y: -0.098043874	z: -0.056199603
17:20:33		x: -0.47678033	y: -0.30207285	z: 0.029321533
17:20:33		x: 0.3313944	y: 0.23823744	z: -0.88606006
17:20:33		x: 0.5296202	y: 0.010079277	z: -0.59864795
17:20:33		x: 0.16768251	y: -0.36285394	z: -0.60139686
17:20:34		x: -1.8854356	y: -1.0564915	z: 1.6203201
17:20:34		x: -3.6447275	y: -0.6768387	z: 2.5002716
17:20:34		x: 0.27916542	y: 0.8552113	z: 0.86345804
17:20:34		x: -0.8344419	y: 2.4501805	z: 0.8753699
17:20:34		x: -0.6780604	y: 0.2565634	z: 0.36682457
17:20:35		x: -0.44073927	y: -0.007330383	z: 0.17501289
17:20:35		x: 0.14569137	y: 0.090713486	z: 0.10934488
17:20:35		x: 0.03940081	y: 0.20830505	z: -0.09254608
17:20:35		x: 0.023823744	y: -0.07819075	z: 0.1423316
17:20:35		x: -0.0852157	y: 0.08857546	z: 0.04550946
17:20:36		x: 0.29932398	y: -0.03359759	z: 0.031154128
17:20:36		x: 0.65057147	y: 0.06536258	z: 0.06841691
17:20:36		x: 3.0543262E-4	y: 0.08399397	z: -0.015577064
17:20:36		x: -0.09712757	y: -0.08460484	z: 0.008552114
17:20:36		x: 0.0018325958	y: -0.050396383	z: -0.013133603
17:20:36		x: -0.013744468	y: -0.03176499	z: 0.026267206
17:20:37		x: 0.033292156	y: -0.0067195175	z: 0.019242255
17:20:37		x: -0.35643986	y: 0.010079277	z: -0.038179077
