19:42:01		x: -2.2559366	y: 1.8794483	z: 10.317214
19:42:02		x: -6.149507	y: 0.25198972	z: 9.739014
19:42:02		x: -2.9855695	y: 0.37349546	z: 8.954314
19:42:02		x: -0.7026982	y: -0.24480712	z: 7.399879
19:42:02		x: -0.92416185	y: -5.4378304	z: 12.492346
19:42:02		x: 3.912724	y: -3.9318779	z: 12.992734
19:42:02		x: -0.6811504	y: -6.1620765	z: 5.303157
19:42:03		x: -0.88405895	y: -5.9681463	z: -1.6250644
19:42:03		x: 6.7570357	y: -4.374805	z: 13.393763
19:42:03		x: 7.280169	y: -3.6164417	z: -4.18686
19:42:03		x: 10.626664	y: -4.6058455	z: -3.5901055
19:42:03		x: 5.0691237	y: -5.5760956	z: -2.7461493
19:42:03		x: 5.6018333	y: -7.0425444	z: -2.5540147
19:42:04		x: 3.4195185	y: -8.196549	z: -2.0308816
19:42:04		x: 2.866458	y: -8.547898	z: -1.7705121
19:42:04		x: 2.5821466	y: -8.066066	z: -2.124854
19:42:04		x: 1.8255788	y: -7.811083	z: -2.303222
19:42:04		x: 1.3820529	y: -6.6606693	z: -2.7844565
19:42:05		x: -0.35075054	y: -6.139332	z: -0.3585317
19:42:05		x: 4.335301	y: -2.3529017	z: 1.4323312
19:42:05		x: 3.8546648	y: -7.5321584	z: -1.5580268
19:42:05		x: -0.0724246	y: -13.794193	z: -3.5823243
19:42:05		x: 3.4955344	y: -7.006033	z: -2.5689783
19:42:05		x: 1.5352819	y: -19.608511	z: -18.94412
19:42:06		x: 4.370615	y: -9.871294	z: -7.013814
19:42:06		x: -1.6226702	y: -14.519037	z: -4.2239704
19:42:06		x: 5.651513	y: -12.157158	z: -4.6058455
19:42:06		x: 15.507843	y: -19.290083	z: -2.8592753
19:42:06		x: 3.0101101	y: -8.762778	z: -8.316858
19:42:07		x: -2.0213048	y: -8.172607	z: -2.344522
19:42:07		x: 2.4265234	y: -11.752538	z: -1.5676036
19:42:07		x: 4.619612	y: -5.121197	z: 1.8602947
19:42:07		x: 0.46507367	y: -7.73387	z: -2.622848
19:42:07		x: -0.35553896	y: -3.8085763	z: -2.7748797
19:42:07		x: 1.5436616	y: -2.4492683	z: -2.496554
19:42:08		x: 1.4802152	y: -8.542512	z: -6.634333
19:42:08		x: 0.7769185	y: -10.659584	z: -5.1547165
19:42:08		x: 0.81881696	y: -5.607819	z: -2.5145104
19:42:08		x: 3.6218286	y: -6.371569	z: -4.3197384
19:42:08		x: -0.62249243	y: -17.10717	z: -5.3863554
19:42:09		x: 3.4051533	y: -8.861539	z: -2.9454668
19:42:09		x: 5.5886655	y: -10.17416	z: 0.37229836
19:42:09		x: 2.5139117	y: -15.974712	z: 3.0292637
19:42:09		x: -1.3257892	y: -4.9416323	z: 0.41000703
19:42:09		x: 6.593033	y: -18.895638	z: -13.193249
19:42:09		x: 3.5033157	y: -5.345055	z: -1.6723499
19:42:10		x: 2.77069	y: -7.350199	z: -1.869273
19:42:10		x: 3.6152446	y: -5.407305	z: -0.92895025
19:42:10		x: 2.0308816	y: -6.5966244	z: -4.6698904
19:42:10		x: 1.0175357	y: -13.579313	z: -4.6363716
19:42:10		x: 1.0001777	y: -5.916671	z: -2.4259248
19:42:11		x: 1.9339164	y: -7.1460934	z: -2.8748376
19:42:11		x: 2.3331497	y: -6.0836663	z: 0.6099229
19:42:11		x: 4.573524	y: -6.919243	z: -3.8307228
19:42:11		x: 4.4167037	y: -5.191228	z: -1.8459295
19:42:11		x: 0.7781156	y: -7.9224133	z: -2.8089972
19:42:11		x: 2.3894134	y: -6.453571	z: -4.6393642
19:42:12		x: 6.576872	y: -15.162479	z: 0.90500826
19:42:12		x: 5.2642508	y: -10.107122	z: -4.2036195
19:42:12		x: 1.2270284	y: -15.075689	z: -2.2146366
19:42:12		x: 0.9451111	y: -6.0411696	z: -4.502895
19:42:12		x: 2.2337902	y: -12.780848	z: -3.7576995
19:42:12		x: 5.427655	y: -9.2787285	z: -1.7022774
19:42:13		x: 0.6302736	y: -8.540117	z: -2.3822308
19:42:13		x: 2.3241713	y: -2.3397336	z: -3.5990837
19:42:13		x: 3.3913867	y: -7.315483	z: -7.477092
19:42:13		x: 2.1984756	y: -8.362348	z: -3.9205053
19:42:13		x: 4.0462008	y: -8.048109	z: -2.6270378
19:42:14		x: 4.405331	y: -5.3396683	z: -4.8189297
19:42:14		x: 6.471527	y: -13.387777	z: -3.004723
19:42:14		x: 2.2038627	y: -7.5614877	z: -1.0528502
19:42:14		x: 1.6645688	y: -10.835558	z: 1.6124948
19:42:14		x: 4.5459905	y: -9.22067	z: -1.5610195
19:42:14		x: 3.615843	y: -11.310209	z: -0.83258367
19:42:15		x: 12.731168	y: 0.48362875	z: 4.162918
19:42:15		x: 8.379107	y: -6.479308	z: 10.755951
19:42:15		x: 2.7515364	y: -0.36870706	z: 6.179435
19:42:15		x: 1.3156139	y: 3.091513	z: 8.007407
19:42:15		x: 1.5622166	y: 3.8738184	z: 7.1844006
19:42:16		x: -0.38367084	y: 4.250905	z: 8.923788
19:42:16		x: 1.7052702	y: 2.9526494	z: 11.261127
19:42:16		x: -1.2156559	y: 4.0282445	z: 11.8261595
19:42:16		x: 0.93014735	y: 4.1665096	z: 9.054273
19:42:16		x: 0.7942764	y: 4.9105077	z: 7.77517
19:42:16		x: 0.49081135	y: 4.421492	z: 9.332599
19:42:17		x: 0.5363012	y: 4.7004166	z: 8.368334
19:42:17		x: 0.076015905	y: 4.8386817	z: 8.529344
19:42:17		x: 0.04189853	y: 5.120599	z: 8.631696
19:42:17		x: -0.10474633	y: 5.2726307	z: 8.305486
19:42:17		x: -0.18495208	y: 5.2241483	z: 8.225879
19:42:18		x: -0.3489549	y: 4.8177323	z: 8.191761
19:42:18		x: -0.3357868	y: 4.8201265	z: 9.728839
