10:43:30		x: -0.15271631	y: 0.048258353	z: -0.004581489
10:43:31		x: 0.14630222	y: -0.2855795	z: -0.008857546
10:43:31		x: -0.074830994	y: 0.084910266	z: -0.043982297
10:43:31		x: -0.08857546	y: -0.08552113	z: 0.0290161
10:43:31		x: 0.044593163	y: -0.09468412	z: -0.0076358155
10:43:31		x: -0.12797627	y: 0.15790866	z: -0.04886922
10:43:32		x: 0.0076358155	y: -0.20280726	z: -0.0143553335
10:43:32		x: 1.044885	y: -0.045814894	z: 0.4465425
10:43:32		x: 1.7623463	y: 3.1062498	z: 0.50335294
10:43:32		x: 0.9245446	y: 3.0008755	z: -1.8228219
10:43:32		x: -1.5189165	y: 1.9141463	z: -1.282817
10:43:32		x: -0.42730024	y: 3.336546	z: -5.0573535
10:43:33		x: 2.3701572	y: 2.1203132	z: -4.099822
10:43:33		x: 3.2317827	y: 4.0081925	z: -0.28405234
10:43:33		x: 0.89736104	y: 2.3683245	z: -2.081218
10:43:33		x: 1.7941113	y: -0.08093964	z: 0.7443393
10:43:33		x: 0.20708331	y: 0.893085	z: -0.6383542
10:43:33		x: 0.14813483	y: -0.86070913	z: -0.97219205
10:43:34		x: 0.59895337	y: -0.29077184	z: 0.038789943
10:43:34		x: 0.59681535	y: 0.8347474	z: 0.784351
10:43:34		x: 1.1972959	y: -0.22296582	z: 0.8906415
10:43:34		x: -0.5366451	y: 0.18692477	z: 0.6414085
10:43:34		x: -1.2843442	y: -3.9174788	z: -1.4706581
10:43:35		x: 0.04550946	y: -0.08093964	z: -0.34666604
10:43:35		x: -0.1160644	y: 0.56779927	z: 0.2556471
10:43:35		x: 0.082161374	y: 0.21655174	z: 1.7211128
10:43:35		x: -0.8924741	y: -1.3848315	z: 1.2812898
10:43:35		x: 1.102001	y: -2.0986276	z: 0.18600847
10:43:35		x: -0.21410827	y: 1.2873985	z: 0.6786713
10:43:36		x: 2.5143213	y: 1.9874501	z: -0.9370673
10:43:36		x: 0.77121735	y: 1.2837334	z: 2.3099868
10:43:36		x: 0.20799962	y: 2.4092526	z: 0.10048734
10:43:36		x: -1.7348573	y: 0.5225952	z: -0.56413406
10:43:36		x: 0.6774496	y: 1.6801848	z: 0.59406644
10:43:37		x: -0.6365216	y: 0.5329799	z: 0.19547687
10:43:37		x: 0.9034697	y: 0.50335294	z: 0.034513887
10:43:37		x: 0.80664754	y: -0.2855795	z: 0.0693332
10:43:37		x: 0.12950343	y: 1.0415252	z: -0.08155051
10:43:37		x: -2.116648	y: 0.31673363	z: 0.5720753
10:43:37		x: -0.09682214	y: 0.63041294	z: 0.0
10:43:38		x: -0.38820487	y: -0.03634648	z: 0.29138273
10:43:38		x: 0.79198676	y: -0.07666359	z: -0.7021896
10:43:38		x: 0.7058548	y: -0.7147123	z: -0.32895094
10:43:38		x: -0.13500121	y: 0.21777347	z: -0.19517145
10:43:38		x: -1.8597792	y: -0.312763	z: -0.13805555
10:43:39		x: -0.2669481	y: -0.46395215	z: -0.24862215
10:43:39		x: -0.45204028	y: -0.52015173	z: 0.17165314
10:43:39		x: 0.68019843	y: -0.41996986	z: -0.6805039
10:43:39		x: 0.68691796	y: -0.8741482	z: -0.30115658
10:43:39		x: -0.09743301	y: 0.06627888	z: -0.13408493
10:43:39		x: -1.7449366	y: -0.4905248	z: -0.31306845
10:43:40		x: -0.44257188	y: -0.69058317	z: -0.43799037
10:43:40		x: -0.40683624	y: -0.818254	z: -0.061086524
10:43:40		x: 0.5671884	y: -0.5839872	z: -0.6719518
10:43:40		x: 0.816116	y: -1.0925325	z: -0.45753807
10:43:40		x: -0.34605515	y: -0.6200282	z: -0.17287487
10:43:41		x: -1.8784106	y: -0.655153	z: -0.39950588
10:43:41		x: -0.63285637	y: -1.2043208	z: -0.34697145
10:43:41		x: -0.5308419	y: -0.70402217	z: 0.119729586
10:43:41		x: 0.57757306	y: -0.21502456	z: -0.69913524
10:43:41		x: 0.66523224	y: -0.5180137	z: -0.4111123
10:43:41		x: -0.30573806	y: 0.20433442	z: -0.3222314
10:43:42		x: -1.2819008	y: -0.39003745	z: -0.18753563
10:43:42		x: -0.15210545	y: -1.0659598	z: -0.419359
10:43:42		x: 0.40194935	y: -0.6627888	z: 0.4972443
10:43:42		x: 0.4352415	y: -0.43157628	z: -0.6988298
10:43:42		x: 0.77824235	y: 0.124005646	z: -0.4859433
10:43:42		x: -1.412015	y: 0.35460728	z: 0.0067195175
10:43:43		x: -0.12858713	y: -0.3454443	z: 0.11636983
10:43:43		x: 0.1957823	y: -1.2617421	z: -0.36865717
10:43:43		x: 0.9211848	y: -0.39736784	z: 0.61453044
10:43:43		x: 0.79473567	y: 0.269697	z: -0.24281894
10:43:43		x: 0.57543504	y: 1.3234396	z: -0.058337633
10:43:44		x: -1.564426	y: 0.8335256	z: 0.46639562
10:43:44		x: -0.3109304	y: 0.36071593	z: 0.3659083
10:43:44		x: -0.09987647	y: -0.47342056	z: -0.2593123
10:43:44		x: 0.7162395	y: 0.38148534	z: 0.643852
10:43:44		x: 0.6365216	y: 0.38240165	z: -0.09590584
10:43:45		x: 0.43218717	y: 1.1429288	z: -0.22143865
10:43:45		x: -1.4416419	y: 0.7504479	z: 0.43188173
10:43:45		x: -0.364992	y: 0.082161374	z: 0.45937067
10:43:45		x: 0.47555858	y: -0.8219192	z: -0.3567453
10:43:45		x: 0.8866709	y: -0.36377025	z: 0.6404922
10:43:45		x: 0.29901853	y: 0.21288654	z: -0.29657507
10:43:46		x: 0.4016439	y: 0.573297	z: -0.28099802
10:43:46		x: -1.2415836	y: 0.3286455	z: 0.4184427
10:43:46		x: -0.03604105	y: -0.36774087	z: -0.03176499
10:43:46		x: 0.46211955	y: -1.8286251	z: -0.5766568
10:43:46		x: 0.86590147	y: -1.0225884	z: 0.40775254
10:43:46		x: 0.14874569	y: -0.4147775	z: -0.3359759
10:43:47		x: 0.39584067	y: 0.089186326	z: -0.3100141
10:43:47		x: -1.1123856	y: -0.204029	z: 0.35430184
10:43:47		x: -0.14355333	y: -0.5861252	z: -0.22143865
10:43:47		x: 0.3231477	y: -2.2708917	z: -0.44043383
10:43:47		x: 0.7510588	y: -0.9447031	z: 0.38698313
10:43:48		x: -0.043982297	y: -0.61575216	z: -0.41630468
10:43:48		x: 0.49388456	y: 0.062308256	z: -0.5158757
10:43:48		x: -0.97219205	y: -0.26633725	z: 0.3155119
10:43:48		x: -0.40561453	y: -0.8185594	z: -0.4166101
10:43:48		x: 0.03940081	y: -2.360994	z: -0.6267477
10:43:48		x: 0.61453044	y: -1.3365731	z: 0.19608775
10:43:49		x: -0.02107485	y: -0.8539896	z: -0.41538838
10:43:49		x: 0.72173727	y: -0.100792766	z: -0.5375614
10:43:49		x: -0.92271197	y: -0.5564982	z: 0.20250183
10:43:49		x: -0.63499445	y: -0.9080512	z: -0.26053402
10:43:49		x: -0.0711658	y: -1.9761491	z: -0.3921755
10:43:50		x: 0.67256266	y: -0.9117164	z: 0.4529566
10:43:50		x: 0.28985557	y: -0.3005457	z: -0.5821546
10:43:50		x: 0.6704246	y: 0.12095132	z: -0.5534439
10:43:50		x: -1.0054842	y: 0.05589417	z: 0.008857546
10:43:50		x: -0.4596761	y: -0.643852	z: -0.17898351
10:43:50		x: 0.18417588	y: -1.6701056	z: -0.559858
10:43:51		x: 0.86284715	y: -0.95203346	z: 0.4822781
10:43:51		x: 0.27580565	y: -0.18478674	z: -0.4465425
10:43:51		x: 0.6017023	y: 0.36285394	z: -0.4269948
10:43:51		x: -1.1911873	y: 0.3885103	z: -0.006414085
10:43:51		x: -0.22388211	y: -0.4428773	z: 0.15363261
10:43:51		x: 0.18142697	y: -1.1468995	z: -0.50488013
10:43:52		x: 0.8188649	y: -0.43463063	z: 0.37232238
10:43:52		x: 0.31612277	y: -0.20922135	z: -0.5390886
10:43:52		x: 0.6985244	y: 0.539394	z: -0.47128254
10:43:52		x: -1.0051788	y: 0.42271876	z: 0.15821409
10:43:52		x: -0.45937067	y: -0.39522982	z: -0.043982297
10:43:53		x: 0.3924809	y: -1.6035212	z: -0.54183745
10:43:53		x: 0.70188415	y: -0.8350528	z: 0.5833763
10:43:53		x: 0.48624873	y: -0.4334089	z: -0.550695
10:43:53		x: 0.8738427	y: 0.40958515	z: -0.4822781
10:43:53		x: -0.8775079	y: 0.514654	z: -0.051618114
10:43:53		x: -0.46761733	y: -0.17959438	z: 0.110872045
10:43:54		x: 0.3643811	y: -0.9923506	z: -0.4908302
10:43:54		x: 0.8246681	y: -0.47494772	z: 0.5390886
10:43:54		x: 0.61911196	y: -0.15577064	z: -0.5177083
10:43:54		x: 0.84238315	y: 0.26328292	z: -0.3848451
10:43:54		x: -0.9034697	y: 0.4025602	z: -0.19639318
10:43:55		x: -0.6273586	y: -0.36835176	z: -0.122783914
10:43:55		x: 0.27122417	y: -1.2253957	z: -0.5290093
10:43:55		x: 0.6817256	y: -0.61391956	z: 0.63438356
10:43:55		x: 0.713796	y: -0.22937989	z: -0.4905248
10:43:55		x: 0.9077458	y: 0.42149702	z: -0.2828306
10:43:55		x: -0.14263703	y: 0.4269948	z: -0.2932153
10:43:56		x: -1.3808609	y: -0.103847094	z: -0.10323623
10:43:56		x: 0.057726767	y: -0.5626069	z: -0.2996294
10:43:56		x: -0.28069258	y: -0.39003745	z: 0.44226643
10:43:56		x: 0.8790351	y: -0.019547688	z: -0.62858033
10:43:56		x: 0.9147707	y: -0.23579398	z: -0.21410827
10:43:57		x: -0.054061573	y: 0.6261369	z: -0.25411993
10:43:57		x: -1.6780468	y: 0.29565877	z: 0.0720821
10:43:57		x: 0.14477506	y: 0.97219205	z: 0.014660766
10:43:57		x: -0.85918194	y: 0.6020077	z: 0.4728097
10:43:57		x: 0.8567385	y: 0.59406644	z: -0.15302174
10:43:57		x: 0.9108001	y: 0.7367035	z: 0.08582657
10:43:58		x: 0.32925636	y: 1.3329079	z: -0.07269296
10:43:58		x: -2.2266037	y: 0.4373795	z: 0.35430184
10:43:58		x: -0.07880162	y: 1.7232509	z: 0.26450464
10:43:58		x: -0.5723807	y: 0.55680364	z: 0.23762658
10:43:58		x: 0.88208944	y: 0.3744604	z: -0.06780604
10:43:59		x: 0.6936375	y: -0.06352998	z: -0.050396383
10:43:59		x: 0.25809056	y: 0.906524	z: -0.14935656
10:43:59		x: -1.7986927	y: 0.5207626	z: 0.43035457
10:43:59		x: -0.23090707	y: 1.3765849	z: 0.28771752
10:43:59		x: -0.22021692	y: 0.27183503	z: -0.10140363
10:43:59		x: 0.7476991	y: 0.0076358155	z: 0.39950588
10:44:00		x: 0.77488256	y: -0.15699236	z: -0.20616703
10:44:00		x: 0.35338554	y: 1.0299188	z: -0.15393804
10:44:00		x: -1.6032158	y: 0.593761	z: 0.65179324
10:44:00		x: -0.2874121	y: 1.0650436	z: 0.30207285
10:44:00		x: -0.49327368	y: 0.020158553	z: 0.03573562
10:44:00		x: 0.1554652	y: 0.51159966	z: 0.35063666
10:44:01		x: 0.5271767	y: -0.17104226	z: -0.035430185
10:44:01		x: 0.43768495	y: 1.0454959	z: 0.18142697
10:44:01		x: -0.67103547	y: 1.102001	z: -0.019547688
10:44:01		x: 0.24587326	y: 1.632232	z: 0.27916542
10:44:01		x: 1.4147639	y: 1.3338243	z: 0.5644395
10:44:02		x: -0.61941737	y: 0.6374379	z: 0.15027285
10:44:02		x: 0.55924714	y: 0.34483343	z: 0.4166101
10:44:02		x: 0.83199847	y: 0.8561276	z: 0.45142943
10:44:02		x: -0.18417588	y: 0.79473567	z: -0.27214047
10:44:02		x: -0.63316184	y: 1.668273	z: 1.3316863
10:44:03		x: 2.255009	y: -1.9617938	z: 4.384791
10:44:03		x: 0.42638394	y: -5.414404	z: 2.893974
10:44:03		x: 0.47739118	y: -2.4495697	z: 0.226631
10:44:03		x: 1.0225884	y: -2.2800546	z: -2.057394
10:44:03		x: 1.3197744	y: -1.8497	z: -1.4899004
10:44:03		x: 0.18325958	y: -0.64599	z: -0.4016439
10:44:04		x: 0.32711834	y: 0.07696902	z: 0.2012801
10:44:04		x: 0.22449298	y: 0.7134906	z: 0.090713486
10:44:04		x: 0.45906523	y: 0.0027488936	z: -0.15454891
10:44:04		x: 0.099571034	y: -0.090713486	z: -0.0143553335
10:44:04		x: 0.14477506	y: -0.20677789	z: -0.05467244
10:44:05		x: 0.09987647	y: 0.028405234	z: 0.032986723
10:44:05		x: -0.05681047	y: 0.21991149	z: -0.08674286
10:44:05		x: 0.0067195175	y: 0.46914452	z: -0.018325957
10:44:05		x: -0.1572978	y: 0.17440203	z: 0.048563786
10:44:05		x: -0.027488936	y: -0.5421429	z: 0.038789943
10:44:05		x: -0.02565634	y: 0.12217305	z: -0.0125227375
