4 1:25.8001051333 2:6.18734662106 3:12.795941905 4:6.71202677263 5:45.0513033966 6:4.74122243221 7:-3.44324511485 8:-3.01346249541e-16 9:2.61797778304 10:6.85380767249 11:2.17638725736 12:-2.37085427865 13:0.315340071236 14:1.60574010945 15:2.57840129909 16:5.65667819941 17:-6.96031559167 18:0.248009714666 19:3.60397686354 20:12.9886492329 21:10.659012524 22:-13.172378905 23:-1.96927893535 24:7.13294500444 25:50.8789044363 26:9.09272990611 27:-5.91809373527 28:0.603723203808 29:3.91879952829 30:15.3569897429 
4 1:39.4367287133 2:6.22798268439 3:28.2404124069 4:11.3533631004 5:128.898853691 6:6.05307959676 7:-7.43788185135 8:-9.83340393239e-16 9:4.58745589682 10:21.0447516053 11:4.47136049027 12:-5.09315424254 13:-0.205466894113 14:2.9366252773 15:8.62376801929 16:3.40924353438 17:-12.0389238681 18:-1.48802402244 19:4.48864300243 20:20.1479160032 21:11.7571352088 22:-3.09273850477 23:1.48862434554 24:4.00040765931 25:16.0032614407 26:12.5461634433 27:-10.2341281896 28:0.5487334742 29:6.73468259598 30:45.3559496686 
4 1:22.3145123978 2:-17.4106565204 3:9.17919965937 4:13.5740884024 5:184.255875956 6:16.4571569859 7:-12.5847893398 8:-4.4408920985e-16 9:8.47570379757 10:71.8375548641 11:6.70870001498 12:-6.95932662959 13:-0.194496514598 14:3.8994131573 15:15.2054229713 16:1.55927118986 17:-2.09126694549 18:-0.243152098275 19:1.15224735019 20:1.32767395602 21:5.60918541195 22:-3.6879681 23:0.796447452308 24:3.20954217212 25:10.3011609546 26:8.75758283419 27:-11.4093569085 28:-0.0640123090332 29:6.78738626556 30:46.068612318 
4 1:-6.34527042216 2:-17.7358000956 3:-10.070545822 4:3.91463955306 5:15.3244028304 6:5.40379852204 7:-4.07636371999 8:9.51619735393e-17 9:2.77135591945 10:7.68041363229 11:2.12226524376 12:-2.25942164971 13:-0.143257857263 14:1.27186315986 15:1.61763589741 16:2.3249562338 17:-3.22811274376 18:-0.356166143807 19:1.51365539335 20:2.29115264981 21:8.51454355396 22:-2.4143492725 23:1.19838746864 24:3.36692295014 25:11.3361701521 26:8.61950907992 27:-14.6412972005 28:0.609426904748 29:6.92222819037 30:47.9172431195 
4 1:-1.8929981626 2:-24.627206445 3:-9.36587924875 4:7.77475579392 5:60.446827655 6:10.5610981291 7:-7.98919770168 8:2.53765262771e-16 9:5.32979103691 10:28.4066724972 11:4.27202494261 12:-4.20501846089 13:-0.175193050455 14:2.39123432363 15:5.71800159049 16:2.29507208969 17:-2.24734338042 18:0.111335187724 19:1.22523761293 20:1.50120720815 21:5.92518377435 22:-5.24297839982 23:0.999842317193 24:3.00816099031 25:9.0490325436 26:10.7080961789 27:-9.91039097192 28:0.281601641169 29:6.94386823267 30:48.2173060326 
4 1:-2.97709628109 2:-21.2648651512 3:-9.03108473098 4:6.26670431415 5:39.271582961 6:6.0708250082 7:-4.82662021877 8:2.73590673925e-16 9:3.41937618179 10:11.6921334726 11:1.99568777478 12:-2.52840198335 13:-0.295267263314 14:1.5458001005 15:2.38949795072 16:2.52212086439 17:-2.55718271465 18:-0.292066635684 19:1.66306111868 20:2.76577228448 21:12.3837570928 22:-1.80882095661 23:1.94394835891 24:4.00777633289 25:16.0622711345 26:7.99665969824 27:-9.40382987056 28:-0.46589799942 29:6.25398752524 30:39.1123599659 
4 1:-2.52311890239 2:-22.0040920553 3:-9.00777813481 4:6.65803851422 5:44.3294768568 6:5.64840166412 7:-4.59683608003 8:2.22044604925e-16 9:3.30677308396 10:10.9347482288 11:1.90444901286 12:-2.43377100603 13:-0.269876256573 14:1.47505926111 15:2.17579982378 16:1.05427934739 17:-1.09191004401 18:-0.0129832180729 19:0.56429668748 20:0.318430751501 21:9.05124064518 22:-1.93650145312 23:1.5225108661 24:3.02687998711 25:9.16200245639 26:9.65951559289 27:-10.0915583745 28:-0.213039680375 29:6.7841575777 30:46.0247940391 
4 1:-6.99682884309 2:-12.0525337267 3:-8.68162210181 4:1.75657578511 5:3.08555848885 6:1.22372311319 7:-1.52132924743 8:2.53765262771e-16 9:0.955279501421 10:0.912558925836 11:1.43052946981 12:-1.06715582947 13:-0.168953594149 14:0.759236715392 15:0.576440389999 16:2.73918101035 17:-5.46010381145 18:-0.632521772386 19:2.20132094909 20:4.8458139209 21:10.0486253029 22:-1.4884270204 23:1.41662239042 24:3.42427279252 25:11.7256441576 26:10.7303189194 27:-7.0617773583 28:-0.336768081021 29:6.77348973181 30:45.880163147 
4 1:20.5178889035 2:3.94119367857 3:9.42284592244 4:5.65276863901 5:31.9537932862 6:6.32417011209 7:-8.59392321028 8:-3.17206578464e-17 9:4.19305447605 10:17.5817058391 11:3.83410756731 12:-4.04696986876 13:-0.221729974853 14:2.35593919501 15:5.5504494906 16:3.36897091366 17:-1.78378387384 18:0.428725368128 19:1.52867280597 20:2.33684054772 21:10.4457772185 22:-4.85630095054 23:1.94861871894 24:4.5886665612 25:21.0558608099 26:10.7074778537 27:-11.2577800271 28:0.687864709632 29:5.54448891906 30:30.7413573736 
4 1:38.6989687927 2:19.0173039497 3:25.6647715133 4:6.70010272454 5:44.8913765194 6:4.01130954146 7:-3.80725931159 8:-9.04038748623e-16 9:2.65435771889 10:7.04561489985 11:2.54459163219 12:-2.10876461626 13:0.0860813888291 14:1.42460465535 15:2.02949842405 16:6.09045898699 17:-4.78785139771 18:0.299479700922 19:3.09787848509 20:9.59685110839 21:0.987044353982 22:-1.92818040706 23:-0.261629834818 24:0.918726665887 25:0.844058686612 26:4.45124033217 27:-5.85435046242 28:-0.332438442274 29:3.38831814859 30:11.4806998761 
4 1:33.8981198526 2:25.5812136085 3:28.3102980255 4:2.84896380276 5:8.11659474946 6:2.66245473391 7:-3.42882097118 8:-3.72717729696e-16 9:1.8006484776 10:3.2423349399 11:1.24683489786 12:-1.21379385851 13:0.177359505428 14:0.793257023412 15:0.629256705192 16:1.82350775335 17:-1.75778548626 18:-0.178601971163 19:1.03971131744 20:1.08099962362 21:1.39068781733 22:-5.43959761112 23:-0.985501667343 24:1.88038422446 25:3.53584483158 26:5.92010216188 27:-5.61313069526 28:0.301292692109 29:4.00143872686 30:16.0115118848 
4 1:34.6380996608 2:21.4450409414 3:25.8111243086 4:4.51433315331 5:20.3792038191 6:3.74447642145 7:-4.78518618688 8:-1.9825411154e-16 9:2.58114773207 10:6.66232361475 11:1.9340785653 12:-1.67086065549 13:0.161069401427 14:1.1169711339 15:1.24762451395 16:2.03417510769 17:-1.92120859996 18:0.118886561432 19:1.11153186305 20:1.23550308257 21:1.99781227737 22:-6.15708157974 23:-0.99203660617 24:2.10707183103 25:4.43975170111 26:6.25719820876 27:-6.3010618864 28:0.0922308060845 29:4.10958612002 30:16.8886980778 
4 1:33.1670335726 2:21.8622019993 3:25.7049901356 4:3.86089702688 5:14.9065258521 6:2.65982533433 7:-2.3300594387 8:-1.34812795847e-16 9:1.38569550982 10:1.92015204593 11:1.56179136933 12:-1.82796692639 13:-2.85485920618e-16 14:1.12868606087 15:1.27393222401 16:1.51772761913 17:-2.23975448937 18:-3.80647894157e-16 19:1.23876797484 20:1.53454609549 21:3.59945252202 22:-7.03012879995 23:-0.922648027352 24:2.98004129027 25:8.8806460917 26:6.12549005849 27:-6.55180174115 28:0.0744723859313 29:3.9306523189 30:15.4500276521 
