4 1:5323.36726893 2:5323.32018577 3:5323.35169164 4:0.0147699457762 5:0.000218151298233 6:0.0143586690887 7:-0.0133897620943 8:3.43428988951e-14 9:0.00876996837106 10:7.69123452294e-05 11:0.01593998572 12:-0.0126589591504 13:-1.36779476634e-13 14:0.00870549607655 15:7.57856619389e-05 16:0.0335550441375 17:-0.0343512322361 18:-6.63173220043e-14 19:0.0204929246201 20:0.000419959959484 21:0.0286315666696 22:-0.0285314903098 23:-3.37507799486e-14 24:0.0172367272789 25:0.000297104767289 26:0.0731260928687 27:-0.050704199887 28:0.000654985265191 29:0.0371832418963 30:0.00138259347792 
4 1:5323.72312817 2:5323.38395041 3:5323.4972108 4:0.106052597042 5:0.0112471533393 6:0.086546708838 7:-0.100847653083 8:-2.42768768051e-13 9:0.0568518795998 10:0.00323213621403 11:0.0883565198129 12:-0.10231890929 13:-5.15143483426e-14 14:0.0577858080857 15:0.00333919961611 16:0.15918181939 17:-0.162517626042 18:-8.58572472377e-14 19:0.0981184372669 20:0.00962722773169 21:0.0467881057188 22:-0.0310989870598 23:-3.31586610021e-14 24:0.0286147427161 25:0.000818803500706 26:0.0536734824825 27:-0.0699498647042 28:-0.00180858062138 29:0.0407503413783 30:0.00166059032245 
4 1:5323.61475982 2:5323.51831384 3:5323.58300632 4:0.0303089471616 5:0.000918632278043 6:0.0298309240843 7:-0.0288897125817 8:6.03961325396e-14 9:0.0191288998941 10:0.000365914811157 11:0.0343785294117 12:-0.0261397202657 13:-7.22385114689e-14 14:0.0188092843704 15:0.000353789178527 16:0.0797927205509 17:-0.0828220382531 18:-4.61852778244e-14 19:0.0493680326608 20:0.0024372026488 21:0.097407476148 22:-0.101817569281 23:-4.08562073062e-14 24:0.06053503564 25:0.00366449053994 26:0.0454383444361 27:-0.0537907192927 28:-0.00107878152624 29:0.0305525977512 30:0.000933461229344 
4 1:5323.43042143 2:5323.07349685 3:5323.3110228 4:0.111540204133 5:0.012441217138 6:0.105469882811 7:-0.0890994304598 8:-5.80276567537e-14 9:0.0588422251322 10:0.00346240745851 11:0.105610332159 12:-0.0931681721262 13:-4.73695157173e-14 14:0.0606439311406 15:0.00367768638419 16:0.157366450053 17:-0.152040305812 18:-8.881784197e-15 19:0.095529473959 20:0.00912588039488 21:0.0467215905941 22:-0.0526942616311 23:-1.02436577739e-13 24:0.0300850817821 25:0.000905112145834 26:0.0773777705954 27:-0.0693121632029 28:0.00270903652066 29:0.0517751401352 30:0.00268066513602 
4 1:5324.07300217 2:5323.69316992 3:5323.81964084 4:0.118877634507 5:0.0141318919859 6:0.10035862192 7:-0.113923824995 8:-5.92118946467e-14 9:0.0655716182709 10:0.00429963712266 11:0.0994315925039 12:-0.11863820065 13:-6.69094409507e-14 14:0.0658171237612 15:0.00433189378019 16:0.207498145117 17:-0.208037043285 18:-3.13823041627e-14 19:0.125493657837 20:0.0157486581573 21:0.105053306947 22:-0.0927034565328 23:-3.64153152077e-14 24:0.0655236749326 25:0.00429335197667 26:0.0316651620676 27:-0.0521175186216 28:-0.000224919660836 29:0.0256947127335 30:0.000660218262459 
4 1:5323.78385264 2:5323.54793834 3:5323.70547455 4:0.0738967694526 5:0.00546073253554 6:0.071079995332 7:-0.0640057851374 8:-1.14871075615e-13 9:0.04176936697 10:0.00174468001707 11:0.0761571945992 12:-0.0628628985881 13:-7.16463925225e-14 14:0.0419735374601 15:0.00176177784691 16:0.144352507719 17:-0.145553222997 18:-4.91458725567e-14 19:0.0873515998009 20:0.00763030198778 21:0.0975139589674 22:-0.10499010851 23:5.62512999143e-15 24:0.0630510984802 25:0.00397544101956 26:0.0158412233581 27:-0.0262994736899 28:0.00134723753009 29:0.0152134397056 30:0.000231448747676 
4 1:5323.72123965 2:5323.52166996 3:5323.65391978 4:0.0622007855709 5:0.00386893772564 6:0.0576649598739 7:-0.0444874641198 8:-2.72374715375e-14 9:0.0312594942478 10:0.000977155980631 11:0.0520560605627 12:-0.0501064328443 13:-9.00020798629e-14 14:0.0330167465142 15:0.00109010555039 16:0.0510205746003 17:-0.036204853777 18:-1.2908193033e-13 19:0.0344839296666 20:0.00118914140525 21:0.107131346252 22:-0.116800140334 23:-8.40808903983e-14 24:0.0707221349138 25:0.00500162036677 26:0.0538817620815 27:-0.0882412152438 28:0.000521658767472 29:0.0479985578801 30:0.00230386155857 
4 1:5323.89891835 2:5323.80891655 3:5323.83884779 4:0.0281747315535 5:0.00079381549811 6:0.0240855902945 7:-0.0272179130057 8:-6.98700356831e-14 9:0.0157268632443 10:0.000247334227504 11:0.0228627879148 12:-0.0280478494333 13:-1.42700666098e-13 14:0.0153909715923 15:0.000236882006554 16:0.0496756010832 17:-0.0495082608551 18:-7.34227493619e-14 19:0.0299091802271 20:0.000894559061854 21:0.0244662501466 22:-0.0217210333397 23:-2.54611146981e-14 24:0.0153224498356 25:0.000234777468965 26:0.0400985718051 27:-0.0425912183242 28:0.00162688929008 29:0.0284095640943 30:0.000807103332028 
4 1:5323.87980895 2:5323.81293845 3:5323.83565268 4:0.0208012083554 5:0.000432690269045 6:0.0134215815522 7:-0.0189138588076 8:1.18423789293e-15 9:0.0104182064387 10:0.0001085390254 11:0.0164766270028 12:-0.0156321192948 13:-6.09882514861e-14 14:0.0114351152504 15:0.000130761860789 16:0.0175360068623 17:-0.0216168187273 18:-5.3290705182e-15 19:0.0118662623078 20:0.000140808181158 21:0.0687934417681 22:-0.0651823204897 23:-3.81916720471e-14 24:0.0411420278435 25:0.00169266645507 26:0.0436328164784 27:-0.0305555092671 28:-0.000481517515067 29:0.0246121494534 30:0.000605757900717 
4 1:5323.85311566 2:5323.68146184 3:5323.73895924 4:0.0536084390255 5:0.00287386473475 6:0.0420314816316 7:-0.0508879713869 8:-1.24344978758e-13 9:0.0280485020852 10:0.000786718469223 11:0.0425026214818 12:-0.0485728918155 13:-3.43428988951e-14 14:0.0277211112888 15:0.000768460011089 16:0.059995546044 17:-0.0632640707444 18:-2.19084010193e-14 19:0.0389882235408 20:0.00152008157487 21:0.0346359993206 22:-0.0343855919453 23:-4.23365046724e-14 24:0.0256589704003 25:0.000658382762006 26:0.0407738944347 27:-0.0611924910123 28:0.0036714953679 29:0.0388329513088 30:0.00150799810735 
4 1:5323.55124467 2:5323.51111351 3:5323.52470894 4:0.0124907951103 5:0.000156019962487 6:0.0083209367091 7:-0.0117068038423 8:-1.65793305011e-14 9:0.00645248918796 10:4.16346167208e-05 11:0.0083977972308 12:-0.0088211943214 13:-4.67773967709e-14 14:0.00554475014585 15:3.07442541799e-05 16:0.00984667824774 17:-0.0112448508209 18:-4.85537536103e-14 19:0.00639871182555 20:4.09435130264e-05 21:0.0463232183299 22:-0.0432216345306 23:-2.07241631263e-14 24:0.0278280916159 25:0.000774402682986 26:0.0451837778726 27:-0.0611831020116 28:0.00351150654112 29:0.0360588171495 30:0.00130023829422 
4 1:5323.72723313 2:5323.65374081 3:5323.67823003 4:0.0230068225302 5:0.000529313882938 6:0.0193137601269 7:-0.0217356604929 8:-7.81597009336e-14 9:0.0126131128286 10:0.000159090615227 11:0.0207375134562 12:-0.0236979924867 13:-3.61192557345e-14 14:0.0135069409757 15:0.000182437454522 16:0.0435273840433 17:-0.0437568364496 18:-5.50670620214e-14 19:0.0263750776485 20:0.000695644720967 21:0.029896604311 22:-0.027677229308 23:-1.09542005096e-14 24:0.0178996919987 25:0.000320398973649 26:0.063820860646 27:-0.0648714159442 28:-0.0034473417604 29:0.040536201163 30:0.00164318360473 
4 1:5324.02645188 2:5323.95815334 3:5323.98032518 4:0.0215276935946 5:0.000463441591504 6:0.0231640738338 7:-0.0239906925555 8:5.68434188608e-14 9:0.0152560118326 10:0.000232745897036 11:0.02316290694 12:-0.0262145731499 13:-5.21064672891e-14 14:0.0177656142057 15:0.000315617048107 16:0.0359938010336 17:-0.0336245845226 18:2.07241631263e-14 19:0.0217514312366 20:0.00047312476084 21:0.0654034833633 22:-0.0581363167098 23:-0.00332324025269 24:0.0384946225144 25:0.00148183596253 26:0.00503232678355 27:-0.00354266867716 28:-0.00100646535669 29:0.00315590289918 30:9.95972310904e-06 
