4 1:-46.7278266416 2:-110.374889122 3:-67.5046335384 4:21.769326593 5:473.903580312 6:34.3778842822 7:-25.6442997144 8:5.07530525543e-16 9:16.9643373638 10:287.788742192 11:14.9741116382 12:-13.4911703853 13:-0.518487844914 14:8.1408345011 15:66.2731863742 16:14.6282711778 17:-3.45552971797 18:1.80924015063 19:5.64889679832 20:31.9100350381 21:16.0964147398 22:-15.6251541272 23:2.66607375786 24:9.85173415784 25:97.0566659167 26:29.4544592718 27:-25.0598107363 28:2.18221195686 29:18.0822810063 30:326.968886391 
4 1:25.1294832277 2:-119.259964319 3:-70.6229801296 4:49.0861164728 5:2409.44683038 6:28.9636942826 7:-34.8059077688 8:1.26882631386e-15 9:21.4715391763 10:461.026994599 11:15.6160052253 12:-11.7977625948 13:0.147859726369 14:9.83762309807 15:96.7788282197 16:12.7280234139 17:-11.8040657952 18:-0.956375445057 19:8.30816021733 20:69.0255261969 21:18.4860824275 22:-11.7369333103 23:1.62143963695 24:10.199427294 25:104.028317126 26:53.6814012258 27:-57.3331690383 28:-3.62562812161 29:33.4257118726 30:1117.27821419 
4 1:339.275275243 2:-109.61606218 3:39.9463240271 4:153.171985404 5:23461.6571127 6:117.781026731 7:-149.459572329 8:-3.04518315326e-15 9:81.5168939504 10:6645.00399932 11:62.6194215789 12:-53.5852016691 13:2.32487274216 14:36.0602102555 15:1300.33876367 16:57.6162037481 17:-48.9241204888 18:3.30373689611 19:29.1499896927 20:849.721899086 21:31.4169685635 22:-57.4784734089 23:-9.39008804181 24:22.8183475121 25:520.676983183 26:34.8197583255 27:-47.3020081054 28:0.185742615123 29:26.7170881588 30:713.802799683 
4 1:476.713153394 2:200.648350454 3:292.797519659 4:94.222058038 5:8877.79622091 6:65.5796137501 7:-81.3542016943 8:-9.64307998532e-15 9:46.6285184178 10:2174.21872984 11:34.2017331293 12:-26.6981742098 13:2.25918166467 14:20.5226474862 15:421.179059844 16:38.2645142165 17:-32.2879875648 18:1.73244207931 19:19.0648783132 20:363.469585096 21:32.7877823506 22:-70.7689298529 23:-12.2447132438 24:26.2255550941 25:687.779739996 26:109.521743498 27:-109.694724265 28:-1.17063617345 29:70.6084310024 30:4985.55052862 
4 1:472.666956353 2:254.447665541 3:326.837727389 4:74.6743400667 5:5576.25706439 6:56.5411371094 7:-70.9514624383 8:-1.3639882874e-14 9:39.8558561033 10:1588.48926572 11:29.0104762774 12:-23.1229970089 13:3.06121122402 14:17.5120709566 15:306.67262919 16:35.005759805 17:-32.8147897666 18:2.10447404854 19:18.9022953182 20:357.296768295 21:35.1728059572 22:-118.651865481 23:-19.2529833735 24:40.5034894705 25:1640.53265929 26:117.183196287 27:-100.006377997 28:3.15883171913 29:72.8794931694 30:5311.42052463 
4 1:455.581847497 2:259.073441984 3:324.294079472 4:67.2275325034 5:4519.5411265 6:49.7003599912 7:-61.9577451316 8:-7.80328183022e-15 9:35.2076499333 10:1239.57861383 11:24.9809122949 12:-19.6392813338 13:2.9736374355 14:15.365464742 15:236.097506738 16:34.8871898183 17:-32.302103048 18:1.04254293221 19:17.6423676448 20:311.253136116 21:28.9733353604 22:-107.601150039 23:-17.9753108413 24:37.1274592478 25:1378.4482302 26:119.145308918 27:-88.42346189 28:5.50224596708 29:74.8992197105 30:5609.89311324 
4 1:439.602676003 2:259.077956148 3:318.949904173 4:61.7684705687 5:3815.3439564 6:46.5276411913 7:-58.2134981109 8:-1.2180732613e-14 9:32.8132273612 10:1076.70788986 11:23.2700296481 12:-18.5262140776 13:2.77074591524 14:14.2545896753 15:203.193326811 16:34.7453274294 17:-32.2552655549 18:0.986459248041 19:17.5255367787 20:307.144439382 21:23.6676861738 22:-98.5948120529 23:-16.5041508752 24:34.6529466276 25:1200.82670997 26:114.77857608 27:-80.0429619172 28:6.02391614646 29:72.5308993167 30:5260.73135569 
4 1:342.489496195 2:20.8789137407 3:232.861338333 4:109.158446168 5:11915.5663697 6:51.3940729382 7:-63.3338356344 8:-6.09036630652e-15 9:37.5956730112 10:1413.43462916 11:26.4941627393 12:-38.3842600051 13:0.732198441637 14:22.7639597661 15:518.197864231 16:82.6635057731 17:-81.4562821105 18:0.801299080822 19:45.4866155513 20:2069.03219431 21:30.0516547465 22:-89.2664398664 23:-13.5583655333 24:33.0959673816 25:1095.34305692 26:100.217346156 27:-84.1028677323 28:5.732802611 29:56.3915928943 30:3180.01174916 
4 1:-73.2715061941 2:-253.808026071 3:-192.174600942 4:61.4303409686 5:3773.68679152 6:40.7697893794 7:-41.6765785817 8:4.06024420434e-15 9:22.4298205153 10:503.09684835 11:20.8431549488 12:-29.0219236822 13:3.76544401284 14:15.6243361469 15:244.11988003 16:25.1470333924 17:-34.1458464787 18:-3.80018612308 19:16.2988990229 20:265.654109358 21:24.5737831758 22:-95.0747174289 23:-18.7139040857 24:36.3111606918 25:1318.50039078 26:79.5882429993 27:-81.8527580078 28:5.84730076032 29:54.7155824102 30:2993.79495848 
4 1:-131.866709282 2:-188.675902457 3:-169.942550308 4:19.4698587626 5:379.075400235 6:14.5920114087 7:-17.877401984 8:2.85485920618e-15 9:10.3961516427 10:108.079968978 11:10.4515374553 12:-5.41460473225 13:1.63236165119 14:5.13629073159 15:26.3814824794 16:11.8037050594 17:-12.9717817273 18:-1.62804412058 19:7.50798898437 20:56.3698985895 21:15.8783708852 22:-50.79199956 23:-9.16904657433 24:19.4628274794 25:378.801653491 26:57.8715102759 27:-47.9861802439 28:4.57449615595 29:37.6659368042 30:1418.72279534 
4 1:-119.586819491 2:-203.322488903 3:-175.254571999 4:28.582603179 5:816.965204487 6:18.2789574963 7:-18.5295722091 8:7.61295788314e-16 9:12.3462581625 10:152.430090614 11:8.47187385565 12:-6.7979908486 13:1.05788580038 14:5.85066549591 15:34.2302867451 16:7.39390561079 17:-6.38677529825 18:0.220467767295 19:3.80585582839 20:14.4845385865 21:17.05951877 22:-29.9833891092 23:-5.27253550524 24:13.6360725074 25:185.942473426 26:48.577134964 27:-26.7149030586 28:3.77689597596 29:28.4515371375 30:809.489965486 
4 1:-109.808021785 2:-141.5842934 3:-130.901395424 4:10.8496075596 5:117.713984196 6:7.05903907147 7:-5.83938685668 8:3.56857400772e-15 9:4.38827893491 10:19.2569920105 11:3.55755164335 12:-3.59859866595 13:0.430412202519 14:2.33521471807 15:5.45322777947 16:5.92079612145 17:-4.98443666857 18:0.428887090338 19:3.11244806195 20:9.68733293832 21:6.32020121983 22:-13.2767606461 23:-2.24566633665 24:5.46226776633 25:29.8363691511 26:22.3254095352 27:-20.2459026293 28:2.25095771424 29:14.9752868162 30:224.259215226 
4 1:-110.090050521 2:-132.019979264 3:-124.551934243 4:7.46795700956 5:55.7703818966 6:4.89915520486 7:-4.58971491727 8:6.50273485852e-16 9:2.60712362496 10:6.79709359582 11:2.80663100192 12:-3.39584895319 13:3.17206578464e-16 14:2.09341993097 15:4.38240700737 16:1.92745679903 17:-1.79818746305 18:1.44328993201e-15 19:1.16085151772 20:1.34757624619 21:8.42166815625 22:-9.57347766935 23:-1.1261707895 24:5.50396591703 25:30.2936408158 26:18.5874138547 27:-20.5126308338 28:2.35463595362 29:14.0479079214 30:197.343716969 
