11 1:235.100095174 2:233.906949188 3:234.304411226 4:0.373332118852 5:0.139376870967 6:0.313254587188 7:-0.358209707191 8:-7.5125091333e-15 9:0.2048795353 10:0.0419756239845 11:0.307013935922 12:-0.367432517701 13:2.22044604925e-16 14:0.203547761221 15:0.0414316910982 16:0.620640741442 17:-0.624029188913 18:-4.21884749358e-15 19:0.376338205374 20:0.141630444824 21:0.272711833318 22:-0.226428566209 23:-2.03540887848e-15 24:0.180478198888 25:0.032572380274 26:0.18537562415 27:-0.20365322467 28:0.0122182846179 29:0.123423423956 30:0.0152333415811 
11 1:235.185942539 2:235.087049307 3:235.120135024 4:0.0309011855669 5:0.00095488326944 6:0.0246328204382 7:-0.029273626449 8:5.55111512313e-16 9:0.016293186552 10:0.000265467928019 11:0.0254442184476 12:-0.0289903183171 13:-1.59131966863e-15 14:0.0165785862162 15:0.000274849520929 16:0.0406424369291 17:-0.0421687265543 18:-7.58652400161e-16 19:0.0256391890659 20:0.000657368015956 21:0.0119134026925 22:-0.012456869876 23:-1.20274161001e-15 24:0.00820570476783 25:6.73335907368e-05 26:0.0186660967478 27:-0.0253853917594 28:-0.00027920947498 29:0.0133445057794 30:0.000178075834496 
11 1:235.224469082 2:235.092318681 3:235.180266602 4:0.0412962195746 5:0.00170537775115 6:0.03913714218 7:-0.0330103838259 8:-8.80776932869e-15 9:0.0218135109528 10:0.000475829260087 11:0.0388742863716 12:-0.0340560860282 13:-8.51170985546e-16 14:0.0221970235269 15:0.000492707853452 16:0.0571738538881 17:-0.0552288185025 18:-5.53261140605e-15 19:0.03471881075 20:0.00120539581989 21:0.0180030720144 22:-0.0190273391699 23:-3.62672854711e-15 24:0.0113821710132 25:0.000129553816974 26:0.00797820742133 27:-0.00804580170178 28:6.97421764548e-05 29:0.00546545362054 30:2.98711832783e-05 
11 1:235.653541637 2:235.375620401 3:235.468201814 4:0.0869607952858 5:0.00756217991674 6:0.072966848158 7:-0.0834383098679 8:-6.58732327944e-15 9:0.0477228891589 10:0.00227747414967 11:0.071513204151 12:-0.0855865925799 13:-3.33066907388e-15 14:0.0474126770792 15:0.00224796194782 16:0.144566753668 17:-0.145356029683 18:-2.68303897618e-15 19:0.0876610074064 20:0.00768445221951 21:0.063523165331 22:-0.0527423363774 23:-1.3692750637e-15 24:0.0420390502573 25:0.00176728174653 26:0.0431798146707 27:-0.0474372428343 28:0.00284602286742 29:0.0287491982665 30:0.000826516400966 
11 1:234.684625719 2:234.485832964 3:234.61922683 4:0.0625093471481 5:0.00390741848088 6:0.0613048319461 7:-0.0601185145582 8:-9.65894031424e-15 9:0.040017869926 10:0.00160142991342 11:0.0726201882014 12:-0.0558579536393 13:-8.21565038223e-15 14:0.0396901327994 15:0.00157530664163 16:0.17420104425 17:-0.180908109266 18:-2.07241631263e-15 19:0.107863139096 20:0.0116344567756 21:0.219686028269 22:-0.225049854586 23:-1.51730480032e-15 24:0.134309053649 25:0.0180389218921 26:0.0348932538644 27:-0.050541206195 28:0.0030701256071 29:0.0270790594618 30:0.000733275461337 
