18:30:19		x: 2.3116016	y: 3.3770216	z: 8.537724
18:30:19		x: 1.3611037	y: 3.2202013	z: 8.935161
18:30:19		x: 4.660912	y: 3.5314474	z: 7.465121
18:30:19		x: 7.4986396	y: 5.3767786	z: 10.242394
18:30:19		x: 9.75697	y: 4.099472	z: 5.1421466
18:30:19		x: 9.173983	y: 2.6605566	z: 4.9757495
18:30:20		x: 9.659407	y: 0.8798691	z: -0.08020575
18:30:20		x: 11.078569	y: 1.4760253	z: -2.4121583
18:30:20		x: 10.261548	y: 9.372701	z: -2.6677392
18:30:20		x: 3.7475243	y: 6.2464724	z: -4.923676
18:30:20		x: 2.6084828	y: 8.975264	z: 0.2861071
18:30:21		x: -3.7295678	y: 8.617331	z: 0.48722005
18:30:21		x: -3.1555579	y: 8.07265	z: 1.18094
18:30:21		x: -2.19249	y: 7.740454	z: 0.20410569
18:30:21		x: -4.0252514	y: 8.273763	z: -1.027711
18:30:21		x: 0.59735334	y: 9.887454	z: 0.6362591
18:30:21		x: -0.0035913025	y: 10.488997	z: 0.694917
18:30:22		x: 2.0416555	y: 7.9529395	z: 3.465607
18:30:22		x: 0.019153614	y: 8.829217	z: 3.9564183
18:30:22		x: 0.4854244	y: 8.821436	z: 4.1641154
18:30:22		x: 0.28431144	y: 8.768166	z: 3.99293
18:30:22		x: 0.62967503	y: 8.233061	z: 3.7912183
18:30:23		x: 0.05267244	y: 9.16261	z: 3.2501287
18:30:23		x: 0.7541735	y: 9.271546	z: 3.3925838
18:30:23		x: -0.58657944	y: 8.46051	z: 3.2034419
18:30:23		x: -2.3756466	y: 8.9519205	z: 2.4546554
18:30:23		x: -0.8631097	y: 9.284714	z: 4.1479545
18:30:23		x: 0.14784196	y: 8.13849	z: 4.2778397
18:30:24		x: -0.27473465	y: 9.450513	z: 2.6162639
18:30:24		x: -1.6160861	y: 8.083424	z: -1.5676036
18:30:24		x: 4.0497923	y: 14.498687	z: 4.51307
18:30:24		x: -9.327211	y: 19.096752	z: 11.089942
18:30:24		x: -1.8668787	y: 4.0438066	z: 2.2176294
18:30:24		x: -1.1785458	y: 12.657546	z: 5.015254
18:30:25		x: 2.3247697	y: 8.384495	z: 4.803367
18:30:25		x: 0.46866497	y: 6.1955953	z: 2.6940753
18:30:25		x: -7.017405	y: 12.213422	z: 2.9340942
18:30:25		x: -0.260968	y: 8.3551655	z: 2.7012582
18:30:25		x: 0.9331401	y: 4.9266686	z: 4.465186
18:30:26		x: -2.6024973	y: 15.904682	z: -2.2385786
18:30:26		x: -0.7793127	y: 7.993641	z: 0.66618663
18:30:26		x: -0.5662287	y: 7.695563	z: 1.5167267
18:30:26		x: 0.15682021	y: 10.318411	z: 1.4131776
18:30:26		x: -3.5996823	y: 9.865907	z: 0.7745243
18:30:26		x: 0.49919105	y: 7.5321584	z: 4.1677065
18:30:27		x: -0.7966706	y: 9.452309	z: 5.0104656
18:30:27		x: -1.4425066	y: 9.639654	z: 1.4706384
18:30:27		x: 0.61890113	y: 10.918159	z: 2.1362264
18:30:27		x: -0.12689269	y: 8.735844	z: 0.7248446
18:30:27		x: -0.012569559	y: 11.415554	z: 0.27832595
18:30:28		x: 4.1539397	y: 11.88781	z: -0.20829555
18:30:28		x: 3.6152446	y: 4.7524905	z: 2.372654
18:30:28		x: -3.4117374	y: 9.944916	z: 5.7466826
18:30:28		x: 2.5635915	y: 13.337499	z: 4.343082
18:30:28		x: 0.39025488	y: 10.437522	z: 3.3375173
18:30:28		x: -0.0724246	y: 10.277709	z: 2.349909
18:30:29		x: -1.4706384	y: 3.558981	z: 7.7667904
18:30:29		x: -0.51116204	y: 3.7846344	z: 9.928755
18:30:29		x: -0.108936176	y: 5.0493712	z: 8.647258
18:30:29		x: -0.18016368	y: 5.979519	z: 7.530363
18:30:29		x: -0.095768064	y: 5.954978	z: 8.26239
18:30:30		x: 0.007182605	y: 6.2482677	z: 7.712322
18:30:30		x: -0.12030864	y: 6.609792	z: 6.904279
18:30:30		x: 0.022146367	y: 6.5990186	z: 7.40766
18:30:30		x: -0.15442601	y: 6.4709287	z: 7.429806
18:30:30		x: -0.24720132	y: 5.920861	z: 7.9870567
18:30:30		x: -0.4357447	y: 6.2512608	z: 7.6602483
18:30:31		x: -0.50517654	y: 5.963358	z: 8.383297
18:30:31		x: 0.03232172	y: 6.039374	z: 7.6644382
18:30:31		x: -0.29867667	y: 6.11539	z: 7.719505
18:30:31		x: -0.27832595	y: 6.297349	z: 7.78355
18:30:31		x: -0.25857377	y: 6.241684	z: 7.4866686
