18:30:19		x: -1.2473868	y: -0.12767084	z: -1.0451905
18:30:19		x: -0.21868975	y: -1.5503759	z: -0.61666846
18:30:19		x: -0.04550946	y: 0.58276546	z: -1.3649784
18:30:19		x: -2.2910502	y: -1.6563611	z: -0.86742866
18:30:19		x: -1.6441438	y: -4.4284678	z: -1.1954633
18:30:19		x: -3.5619552	y: -3.8719695	z: -0.3894266
18:30:20		x: 0.50640726	y: -2.3142629	z: 1.2232577
18:30:20		x: -0.48930305	y: -1.0458013	z: 0.33200526
18:30:20		x: 1.9294178	y: -1.0103711	z: -5.376225
18:30:20		x: -0.3555236	y: 0.7870999	z: -4.0689735
18:30:20		x: -0.033292156	y: -0.1704314	z: -1.679574
18:30:21		x: 0.24740042	y: -0.14569137	z: -0.70616025
18:30:21		x: -0.4877759	y: -0.43493605	z: 1.0525209
18:30:21		x: 0.2919936	y: -0.7287622	z: 0.21563543
18:30:21		x: 0.24129178	y: -0.20280726	z: 0.23732115
18:30:21		x: -0.25473082	y: -0.64751714	z: 0.29565877
18:30:21		x: -0.5030475	y: 0.24465153	z: 0.23060162
18:30:22		x: -1.112691	y: 0.2950479	z: 0.54153204
18:30:22		x: -0.015271631	y: -0.27947086	z: -0.17165314
18:30:22		x: -0.106901415	y: -0.31215215	z: 0.045814894
18:30:22		x: -0.004886922	y: -0.12339478	z: -0.030543262
18:30:22		x: 0.13775012	y: -0.10629055	z: -0.2312125
18:30:23		x: 0.18081611	y: -0.12034045	z: -0.25686884
18:30:23		x: 0.1386664	y: 0.096516706	z: -0.11453723
18:30:23		x: -0.026267206	y: 0.32986724	z: -0.09896017
18:30:23		x: -0.22540927	y: 0.8368854	z: 0.21930063
18:30:23		x: -0.18234327	y: 0.63713247	z: 0.49510628
18:30:23		x: 0.07086037	y: 0.009773844	z: 0.34025195
18:30:24		x: 0.5662721	y: 0.17715092	z: -0.29260445
18:30:24		x: 0.34147367	y: 0.22174409	z: -0.79901177
18:30:24		x: 1.0552697	y: -1.078788	z: -0.98654735
18:30:24		x: -4.33134	y: -0.43890667	z: 2.085494
18:30:24		x: -1.6887369	y: 1.2852604	z: 0.97066486
18:30:25		x: 1.0467176	y: 2.4260514	z: -0.79137594
18:30:25		x: 1.1658363	y: -1.187522	z: 6.1086525E-4
18:30:25		x: 1.1108584	y: -0.89369583	z: -0.090713486
18:30:25		x: -0.70554936	y: 0.27030787	z: 0.6786713
18:30:25		x: -1.1337659	y: 0.9932669	z: 0.17134771
18:30:25		x: 0.40561453	y: -0.49418998	z: 0.9627236
18:30:26		x: 0.6783658	y: 0.19120082	z: 0.6401868
18:30:26		x: 1.3585643	y: 0.25350907	z: -0.8872818
18:30:26		x: 0.81245077	y: 0.9877691	z: -0.3032946
18:30:26		x: 0.14569137	y: -0.03726278	z: -0.5342017
18:30:26		x: -0.7834347	y: -0.8008443	z: 0.39278635
18:30:26		x: -0.118507855	y: -0.7651087	z: -0.40011674
18:30:27		x: -0.5589417	y: -0.6740898	z: 0.059253927
18:30:27		x: 0.010079277	y: 0.18142697	z: -0.076358154
18:30:27		x: 0.105068825	y: -0.49021935	z: 0.84879726
18:30:27		x: 0.21074851	y: 0.05497787	z: -0.31764993
18:30:27		x: 0.3827071	y: 0.2284636	z: 1.0415252
18:30:28		x: 1.1450669	y: -0.022602014	z: -0.42088616
18:30:28		x: -2.4190264	y: -1.6337591	z: -0.58062744
18:30:28		x: 0.6747007	y: -1.3521502	z: -0.88056225
18:30:28		x: 0.5748242	y: -0.204029	z: -1.6649132
18:30:28		x: 0.42424592	y: -3.271489	z: -0.69058317
18:30:28		x: -0.8668178	y: -2.7076602	z: -1.0497719
18:30:29		x: -2.6184738	y: -1.087951	z: -3.5750887
18:30:29		x: 0.24129178	y: -3.6080756	z: -0.34788775
18:30:29		x: 0.4636467	y: -0.2761111	z: 0.098043874
18:30:29		x: 0.29535335	y: 0.24312437	z: 0.37934732
18:30:29		x: 0.076052725	y: 0.24281894	z: 0.15790866
18:30:30		x: 0.3585779	y: 0.0143553335	z: 0.02687807
18:30:30		x: 0.16920967	y: 0.11209377	z: 0.069027774
18:30:30		x: -0.07360926	y: 0.06352998	z: 0.057726767
18:30:30		x: -0.1591304	y: -0.0067195175	z: 0.0571159
18:30:30		x: -0.15393804	y: 0.06963864	z: 0.10995574
18:30:30		x: 0.004276057	y: 0.10354166	z: -0.03481932
18:30:31		x: -0.26725355	y: -0.06688975	z: -0.10262536
18:30:31		x: 0.024740042	y: -0.29229903	z: 0.071776666
18:30:31		x: 0.040317107	y: -0.029932396	z: -0.087659165
18:30:31		x: 0.0	y: -0.0571159	z: -0.0571159
18:30:31		x: 0.17715092	y: -0.016187929	z: 0.0061086523
