18:30:19		x: 941.08
18:30:19		x: 941.01
18:30:19		x: 941.01
18:30:19		x: 941.01
18:30:19		x: 941.03
18:30:19		x: 941.02
18:30:20		x: 941.08
18:30:20		x: 941.11
18:30:20		x: 941.02
18:30:20		x: 941.02
18:30:20		x: 941.04
18:30:21		x: 941.07
18:30:21		x: 941.09
18:30:21		x: 941.07
18:30:21		x: 941.05
18:30:21		x: 941.09
18:30:21		x: 941.07
18:30:22		x: 941.04
18:30:22		x: 941.03
18:30:22		x: 941.08
18:30:22		x: 941.05
18:30:22		x: 941.08
18:30:23		x: 941.02
18:30:23		x: 941.07
18:30:23		x: 941.07
18:30:23		x: 941.06
18:30:23		x: 941.09
18:30:23		x: 941.08
18:30:24		x: 941.1
18:30:24		x: 941.08
18:30:24		x: 941.09
18:30:24		x: 941.02
18:30:24		x: 941.26
18:30:25		x: 941.25
18:30:25		x: 941.05
18:30:25		x: 941.07
18:30:25		x: 941.04
18:30:25		x: 941.06
18:30:25		x: 941.03
18:30:26		x: 941.07
18:30:26		x: 941.02
18:30:26		x: 941.06
18:30:26		x: 941.13
18:30:26		x: 941.05
18:30:26		x: 941.1
18:30:27		x: 941.05
18:30:27		x: 941.08
18:30:27		x: 941.05
18:30:27		x: 941.06
18:30:27		x: 941.07
18:30:28		x: 941.09
18:30:28		x: 941.03
18:30:28		x: 941.08
18:30:28		x: 941.11
18:30:28		x: 941.08
18:30:29		x: 940.98
18:30:29		x: 941.02
18:30:29		x: 940.98
18:30:29		x: 941.01
18:30:29		x: 941.04
18:30:29		x: 941.0
18:30:30		x: 941.0
18:30:30		x: 941.0
18:30:30		x: 940.99
18:30:30		x: 941.0
18:30:30		x: 941.06
18:30:30		x: 940.97
18:30:31		x: 940.99
18:30:31		x: 941.04
18:30:31		x: 941.02
18:30:31		x: 941.01
18:30:31		x: 941.06
