18:30:19		x: 1.0
18:30:19		x: 0.0
18:30:19		x: 0.0
18:30:19		x: 0.0
18:30:19		x: 0.0
18:30:19		x: 0.0
18:30:20		x: 0.0
18:30:20		x: 0.0
18:30:20		x: 0.0
18:30:20		x: 0.0
18:30:20		x: 0.0
18:30:21		x: 0.0
18:30:21		x: 0.0
18:30:21		x: 0.0
18:30:21		x: 0.0
18:30:21		x: 0.0
18:30:21		x: 0.0
18:30:22		x: 0.0
18:30:22		x: 0.0
18:30:22		x: 0.0
18:30:22		x: 0.0
18:30:22		x: 0.0
18:30:23		x: 0.0
18:30:23		x: 0.0
18:30:23		x: 0.0
18:30:23		x: 0.0
18:30:23		x: 0.0
18:30:23		x: 0.0
18:30:24		x: 0.0
18:30:24		x: 0.0
18:30:24		x: 0.0
18:30:24		x: 0.0
18:30:24		x: 0.0
18:30:25		x: 0.0
18:30:25		x: 0.0
18:30:25		x: 0.0
18:30:25		x: 0.0
18:30:25		x: 0.0
18:30:25		x: 0.0
18:30:26		x: 0.0
18:30:26		x: 0.0
18:30:26		x: 0.0
18:30:26		x: 0.0
18:30:26		x: 0.0
18:30:26		x: 0.0
18:30:27		x: 0.0
18:30:27		x: 0.0
18:30:27		x: 0.0
18:30:27		x: 1.0
18:30:27		x: 0.0
18:30:28		x: 0.0
18:30:28		x: 0.0
18:30:28		x: 0.0
18:30:28		x: 0.0
18:30:28		x: 0.0
18:30:29		x: 0.0
18:30:29		x: 0.0
18:30:29		x: 0.0
18:30:29		x: 0.0
18:30:29		x: 0.0
18:30:29		x: 0.0
18:30:30		x: 0.0
18:30:30		x: 0.0
18:30:30		x: 0.0
18:30:30		x: 0.0
18:30:30		x: 0.0
18:30:30		x: 0.0
18:30:31		x: 0.0
18:30:31		x: 0.0
18:30:31		x: 0.0
18:30:31		x: 0.0
18:30:31		x: 0.0
