18:46:46		x: 33.0
18:46:46		x: 29.0
18:46:46		x: 11.0
18:46:46		x: 0.0
18:46:47		x: 0.0
18:46:47		x: 0.0
18:46:47		x: 0.0
18:46:47		x: 0.0
18:46:47		x: 0.0
18:46:48		x: 0.0
18:46:48		x: 0.0
18:46:48		x: 0.0
18:46:48		x: 0.0
18:46:48		x: 0.0
18:46:49		x: 0.0
18:46:49		x: 0.0
18:46:49		x: 0.0
18:46:49		x: 0.0
18:46:49		x: 0.0
18:46:49		x: 0.0
18:46:50		x: 0.0
18:46:50		x: 0.0
18:46:50		x: 0.0
18:46:50		x: 0.0
18:46:50		x: 0.0
18:46:50		x: 0.0
18:46:51		x: 0.0
18:46:51		x: 0.0
18:46:51		x: 0.0
18:46:51		x: 0.0
18:46:51		x: 0.0
18:46:52		x: 0.0
18:46:52		x: 0.0
18:46:52		x: 0.0
18:46:52		x: 0.0
18:46:52		x: 0.0
18:46:52		x: 0.0
18:46:53		x: 0.0
18:46:53		x: 0.0
18:46:53		x: 0.0
18:46:53		x: 0.0
18:46:53		x: 0.0
18:46:54		x: 0.0
18:46:54		x: 0.0
18:46:54		x: 0.0
18:46:54		x: 0.0
18:46:54		x: 0.0
18:46:54		x: 0.0
18:46:55		x: 0.0
18:46:55		x: 0.0
18:46:55		x: 0.0
18:46:55		x: 0.0
18:46:55		x: 0.0
18:46:56		x: 0.0
18:46:56		x: 0.0
18:46:56		x: 0.0
18:46:56		x: 0.0
18:46:56		x: 0.0
18:46:56		x: 0.0
18:46:57		x: 0.0
18:46:57		x: 0.0
18:46:57		x: 0.0
18:46:57		x: 0.0
18:46:57		x: 0.0
18:46:57		x: 0.0
18:46:58		x: 0.0
18:46:58		x: 0.0
18:46:58		x: 0.0
18:46:58		x: 0.0
18:46:58		x: 0.0
18:46:59		x: 0.0
18:46:59		x: 0.0
18:46:59		x: 0.0
18:46:59		x: 0.0
18:46:59		x: 0.0
18:46:59		x: 0.0
18:47:00		x: 0.0
18:47:00		x: 0.0
18:47:00		x: 0.0
18:47:00		x: 1.0
18:47:00		x: 0.0
18:47:01		x: 0.0
18:47:01		x: 0.0
18:47:01		x: 0.0
18:47:01		x: 0.0
18:47:01		x: 0.0
18:47:01		x: 0.0
18:47:02		x: 0.0
18:47:02		x: 2.0
18:47:02		x: 43.0
18:47:02		x: 116.0
18:47:02		x: 111.0
18:47:03		x: 109.0
18:47:03		x: 81.0
18:47:03		x: 78.0
18:47:03		x: 89.0
18:47:03		x: 100.0
18:47:03		x: 95.0
18:47:04		x: 89.0
18:47:04		x: 85.0
18:47:04		x: 83.0
18:47:04		x: 83.0
