18:46:46		x: -0.89461213	y: -0.31703907	z: -9.162979E-4
18:46:46		x: -1.1768318	y: -1.2754866	z: 1.8454239
18:46:46		x: 0.2678644	y: -2.7366762	z: 2.0696115
18:46:46		x: -0.97127575	y: -2.273335	z: 0.16340645
18:46:47		x: 1.149343	y: 1.119716	z: 0.2782491
18:46:47		x: 2.275473	y: -0.29993483	z: -0.20158553
18:46:47		x: 0.32834008	y: -1.5302174	z: 3.6410623
18:46:47		x: 0.21502456	y: -1.5357152	z: 1.6071864
18:46:47		x: -0.52778757	y: 0.64965516	z: -0.5369505
18:46:48		x: 0.40866885	y: 0.2910773	z: -0.06414085
18:46:48		x: 0.23640485	y: -0.44990227	z: 1.2831224
18:46:48		x: -1.280679	y: -1.3726143	z: -0.48563787
18:46:48		x: -0.37720928	y: -2.3115141	z: -0.27397305
18:46:48		x: 0.86101454	y: -0.2098322	z: 0.51068336
18:46:49		x: 1.1976013	y: 2.3185391	z: 0.46639562
18:46:49		x: -0.6478226	y: 1.4245378	z: -0.15363261
18:46:49		x: -2.6771169	y: 0.11728613	z: -1.1151345
18:46:49		x: 0.9275989	y: -1.4126259	z: -0.591623
18:46:49		x: 1.5598444	y: 3.7168095	z: 2.5518897
18:46:49		x: -0.5910121	y: 3.3447926	z: -0.29168814
18:46:50		x: -2.6847527	y: -2.375044	z: -2.171015
18:46:50		x: 1.5265522	y: -0.8491027	z: -0.56291234
18:46:50		x: 2.5622742	y: 4.414112	z: 4.8127017
18:46:50		x: -0.2049453	y: 3.678936	z: -0.35827246
18:46:50		x: -3.1746666	y: -2.1487186	z: -3.1758883
18:46:50		x: 1.3713925	y: 0.40591997	z: -0.6072
18:46:51		x: 3.2006285	y: 4.053396	z: 4.415334
18:46:51		x: -0.28405234	y: 1.2635747	z: -0.9663888
18:46:51		x: -2.2061398	y: -2.9666672	z: -4.391205
18:46:51		x: 1.700038	y: -2.4947736	z: -0.56107974
18:46:51		x: 3.1160235	y: 4.5393395	z: 4.7812424
18:46:52		x: -0.61850107	y: 2.0179935	z: -1.284955
18:46:52		x: -1.8445076	y: -3.1554244	z: -3.755294
18:46:52		x: 1.5705346	y: -4.103182	z: -0.38881573
18:46:52		x: 5.9745674	y: 4.835304	z: 0.62796944
18:46:52		x: -1.2095132	y: -0.07513642	z: -0.7495316
18:46:52		x: -1.9892827	y: -2.726597	z: -2.8570168
18:46:53		x: 0.98349303	y: -5.1392093	z: -0.3585779
18:46:53		x: 6.3465843	y: 3.1569517	z: 0.7556403
18:46:53		x: -2.104736	y: 1.4107933	z: -0.6041457
18:46:53		x: -0.5213735	y: -3.068987	z: -1.25319
18:46:53		x: -0.6722572	y: -5.157535	z: 0.036957346
18:46:54		x: 4.397008	y: 1.9724839	z: 0.37232238
18:46:54		x: -1.7941113	y: 4.6657887	z: -0.32986724
18:46:54		x: -0.46211955	y: -3.0863967	z: -0.8924741
18:46:54		x: -2.010663	y: -4.719545	z: -0.9059132
18:46:54		x: 2.324953	y: 0.0061086523	z: 1.3912456
18:46:54		x: -2.5289822	y: 0.84849185	z: -0.09896017
18:46:55		x: 1.0097603	y: -3.0659328	z: 0.23487769
18:46:55		x: -1.2235631	y: -3.3539557	z: -0.15607607
18:46:55		x: 2.2104158	y: 0.9392053	z: 1.7302758
18:46:55		x: -2.1591032	y: 0.49327368	z: -0.34208453
18:46:55		x: 0.6780604	y: -3.0500503	z: 0.18509217
18:46:55		x: -2.460565	y: -3.811799	z: -0.15454891
18:46:56		x: 2.7250698	y: 0.5644395	z: 1.7928895
18:46:56		x: -2.0781636	y: 1.0793989	z: -0.6160576
18:46:56		x: 0.52687126	y: -3.0301971	z: -0.1328632
18:46:56		x: -1.690875	y: -4.0814962	z: -0.41905355
18:46:56		x: 4.649601	y: -0.62888575	z: 0.30879238
18:46:57		x: -2.4834726	y: 3.4037411	z: -0.44440445
18:46:57		x: 0.2049453	y: -3.3417382	z: -0.13744467
18:46:57		x: -3.256828	y: -3.075401	z: -0.6056729
18:46:57		x: 1.8451185	y: -0.22937989	z: 1.5451837
18:46:57		x: -3.4663548	y: 1.0638218	z: -0.806953
18:46:57		x: 1.670411	y: -3.3527339	z: 1.1472049
18:46:58		x: -2.4529295	y: -5.864001	z: 0.23609942
18:46:58		x: 1.4144585	y: -0.5363397	z: 1.1743884
18:46:58		x: -2.4492643	y: -0.3173445	z: -0.48991394
18:46:58		x: 0.77366084	y: -2.5082128	z: 0.6768387
18:46:58		x: -3.429703	y: -2.946814	z: 0.12522738
18:46:59		x: 1.9193386	y: -0.8206975	z: 1.1163563
18:46:59		x: -1.9785925	y: 2.7870727	z: -0.007941248
18:46:59		x: -0.752586	y: -2.8316658	z: -1.1774428
18:46:59		x: -0.7357872	y: -3.4083226	z: -0.50976706
18:46:59		x: 2.300213	y: 0.16676621	z: 5.2699347
18:46:59		x: -0.6948592	y: 3.599829	z: -0.6737844
18:47:00		x: -1.534188	y: -0.95356065	z: -3.3551774
18:47:00		x: 0.66675943	y: -1.1924089	z: 1.3359623
18:47:00		x: 0.2947425	y: 0.019242255	z: 0.43493605
18:47:00		x: 1.3206906	y: 1.8597792	z: 0.4792238
18:47:00		x: -1.2852604	y: 0.59040123	z: -0.7272351
18:47:01		x: 0.045814894	y: -0.473726	z: 0.39370266
18:47:01		x: 0.7669413	y: -1.2046263	z: -0.05681047
18:47:01		x: -0.48075095	y: 0.004886922	z: 0.3313944
18:47:01		x: 0.39278635	y: 0.06536258	z: 0.68416905
18:47:01		x: 0.23487769	y: -0.204029	z: -0.080634214
18:47:01		x: 0.6337727	y: 0.6273586	z: -0.1001819
18:47:02		x: 0.9987647	y: 0.51923543	z: -0.24098633
18:47:02		x: -2.0818288	y: 0.02321288	z: -3.34632
18:47:02		x: 4.2684207	y: 1.7571539	z: -2.1801782
18:47:02		x: 0.172264	y: 3.155119	z: 0.6151413
18:47:02		x: 1.0409144	y: 3.3698382	z: 0.18845193
18:47:03		x: 0.67103547	y: 0.17256944	z: 0.44898596
18:47:03		x: 1.41904	y: 0.32284227	z: 0.1301143
18:47:03		x: -0.41874814	y: 0.10262536	z: -0.16371189
18:47:03		x: -1.006095	y: -0.26236662	z: -0.3136793
18:47:03		x: 0.099571034	y: -0.14874569	z: -0.2574797
18:47:03		x: 0.1881465	y: 0.06383542	z: -0.2098322
18:47:04		x: 0.12308934	y: -0.09132435	z: -0.11636983
18:47:04		x: 0.015882496	y: -0.043676864	z: -0.015882496
18:47:04		x: -0.008857546	y: -0.061391957	z: -0.007330383
18:47:04		x: 0.22785273	y: -0.08002335	z: -0.019547688
