10 1:3.65470111126 2:-0.525883496198 3:0.80431624667 4:1.45071358026 5:2.10456989195 6:1.70469643056 7:-2.21430091622 8:4.26246339811e-17 9:1.14705047353 10:1.31572478883 11:1.67416576852 12:-0.63571688168 13:0.245358961767 14:0.71742511133 15:0.514698790367 16:2.74665484819 17:-2.72902471573 18:-0.199575717516 19:1.49295462808 20:2.22891352151 21:3.43432812458 22:-7.96866264927 23:-1.4055077644 24:3.31645601875 25:10.9988805243 26:10.4038033375 27:-10.7206968555 28:0.12963958258 29:6.9686774363 30:48.5624652113 
10 1:-18.4265219097 2:-22.9273072756 3:-20.0967907187 4:1.51369635085 5:2.29127664258 6:1.80460830477 7:-2.87796707642 8:6.02692499082e-16 9:1.46814927138 10:2.15546228305 11:1.98798677282 12:-1.92674923602 13:0.191101886855 14:1.38799036787 15:1.92651726129 16:2.13914805832 17:-2.42028405687 18:-0.354102962774 19:1.25090357565 20:1.56475975558 21:1.55159158303 22:-7.89500181952 23:-1.32849269603 24:2.68088871342 25:7.18716429375 26:7.63854375471 27:-7.83811171031 28:1.03632143812 29:5.69907778346 30:32.4794875819 
10 1:-21.1094549351 2:-42.2488323494 3:-35.1501575363 4:7.20149641557 5:51.8615506235 6:4.46277909229 7:-4.21396426985 8:2.53765262771e-16 9:3.00007671879 10:9.00046031861 11:1.81465125809 12:-1.33372452637 13:0.30493358611 14:1.28072543598 15:1.64025764236 16:2.53816755537 17:-4.66440000031 18:-0.53466002388 19:2.12183538335 20:4.50218539403 21:3.79344101401 22:-6.44368101615 23:-1.36205161556 24:3.59372042707 25:12.9148265079 26:6.84234802269 27:-8.79584068434 28:0.467994701475 29:5.46719096535 30:29.8901770516 
10 1:-1.09380894725 2:-25.4256238621 3:-17.3496849417 4:8.29914716842 5:68.8758437232 6:7.25188245141 7:-9.39567878632 8:-2.85485920618e-16 9:4.90560845542 10:24.0649943179 11:4.00877684192 12:-3.88197160608 13:0.0827254286323 14:2.25073260475 15:5.0657972581 16:0.778689416022 17:-1.22700434308 18:-0.12537080861 19:0.635927532296 20:0.404403826333 21:1.46239419801 22:-1.58883858186 23:-0.0203495639464 24:0.934808484729 25:0.873866903121 26:8.689421785 27:-8.05649229083 28:0.883476842881 29:5.71771764599 30:32.6922950792 
10 1:1.71811552609 2:-31.7812111092 3:-9.58015306305 4:11.3954919127 5:129.857235933 6:7.38862200374 7:-6.66676497302 8:-3.17206578464e-16 9:4.76479238924 10:22.7032465125 11:2.39682360636 12:-3.59838660216 13:-0.0532913489739 14:2.3408644518 15:5.47964638171 16:1.94485484986 17:-1.65396019679 18:-0.0893548481965 19:1.00664141628 20:1.01332694097 21:5.82457799452 22:-4.63322121511 23:-0.273114993139 24:3.38215273126 25:11.4389570976 26:8.71760644985 27:-8.62782565344 28:0.646678260764 29:5.68730292661 30:32.345414579 
10 1:-24.8350885475 2:-34.4494109899 3:-31.0199357487 4:3.23896742265 5:10.490909965 6:4.28779679025 7:-3.51672176408 8:7.29575130468e-16 9:2.4503926313 10:6.00442404752 11:2.66155338334 12:-3.07426976177 13:0.0912361967227 14:1.79727084935 15:3.23018250592 16:3.39938958691 17:-3.29302971563 18:-0.20747751057 19:1.94893383947 20:3.79834311063 21:2.59228644754 22:-4.48204945337 23:-0.0428574784109 24:1.90198864176 25:3.61756079339 26:6.55097878142 27:-10.2438558303 28:0.572751498993 29:5.88599607351 30:34.6449497774 
10 1:-16.9509716669 2:-24.6395154396 3:-22.0393527762 4:2.62564313795 5:6.89400188788 6:1.68026924217 7:-1.26809957349 8:4.75809867696e-16 9:1.00972989705 10:1.01955446499 11:1.27189381297 12:-1.13630995205 13:0.0331853207432 14:0.701368280209 15:0.491917464483 16:2.54179362202 17:-1.71332777068 18:0.332481646464 19:1.37146555305 20:1.88091776321 21:4.81187249401 22:-4.77288546577 23:-0.190010492835 24:2.54839184498 25:6.49430099554 26:6.9502829265 27:-9.01293853175 28:0.422286200658 29:5.92022848251 30:35.0491052851 
10 1:-17.1137631507 2:-21.013028911 3:-18.3842865713 4:1.33539106266 5:1.78326929022 6:2.39766358791 7:-1.74880106471 8:4.08403469773e-16 9:1.15862581513 10:1.34241377948 11:1.07522495515 12:-0.98856854276 13:0.0120550470893 14:0.584509875573 15:0.341651794642 16:0.978797277629 17:-1.1388737854 18:-0.11924105678 19:0.702215589612 20:0.493106734294 21:7.30429152545 22:-7.59972887972 23:0.0136470883433 24:3.78269837225 25:14.3088069754 26:8.97221943951 27:-8.34858272682 28:0.805034410581 29:6.26171265762 30:39.2090454066 
10 1:-19.5392610888 2:-24.2166040083 3:-22.6245483888 4:1.58875266925 5:2.52413504404 6:0.966766252259 7:-0.885621485045 8:6.34413156929e-17 9:0.550135748185 10:0.302649341431 11:0.484427225655 12:-0.572911762231 13:0.0566843946782 14:0.307619082853 15:0.0946295001351 16:1.19016238676 17:-0.968371775848 18:-0.0917473090141 19:0.778936864179 20:0.606742638376 21:2.64014110373 22:-2.61481691443 23:-0.145680204151 24:1.60032298019 25:2.56103364092 26:7.12940291327 27:-8.41712052324 28:0.735088887767 29:5.50479725507 30:30.3027928194 
10 1:-14.1989303888 2:-24.0098920536 3:-20.7151594308 4:3.34194127591 5:11.1685714916 6:2.01946630694 7:-2.28317674558 8:6.18552828005e-16 9:1.45485874484 10:2.11661396743 11:0.948944427906 12:-0.680093423176 13:0.0842831175295 14:0.632726903633 15:0.400343334581 16:2.04521236842 17:-1.66647944856 18:-0.04315080548 19:1.07741090834 20:1.16081426541 21:2.83714896896 22:-2.9440189956 23:-0.272053298128 24:1.68301160955 25:2.83252807787 26:7.35355507202 27:-9.61021615786 28:0.745183963028 29:5.87693288137 30:34.5383400921 
10 1:-12.3683390176 2:-20.4072322086 3:-17.6973726665 4:2.73903859779 5:7.50233244019 6:1.72290739064 7:-1.32076562183 8:1.9825411154e-16 9:1.06179930301 10:1.12741775986 11:0.767976209202 12:-0.776038407066 13:0.10212149488 14:0.521738483774 15:0.27221104545 16:1.26109507723 17:-1.01796570487 18:-0.0562440011763 19:0.74407030572 20:0.553640619855 21:3.46978121893 22:-3.62965023917 23:-0.423058048692 24:2.0397923098 25:4.16075266713 26:8.88473581277 27:-9.80876013042 28:0.839682610237 29:6.48657886608 30:42.0757053859 
10 1:-11.309835506 2:-18.838004463 3:-16.3060249762 4:2.56558529138 5:6.58222788733 6:1.60685405696 7:-1.40182996077 8:-1.11022302463e-16 9:1.03549400262 10:1.07224782947 11:0.666812901174 12:-0.672207114008 13:0.103493565292 14:0.480306464828 15:0.230694300155 16:1.70750237676 17:-1.41916804335 18:-0.0721561039878 19:0.933810878466 20:0.872002756742 21:3.33122834558 22:-3.50888967955 23:-0.439467887822 24:2.00915011143 25:4.03668417024 26:9.19286448433 27:-10.0267659566 28:0.840276159826 29:6.59974900946 30:43.5566869879 
10 1:-12.4447423241 2:-18.096031571 3:-16.1892306 4:1.92603367408 5:3.70960571369 6:1.24290108553 7:-0.998841732445 8:2.37904933848e-16 9:0.717048387602 10:0.514158390162 11:0.588014415162 12:-0.652075930017 13:0.107055140508 14:0.393415692626 15:0.154775907204 16:1.55876388622 17:-1.30325895211 18:-0.087761910697 19:0.881734807387 20:0.777456270559 21:3.4693575376 22:-3.57663191723 23:-0.474521370405 24:2.11545124631 25:4.47513397551 26:8.93159200714 27:-9.90352987989 28:0.868731581953 29:6.59865207801 30:43.5422092466 
10 1:-11.4944819543 2:-19.0517700759 3:-16.503421546 4:2.57416395375 5:6.6263200608 6:1.61456764937 7:-1.21664429499 8:3.33066907388e-16 9:0.988037745202 10:0.976218585944 11:0.686501581768 12:-0.741814836949 13:0.107073816733 14:0.481226550161 15:0.23157899258 16:1.5832865401 17:-1.28467958811 18:-0.0878626874715 19:0.913947549263 20:0.835300122803 21:3.205522963 22:-3.30290864725 23:-0.43517693736 24:1.98119663114 25:3.92514009124 26:8.93815445078 27:-10.0168929684 28:0.836312220053 29:6.6230024798 30:43.8641618474 
10 1:-12.2383855251 2:-18.4161236689 3:-16.3255948119 4:2.10403193381 5:4.42695037849 6:1.35211460097 7:-1.14264614814 8:6.02692499082e-16 9:0.758112813449 10:0.574735037915 11:0.588336336407 12:-0.757544585599 13:0.10968725715 14:0.433755713814 15:0.188144019266 16:1.4187576733 17:-1.14734675117 18:-0.0952999006941 19:0.852358438998 20:0.726514908532 21:3.32057975522 22:-3.41090548455 23:-0.478728390489 24:2.06696851654 25:4.27235884836 26:9.30888308642 27:-9.98331386808 28:0.897281362239 29:6.69005788711 30:44.7568745329 
10 1:-15.1513703851 2:-18.2070756339 3:-17.1463051593 4:1.03846573003 5:1.07841107244 6:0.792319946102 7:-0.977527536797 8:6.93889390391e-16 9:0.572109527528 10:0.327309311488 11:0.638081380914 12:-0.849854127779 13:0.0938227473604 14:0.486581607559 15:0.236761660815 16:1.23874036367 17:-0.965191870081 18:-0.0760264091924 19:0.762750996406 20:0.581789082518 21:3.41104836101 22:-3.54712644062 23:-0.434549403501 24:2.05144298211 25:4.20841830883 26:9.08840391707 27:-9.13141062311 28:0.910666208958 29:6.36936778349 30:40.5688459614 
10 1:-18.8259619869 2:-22.0624197701 3:-20.9410287048 4:1.09804845736 5:1.20571041471 6:0.854283386246 7:-1.08518656694 8:7.05784637083e-16 9:0.635518675033 10:0.403883986316 11:0.802123123351 12:-0.705321109525 13:0.126949951605 14:0.495795725224 15:0.24581340115 16:1.56674845357 17:-2.49046031018 18:-0.278985533412 19:1.29404091909 20:1.67454190027 21:4.26693845578 22:-4.28630579643 23:-0.474946532786 24:2.79588621661 25:7.81697973622 26:7.98752752168 27:-9.09437356088 28:0.551881812036 29:6.18234732097 30:38.2214183972 
10 1:-19.7076463749 2:-21.7339347563 3:-21.0323227015 4:0.684441518594 5:0.468460192375 6:0.387629108276 7:-0.589162293942 8:3.72717729696e-16 9:0.350216915476 10:0.122651887886 11:0.338084637098 12:-0.294277149459 13:0.0534924260989 14:0.217947732889 15:0.0475012142714 16:1.29036140855 17:-2.02622952594 18:-0.22523121096 19:1.08965791427 20:1.18735437014 21:3.4654935511 22:-3.4158116885 23:-0.0826924303756 24:2.14415096643 25:4.59738336683 26:7.9288157459 27:-9.69357115266 28:0.704500737787 29:6.31142934431 30:39.8341403682 
10 1:-19.0877673569 2:-23.937580416 3:-22.2703513827 4:1.6460066979 5:2.70933804954 6:1.04009446412 7:-1.15292118355 8:4.36159045388e-16 9:0.610510784066 10:0.37272341746 11:0.611773369196 12:-0.869232124197 13:0.0745826361709 14:0.450718823972 15:0.203147458283 16:1.16315072724 17:-1.13461828121 18:-0.0917402171574 19:0.822430972148 20:0.676392703949 21:3.1417964259 22:-3.16734574032 23:-0.238825741466 24:1.88877562317 25:3.56747335469 26:8.35316727141 27:-9.33419830752 28:0.849187814582 29:6.3210264986 30:39.955375996 
10 1:-18.5895565715 2:-22.2265089766 3:-20.9527261033 4:1.23287232716 5:1.51997417509 6:1.05204803334 7:-1.15118214441 8:4.63914621004e-16 9:0.70102826172 10:0.49144062373 11:0.772774155197 12:-1.06754156747 13:0.06328108789 14:0.583520741509 15:0.340496455771 16:1.08719031 17:-1.13690394924 18:-0.0186401003634 19:0.697867694817 20:0.487019319469 21:3.02075075577 22:-3.29003319873 23:-0.235126419508 24:1.70694979206 25:2.91367759262 26:7.07438992853 27:-9.02637895098 28:0.697598261244 29:5.96907510688 30:35.6298576316 
10 1:-18.3073418122 2:-22.101706298 3:-20.805595774 4:1.28857560038 5:1.6604270779 6:0.8021890183 7:-0.808949536783 8:2.53765262771e-16 9:0.450001511812 10:0.202501360633 11:0.398380039798 12:-0.545534063424 13:0.0586328200791 14:0.286212850816 15:0.0819177959719 16:1.00003765672 17:-0.963649639001 18:-0.0982453541419 19:0.715062693733 20:0.511314655968 21:3.1203397998 22:-3.17464526506 23:-0.172361381658 24:1.80061266502 25:3.24220596945 26:7.58074164791 27:-9.01909808279 28:0.814982677764 29:5.89746477284 30:34.7800907469 
10 1:-18.0514793071 2:-21.2200050758 3:-20.1334307332 4:1.07606161669 5:1.15790860291 6:0.684322872362 7:-0.739804074683 8:6.34413156929e-16 9:0.393258731726 10:0.154652430079 11:0.385970098921 12:-0.572894199089 13:0.0570891486336 14:0.300799699335 15:0.0904804591201 16:1.26232466496 17:-0.996818791097 18:-0.0614330614198 19:0.748612025554 20:0.560419964804 21:3.08986503698 22:-3.03357467948 23:-0.18366815612 24:1.80755795233 25:3.26726575104 26:7.49012781637 27:-8.67137911255 28:0.791160137423 29:5.8444497575 30:34.1575929679 
10 1:-17.1419057939 2:-20.5115884863 3:-19.3535092933 4:1.14534609206 5:1.31181767059 6:0.745513509079 7:-0.796858802018 8:4.75809867696e-16 9:0.423716906889 10:0.179536017184 11:0.48549912564 12:-0.664596234754 13:0.0511648811277 14:0.340635178771 15:0.116032325016 16:0.821069174514 17:-0.794669764482 18:-0.0107355710129 19:0.518530541976 20:0.268873922962 21:3.03650180217 22:-3.01680222815 23:-0.180031523597 24:1.71459865201 25:2.93984853747 26:7.31752871637 27:-8.25701038069 28:0.691904275607 29:5.63432466122 30:31.7456143881 
10 1:-17.16509872 2:-20.7257139992 3:-19.5024903055 4:1.20699986712 5:1.45684867923 6:0.743019494741 7:-0.857821397608 8:3.88578058619e-16 9:0.458785987883 10:0.210484582678 11:0.327096518497 12:-0.514589702052 13:0.0597840606088 14:0.276626405139 15:0.0765221680203 16:1.13134489342 17:-1.52503104509 18:-0.165438111747 19:0.760700121522 20:0.578664674884 21:2.93341739593 22:-3.01520345325 23:-0.145495820376 24:1.74143501529 25:3.03259591247 26:6.62140006473 27:-8.73720831523 28:0.737499278876 29:5.57114381737 30:31.0376434339 
10 1:-18.3013147204 2:-20.5930980249 3:-19.8043085378 4:0.776420389243 5:0.602828620832 6:0.476917642434 7:-0.611527424337 8:3.72717729696e-16 9:0.333671992139 10:0.111336998338 11:0.337933895534 12:-0.351009462069 13:0.055911805309 14:0.217385515409 15:0.0472564623097 16:1.00848643135 17:-1.50656268802 18:-0.166176261695 19:0.793616966848 20:0.629827890069 21:2.99383518565 22:-2.99653721958 23:-0.148728218491 24:1.79559582261 25:3.22416435819 26:7.33672477125 27:-8.84240833755 28:0.793769652266 29:5.81364765508 30:33.7984990574 
10 1:-18.4331664187 2:-21.5307959831 3:-20.462084407 4:1.05045117755 5:1.10344767642 6:0.667100151515 7:-0.808783562252 8:-5.15460690005e-17 9:0.432829571928 10:0.187341438335 11:0.374234697272 12:-0.603335506942 13:0.0588557448227 14:0.324849929943 15:0.105527476984 16:1.00387649905 17:-0.964814066097 18:-0.0976887609715 19:0.727271986245 20:0.528924541977 21:3.11569188894 22:-3.10612316038 23:-0.177486955587 24:1.82969471347 25:3.34778274449 26:7.40426727172 27:-9.02998188654 28:0.777702469144 29:5.86999106449 30:34.4567950972 
10 1:-18.3609619405 2:-21.6014898944 3:-20.4875227772 4:1.09925793774 5:1.20836801369 6:0.68949677854 7:-0.788548543189 8:4.4408920985e-16 9:0.418312384727 10:0.174985251216 11:0.362351464413 12:-0.558386832277 13:0.0572325737784 14:0.296472422811 15:0.0878958974876 16:0.971001149449 17:-1.00831702569 18:-0.103163249575 19:0.722592921692 20:0.522140530479 21:3.10455927644 22:-3.09062225907 23:-0.159616305169 24:1.8232201398 25:3.32413167818 26:7.46830570019 27:-8.99388459818 28:0.796170350493 29:5.90343088253 30:34.8504961849 
10 1:-18.6310105476 2:-21.4733891116 3:-20.4915059735 4:0.963562660116 5:0.92845299997 6:0.611827918029 7:-0.763451719483 8:2.69625591695e-16 9:0.412292450391 10:0.16998506465 11:0.363806258493 12:-0.560285554522 13:0.0565406238224 14:0.305881907537 15:0.0935637413583 16:0.924731173369 17:-1.01442822481 18:-0.104197007267 19:0.709334447427 20:0.503155358307 21:3.16293909573 22:-3.15913651901 23:-0.162752167148 24:1.85035206006 25:3.42380274616 26:7.46189076793 27:-8.90397711073 28:0.789101179546 29:5.87482758366 30:34.5135991378 
10 1:-18.3464803955 2:-21.5503650606 3:-20.447166651 4:1.08618090522 5:1.17978895887 6:0.675732127281 7:-0.793800714779 8:1.0943626957e-15 9:0.42213200533 10:0.178195429924 11:0.361052040226 12:-0.555770288365 13:0.054138906918 14:0.295307740861 15:0.0872066618127 16:0.970537374064 17:-1.08566270211 18:-0.111742341147 19:0.73376004881 20:0.53840380923 21:3.18808221144 22:-3.19532260204 23:-0.136686673156 24:1.85839502854 25:3.4536320821 26:7.43023245596 27:-8.92378824227 28:0.787879230028 29:5.87161472853 30:34.4758595203 
10 1:-18.8087864674 2:-21.1012639789 3:-20.3066327391 4:0.776654870872 5:0.603192788449 6:0.495955351285 7:-0.664844419904 8:6.38378239159e-16 9:0.371118544791 10:0.137728974288 11:0.365239248856 12:-0.490984426894 13:0.0528304021627 14:0.279778251822 15:0.0782758701925 16:0.93773816081 17:-1.02229702419 18:-0.106347126137 19:0.704144549496 20:0.495819546585 21:3.19468037582 22:-3.16855787921 23:-0.153462342513 24:1.85772394701 25:3.45113826331 26:7.44569909965 27:-9.21517255564 28:0.755466000427 29:5.98762632729 30:35.8516690352 
10 1:-16.9901015285 2:-22.0508229818 3:-20.3299653272 4:1.71971503422 5:2.95741979892 6:1.05235200242 7:-0.928027879428 8:6.26482992467e-16 9:0.597611876959 10:0.357139955482 11:0.521113447675 12:-0.569144171089 13:0.0531643710511 14:0.320366496869 15:0.102634692316 16:0.908753553256 17:-0.910259360517 18:-0.0902010049692 19:0.610120639698 20:0.372247194986 21:3.0705706894 22:-3.154338997 23:-0.127750665392 24:1.73521601318 25:3.01097461241 26:7.54325700957 27:-9.19497559601 28:0.814848021472 29:6.22620047058 30:38.7655722999 
10 1:-14.5982662352 2:-20.0059981612 3:-18.228097314 4:1.84907609542 5:3.41908240664 6:1.9013288954 7:-2.51494330063 8:-2.61695427233e-16 9:1.26782817191 10:1.60738827349 11:0.966468640049 12:-0.977099814075 13:0.0446861096948 14:0.549843410281 15:0.30232777583 16:1.33937990986 17:-1.2608041339 18:-0.0158283722119 19:0.667706750777 20:0.445832305033 21:2.13636037756 22:-2.04000759051 23:-0.167894972214 24:1.18264892881 25:1.39865848882 26:8.56628692777 27:-8.18587748827 28:0.806129487048 29:5.89806583564 30:34.7871806015 
10 1:-18.7287684456 2:-23.0264623154 3:-21.5837162907 4:1.46761111673 5:2.15388238995 6:0.98290829771 7:-0.784300435218 8:2.26009687156e-16 9:0.56836801814 10:0.323042204044 11:0.743559257028 12:-0.61106107496 13:0.126656263417 14:0.384350986083 15:0.147725680503 16:2.92833413015 17:-2.4990940018 18:-0.0729196197818 19:1.46669311396 20:2.15118869053 21:1.94948636228 22:-3.44802790055 23:-0.682030717822 24:1.73090200447 25:2.99602174907 26:7.89434950746 27:-7.06489191988 28:0.696799842095 29:5.38944934289 30:29.0461642196 
10 1:-18.4647021275 2:-26.7511436703 3:-24.0234808291 4:2.8354637836 5:8.03985486809 6:2.67890397333 7:-3.48743071142 8:7.53365623853e-16 9:1.80477085827 10:3.25719785085 11:1.29356939291 12:-1.2319501209 13:0.114879765682 14:0.748882494402 15:0.560824990421 16:2.56113289699 17:-2.37211077912 18:-0.0200558227369 19:1.26616651099 20:1.60317763354 21:2.32450760344 22:-3.09731458889 23:-0.566518358654 24:1.73982920965 25:3.02700567874 26:7.06564862651 27:-6.64191233138 28:0.668300918784 29:4.76674304561 30:22.7218392629 
10 1:-18.8271850131 2:-21.2156482633 3:-19.5305818638 4:0.83282157853 5:0.693591781665 6:4.13565726213 7:-2.87131940287 8:3.17206578464e-16 9:1.97396239621 10:3.89652754165 11:1.8926993247 12:-1.67272102129 13:0.000210415197618 14:1.12658739048 15:1.2691991484 16:3.74438961498 17:-2.83648615254 18:0.455609174726 19:1.95401699205 20:3.81818240522 21:1.89610854897 22:-2.90066268541 23:-0.335771562762 24:1.39286575736 25:1.94007501803 26:11.5070804451 27:-6.39414903895 28:0.604420116583 29:5.173742084 30:26.7676071518 
10 1:-8.9150783673 2:-29.94417718 3:-22.8559174686 4:7.15855321754 5:51.2448841683 6:4.36178386423 7:-3.95568372114 8:8.56457761854e-16 9:2.86426356234 10:8.20400575456 11:1.99185043306 12:-1.45752559458 13:0.178462171289 14:1.32154509572 15:1.74648144002 16:2.08072616186 17:-2.03440057682 18:-0.198702775197 19:1.18442520423 20:1.40286306441 21:4.90738414158 22:-4.23051789703 23:-0.451997808799 24:2.79572850809 25:7.81609789093 26:8.28542731973 27:-9.69734520742 28:0.730933270733 29:5.79801002089 30:33.6169202024 
10 1:26.940058114 2:-17.7758718314 3:-2.59113217627 4:15.2190413527 5:231.619219694 6:9.3839144865 7:-7.26973268218 8:3.80647894157e-16 9:5.36837088203 10:28.819405927 11:6.03255229465 12:-5.56646402853 13:0.230955963884 14:3.36683035321 15:11.3355466273 16:4.35374175099 17:-4.28469522762 18:0.633752517991 19:2.66952353923 20:7.12635592651 21:1.83082525212 22:-2.96898572577 23:-0.576961167431 24:1.49830149202 25:2.244907361 26:8.13566233525 27:-5.88372512679 28:0.424834244822 29:5.31537854063 30:28.2532490301 
10 1:30.1711646694 2:13.6636135323 3:19.1555295737 4:5.63974459994 5:31.8067191526 6:4.07865198766 7:-5.07072713972 8:0.0 9:2.88606494272 10:8.32937085359 11:2.10365620353 12:-1.7006844448 13:0.202605586062 14:1.24915757716 15:1.56039465258 16:2.06293562994 17:-1.87127233198 18:-0.00387261301808 19:1.00634592036 20:1.01273211142 21:2.1918720405 22:-6.40034730991 23:-1.10893421189 24:2.31682441747 25:5.36767538138 26:8.95857509453 27:-6.56911502938 28:0.586674873004 29:5.40457408475 30:29.2094210376 
10 1:31.6736049673 2:15.6436572887 3:20.9608419953 4:5.4819011328 5:30.0512400298 6:4.26042659252 7:-5.37534239082 8:7.93016446161e-18 9:2.97127197889 10:8.82845717253 11:2.14092425418 12:-1.76597682266 13:0.209575435324 14:1.27018547295 15:1.61337113569 16:3.1752658135 17:-2.89560910778 18:0.0982413696012 19:1.59460910469 20:2.54277819677 21:1.54321996582 22:-7.20237956718 23:-1.2070230502 24:2.46712553706 25:6.08670841559 26:8.89503673358 27:-6.63604063061 28:0.442435123684 29:5.43048711653 30:29.4901903228 
10 1:43.8698982496 2:11.9495345731 3:22.6105588369 4:9.97392749652 5:99.4792297059 6:8.08154376091 7:-10.0293003344 8:-7.40148683083e-17 9:5.47843966495 10:30.0133011625 11:5.80412849416 12:-8.00806588943 13:4.4408920985e-16 14:4.39229615029 15:19.2922654719 16:4.011914662 17:-5.27716348881 18:-7.40148683083e-17 19:2.85276169739 20:8.13824930208 21:7.71350832643 22:-8.01053284947 23:2.96059473233e-16 24:6.01519606392 25:36.1825836874 26:6.07438713427 27:-5.0060041048 28:-1.48029736617e-16 29:3.39646012383 30:11.5359413727 
