5 1:29.0294408749 2:-24.3051937393 3:10.8635807963 4:18.1138778924 5:328.1125723 6:8.77441569623 7:-10.6982484197 8:-6.34413156929e-16 9:6.22915859078 10:38.8024167491 11:5.60247870004 12:-6.71933238602 13:-0.0778586854693 14:3.72382624738 15:13.8668819207 16:5.35183548299 17:-6.08645504028 18:-0.0189673390983 19:3.15204581365 20:9.93539281138 21:6.79852570874 22:-7.85922350149 23:-0.91617343727 24:4.97036542223 25:24.7045324305 26:9.70463624182 27:-14.1126309536 28:-0.203007738277 29:6.71051719593 30:45.0310410368 
5 1:-15.1986505003 2:-24.1946028887 3:-18.1933917985 4:3.07521528715 5:9.45694906232 6:2.49108528218 7:-2.04839628992 8:5.55111512313e-16 9:1.49206705263 10:2.22626408955 11:0.731245984783 12:-0.861491241733 13:-0.159514094429 14:0.643662114271 15:0.414300917348 16:3.07810478777 17:-3.55535623138 18:-0.046637713715 19:1.75119302967 20:3.06667702715 21:5.06822326739 22:-0.968812040245 23:0.905128221157 24:1.75619976013 25:3.08423759748 26:7.29353260514 27:-9.22799471964 28:-0.572165593762 29:5.70014155884 30:32.4916137908 
5 1:-9.16805343766 2:-16.9206553273 3:-11.7423985171 4:2.66478344906 5:7.10107083039 6:1.93456707476 7:-1.94252595233 8:5.63041676774e-16 9:1.31420360027 10:1.72713110296 11:0.988881137553 12:-0.902710495689 13:-0.168909271521 14:0.715072852632 15:0.511329184572 16:1.54732316282 17:-1.94351531499 18:-0.227662634108 19:1.07887184854 20:1.16396446557 21:8.68379884509 22:-6.61197333044 23:1.36798145394 24:4.92006190476 25:24.2070091467 26:10.7567407135 27:-10.473656192 28:-0.485219007351 29:6.23074268062 30:38.8221543521 
5 1:8.8303268199 2:-27.9194735514 3:-15.6630860717 4:12.5309212328 5:157.023986943 6:9.68089589463 7:-12.3123464155 8:7.61295788314e-16 9:6.67929049988 10:44.6129215818 11:5.30737402368 12:-4.66453624603 13:0.0939825375405 14:3.04392419545 15:9.26547450765 16:2.35367653113 17:-1.84498930983 18:0.0949951300584 19:1.14665379401 20:1.31481492331 21:7.55743241408 22:-7.11828756474 23:-0.509840047354 24:3.63895163032 25:13.2419689678 26:11.5879679784 27:-10.0271172565 28:-0.143627212533 29:7.04213849726 30:49.5917146145 
5 1:6.32676282979 2:-12.1674364673 3:-6.26361893108 4:6.36857368272 5:40.5587307522 6:9.90646341446 7:-13.6575219858 8:-1.74463618155e-16 9:6.55866700708 10:43.0161129097 11:5.17387032799 12:-5.92507957839 13:0.253829646351 14:3.22150545882 15:10.3780974212 16:2.51991645187 17:-3.22240468993 18:-0.00513926202195 19:2.02983206103 20:4.12021819599 21:2.44522551972 22:-10.7454091714 23:-1.61169133746 24:3.78155215039 25:14.3001366661 26:7.34953199423 27:-9.8726573135 28:-0.0935972643537 29:6.33019275873 30:40.0713403627 
5 1:26.1910429119 2:-16.5485647727 3:-2.26161651565 4:14.5914121687 5:212.909309077 6:9.5642119048 7:-11.7133639124 8:2.85485920618e-16 9:6.94583333733 10:48.24460075 11:5.59450800784 12:-4.33928142777 13:0.329119646087 14:3.30186036006 15:10.9022818374 16:2.41194344599 17:-2.29391601226 18:0.302677425991 19:1.48433546923 20:2.20325178523 21:5.91849730937 22:-11.7533543719 23:-1.79412226164 24:4.65788267519 25:21.6958710159 26:9.63045298005 27:-9.34632687949 28:-0.527220128799 29:5.26404795973 30:27.7102009223 
5 1:32.6062642122 2:17.5142385563 3:22.5231119655 4:5.16051207982 5:26.630884926 6:4.11515572259 7:-5.24134136356 8:-5.78902005697e-16 9:2.85098161501 10:8.12809616913 11:2.11867882295 12:-1.76179859076 13:0.144733853222 14:1.23728597408 15:1.53087658166 16:2.93063004877 17:-2.63611634561 18:0.220764429031 19:1.60074096273 20:2.56237162975 21:1.87313341609 22:-5.59192109157 23:-0.893741204977 24:1.93027804433 25:3.72597332842 26:6.90234792041 27:-7.47392835633 28:-0.102157249886 29:4.74034182487 30:22.4708406166 
5 1:33.41007516 2:18.0110433577 3:23.1039117162 4:5.27072315587 5:27.7805225859 6:4.40460804239 7:-5.63397932952 8:-7.29575130468e-16 9:3.03580534505 10:9.21611409302 11:2.26080367893 12:-1.94838270717 13:0.19740390145 14:1.31107128718 15:1.71890792007 16:2.55367083927 17:-2.41348912553 18:0.154725020913 19:1.41138780688 20:1.99201554142 21:2.50493575777 22:-7.77195987698 23:-1.24522335759 24:2.66364121447 25:7.09498451943 26:7.28159143397 27:-7.19072694446 28:0.0728321972682 29:4.77935055286 30:22.8421917072 
