13:02:09		x: 41.71915
13:02:10		x: 41.71915
13:02:11		x: 41.71915
13:02:12		x: 41.71915
13:02:13		x: 41.71915
13:02:14		x: 41.458973
13:02:14		x: 41.458973
13:02:15		x: 41.458973
13:02:16		x: 40.846325
13:02:17		x: 40.846325
13:02:18		x: 40.846325
13:02:19		x: 40.54713
13:02:20		x: 40.54713
13:02:21		x: 40.54713
13:02:22		x: 40.229076
13:02:23		x: 40.229076
13:02:24		x: 40.229076
13:02:25		x: 39.65565
13:02:26		x: 39.65565
13:02:27		x: 39.65565
13:02:28		x: 39.65565
13:02:29		x: 39.65565
13:02:30		x: 39.65565
13:02:31		x: 39.354603
13:02:32		x: 39.354603
13:02:33		x: 39.354603
13:02:34		x: 39.296772
13:02:35		x: 39.296772
13:02:36		x: 39.296772
13:02:37		x: 39.26051
13:02:38		x: 39.26051
13:02:38		x: 39.26051
13:02:40		x: 38.84879
13:02:40		x: 38.84879
13:02:41		x: 38.84879
13:02:42		x: 38.84879
13:02:43		x: 38.84879
13:02:44		x: 38.84879
13:02:45		x: 38.83702
13:02:46		x: 38.83702
13:02:47		x: 38.83702
13:02:48		x: 38.601925
13:02:49		x: 38.601925
13:02:50		x: 38.601925
13:02:51		x: 38.601925
13:02:52		x: 38.601925
