14 1:-37.2074628485 2:-101.698496 3:-80.981342756 4:22.1935637587 5:492.554272314 6:31.5360262781 7:-43.161793308 8:1.5186264944e-15 9:20.9086726667 10:437.172592683 11:15.0004062918 12:-16.3140987202 13:0.973994724858 14:8.95280061777 15:80.1526389016 16:30.6443256945 17:-29.3692966758 18:0.835239233396 19:16.3620199619 20:267.715697233 21:23.052029274 22:-46.5786622607 23:-7.33246523411 24:17.941892208 25:321.911496005 26:62.6366375254 27:-63.0061076284 28:-0.572410143761 29:38.2770855245 30:1465.13527625 
14 1:-76.2859649434 2:-191.401345472 3:-153.543286553 4:39.4532275188 5:1556.55716165 6:36.0213174761 7:-46.5474393716 8:3.23550710034e-15 9:24.5384418857 10:602.135130177 11:17.6919725364 12:-16.0204437029 13:1.95774235216 14:10.4679100056 15:109.577139885 16:26.9019379449 17:-25.8007130975 18:0.38139768376 19:13.8755532235 20:192.530977259 21:26.2769319183 22:-76.4828397003 23:-12.6511391386 24:26.7056030432 25:713.189233903 26:77.9735496424 27:-69.4489328243 28:1.31701710848 29:49.8869980509 30:2488.71257453 
14 1:-27.1167315288 2:-233.839450507 3:-164.491290395 4:70.5516399644 5:4977.53390167 6:44.8969938341 7:-45.462022667 8:6.72477946344e-15 9:30.2883087337 10:917.381645947 11:20.7385646716 12:-17.67806985 13:2.31595553068 14:14.5471626488 15:211.61994113 16:20.110081672 17:-16.5932692385 18:1.24863200554 19:10.3129938061 20:106.357841246 21:23.8377643557 22:-74.3120405516 23:-12.734066411 24:28.1945322237 25:794.931647311 26:88.0246092482 27:-81.9866820866 28:4.30554797957 29:59.5046319388 30:3540.80122217 
14 1:11.6607793438 2:-142.04236776 3:-90.6734340061 4:52.4821431021 5:2754.37534459 6:33.2238601026 7:-39.7751032792 8:2.22044604925e-15 9:24.3494975519 10:592.89803103 11:16.9648456433 12:-11.8511047678 13:1.85559017035 14:10.9526185428 15:119.959852945 16:22.8040942009 17:-19.8668685771 18:0.632236071811 19:11.2602838284 20:126.793991897 21:25.1503914636 22:-54.6676729882 23:-9.52621178931 24:22.6259593057 25:511.934034504 26:84.4394246197 27:-81.4087324803 28:7.09793920633 29:58.3666462415 30:3406.66539348 
14 1:-32.5165166975 2:-185.627194839 3:-135.211167531 4:52.3005769837 5:2735.35035283 6:48.4097113271 7:-62.2106625534 8:1.01506105109e-15 9:32.7605876858 10:1073.25610552 11:22.9723063794 12:-24.1478145595 13:2.58464878652 14:14.5583121709 15:211.944453266 16:21.9694621207 17:-61.6357805827 18:-7.46261761679 19:25.1553968879 20:632.793992589 21:37.3149935982 22:-58.4768766553 23:-12.008217876 24:31.7588903031 25:1008.62711328 26:136.940126513 27:-108.0864096 28:7.23610727776 29:86.3062130299 30:7448.76240757 
14 1:-33.1296351726 2:-233.239125539 3:-166.871506045 4:68.4111945131 5:4680.09153472 6:53.1738055069 7:-66.9639588682 8:3.04518315326e-15 9:37.0322205761 10:1371.3853608 11:26.3933675313 12:-22.1615586484 13:2.75563365868 14:15.6513082958 15:244.96345137 16:40.0551387937 17:-36.5431225814 18:-0.163269636424 19:19.6652622136 20:386.72253793 21:30.2302245622 22:-86.3432168318 23:-15.1993726423 24:33.5955669134 25:1128.66211623 26:139.928509599 27:-113.76127564 28:8.58933349228 29:91.8425562645 30:8435.05514119 
14 1:-126.070746124 2:-238.624321841 3:-201.054288391 4:38.5145061871 5:1483.36718683 6:26.3645349272 7:-21.2196406818 8:3.61615499449e-15 9:16.3121764413 10:266.087100251 11:18.9296375198 12:-14.6724209519 13:3.2473950993 14:9.73216684427 15:94.7150714847 16:65.8666331765 17:-57.126220238 18:-0.281602295678 19:32.3922965569 20:1049.26087623 21:26.7443350102 22:-102.262827227 23:-18.2377884294 24:38.0288171303 25:1446.19093233 26:123.995636733 27:-117.292949565 28:6.80743490045 29:79.9891423251 30:6398.2628899 
14 1:-53.0512438609 2:-353.236136294 3:-253.006499719 4:102.491388725 5:10504.4847627 6:67.628254868 7:-82.625451126 8:2.53765262771e-16 9:49.0469351133 10:2405.60184401 11:35.8068476956 12:-26.9414654112 13:3.25879431101 14:21.8775908029 15:478.628979339 16:30.990900119 17:-27.2937899827 18:0.928667804885 19:15.2989743993 20:234.05861767 21:34.6879440976 22:-95.0697211947 23:-16.4609939681 24:36.6465419708 25:1342.96903842 26:137.356619812 27:-106.508375857 28:9.86541909402 29:87.3621059882 30:7632.13756269 
14 1:339.215961283 2:-213.311883559 3:-26.3527097506 4:188.170051649 5:35407.9683377 6:116.513620364 7:-85.6514341127 8:2.28388736494e-15 9:70.3200757088 10:4944.9130477 11:68.1545801037 12:-59.2937286856 13:3.23009688126 14:39.7126522862 15:1577.0947516 16:38.7829314869 17:-36.156078905 18:5.71022367395 19:21.3294677503 20:454.946194513 21:47.4511061733 22:-76.0187799228 23:-13.2480528686 24:32.9491582814 25:1085.64703145 26:142.872284161 27:-105.998521501 28:10.60316008 29:86.9442599788 30:7559.30434326 
14 1:366.333581578 2:124.333708569 3:204.190104059 4:82.7778323766 5:6852.16953297 6:74.1366820701 7:-95.7450248438 8:7.61295788314e-16 9:50.3003126897 10:2530.12145668 11:37.0134640424 12:-34.396830761 13:3.09685507643 14:21.2385252713 15:451.074955701 16:49.2373664933 17:-46.0207719387 18:-0.688188809069 19:24.440834396 20:597.354385973 21:35.4382903199 22:-99.4079515086 23:-17.4424116789 24:37.5543136386 25:1410.32647287 26:168.337064303 27:-118.201657908 28:8.41685904841 29:104.595374433 30:10940.1923527 
14 1:94.4990437946 2:52.1872432066 3:79.689350722 4:14.1718708388 5:200.841923073 6:11.8317002736 7:-8.73872274391 8:-1.39570894524e-15 9:6.87087058521 10:47.2088625987 11:24.6811744751 12:-10.1012401825 13:3.38452326047 14:10.8707132699 15:118.172406997 16:17.2607334475 17:-20.4133837684 18:-1.46750920673 19:11.5072629871 20:132.417101454 21:29.6269491744 22:-137.05263975 23:-23.1033435162 24:47.4506596054 25:2251.56509698 26:139.957788786 27:-147.289954192 28:6.25836308226 29:85.537564157 30:7316.67488192 
14 1:29.1896395328 2:-54.0624078645 3:-26.3877644159 4:28.5100910722 5:812.825292943 6:19.1052038376 7:-23.2594840932 8:1.9825411154e-16 9:14.0808483048 10:198.270288982 11:9.57192731736 12:-6.86299324979 13:1.48281827816 14:6.58397917589 15:43.3487817886 16:14.8989875327 17:-13.873933658 18:1.26628164929 19:8.62858722976 20:74.4525175816 21:9.8998364204 22:-59.1967317186 23:-9.44638789413 24:18.9960078732 25:360.848315117 26:38.0992228123 27:-37.2736731881 28:1.27904230524 29:24.7669028248 30:613.399475535 
14 1:25.892586396 2:-48.6612460106 3:-24.0425214944 4:25.5272715546 5:651.641593024 6:21.8011406267 7:-27.9415834063 8:1.20538499816e-15 9:14.9825935869 10:224.478110589 11:11.1510255952 12:-9.78593547302 13:1.06181824527 14:6.48230551192 15:42.0202847499 16:12.1661889022 17:-11.768349655 18:0.530790245062 19:6.56821208035 20:43.1414099325 21:10.9060844365 22:-40.5780256932 23:-6.57706792347 24:13.5038851134 25:182.354913155 26:36.7207615317 27:-36.3529605375 28:0.649851997368 29:23.8751754718 30:570.024003809 
