17:30:05		x: 82.937	y: 25.172	z: -6.163
17:30:05		x: 82.937	y: 23.652	z: -6.163
17:30:05		x: 82.937	y: 24.559	z: -6.466
17:30:06		x: 101.512	y: 24.104	z: -1.376
17:30:06		x: 106.008	y: 19.026	z: 4.161
17:30:06		x: 105.001	y: 11.126	z: 5.734
17:30:06		x: 106.504	y: 13.136	z: 5.734
17:30:06		x: 111.589	y: 17.228	z: 9.989
17:30:06		x: 114.189	y: 17.723	z: 11.663
17:30:07		x: 111.128	y: 11.73	z: 12.904
17:30:07		x: 103.994	y: 7.559	z: 9.936
17:30:07		x: 101.37	y: 0.704	z: 11.16
17:30:07		x: 72.244	y: -15.466	z: 1.594
17:30:07		x: 15.888	y: -47.837	z: 5.0
17:30:08		x: 4.895	y: -52.696	z: 2.938
17:30:08		x: 3.141	y: -55.989	z: 4.214
17:30:08		x: 2.044	y: -57.73	z: 4.214
17:30:08		x: 0.897	y: -58.889	z: 4.551
17:30:08		x: 1.327	y: -59.954	z: 4.025
17:30:08		x: 1.327	y: -60.549	z: 4.602
17:30:09		x: 1.0	y: -60.549	z: 4.602
17:30:09		x: 0.308	y: -60.549	z: 4.602
17:30:09		x: 0.308	y: -60.549	z: 5.227
17:30:09		x: 0.691	y: -60.549	z: 4.913
17:30:09		x: 0.691	y: -60.549	z: 4.913
17:30:09		x: 0.691	y: -61.506	z: 5.403
17:30:10		x: 0.691	y: -61.506	z: 4.876
17:30:10		x: 0.253	y: -61.506	z: 4.876
17:30:10		x: 0.253	y: -61.506	z: 6.114
17:30:10		x: -0.312	y: -61.878	z: 6.5
17:30:10		x: -0.956	y: -63.586	z: 7.124
17:30:11		x: -1.463	y: -64.463	z: 7.124
17:30:11		x: -1.463	y: -65.768	z: 8.995
17:30:11		x: 0.219	y: -68.054	z: 9.886
17:30:11		x: 0.219	y: -72.756	z: 10.556
17:30:11		x: 0.219	y: -79.298	z: 10.931
17:30:11		x: -0.097	y: -85.705	z: 10.931
17:30:12		x: -3.52	y: -88.949	z: 10.56
17:30:12		x: -7.211	y: -89.654	z: 9.651
17:30:12		x: -9.797	y: -87.741	z: 8.892
17:30:12		x: -10.775	y: -83.215	z: 8.892
17:30:12		x: -10.775	y: -76.905	z: 8.54
17:30:13		x: -9.684	y: -68.991	z: 9.149
17:30:13		x: -6.118	y: -62.207	z: 8.181
17:30:13		x: -3.688	y: -56.857	z: 8.77
17:30:13		x: -1.872	y: -54.309	z: 8.122
17:30:13		x: -1.872	y: -51.368	z: 8.811
17:30:13		x: -0.096	y: -50.985	z: 8.811
17:30:14		x: -0.096	y: -50.677	z: 9.255
17:30:14		x: 0.703	y: -50.042	z: 9.255
17:30:14		x: 0.703	y: -50.5	z: 9.255
17:30:14		x: 0.238	y: -50.5	z: 9.255
17:30:14		x: 0.238	y: -50.181	z: 8.767
17:30:15		x: -0.837	y: -50.181	z: 8.767
17:30:15		x: -0.119	y: -50.877	z: 8.767
17:30:15		x: 0.366	y: -50.877	z: 8.767
17:30:15		x: -0.28	y: -51.269	z: 8.767
17:30:15		x: -0.891	y: -52.343	z: 8.346
17:30:15		x: -0.891	y: -52.343	z: 8.346
17:30:16		x: -0.891	y: -52.806	z: 8.346
17:30:16		x: -0.891	y: -52.806	z: 7.968
17:30:16		x: -0.489	y: -52.806	z: 7.968
17:30:16		x: -0.489	y: -52.096	z: 7.968
17:30:16		x: -0.489	y: -52.096	z: 7.658
17:30:17		x: -0.172	y: -51.484	z: 7.658
17:30:17		x: -0.172	y: -51.484	z: 7.658
17:30:17		x: -0.172	y: -51.484	z: 7.658
17:30:17		x: -0.172	y: -51.484	z: 7.296
17:30:17		x: -0.172	y: -51.484	z: 7.296
17:30:17		x: -0.172	y: -51.858	z: 7.296
17:30:18		x: -0.172	y: -51.858	z: 6.924
17:30:18		x: 24.578	y: -38.861	z: 6.924
17:30:18		x: 3.808	y: -44.285	z: 15.008
17:30:18		x: -3.466	y: -36.557	z: 23.559
17:30:18		x: -2.854	y: -35.205	z: 24.22
17:30:18		x: -0.646	y: -36.688	z: 23.828
17:30:19		x: 11.584	y: -32.351	z: 20.48
17:30:19		x: 12.342	y: -32.351	z: 20.48
17:30:19		x: 12.951	y: -33.056	z: 21.745
17:30:19		x: 31.945	y: -27.842	z: 20.768
17:30:19		x: 45.599	y: -23.542	z: 21.267
17:30:20		x: 44.654	y: -16.854	z: 19.07
17:30:20		x: 39.299	y: -3.598	z: 18.676
17:30:20		x: 37.567	y: -8.142	z: 20.237
17:30:20		x: 50.7	y: 2.787	z: 16.983
17:30:20		x: 60.24	y: 8.282	z: 13.917
17:30:20		x: 63.937	y: 7.872	z: 14.256
17:30:21		x: 67.012	y: 7.872	z: 13.465
17:30:21		x: 70.211	y: 7.179	z: 14.439
17:30:21		x: 77.345	y: 7.179	z: 12.709
17:30:21		x: 88.87	y: 0.917	z: 14.1
17:30:21		x: 92.443	y: -12.281	z: 15.997
17:30:22		x: 84.339	y: -23.504	z: 17.306
17:30:22		x: 75.282	y: -27.05	z: 19.393
17:30:22		x: 66.958	y: -27.05	z: 21.234
