4 1:34.6791344669 2:9.59939894166 3:26.2934268732 4:7.83814699279 5:61.4365482806 6:7.43758414677 7:-6.29368093968 8:-2.08166817117e-16 9:4.15363616756 10:17.2526934125 11:7.40629371578 12:-6.45782648618 13:-3.70074341542e-17 14:4.21325855039 15:17.7515476124 16:11.0430341654 17:-10.7002726323 18:-2.96059473233e-16 19:6.6951065966 20:44.8244523398 21:3.16142949006 22:-3.47471739979 23:3.93203987888e-17 24:2.01860323623 25:4.07475902531 26:1.86292720116 27:-1.32424321681 28:0.00624049475884 29:1.00353135226 30:1.00707517498 
4 1:2.47239498458 2:2.20075313536 3:2.28754941551 4:0.0863264328083 5:0.00745225300141 6:0.105866473418 7:-0.094571772957 8:-7.6327832943e-17 9:0.0777383200629 10:0.00604324640621 11:0.0783909853448 12:-0.121653273684 13:-3.46944695195e-17 14:0.0799021315894 15:0.00638435063254 16:0.421583325041 17:-0.390030023919 18:-6.47630097698e-17 19:0.256561628332 20:0.0658238691322 21:0.771755259249 22:-0.741824447519 23:-5.55111512313e-17 24:0.458239000684 25:0.209982981748 26:0.702344950799 27:-0.702344950799 28:0.0363126989258 29:0.532631588839 30:0.283696409429 
4 1:4.78418650839 2:3.08777213559 3:3.65094563571 4:0.531411779536 5:0.28239847943 6:0.463586113737 7:-0.514683768206 8:-1.31838984174e-16 9:0.302479734832 10:0.0914939899838 11:0.438206044367 12:-0.54339071005 13:-1.34151948809e-16 14:0.297392206212 15:0.0884421243159 16:1.03487136682 17:-1.02245221788 18:-3.70074341542e-17 19:0.619827392513 20:0.38418599651 21:0.85576698167 22:-0.753507004455 23:1.85037170771e-17 24:0.522659190423 25:0.273172629334 26:1.60422633307 27:-1.28974530528 28:0.0414529292318 29:0.910393071892 30:0.828815545349 
4 1:0.0 2:0.0 3:0.0 4:0.0 5:0.0 6:0.0 7:0.0 8:0.0 9:0.0 10:0.0 11:0.0 12:0.0 13:0.0 14:0.0 15:0.0 16:0.0 17:0.0 18:0.0 19:0.0 20:0.0 21:0.0 22:0.0 23:0.0 24:0.0 25:0.0 26:0.0 27:0.0 28:0.0 29:0.0 30:0.0 
4 1:0.0 2:0.0 3:0.0 4:0.0 5:0.0 6:0.0 7:0.0 8:0.0 9:0.0 10:0.0 11:0.0 12:0.0 13:0.0 14:0.0 15:0.0 16:0.0 17:0.0 18:0.0 19:0.0 20:0.0 21:0.0 22:0.0 23:0.0 24:0.0 25:0.0 26:0.0 27:0.0 28:0.0 29:0.0 30:0.0 
4 1:5.27960053784 2:4.37345991289 3:4.67156227891 4:0.284931203497 5:0.0811857907265 6:0.274033268416 7:-0.279440761159 8:-1.43403807347e-16 9:0.182410157195 10:0.0332734654479 11:0.254612704843 12:-0.331018616679 13:-1.22587125636e-16 14:0.180916260071 15:0.0327306931581 16:0.824618519426 17:-0.79404625793 18:-7.40148683083e-17 19:0.491663654122 20:0.241733148785 21:1.02582619784 22:-1.00137671056 23:0.0 24:0.612209886086 25:0.374800944622 26:0.230377813309 27:-0.159051042302 28:-0.0139943004372 29:0.123432244201 30:0.0152355189085 
4 1:1.2833943366 2:0.377253711654 3:0.985291970584 4:0.284931203497 5:0.0811857907265 6:0.279440761159 7:-0.274033268416 8:1.61907524425e-17 9:0.182410157195 10:0.0332734654479 11:0.331018616679 12:-0.254612704843 13:-2.31296463464e-17 14:0.180916260071 15:0.0327306931581 16:0.79404625793 17:-0.824618519426 18:0.0 19:0.491663654122 20:0.241733148785 21:1.00137671056 22:-1.02582619784 23:-3.70074341542e-17 24:0.612209886086 25:0.374800944622 26:0.159051042302 27:-0.230377813309 28:0.0139943004372 29:0.123432244201 30:0.0152355189085 
4 1:0.0 2:0.0 3:0.0 4:0.0 5:0.0 6:0.0 7:0.0 8:0.0 9:0.0 10:0.0 11:0.0 12:0.0 13:0.0 14:0.0 15:0.0 16:0.0 17:0.0 18:0.0 19:0.0 20:0.0 21:0.0 22:0.0 23:0.0 24:0.0 25:0.0 26:0.0 27:0.0 28:0.0 29:0.0 30:0.0 
4 1:0.0 2:0.0 3:0.0 4:0.0 5:0.0 6:0.0 7:0.0 8:0.0 9:0.0 10:0.0 11:0.0 12:0.0 13:0.0 14:0.0 15:0.0 16:0.0 17:0.0 18:0.0 19:0.0 20:0.0 21:0.0 22:0.0 23:0.0 24:0.0 25:0.0 26:0.0 27:0.0 28:0.0 29:0.0 30:0.0 
4 1:0.0 2:0.0 3:0.0 4:0.0 5:0.0 6:0.0 7:0.0 8:0.0 9:0.0 10:0.0 11:0.0 12:0.0 13:0.0 14:0.0 15:0.0 16:0.0 17:0.0 18:0.0 19:0.0 20:0.0 21:0.0 22:0.0 23:0.0 24:0.0 25:0.0 26:0.0 27:0.0 28:0.0 29:0.0 30:0.0 
4 1:0.0 2:0.0 3:0.0 4:0.0 5:0.0 6:0.0 7:0.0 8:0.0 9:0.0 10:0.0 11:0.0 12:0.0 13:0.0 14:0.0 15:0.0 16:0.0 17:0.0 18:0.0 19:0.0 20:0.0 21:0.0 22:0.0 23:0.0 24:0.0 25:0.0 26:0.0 27:0.0 28:0.0 29:0.0 30:0.0 
4 1:41.9725690275 2:24.1808390156 3:30.1055244576 4:5.56805693716 5:31.0032580555 6:4.69407858164 7:-5.33663440852 8:-6.29126380621e-16 9:3.06754831933 10:9.40985269143 11:4.64392339746 12:-5.54189569058 13:-3.70074341542e-17 14:3.07424460044 15:9.45097986333 16:9.62615931386 17:-9.65698701426 18:0.0 19:5.82494559794 20:33.929991219 21:4.86173798461 22:-4.2254078179 23:-1.48029736617e-16 24:3.063197293 25:9.38317765583 26:0.604836689376 27:-0.387387225779 28:0.0358617478953 29:0.340866493734 30:0.11618996655 
4 1:49.9570500853 2:41.5936583599 3:44.394629929 4:2.61213741628 5:6.82326188151 6:2.05282738766 7:-2.47788454436 8:8.32667268469e-17 9:1.36771171065 10:1.87063532345 11:2.0876110071 12:-2.38161803752 13:-2.72929826887e-16 14:1.361013239 15:1.85235703673 16:3.01030700779 17:-3.16582007777 18:-2.96059473233e-16 19:1.94567394682 20:3.78564710734 21:1.59135935972 22:-1.48599948246 23:-2.59052039079e-16 24:1.1484525548 25:1.31894327064 26:1.80011815828 27:-1.9266635181 28:0.121934055788 29:1.17257497012 30:1.37493206055 
