20:57:52		x: -0.109650314	y: -0.61453044	z: -0.9807441
20:57:52		x: -0.54611355	y: -0.7974846	z: -0.7696902
20:57:52		x: -0.46670106	y: -1.2195925	z: -0.49480084
20:57:52		x: 0.24953845	y: -2.2107213	z: -0.25381452
20:57:53		x: -0.12767084	y: -0.13500121	z: 0.10720685
20:57:53		x: 0.015882496	y: -0.067500606	z: -0.21074851
20:57:53		x: 0.15241088	y: 0.28527406	z: -0.6588182
20:57:53		x: -0.1282817	y: 0.16584991	z: -0.6249151
20:57:53		x: 3.263853	y: 0.1695151	z: -2.7608054
20:57:54		x: 2.2449298	y: 4.767803	z: -1.8692477
20:57:54		x: 1.3634512	y: 0.3811799	z: -0.028099801
20:57:54		x: 0.4978552	y: -0.4718934	z: -0.19242255
20:57:54		x: 1.2522738	y: -3.0158417	z: -0.34391713
20:57:54		x: 1.2623531	y: -0.33017266	z: 0.16523905
20:57:54		x: 0.36346483	y: 0.081855945	z: -0.14996742
20:57:55		x: 0.0571159	y: -0.1282817	z: 0.102319926
20:57:55		x: -1.2620476	y: -0.12064589	z: 0.6453791
20:57:55		x: 0.17837265	y: 1.1475104	z: 0.98563105
20:57:55		x: -0.14782938	y: 1.2110404	z: 0.58459806
20:57:55		x: -0.1432479	y: 0.5002986	z: 1.0815369
20:57:56		x: 1.8777997	y: 0.5757405	z: 0.29871312
20:57:56		x: -0.08979719	y: -0.28038713	z: 0.28069258
20:57:56		x: 0.09193522	y: -0.13988814	z: -0.183565
20:57:56		x: 0.03268129	y: 0.24923302	z: -0.046731193
20:57:56		x: -0.04184427	y: 0.13805555	z: 0.0580322
20:57:56		x: -0.88361657	y: -0.005497787	z: 0.1777618
20:57:57		x: 0.21991149	y: 0.6084218	z: -0.7806858
20:57:57		x: 0.45478916	y: 0.26511553	z: -0.75716746
20:57:57		x: -0.23518312	y: -0.04184427	z: -0.12858713
20:57:57		x: -0.7049385	y: 0.0036651916	z: -0.03359759
20:57:57		x: -0.7816021	y: 0.600786	z: 0.17104226
20:57:58		x: 0.18020524	y: 0.8881981	z: 0.68661255
20:57:58		x: 0.28160888	y: -0.06719518	z: -0.03390302
20:57:58		x: -0.029626964	y: 0.49510628	z: 0.30787608
20:57:58		x: 0.28924468	y: -0.6722572	z: -0.20097467
20:57:58		x: 0.3368922	y: -0.8753699	z: -0.16920967
20:57:58		x: -0.15393804	y: -0.65026605	z: -0.10415252
20:57:59		x: -0.6808093	y: -0.21471913	z: 0.16982053
20:57:59		x: -0.49846604	y: 1.0735956	z: 1.0036516
20:57:59		x: 0.36865717	y: 1.5586227	z: 0.52381694
20:57:59		x: 0.61544675	y: 0.16768251	z: 0.082161374
20:58:00		x: 0.29932398	y: -1.7464638	z: -0.1301143
20:58:00		x: 0.34605515	y: -1.9569068	z: -0.0290161
20:58:00		x: 0.032986723	y: -0.54183745	z: -0.16340645
20:58:00		x: 0.3313944	y: -0.19517145	z: -0.21074851
20:58:00		x: -0.043982297	y: -0.7318166	z: 0.17715092
20:58:00		x: 0.1826487	y: -0.44959682	z: 0.11881329
20:58:00		x: -0.33750305	y: -0.301462	z: -0.20066923
20:58:00		x: -0.37415496	y: -0.82436264	z: 0.1554652
20:58:01		x: -0.20341812	y: -1.0983357	z: 0.462425
20:58:01		x: -2.7363708	y: -0.38026363	z: 0.535118
20:58:01		x: -1.947133	y: -0.4288274	z: 0.09010262
20:58:01		x: -1.7886134	y: -0.1133155	z: -0.5510005
20:58:01		x: -0.81489426	y: -0.5308419	z: 1.9929478
20:58:01		x: 0.9083566	y: -1.10139	z: 0.5708536
20:58:02		x: 0.1328632	y: 0.20799962	z: 0.014660766
20:58:02		x: 0.59864795	y: 0.44868052	z: -0.008246681
20:58:02		x: 0.33414328	y: -0.14019357	z: -0.32436943
20:58:02		x: 0.47067168	y: 0.16279559	z: 0.19425514
20:58:02		x: 0.25625798	y: -0.19761491	z: 1.3585643
20:58:03		x: 0.09010262	y: 0.70341134	z: 1.237613
20:58:03		x: 0.3475823	y: 0.5195409	z: 0.5305365
20:58:03		x: 0.067500606	y: 0.6640105	z: 0.20769419
20:58:03		x: -0.17562376	y: -0.73884153	z: -0.22571471
20:58:03		x: -0.1872302	y: -0.4868596	z: 0.015577064
20:58:03		x: 0.2669481	y: -0.21105394	z: -0.1337795
20:58:04		x: -0.1826487	y: -0.16523905	z: -0.032986723
20:58:04		x: -0.06688975	y: -0.25350907	z: -0.15974127
20:58:04		x: -0.057421334	y: -0.23487769	z: 0.10323623
20:58:04		x: -0.059253927	y: 0.081855945	z: 0.037873644
20:58:04		x: 0.011301007	y: -0.019547688	z: 0.01160644
20:58:05		x: -0.004886922	y: 0.03970624	z: -0.051923547
20:58:05		x: 0.09193522	y: -0.050701816	z: -0.16432275
20:58:05		x: 0.116675265	y: -0.044593163	z: -0.061391957
20:58:05		x: 0.011301007	y: -0.0061086523	z: -0.013133603
20:58:05		x: 0.04428773	y: 0.00580322	z: 0.011301007
20:58:05		x: 0.034208454	y: 0.023518313	z: -0.03604105
