17:23:56		x: 31.362894
17:23:57		x: 31.362894
17:23:58		x: 31.356722
17:23:59		x: 31.356722
17:24:00		x: 31.356722
17:24:01		x: 31.255331
17:24:02		x: 31.255331
17:24:04		x: 31.255331
17:24:05		x: 31.255331
17:24:06		x: 31.255331
17:24:07		x: 31.255331
17:24:08		x: 31.064182
17:24:09		x: 31.064182
17:24:10		x: 31.064182
17:24:11		x: 31.112534
17:24:12		x: 31.112534
17:24:13		x: 31.112534
17:24:14		x: 30.977158
17:24:15		x: 30.977158
17:24:15		x: 30.977158
17:24:16		x: 30.977158
17:24:17		x: 30.977158
