7 1:288.081487256 2:285.185586123 3:286.15422497 4:0.904951994483 5:0.818938112318 6:0.723378870744 7:-0.85763867102 8:-1.02880666949e-14 9:0.478014221319 10:0.228497595783 11:0.746294050473 12:-0.851878533882 13:-8.47470242131e-15 14:0.486418391783 15:0.236602851865 16:1.21026645953 17:-1.25288933566 18:-1.25825276124e-15 19:0.760816785602 20:0.578842181253 21:0.416958954327 22:-0.394513495282 23:-4.64443298635e-15 24:0.249425212915 25:0.0622129368375 26:0.176313095296 27:-0.174831856104 28:-0.00152830749 29:0.119768182308 30:0.0143444174935 
7 1:288.127996253 2:288.127996253 3:288.127996253 4:5.68434188608e-14 5:3.23117426779e-27 6:-8.881784197e-16 7:-8.881784197e-16 8:-8.881784197e-16 9:0.0 10:0.0 11:-6.2172489379e-15 12:-6.2172489379e-15 13:-6.2172489379e-15 14:0.0 15:0.0 16:2.22044604925e-15 17:2.22044604925e-15 18:2.22044604925e-15 19:0.0 20:0.0 21:-7.32747196253e-15 22:-7.32747196253e-15 23:-7.32747196253e-15 24:0.0 25:0.0 26:1.11022302463e-15 27:1.11022302463e-15 28:1.11022302463e-15 29:0.0 30:0.0 
7 1:291.779350499 2:291.472011933 3:291.570837599 4:0.0976549510204 5:0.0095364894588 6:0.114763111746 7:-0.103493741504 8:-3.47869881049e-15 9:0.0846325207211 10:0.00716266356361 11:0.0960517861905 12:-0.141792395062 13:1.2952601954e-15 14:0.0820656054514 15:0.0067347635981 16:0.483852740339 17:-0.453367049733 18:-4.4408920985e-15 19:0.291888294766 20:0.0851987766214 21:0.830669286452 22:-0.824116639122 23:-3.36767650803e-15 24:0.498354879218 25:0.248357585641 26:0.147420869094 27:-0.125752911341 28:-0.00990950271946 29:0.102144755732 30:0.0104335511235 
7 1:291.698942066 2:291.698942066 3:291.698942066 4:5.68434188608e-14 5:3.23117426779e-27 6:-2.0872192863e-14 7:-2.0872192863e-14 8:-2.0872192863e-14 9:0.0 10:0.0 11:-4.88498130835e-15 12:-4.88498130835e-15 13:-4.88498130835e-15 14:0.0 15:0.0 16:-1.04360964315e-14 17:-1.04360964315e-14 18:-1.04360964315e-14 19:0.0 20:0.0 21:1.99840144433e-15 22:1.99840144433e-15 23:1.99840144433e-15 24:0.0 25:0.0 26:-1.99840144433e-15 27:-1.99840144433e-15 28:-1.99840144433e-15 29:0.0 30:0.0 
