5 1:0.791419060161 2:-4.14292959058 3:-0.879006821086 4:1.67910715273 5:2.81940083036 6:0.803263994362 7:-1.02128085618 8:2.37904933848e-17 9:0.632085741024 10:0.399532384005 11:0.41253689487 12:-0.560450732777 13:-0.0134040200622 14:0.348598058362 15:0.121520606294 16:0.724289403838 17:-0.708577326691 18:-0.00184721995758 19:0.411460535151 20:0.169299771987 21:1.15052691592 22:-0.894966783872 23:0.024325734713 24:0.598204161734 25:0.357848219116 26:2.008948521 27:-1.59476070371 28:-0.0550172695754 29:0.972604937711 30:0.945960364861 
5 1:-3.43978281105 2:-11.2914396208 3:-6.06656468596 4:2.67707717422 5:7.16674219673 6:2.48978102375 7:-1.963822034 8:3.9650822308e-17 9:1.36685120682 10:1.86828222159 11:0.881948132182 12:-1.07962174251 13:0.0020631581449 14:0.663592410858 15:0.440354887748 16:0.996040594217 17:-1.21076897116 18:-0.136189181938 19:0.694102495259 20:0.481778273925 21:1.94891004438 22:-1.51242036966 23:-0.0927650322265 24:0.94284111036 25:0.888949359386 26:1.08697396146 27:-2.54789352852 28:-0.450856153607 29:1.14776470388 30:1.31736381547 
5 1:-3.94242241437 2:-10.6464500694 3:-8.31556897198 4:2.27232007273 5:5.16343851292 6:1.41430081378 7:-1.69400112373 8:3.80647894157e-16 9:0.922998016925 10:0.851925339247 11:1.19856513633 12:-1.42297203958 13:0.0251845857076 14:0.751795298052 15:0.565196170173 16:0.985280075232 17:-0.868754932145 18:0.0424794189533 19:0.623218587339 20:0.388401407605 21:0.390034360372 22:-0.39019817046 23:-0.00687132783301 24:0.234574073616 25:0.0550249960129 26:2.03948425414 27:-3.02060415649 28:-0.395865836121 29:1.19433104779 30:1.42642665171 
5 1:-1.5611991526 2:-2.61979333357 3:-2.24298930364 4:0.354111788486 5:0.125395158744 6:0.347602112973 7:-0.342728442825 8:7.13714801545e-17 9:0.236388577416 10:0.0558795595326 11:0.153381159906 12:-0.149469436745 13:-0.00702740596226 14:0.1003005288 15:0.0100601960775 16:0.672028945125 17:-1.04178858517 18:-0.118407889852 19:0.530013702915 20:0.280914525277 21:0.894511007912 22:-0.726014915589 23:0.0908450790317 24:0.488342925284 25:0.238478812675 26:0.329066414184 27:-1.7125204074 28:-0.226534708786 29:0.550299179508 30:0.302829186968 
5 1:-0.358878352805 2:-0.703234999733 3:-0.578048891708 4:0.11731610897 5:0.0137630694238 6:0.162069707812 7:-0.109916612497 8:2.05688640723e-17 9:0.087559528731 10:0.0076666710716 11:0.152488991209 12:-0.155632371127 13:-0.0113342461629 14:0.0999429345104 15:0.00998859015856 16:0.359237116167 17:-0.120280156677 18:0.0468792756433 19:0.132681871335 20:0.0176044789809 21:0.361503160798 22:-0.0696997800221 23:0.0686224907998 24:0.130282654945 25:0.0169735701795 26:0.121035800613 27:-0.13679343318 28:0.00192296497053 29:0.0912188005997 30:0.00832086958285 
5 1:0.407605478102 2:-0.351186653472 3:-0.088204879434 4:0.258111834071 5:0.0666217188877 6:0.170564879771 7:-0.1852231127 8:-2.47817639425e-18 9:0.102727244485 10:0.0105528867595 11:0.14423456243 12:-0.162507015511 13:0.00270448353043 14:0.0853298341894 15:0.00728118060279 16:0.232613264695 17:-0.24459540361 18:0.0197022041051 19:0.142504708034 20:0.0203075918119 21:0.375027625482 22:-0.421500517789 23:0.00121749990105 24:0.214300689834 25:0.0459247856635 26:1.20432010551 27:-1.11060919428 28:0.00457189500115 29:0.528875954229 30:0.279709774961 
5 1:2.71021912001 2:-0.295391857089 3:1.68656396483 4:1.02506489732 5:1.05075804372 6:0.579241362948 7:-0.682137107334 8:-1.3815833398e-17 9:0.356405791595 10:0.127025088282 11:0.517456650823 12:-0.462230541027 13:-0.0319708128505 14:0.27288568833 15:0.0744665988955 16:0.126301004919 17:-0.588895973936 18:-0.0744492189568 19:0.211368252396 20:0.0446765381211 21:1.36725282014 22:-0.584269924652 23:0.213333831115 24:0.523772324801 25:0.274337448227 26:1.55711495964 27:-0.686877852279 28:0.0552082217814 29:0.588391040091 30:0.34620401606 
5 1:0.651852033191 2:-0.135566019985 3:0.385121727572 4:0.267914063516 5:0.0717779454299 6:0.171193694291 7:-0.17169464589 8:3.9650822308e-18 9:0.100301201242 10:0.0100603309705 11:0.0696455992457 12:-0.131548609261 13:-0.0205366003139 14:0.0565561992729 15:0.00319860367619 16:0.431346807364 17:-0.194563017607 18:0.0512949764888 19:0.167325540575 20:0.0279978365287 21:0.443728862697 22:-0.158569832604 23:0.0955982046882 24:0.186082872602 25:0.034626835476 26:0.347353796275 27:-0.0540532574373 28:0.0575821118368 29:0.121662066159 30:0.0148016583422 
5 1:2.26711427433 2:-0.622325681095 3:0.34402483617 4:0.985435801188 5:0.971083718262 6:0.682703614706 7:-0.849650308389 8:-1.9825411154e-18 9:0.484180877593 10:0.234431122227 11:0.423261899179 12:-0.359410850245 13:0.00948064379159 14:0.240340452052 15:0.0577635328927 16:0.274885793891 17:-0.333193934023 18:0.00571001415201 19:0.193679348012 20:0.0375116898463 21:1.02696016894 22:-1.09786201427 23:-0.00222600840726 24:0.533760430668 25:0.284900197347 26:0.180004004249 27:-0.160191173409 28:0.0109327414282 29:0.102541763844 30:0.0105148133321 
5 1:3.58149459882 2:-13.3017121072 3:-2.05474283757 4:5.76199499196 5:33.2005862873 6:5.47370187437 7:-4.3131119549 8:1.90323947079e-16 9:3.00269639879 10:9.01618566333 11:2.12109293068 12:-2.5123925667 13:-0.0322154621474 14:1.4660388484 15:2.14926990502 16:0.502227784924 17:-2.3389285722 18:-0.299720463949 19:0.853490567248 20:0.728446148381 21:0.554896257287 22:-1.10662011 23:-0.00413363570156 24:0.468635332211 25:0.219619074597 26:3.18005723662 27:-3.07340916545 28:0.375423699748 29:1.94418013879 30:3.77983641208 
5 1:-3.0771737922 2:-16.6990295917 3:-12.0519259152 4:4.63172571787 5:21.4528831256 6:2.89321497472 7:-2.56852153149 8:1.58603289232e-16 9:1.55806507128 10:2.42756676635 11:1.77453103413 12:-1.83680785055 13:0.0966927395988 14:1.014798 15:1.02981498081 16:1.17231773194 17:-0.937900313778 18:0.0292287901584 19:0.692055691118 20:0.478941079608 21:0.515428721059 22:-2.02584019231 23:-0.387216612445 24:0.709177372683 25:0.502932545925 26:0.541666006329 27:-3.7488479507 28:-0.474247690785 29:1.21677857308 30:1.48055009591 
5 1:-0.335469045936 2:-1.91410104356 3:-1.36298040048 4:0.535895191431 5:0.287183656198 6:0.339352035397 7:-0.4073194982 8:4.55984456542e-17 9:0.231104631774 10:0.0534093508274 11:0.361263130623 12:-0.423238931849 13:0.00205903666269 14:0.228982644449 15:0.0524330514588 16:0.440992844756 17:-0.317627690709 18:0.060610968161 19:0.20451493385 20:0.0418263581679 21:0.109332304826 22:-0.120034717641 23:0.00914890383553 24:0.0666000023261 25:0.00443556030983 26:0.213634180971 27:-0.807506764051 28:-0.0353349184063 29:0.276762610147 30:0.0765975423753 
5 1:-0.232793308985 2:-0.419615223494 3:-0.35604923422 4:0.0638958053827 5:0.0040826739455 6:0.0414269071834 7:-0.0346967313884 8:-4.21289987023e-18 9:0.021611003041 10:0.000467035452439 11:0.0358749609408 12:-0.042319895866 13:7.43452918276e-18 14:0.0262458846002 15:0.000688846458449 16:0.0603189689696 17:-0.0150299209152 18:0.00864238522054 19:0.0234992679863 20:0.000552215595894 21:0.0573332515764 22:-0.049307211615 23:-0.00618319681636 24:0.0356368487617 25:0.00126998498967 26:0.166111022441 27:-0.102371999883 28:0.0237699679899 29:0.0755075158283 30:0.00570138494656 
