3 1:0.0 2:0.0 3:0.0 4:0.0 5:0.0 6:0.0 7:0.0 8:0.0 9:0.0 10:0.0 11:0.0 12:0.0 13:0.0 14:0.0 15:0.0 16:0.0 17:0.0 18:0.0 19:0.0 20:0.0 21:0.0 22:0.0 23:0.0 24:0.0 25:0.0 26:0.0 27:0.0 28:0.0 29:0.0 30:0.0 
3 1:2.31179152381 2:0.88701900023 3:1.3633962202 4:0.445294719432 5:0.198287387154 6:0.357719640318 7:-0.422323666516 8:-5.99925202109e-17 9:0.23599886958 10:0.0556954664432 11:0.368244808095 12:-0.421737436366 13:-2.25514051877e-17 14:0.240169130974 15:0.0576812114727 16:0.613288041779 17:-0.632422193959 18:0.0 19:0.38329670587 20:0.14691636473 21:0.265499059662 22:-0.220456503977 23:-9.25185853854e-18 24:0.150485288732 25:0.0226458221249 26:0.901881382271 27:-0.63088076793 28:0.005140230306 29:0.460962442473 30:0.21248637337 
3 1:0.0 2:0.0 3:0.0 4:0.0 5:0.0 6:0.0 7:0.0 8:0.0 9:0.0 10:0.0 11:0.0 12:0.0 13:0.0 14:0.0 15:0.0 16:0.0 17:0.0 18:0.0 19:0.0 20:0.0 21:0.0 22:0.0 23:0.0 24:0.0 25:0.0 26:0.0 27:0.0 28:0.0 29:0.0 30:0.0 
3 1:0.0 2:0.0 3:0.0 4:0.0 5:0.0 6:0.0 7:0.0 8:0.0 9:0.0 10:0.0 11:0.0 12:0.0 13:0.0 14:0.0 15:0.0 16:0.0 17:0.0 18:0.0 19:0.0 20:0.0 21:0.0 22:0.0 23:0.0 24:0.0 25:0.0 26:0.0 27:0.0 28:0.0 29:0.0 30:0.0 
3 1:0.0 2:0.0 3:0.0 4:0.0 5:0.0 6:0.0 7:0.0 8:0.0 9:0.0 10:0.0 11:0.0 12:0.0 13:0.0 14:0.0 15:0.0 16:0.0 17:0.0 18:0.0 19:0.0 20:0.0 21:0.0 22:0.0 23:0.0 24:0.0 25:0.0 26:0.0 27:0.0 28:0.0 29:0.0 30:0.0 
3 1:0.0 2:0.0 3:0.0 4:0.0 5:0.0 6:0.0 7:0.0 8:0.0 9:0.0 10:0.0 11:0.0 12:0.0 13:0.0 14:0.0 15:0.0 16:0.0 17:0.0 18:0.0 19:0.0 20:0.0 21:0.0 22:0.0 23:0.0 24:0.0 25:0.0 26:0.0 27:0.0 28:0.0 29:0.0 30:0.0 
3 1:0.0 2:0.0 3:0.0 4:0.0 5:0.0 6:0.0 7:0.0 8:0.0 9:0.0 10:0.0 11:0.0 12:0.0 13:0.0 14:0.0 15:0.0 16:0.0 17:0.0 18:0.0 19:0.0 20:0.0 21:0.0 22:0.0 23:0.0 24:0.0 25:0.0 26:0.0 27:0.0 28:0.0 29:0.0 30:0.0 
3 1:0.0 2:0.0 3:0.0 4:0.0 5:0.0 6:0.0 7:0.0 8:0.0 9:0.0 10:0.0 11:0.0 12:0.0 13:0.0 14:0.0 15:0.0 16:0.0 17:0.0 18:0.0 19:0.0 20:0.0 21:0.0 22:0.0 23:0.0 24:0.0 25:0.0 26:0.0 27:0.0 28:0.0 29:0.0 30:0.0 
3 1:0.0 2:0.0 3:0.0 4:0.0 5:0.0 6:0.0 7:0.0 8:0.0 9:0.0 10:0.0 11:0.0 12:0.0 13:0.0 14:0.0 15:0.0 16:0.0 17:0.0 18:0.0 19:0.0 20:0.0 21:0.0 22:0.0 23:0.0 24:0.0 25:0.0 26:0.0 27:0.0 28:0.0 29:0.0 30:0.0 
3 1:0.0 2:0.0 3:0.0 4:0.0 5:0.0 6:0.0 7:0.0 8:0.0 9:0.0 10:0.0 11:0.0 12:0.0 13:0.0 14:0.0 15:0.0 16:0.0 17:0.0 18:0.0 19:0.0 20:0.0 21:0.0 22:0.0 23:0.0 24:0.0 25:0.0 26:0.0 27:0.0 28:0.0 29:0.0 30:0.0 
3 1:0.0 2:0.0 3:0.0 4:0.0 5:0.0 6:0.0 7:0.0 8:0.0 9:0.0 10:0.0 11:0.0 12:0.0 13:0.0 14:0.0 15:0.0 16:0.0 17:0.0 18:0.0 19:0.0 20:0.0 21:0.0 22:0.0 23:0.0 24:0.0 25:0.0 26:0.0 27:0.0 28:0.0 29:0.0 30:0.0 
3 1:0.0 2:0.0 3:0.0 4:0.0 5:0.0 6:0.0 7:0.0 8:0.0 9:0.0 10:0.0 11:0.0 12:0.0 13:0.0 14:0.0 15:0.0 16:0.0 17:0.0 18:0.0 19:0.0 20:0.0 21:0.0 22:0.0 23:0.0 24:0.0 25:0.0 26:0.0 27:0.0 28:0.0 29:0.0 30:0.0 
3 1:0.0 2:0.0 3:0.0 4:0.0 5:0.0 6:0.0 7:0.0 8:0.0 9:0.0 10:0.0 11:0.0 12:0.0 13:0.0 14:0.0 15:0.0 16:0.0 17:0.0 18:0.0 19:0.0 20:0.0 21:0.0 22:0.0 23:0.0 24:0.0 25:0.0 26:0.0 27:0.0 28:0.0 29:0.0 30:0.0 
3 1:0.0 2:0.0 3:0.0 4:0.0 5:0.0 6:0.0 7:0.0 8:0.0 9:0.0 10:0.0 11:0.0 12:0.0 13:0.0 14:0.0 15:0.0 16:0.0 17:0.0 18:0.0 19:0.0 20:0.0 21:0.0 22:0.0 23:0.0 24:0.0 25:0.0 26:0.0 27:0.0 28:0.0 29:0.0 30:0.0 
3 1:0.0 2:0.0 3:0.0 4:0.0 5:0.0 6:0.0 7:0.0 8:0.0 9:0.0 10:0.0 11:0.0 12:0.0 13:0.0 14:0.0 15:0.0 16:0.0 17:0.0 18:0.0 19:0.0 20:0.0 21:0.0 22:0.0 23:0.0 24:0.0 25:0.0 26:0.0 27:0.0 28:0.0 29:0.0 30:0.0 
3 1:0.0 2:0.0 3:0.0 4:0.0 5:0.0 6:0.0 7:0.0 8:0.0 9:0.0 10:0.0 11:0.0 12:0.0 13:0.0 14:0.0 15:0.0 16:0.0 17:0.0 18:0.0 19:0.0 20:0.0 21:0.0 22:0.0 23:0.0 24:0.0 25:0.0 26:0.0 27:0.0 28:0.0 29:0.0 30:0.0 
3 1:0.0 2:0.0 3:0.0 4:0.0 5:0.0 6:0.0 7:0.0 8:0.0 9:0.0 10:0.0 11:0.0 12:0.0 13:0.0 14:0.0 15:0.0 16:0.0 17:0.0 18:0.0 19:0.0 20:0.0 21:0.0 22:0.0 23:0.0 24:0.0 25:0.0 26:0.0 27:0.0 28:0.0 29:0.0 30:0.0 
3 1:0.0 2:0.0 3:0.0 4:0.0 5:0.0 6:0.0 7:0.0 8:0.0 9:0.0 10:0.0 11:0.0 12:0.0 13:0.0 14:0.0 15:0.0 16:0.0 17:0.0 18:0.0 19:0.0 20:0.0 21:0.0 22:0.0 23:0.0 24:0.0 25:0.0 26:0.0 27:0.0 28:0.0 29:0.0 30:0.0 
3 1:0.0 2:0.0 3:0.0 4:0.0 5:0.0 6:0.0 7:0.0 8:0.0 9:0.0 10:0.0 11:0.0 12:0.0 13:0.0 14:0.0 15:0.0 16:0.0 17:0.0 18:0.0 19:0.0 20:0.0 21:0.0 22:0.0 23:0.0 24:0.0 25:0.0 26:0.0 27:0.0 28:0.0 29:0.0 30:0.0 
3 1:0.0 2:0.0 3:0.0 4:0.0 5:0.0 6:0.0 7:0.0 8:0.0 9:0.0 10:0.0 11:0.0 12:0.0 13:0.0 14:0.0 15:0.0 16:0.0 17:0.0 18:0.0 19:0.0 20:0.0 21:0.0 22:0.0 23:0.0 24:0.0 25:0.0 26:0.0 27:0.0 28:0.0 29:0.0 30:0.0 
3 1:0.0 2:0.0 3:0.0 4:0.0 5:0.0 6:0.0 7:0.0 8:0.0 9:0.0 10:0.0 11:0.0 12:0.0 13:0.0 14:0.0 15:0.0 16:0.0 17:0.0 18:0.0 19:0.0 20:0.0 21:0.0 22:0.0 23:0.0 24:0.0 25:0.0 26:0.0 27:0.0 28:0.0 29:0.0 30:0.0 
3 1:3.28095818728 2:0.714236174127 3:1.57295863082 4:0.802024074513 5:0.643242616098 6:0.639331943163 7:-0.759781630692 8:-7.27138257014e-17 9:0.422881116873 10:0.178828439007 11:0.660391353203 12:-0.752428516625 13:-1.38777878078e-17 14:0.430288515566 15:0.185148206628 16:1.05485314774 17:-1.09446719495 18:-3.70074341542e-17 19:0.665451713408 20:0.442825982877 21:0.309206122466 22:-0.323311528355 23:-1.61907524425e-17 24:0.212974766224 25:0.045358251048 26:0.484468757244 27:-0.658864537347 28:-0.00724673557533 29:0.346349652973 30:0.119958082114 
3 1:322.131796258 2:96.0413801876 3:171.665684538 4:70.6518577182 5:4991.68499904 6:56.4742206181 7:-66.9576782743 8:-1.23974904416e-15 9:37.3189899078 10:1392.70700774 11:58.2640163859 12:-66.5057218841 13:-7.69754630407e-15 14:37.9750856822 15:1442.10713257 16:94.4707597606 17:-97.8002729739 18:0.0 19:59.3899975326 20:3527.17180692 21:32.4926963216 22:-30.774321339 23:-6.14323406959e-15 24:19.4572056165 25:378.582850402 26:12.9500787784 27:-13.4946120453 28:-0.125211030658 29:9.05120903042 30:81.9243849124 
3 1:302.458236852 2:286.598730077 3:297.18096778 4:4.96477198353 5:24.6489608484 6:4.7639334373 7:-4.22291343347 8:-1.25085127441e-14 9:2.75736582411 10:7.60306628796 11:4.99883251695 12:-4.16818351282 13:2.22044604925e-15 14:2.76655569388 15:7.65383040734 16:8.96653605332 17:-8.97434136051 18:-4.4408920985e-15 19:5.41263224146 20:29.2965877813 21:4.68813572359 22:-5.23881254501 23:-4.73695157173e-15 24:3.21563807043 25:10.3403282 26:0.286497258378 27:-0.327459344774 28:0.00719851589233 29:0.179239105407 30:0.0321266569069 
3 1:295.002969667 2:266.80507821 3:276.259461634 4:8.80408377177 5:77.5118910603 6:6.82198220615 7:-8.32132937043 8:-4.69994413758e-15 9:4.57164035688 10:20.8998955527 11:7.04913053118 12:-7.92678761371 13:-3.47869881049e-15 14:4.58680881389 15:21.0388150952 16:9.37472291502 17:-9.9909977024 18:-5.92118946467e-15 19:6.22139592655 20:38.7057672749 21:6.99751525741 22:-5.78895639148 23:-7.40148683083e-16 24:4.70325411974 25:22.1205993148 26:3.47255275409 27:-5.12788856499 28:0.340118957054 29:3.06386881247 30:9.38729210001 
3 1:279.752646898 2:277.940365648 3:279.156442166 4:0.569862406995 5:0.324743162906 6:0.558881522318 7:-0.548066536832 8:-1.50250182666e-14 9:0.36482031439 10:0.133093861792 11:0.662037233357 12:-0.509225409686 13:-3.1456319031e-15 14:0.361832520142 15:0.130922772632 16:1.58809251586 17:-1.64923703885 18:-1.85037170771e-16 19:0.983327308244 20:0.966932595139 21:2.00275342111 22:-2.05165239567 23:-1.55431223448e-15 24:1.22441977217 25:1.49920377849 26:0.318102084604 27:-0.460755626618 28:0.0279886008743 29:0.246864488402 30:0.0609420756341 
3 1:272.914631533 2:271.721934622 3:272.527447175 4:0.375939080044 5:0.141330191904 6:0.418988183046 7:-0.404531370811 8:-9.39988827516e-15 9:0.266421538406 10:0.0709804361265 11:0.458030033922 12:-0.40476352181 13:-5.92118946467e-16 14:0.310335222458 15:0.0963079502978 16:0.586607296437 17:-0.627954502177 18:-3.58972111295e-15 19:0.37948747361 20:0.144010742627 21:1.01543550062 22:-1.14266511139 23:0.0580637433972 24:0.672538307291 25:0.452307774774 26:0.159051042302 27:-0.23241944314 28:0.046483888628 29:0.144620434681 30:0.0209150701274 
