13:01:55		x: 67.0
13:01:55		x: 72.0
13:01:56		x: 61.0
13:01:56		x: 58.0
13:01:56		x: 60.0
13:01:56		x: 67.0
13:01:56		x: 82.0
13:01:57		x: 98.0
13:01:57		x: 106.0
13:01:57		x: 127.0
13:01:57		x: 105.0
13:01:57		x: 81.0
13:01:57		x: 70.0
13:01:58		x: 67.0
13:01:58		x: 66.0
13:01:58		x: 63.0
13:01:58		x: 62.0
13:01:58		x: 61.0
13:01:59		x: 60.0
13:01:59		x: 60.0
13:01:59		x: 59.0
