18:12:49		x: 6.0
18:12:49		x: 6.0
18:12:49		x: 3.0
18:12:49		x: 5.0
18:12:49		x: 1.0
18:12:49		x: 2.0
18:12:50		x: 1.0
18:12:50		x: 1.0
18:12:50		x: 1.0
18:12:50		x: 3.0
18:12:50		x: 4.0
18:12:51		x: 2.0
18:12:51		x: 1.0
18:12:51		x: 2.0
18:12:51		x: 5.0
18:12:51		x: 0.0
18:12:51		x: 0.0
18:12:52		x: 0.0
18:12:52		x: 0.0
18:12:52		x: 0.0
18:12:52		x: 0.0
18:12:52		x: 0.0
18:12:52		x: 0.0
18:12:53		x: 0.0
18:12:53		x: 0.0
18:12:53		x: 0.0
18:12:53		x: 0.0
18:12:53		x: 0.0
18:12:54		x: 0.0
18:12:54		x: 0.0
18:12:54		x: 0.0
18:12:54		x: 0.0
18:12:54		x: 0.0
18:12:54		x: 0.0
18:12:55		x: 0.0
18:12:55		x: 0.0
18:12:55		x: 0.0
18:12:55		x: 0.0
18:12:55		x: 0.0
18:12:56		x: 1.0
18:12:56		x: 1.0
18:12:56		x: 1.0
18:12:56		x: 2.0
18:12:56		x: 2.0
18:12:56		x: 1.0
18:12:57		x: 8.0
18:12:57		x: 16.0
18:12:57		x: 24.0
18:12:57		x: 24.0
18:12:57		x: 26.0
18:12:58		x: 26.0
18:12:58		x: 25.0
18:12:58		x: 25.0
18:12:58		x: 26.0
18:12:58		x: 26.0
18:12:58		x: 27.0
18:12:59		x: 27.0
