1 1:5323.41029456 2:5323.23766781 3:5323.35197478 4:0.0537775519802 5:0.00289202509698 6:0.0497550055602 7:-0.0376163527052 8:-1.36187357687e-13 9:0.0269876617926 10:0.000728333889033 11:0.0436225050731 12:-0.0425471200558 13:5.3290705182e-15 14:0.0282056631865 15:0.000795559435791 16:0.0464792665368 17:-0.0292993255484 18:-6.63173220043e-14 19:0.0280808949289 20:0.000788536660007 21:0.121956836431 22:-0.12816538651 23:-2.96059473233e-14 24:0.0768806473544 25:0.00591063393763 26:0.0386580223815 27:-0.033104459298 28:0.000204023562188 29:0.0219898855475 30:0.000483555066393 
1 1:5323.69182196 2:5323.53834215 3:5323.58922264 4:0.0481165237135 5:0.00231519985427 6:0.0427084973737 7:-0.0464393443782 8:-2.21452485979e-13 9:0.0279127864619 10:0.000779123648066 11:0.0416519332668 12:-0.0511512736277 13:-1.81780516565e-13 14:0.0280695248485 15:0.000787898225223 16:0.105475962065 17:-0.103717891393 18:-4.50010399315e-14 19:0.0630452147798 20:0.00397469910663 21:0.0932451119791 22:-0.0887727392969 23:-6.80936788437e-14 24:0.0556102245148 25:0.00309249707058 26:0.0338100868991 27:-0.0227247398192 28:-0.00185608944148 29:0.0186764847473 30:0.000348811082518 
1 1:5323.74349142 2:5323.61035023 3:5323.6552351 4:0.041504895998 5:0.00172265639181 6:0.0299449380193 7:-0.0385062206345 8:-4.85537536103e-14 9:0.020882717925 10:0.000436087907934 11:0.0336914515734 12:-0.0351707902987 13:-1.23160740865e-13 14:0.0221560601139 15:0.000490890999771 16:0.0270408061632 17:-0.0333983839408 18:-8.23045335589e-14 19:0.0238035625283 20:0.000566609589038 21:0.0746754215519 22:-0.0700821076491 23:-4.67773967709e-14 24:0.0449861445804 25:0.00202375320421 26:0.0338776218287 27:-0.0293266466753 28:-0.00142866384093 29:0.0217959621871 30:0.000475063967663 
1 1:5323.55989003 2:5323.45193564 3:5323.52404919 4:0.0338247533857 5:0.00114411394161 6:0.0325622987647 7:-0.0295325957824 8:-1.45661260831e-13 9:0.0192771304136 10:0.000371607756981 11:0.0352413554101 12:-0.0289823928254 13:-1.05397172471e-13 14:0.019397596782 15:0.000376266760918 16:0.0684067445141 17:-0.069196906359 18:-1.0894988615e-13 19:0.0414561440041 20:0.00171861187569 21:0.0550669529356 22:-0.0604723201219 23:-1.33226762955e-14 24:0.0362839364858 25:0.00131652404691 26:0.0600577550877 27:-0.085857671418 28:0.000143561885859 29:0.0442089569159 30:0.00195443187159 
1 1:5323.74536594 2:5323.6360648 3:5323.67266174 4:0.0341415286357 5:0.00116564397758 6:0.0269215933082 7:-0.03237666175 8:-3.07901852163e-14 9:0.0179033796958 10:0.000320531004533 11:0.0274800236028 12:-0.0313404655413 13:-1.19608027186e-13 14:0.0179130154622 15:0.00032087612295 16:0.0406516015546 17:-0.0426028727269 18:-1.04805053525e-13 19:0.0261011166449 20:0.00068126829011 21:0.0179453500238 22:-0.0180931101081 23:-1.53950926081e-14 24:0.0134962034653 25:0.000182147507978 26:0.0180011815827 27:-0.0170878732456 28:0.00114687320204 29:0.012047071575 30:0.000145131933533 
1 1:5323.66688027 2:5323.58733765 3:5323.64031326 4:0.0248735173425 5:0.000618691864989 6:0.0235275160155 7:-0.0202743840376 8:-6.86857977901e-14 9:0.013304251887 10:0.000177003118274 11:0.0243336476126 12:-0.0213548684366 13:-1.42108547152e-13 14:0.0139078050741 15:0.000193427041979 16:0.0397537651888 17:-0.0389357000882 18:-3.13823041627e-14 19:0.0239921127377 20:0.000575621473618 21:0.00858398523381 22:-0.010613035774 23:-5.53631214946e-14 24:0.00747518498806 25:5.58783906058e-05 26:0.0288210797455 27:-0.0382703368782 28:0.0019819427241 29:0.0229708707928 30:0.000527660904981 
1 1:5323.45119716 2:5323.3835871 3:5323.42862339 4:0.0211388309778 5:0.000446850175108 6:0.020168977748 7:-0.0172629788005 8:-1.5750363976e-13 9:0.0113482838213 10:0.00012878354569 11:0.0202097511251 12:-0.0172653380819 13:-9.71075072205e-14 14:0.0113335651977 15:0.000128449700092 16:0.0314812475976 17:-0.0308498833958 18:0.0 19:0.01901206456 20:0.000361458598832 21:0.0108010139417 22:-0.0149331469924 23:-7.69754630407e-15 24:0.00906571544012 25:8.21871964412e-05 26:0.0447417454417 27:-0.0590349941117 28:-0.00112320849822 29:0.0314881782877 30:0.00099150537188 
1 1:5323.5309146 2:5323.38447858 3:5323.4818249 4:0.0457302861909 5:0.0020912590751 6:0.0430096357907 7:-0.0355716140581 8:-3.78956125739e-14 9:0.0237212628584 10:0.000562698311599 11:0.0421037825362 12:-0.0379716585981 13:-1.16647432454e-13 14:0.0246790268506 15:0.000609054366295 16:0.0567943871694 17:-0.053692848714 18:4.55931588779e-14 19:0.0350492605189 20:0.00122845066292 21:0.0226726272809 22:-0.0251703522281 23:-4.97379915032e-14 24:0.0178755090777 25:0.000319533824787 26:0.0312788049294 27:-0.0338905229175 28:0.00155284151333 29:0.0199200723035 30:0.000396809280578 
1 1:5323.57349848 2:5323.51964311 3:5323.53735945 4:0.0169251382749 5:0.000286460305625 6:0.0162467138952 7:-0.0167824870423 8:1.18423789293e-14 9:0.0107529098257 10:0.000115625069719 11:0.0141086973863 12:-0.019044131315 13:-2.42768768051e-14 14:0.0104790057671 15:0.000109809561866 16:0.0458069455321 17:-0.0439907078933 18:3.96719694133e-14 19:0.027309852309 20:0.00074582803314 21:0.0582438119819 22:-0.0547568850958 23:-4.38168020385e-14 24:0.0346022582077 25:0.00119731627308 26:0.0602842987111 27:-0.0521290713011 28:0.00214162353724 29:0.0381701777512 30:0.00145696246956 
1 1:5323.53552227 2:5323.46099051 3:5323.4858374 4:0.0233163570915 5:0.000543652508018 6:0.01940175931 7:-0.0222882208838 8:-3.43428988951e-14 9:0.0127006880791 10:0.000161307477683 11:0.0193750319262 12:-0.0228822000388 13:-1.02436577739e-13 14:0.012763103801 15:0.000162896818634 16:0.0379747324594 17:-0.0383505567277 18:1.00068101953e-13 19:0.0231217152523 20:0.000534613716207 21:0.0134455886921 22:-0.0112199167318 23:-4.79616346638e-14 24:0.00903544268526 25:8.16392245186e-05 26:0.0142746413214 27:-0.0216553264173 28:-4.56203855013e-05 29:0.0108480539848 30:0.000117680275257 
1 1:5323.62073057 2:5323.61939645 3:5323.62033764 4:0.000437010542305 5:1.90978214086e-07 6:0.000878721125936 7:-0.000809043222425 8:-2.60532336445e-13 9:0.000643068749445 10:4.13537416513e-07 11:0.00192551184841 12:-0.00186002303714 13:-1.59872115546e-13 14:0.00115561119613 15:1.33543723661e-06 16:0.00263695387807 17:-0.00306938431428 18:-4.79616346638e-14 19:0.002053123171 20:4.21531475529e-06 21:0.00523145412855 22:-0.00537326230447 23:-4.73695157173e-14 24:0.00321544881852 25:1.03391111046e-05 26:0.0265178269944 27:-0.0280498110507 28:-0.00143325234514 29:0.017238832903 30:0.000297177359857 
1 1:5323.59383954 2:5323.55339081 3:5323.58040039 4:0.0126632024909 5:0.000160356697325 6:0.0123540158799 7:-0.0109176292158 8:-2.01320441799e-14 9:0.00712825108824 10:5.0811963577e-05 11:0.0124172082531 12:-0.00976712009514 13:-2.96059473233e-15 14:0.00676823979507 15:4.58090699236e-05 16:0.021469757596 17:-0.0216535068745 18:-1.20200146133e-13 19:0.0129958070793 20:0.000168891001643 21:0.0104046526812 22:-0.0130704571834 23:-3.67113746809e-14 24:0.0088455310992 25:7.82434204269e-05 26:0.044694507576 27:-0.0312308318966 28:-0.00245365623722 29:0.0291121680455 30:0.000847518328312 
1 1:5323.49948551 2:5323.41045951 3:5323.46992167 4:0.0278873452788 5:0.0007777040267 6:0.0269298305294 7:-0.0242594214628 8:-1.24344978758e-13 9:0.0158299394773 10:0.000250586983856 11:0.0286254516794 12:-0.0233203837006 13:-1.25529216651e-13 14:0.0157076615582 15:0.000246730631627 16:0.0540916197853 17:-0.0546525841543 18:-5.74355378073e-14 19:0.0327627097669 20:0.00107339515127 21:0.0360701727878 22:-0.0391389558556 23:-2.81256499572e-14 24:0.0235828912345 25:0.000556152758978 26:0.00931783864022 27:-0.0124583816188 28:-0.000540690588779 29:0.00728999835019 30:5.31440759457e-05 
1 1:5323.76136081 2:5323.52422922 3:5323.60349277 4:0.0741192801611 5:0.00549366769159 6:0.0597473046644 7:-0.0703461458024 8:-9.71075072205e-14 9:0.0393782222664 10:0.00155064438886 11:0.0613428312756 12:-0.0704532325441 13:0.0 14:0.0400331237961 15:0.00160265100088 16:0.103919005506 17:-0.106933375904 18:-9.41469124882e-14 19:0.0647413248623 20:0.00419143914492 21:0.0364784711121 22:-0.0300906979793 23:-4.55931588779e-14 24:0.0205005746088 25:0.000420273559292 26:0.0302944439094 27:-0.0199177995946 28:-0.000142463661784 29:0.0170117920383 30:0.000289401068353 
1 1:5323.52660418 2:5323.47985121 3:5323.51123376 4:0.0147000715774 5:0.000216092104381 6:0.0145286055271 7:-0.0142131152838 8:-2.2618943755e-13 9:0.00944820847915 10:8.92686434655e-05 11:0.0168870675134 12:-0.0126586836846 13:-2.96059473233e-14 14:0.00926737175589 15:8.58841792619e-05 16:0.0401427384653 17:-0.0418017063935 18:1.18423789293e-14 19:0.0249282529927 20:0.000621417797267 21:0.0501474527463 22:-0.0518572902701 23:-3.64153152077e-14 24:0.030887251404 25:0.000954022299292 26:0.0113715843783 27:-0.0108678711957 28:-0.000545682295885 29:0.00789110242706 30:6.22694975144e-05 
1 1:5323.56539893 2:5323.54988072 3:5323.55504717 4:0.00486008716287 5:2.36204472307e-05 6:0.0041244092741 7:-0.0045902702127 8:-1.38555833473e-13 9:0.00269270393005 10:7.25065445493e-06 11:0.00445401200137 12:-0.00509777042089 13:-8.34887714518e-14 14:0.00290160283045 15:8.41929898568e-06 16:0.00977793324566 17:-0.00978409660981 18:-1.23160740865e-13 19:0.00590213121371 20:3.48351528639e-05 21:0.00799168943826 22:-0.00745645282597 23:-6.2172489379e-15 24:0.00475976714968 25:2.26553833192e-05 26:0.0152583577249 27:-0.0168202920238 28:-0.000830868025434 29:0.0107685339959 30:0.000115961324421 
1 1:5323.79565159 2:5323.72098512 3:5323.74571283 4:0.0234108325213 5:0.000548067079342 6:0.0209798164197 7:-0.0227815378584 8:-7.22385114689e-14 9:0.0137109052343 10:0.000187988922345 11:0.0195765653522 12:-0.0247141464918 13:-4.67773967709e-14 14:0.0134906103794 15:0.00018199656841 16:0.0510183076287 17:-0.0499639261556 18:-1.20200146133e-13 19:0.0304528555772 20:0.000927376412806 21:0.0431061205574 22:-0.0411061841285 23:-6.51330841113e-14 24:0.0257628909322 25:0.000663726549182 26:0.0240975215093 27:-0.0341240907171 28:0.000677143312966 29:0.0194186118716 30:0.000377082487018 
1 1:5323.5027282 2:5323.18827738 3:5323.39785925 4:0.0983653254609 5:0.00967573725304 6:0.0937868067619 7:-0.0815239554673 8:-1.66977542904e-13 9:0.0533841806103 10:0.00284987073943 11:0.0966221019736 12:-0.0825238947351 13:-9.11863177559e-14 14:0.0541686852765 15:0.00293424646458 16:0.16162052309 17:-0.159728814898 18:-1.65793305011e-14 19:0.0974415430487 20:0.00949485431172 21:0.0513053656902 22:-0.0625908845169 23:-2.19084010193e-14 24:0.0420948829918 25:0.00177197917409 26:0.0324117214555 27:-0.031961793377 28:0.00141771603292 29:0.0207146200293 30:0.000429095482959 
1 1:5323.37685978 2:5323.27474472 3:5323.30874201 4:0.031957519605 5:0.0010212830593 6:0.0269918136344 7:-0.0307110896537 8:-1.59872115546e-13 9:0.0176398993061 10:0.00031116604753 11:0.0262926381274 12:-0.0316563608094 13:-1.32634644009e-13 14:0.0174896437817 15:0.000305887639609 16:0.0546418078513 17:-0.054759438745 18:-4.14483262527e-14 19:0.033038396225 20:0.00109153562512 21:0.0280202189396 22:-0.0236945341905 23:-5.68434188608e-14 24:0.0180311159995 25:0.000325121144188 26:0.0173466757342 27:-0.0221661800362 28:0.00128650819278 29:0.0156103717742 30:0.000243683706928 
1 1:5323.36827154 2:5323.33065104 3:5323.34314987 4:0.01177755065 5:0.000138710699313 6:0.0101565558412 7:-0.0115053588571 8:-4.61852778244e-14 9:0.00663193204308 10:4.3982522624e-05 11:0.00900613746513 12:-0.011506744692 13:-3.31586610021e-14 14:0.00626991139931 15:3.93117889553e-05 16:0.0199362775159 17:-0.0197659856664 18:-9.53311503811e-14 19:0.0119648376373 20:0.000143157339688 21:0.0101601865168 22:-0.00813924511619 23:-2.19084010193e-14 24:0.00696337250782 25:4.84885566827e-05 26:0.0360503361983 27:-0.0412984100189 28:0.00227838427524 29:0.0242168580339 30:0.000586456213034 
1 1:5323.41891535 2:5323.26822805 3:5323.36822849 4:0.0470069540368 5:0.00220965372782 6:0.0438465993163 7:-0.0349684908274 8:-1.01844458792e-13 9:0.0238735779036 10:0.000569947721921 11:0.041212367149 12:-0.0385205265124 13:-3.43428988951e-14 14:0.0251453211152 15:0.000632287173989 16:0.0451286869307 17:-0.0404386794327 18:-3.67113746809e-14 19:0.0299453618904 20:0.000896724698749 21:0.051093033671 22:-0.0578654317509 23:-2.69414120642e-14 24:0.0359938749001 25:0.00129555903032 26:0.0453756700039 27:-0.0572891111008 28:0.0010427909596 29:0.0343756565249 30:0.00118168576152 
1 1:5323.3300867 2:5323.30677756 3:5323.3223419 4:0.00730114276852 5:5.33066857264e-05 6:0.00701764427686 7:-0.00631752908732 8:3.43428988951e-14 9:0.00412279985589 10:1.69974786517e-05 11:0.00752756053045 12:-0.00622857512954 13:-1.00068101953e-13 14:0.00415263684629 15:1.72443927772e-05 16:0.0142646845189 17:-0.0143790656121 18:-1.71714494475e-14 19:0.0086308919844 20:7.44922964465e-05 21:0.0101305926749 22:-0.0110983792028 23:-8.58572472377e-14 24:0.00667848259112 25:4.46021297199e-05 26:0.00628839138093 27:-0.0091247878406 28:8.8540701267e-05 29:0.00486823929574 30:2.36997538405e-05 
1 1:5323.17374472 2:5323.14331354 3:5323.16277818 4:0.0098651547629 5:9.7321278496e-05 6:0.0158683076917 7:-0.0135335229809 8:-1.43292785045e-13 9:0.00887698447513 10:7.88008533718e-05 11:0.0532938309531 12:-0.054397824814 13:-1.25529216651e-13 14:0.0325955792922 15:0.00106247178939 16:0.026004366544 17:-0.0289824373223 18:0.00134689116999 19:0.0212932005057 20:0.000453400387774 21:0.0590682358692 22:-0.0590682358691 23:0.00365785763025 24:0.039786197477 25:0.00158294150968 26:0.00409620863955 27:-0.00409620863964 28:-4.88498130835e-14 29:0.00409620863959 30:1.67789252191e-05 
