1 1:255.179433427 2:254.206819798 3:254.855435358 4:0.304328146965 5:0.092615621035 6:0.29200085101 7:-0.255354905815 8:-1.81336427355e-15 9:0.167011104001 10:0.0278927088598 11:0.29951898484 12:-0.250267730778 13:-5.40308538651e-15 14:0.16592548528 15:0.0275312666655 16:0.508688208499 17:-0.505926056817 18:-4.2003437765e-15 19:0.306778610492 20:0.0941131158554 21:0.184577170018 22:-0.222305777345 23:-3.83026943496e-15 24:0.147119931722 25:0.0216442743099 26:0.166011455638 27:-0.151112152802 28:-0.00995994646342 29:0.10061074311 30:0.0101225216292 
1 1:256.072098522 2:254.638743414 3:255.118286666 4:0.447880720123 5:0.200597139458 6:0.357027251676 7:-0.42429093428 8:3.70074341542e-17 9:0.236152885144 10:0.0557681851619 11:0.3687876265 12:-0.420184675967 13:-4.8479738742e-15 14:0.240289458056 15:0.0577390236526 16:0.589070082115 17:-0.611192071414 18:-6.29126380621e-16 19:0.371613523932 20:0.138096611169 21:0.172672448618 22:-0.180549443272 23:-2.2574534834e-15 24:0.1189332025 25:0.014145106657 26:0.270545763858 27:-0.367934994507 28:-0.00404685252122 29:0.193414807507 30:0.0374092877628 
1 1:259.634674755 2:258.039014942 3:258.572741064 4:0.498634264173 5:0.248636129408 6:0.39858632627 7:-0.472564324138 8:-5.95819689882e-15 9:0.26338885484 10:0.0693736888537 11:0.411212735021 12:-0.469390452198 13:-3.18263933726e-15 14:0.268019605842 15:0.0718345091157 16:0.666864462626 17:-0.690349936558 18:-3.1456319031e-15 19:0.419214853796 20:0.175741093643 21:0.229747017133 22:-0.217379427445 23:-2.86807614695e-15 24:0.137434867558 25:0.0188883428206 26:0.0971496290114 27:-0.096333456862 28:-0.000842107078996 29:0.0659930248465 30:0.00435507932839 
1 1:261.738585273 2:260.713283094 3:261.054832828 4:0.320814249776 5:0.10292178286 6:0.269188024022 7:-0.307819157988 8:-1.10652228121e-14 9:0.17605845062 10:0.0309965780346 11:0.263825265896 12:-0.315744565113 13:-7.21644966006e-15 14:0.174914021624 15:0.0305949149607 16:0.533333147061 17:-0.536244930373 18:-1.09171930755e-15 19:0.323397460123 20:0.104585917214 21:0.23434855399 22:-0.194576107782 23:-9.06682136777e-16 24:0.155089731243 25:0.0240528247372 26:0.159298219428 27:-0.175004649179 28:0.0104994979411 29:0.106061040992 30:0.0112489444164 
