11 1:7.49201453267 2:-104.094660546 3:-67.1495592679 4:38.1796201451 5:1457.68339442 6:30.885127613 7:-39.2355846555 8:2.85485920618e-15 9:21.3948222676 10:457.738419863 11:15.6759185994 12:-13.3069738 13:1.50558916452 14:9.19142699966 15:84.4823302901 16:19.528408178 17:-18.2404806956 18:0.710620857605 19:10.0893704874 20:101.795396832 21:16.3582160482 22:-54.8497034418 23:-9.03648603528 24:18.5814026591 25:345.268524779 26:59.555150327 27:-51.013941896 28:1.76498699165 29:37.2216837661 30:1385.45374238 
11 1:-13.8308804965 2:-106.618427929 3:-75.9684103426 4:31.7688180218 5:1009.2577985 6:26.4437217234 7:-33.6810399541 8:1.58603289232e-15 9:18.2514675213 10:333.116066681 11:12.2668772882 12:-10.2228989829 13:1.53651913613 14:7.52245461786 15:56.5873234777 16:28.7814800004 17:-25.8063389529 18:0.681233720827 19:14.6705426401 20:215.224821355 21:18.526218044 22:-59.3842775924 23:-9.96982370616 24:21.4393317618 25:459.644946392 26:96.4437414504 27:-82.3919541435 28:1.25437668233 29:53.8422002966 30:2898.98253278 
11 1:-6.6923860084 2:-230.323349726 3:-156.419893089 4:76.5261260933 5:5856.24797484 6:65.9842062024 7:-84.8602402714 8:3.42583104741e-15 9:45.1478742786 10:2038.33055188 11:33.7499759774 12:-29.9627480509 13:2.70369237778 14:19.3538858168 15:374.572896208 16:39.1791087625 17:-36.8754484575 18:1.54501596223 19:20.5080820486 20:420.581429311 21:39.8203015763 22:-103.883968989 23:-16.9717469171 24:36.8205764777 25:1355.75485215 26:141.5401416 27:-115.039962184 28:3.46611766943 29:82.0488742637 30:6732.01776794 
11 1:16.4079261351 2:-294.569471069 3:-192.506836542 4:106.525698436 5:11347.7244273 6:107.766933084 7:-141.973924427 8:1.26882631386e-15 9:72.2893428162 10:5225.7490848 11:55.949426043 12:-54.6967201681 13:3.59786549703 14:31.7813521695 15:1010.05434572 16:53.0929887805 17:-53.6985856505 18:1.11806349496 19:27.9721751569 20:782.442583006 21:57.6640398031 22:-136.192896222 23:-22.1628798076 24:56.8195305385 25:3228.45905061 26:155.511258665 27:-131.485449621 28:5.85066496121 29:99.8480327338 30:9969.6296408 
11 1:15.1867516901 2:-197.726640206 3:-126.765351131 4:72.8005413049 5:5299.91881429 6:47.3972045428 7:-57.1033823975 8:5.13874657112e-15 9:34.768984625 10:1208.88229185 11:23.3143639888 12:-16.4214418101 13:3.29153134402 14:15.7819496248 15:249.06993396 16:40.2502126243 17:-35.8142015244 18:1.75524877431 19:20.4721115646 20:419.107351915 21:25.0020105401 22:-117.675395208 23:-19.6864389822 24:39.0178032808 25:1522.38897286 26:139.912064777 27:-98.8509199441 28:6.08575901326 29:86.050521319 30:7404.69221927 
11 1:23.7868694893 2:-226.27014704 3:-142.905707821 4:85.4800926911 5:7306.84624648 6:56.0924072149 7:-68.2867264785 8:7.23230998899e-15 9:41.0849416967 10:1687.97243422 11:28.4519888105 12:-19.9303844846 13:3.49671107311 14:18.5699859637 15:344.844378691 16:41.9577706454 17:-37.5198995261 18:2.17836692156 19:21.5162223754 20:462.947825307 21:26.1267617465 22:-121.658241432 23:-20.234352273 24:41.4346135133 25:1716.827197 26:129.888944292 27:-94.8861190226 28:6.82674990135 29:83.4188534421 30:6958.70510959 
11 1:27.3396507289 2:-191.560803443 3:-118.808614949 4:74.8517661971 5:5602.78690282 6:54.1171858738 7:-67.2337468243 8:4.31400946711e-15 9:38.4712406665 10:1480.03635842 11:27.3551831129 12:-21.2853629826 13:3.07770003378 14:16.7853414902 15:281.747688941 16:37.4440458938 17:-34.204249339 18:1.16369305912 19:18.7828161024 20:352.794180737 21:27.9869690957 22:-106.251294676 23:-17.8589939398 24:36.9718992187 25:1366.92133183 26:124.916620456 27:-91.0288952293 28:6.27216366149 29:79.3584850672 30:6297.76915216 
11 1:11.2081708758 2:-187.682297234 3:-121.691927521 4:68.0246226243 5:4627.34928318 6:51.0066906473 7:-63.7282658622 8:5.26562920251e-15 9:35.9311299793 10:1291.04610159 11:25.0604621734 12:-20.0292568959 13:3.03280391992 14:15.3798421914 15:236.539545832 16:40.9715799891 17:-37.3102525125 18:0.472354099891 19:20.2622532654 20:410.558907391 21:28.8722938678 22:-103.80434712 23:-17.7172997323 24:36.0812110544 25:1301.85379116 26:132.768077089 27:-94.578850892 28:6.11092428046 29:82.5381439174 30:6812.54520133 
11 1:33.9517957607 2:-237.862316228 3:-147.00812378 4:92.8232664855 5:8616.15880104 6:59.2979681977 7:-67.5547365005 8:3.80647894157e-15 9:42.3575845284 10:1794.16496708 11:28.8444928594 12:-19.8020627991 13:3.69044356453 14:19.184247387 15:368.035347805 16:35.5734850267 17:-30.852150546 18:0.548898685737 19:17.3188138479 20:299.941313097 21:25.4382140643 22:-114.16250788 23:-19.7593474716 24:39.5358968426 25:1563.08713914 26:118.280588586 27:-93.5197498203 28:6.40796724853 29:77.970310377 30:6079.36930029 
11 1:24.2671438373 2:-154.586888817 3:-95.153982131 4:61.1761535857 5:3742.52176755 6:43.7130631838 7:-54.128499896 8:1.45915026094e-15 9:31.2413485707 10:976.021860519 11:21.6963486461 12:-16.3984862937 13:2.71266679684 14:13.6800370326 15:187.143413213 16:35.8868372778 17:-32.6699223605 18:1.13923584684 19:18.0348978512 20:325.257540505 21:24.653828416 22:-95.9615656971 23:-16.1325517423 24:33.7720180753 25:1140.54920488 26:118.653626587 27:-83.6916048373 28:6.28200169821 29:75.2309589785 30:5659.69718882 
11 1:22.4275379678 2:-159.767610344 3:-99.0138749493 4:62.2871225361 5:3879.68563382 6:40.4070504321 7:-48.6713290462 8:7.04198604191e-15 9:29.6350230928 10:878.234593712 11:20.2524491859 12:-13.8874046231 13:2.6574484195 14:13.501021783 15:182.277589185 16:31.7927025238 17:-28.4626561318 18:1.54969740274 19:16.2139559207 20:262.892366598 21:20.9491259593 22:-92.569335001 23:-15.4823184399 24:32.3739488215 25:1048.0725623 26:107.59906628 27:-76.6182142277 28:6.58985502174 29:70.3285666929 30:4946.10729307 
11 1:-4.64413177807 2:-143.337211572 3:-97.3905694587 4:47.4672094789 5:2253.13597572 6:36.3381965844 7:-45.5389395243 8:2.47421131202e-15 9:25.5461385572 10:652.605195183 11:17.5817016667 12:-14.0166517364 13:2.32210685593 14:10.9627280483 15:120.181406261 16:33.2023107381 17:-30.5113442621 18:0.551026265307 19:16.5476719549 20:273.825447127 21:20.9537458744 22:-81.5704107697 23:-13.8453305526 24:28.9024317896 25:835.350563354 26:107.696215979 27:-79.6665305977 28:6.0391782512 29:68.778568632 30:4730.49150306 
11 1:-7.40950206701 2:-184.484150363 3:-125.61685605 4:60.5426574401 5:3665.41336991 6:43.4067578174 7:-53.8166317331 8:-1.90323947079e-16 9:30.9131077403 10:955.620230165 11:21.7975601842 12:-16.8575614025 13:2.51740595714 14:13.4525376839 15:180.970770136 16:31.9114495813 17:-29.0099395099 18:0.75342226299 19:15.8264774244 20:250.477387664 21:21.0380852872 22:-84.7463961559 23:-14.409276061 24:30.3336503634 25:920.130344372 26:109.74788291 27:-81.2366069482 28:6.25216011223 29:70.8209263972 30:5015.60361575 
11 1:-6.46990246796 2:-182.906531518 3:-124.22918933 4:60.3197452555 5:3638.47166769 6:42.7867519325 7:-52.9299094839 8:-1.45915026094e-15 9:30.5558209968 10:933.658196789 11:21.4335562209 12:-16.4082050547 13:2.5089244807 14:13.3107036061 15:177.174830488 16:32.1975501351 17:-29.1372330716 18:0.761434403221 19:15.9492811599 20:254.379569518 21:20.354525795 22:-83.7982677918 23:-14.2698202505 24:29.8197825774 25:889.219432964 26:107.02745046 27:-79.6621227297 28:6.36558606087 29:69.7376795033 30:4863.3439425 
11 1:-1.89889931694 2:-179.675414786 3:-120.521703657 4:60.7693476934 5:3692.91361908 6:42.596430434 7:-52.5739954857 8:2.53765262771e-16 9:30.506921968 10:930.67228796 11:21.3968988827 12:-16.2508434878 13:2.48270988538 14:13.3195588273 15:177.410647353 16:31.5609238382 17:-28.4539642861 18:0.742766396504 19:15.6029821257 20:243.453051214 21:20.570090809 22:-82.5062955531 23:-14.0822939963 24:29.5393679193 25:872.574257073 26:107.90898647 27:-78.356928907 28:6.20618219078 29:69.706071049 30:4858.93634108 
11 1:-10.3196328997 2:-173.016407949 3:-118.952745925 4:55.6382153144 5:3095.61100337 6:40.0298224581 7:-49.6362002621 8:-9.51619735393e-16 9:28.5129816785 10:812.990124197 11:19.8786918052 12:-15.2751814091 13:2.41913048084 14:12.3929735873 15:153.585794335 16:31.9917611194 17:-29.0800989182 18:0.736981588732 19:15.8912193005 20:252.530850858 21:21.8213070267 22:-82.6942953075 23:-14.0515693877 24:29.6311258329 25:878.003618124 26:108.456762701 27:-79.6230533778 28:6.11044575672 29:69.713360136 30:4859.95258146 
11 1:-98.267768492 2:-176.966594969 3:-151.177969341 4:27.0409464938 5:731.212787279 6:23.6840647086 7:-30.1300903901 8:5.26562920251e-15 9:16.4399102693 10:270.270649662 11:13.3669296843 12:-8.3170310405 13:2.20161283955 14:7.39071626108 15:54.6226868518 16:34.8356124796 17:-32.7481108601 18:0.127672299147 19:17.4962268157 20:306.117952785 21:27.6046412267 22:-84.2114464881 23:-14.3289348346 24:31.6302857782 25:1000.47497841 26:114.812867839 27:-101.186725674 28:6.93324077096 29:75.2635162453 30:5664.59687761 
11 1:-89.2371963617 2:-284.118960891 3:-219.355014115 4:66.5950884089 5:4434.90580019 6:49.2394040288 7:-61.4303193008 8:1.45915026094e-14 9:34.6656822994 10:1201.70952928 11:24.7220533218 12:-20.1426074687 13:2.58783207838 14:14.7805092233 15:218.4634529 16:34.3763505796 17:-31.1326576212 18:-0.236551757907 19:16.8595926387 20:284.245863944 21:30.7664729909 22:-78.7934141795 23:-13.9463696555 24:31.4348174871 25:988.147750449 26:126.107102348 27:-111.882517519 28:8.51844173561 29:84.5833673137 30:7154.34602612 
11 1:-45.8119191993 2:-272.227630902 3:-196.543252725 4:77.3107268299 5:5976.94848296 6:49.0003283934 7:-58.0155739562 8:4.4408920985e-15 9:35.694322557 10:1274.0846628 11:24.6237643441 12:-16.9176672913 13:2.75029145991 14:16.0965350724 15:259.098441337 16:34.3107823808 17:-29.6217163459 18:1.10541266673 19:16.9211421541 20:286.3250518 21:25.4297997583 22:-82.8857583551 23:-14.4004695723 24:30.9529391351 25:958.084441101 26:123.004156896 27:-92.4293177187 28:8.45999034985 29:81.5662239975 30:6653.04889721 
11 1:-44.0067026475 2:-227.313798482 3:-166.270311654 4:62.6562744373 5:3925.80872636 6:42.4842631108 7:-52.0212634915 8:2.15700473356e-15 9:30.7503383087 10:945.583306098 11:21.2825759808 12:-15.6425058799 13:2.65840844938 14:13.5608955123 15:183.897887097 16:32.2691623084 17:-29.0310810034 18:0.687683567257 19:15.9021636461 20:252.878808628 21:23.9706059462 22:-87.2511649178 23:-14.9541775217 24:31.6756232351 25:1003.34510733 26:112.685707705 27:-87.7800746978 28:7.32671605019 29:74.9727701054 30:5620.91625727 
11 1:-44.15003033 2:-215.967591147 3:-158.65149718 4:58.7126936129 5:3447.18039128 6:37.7984285129 7:-45.3621923457 8:6.34413156929e-17 9:27.7115642033 10:767.930790593 11:18.7686594938 12:-12.9837455193 13:2.52273554472 14:12.4356567708 15:154.645559322 16:29.1210653655 17:-25.8318576335 18:0.636486101034 19:14.3076889547 20:204.709963225 21:19.3771307248 22:-81.4391747847 23:-14.0130308518 24:28.976946217 25:839.663412061 26:103.054313025 27:-77.42062181 28:6.80211454756 29:68.7693406583 30:4729.22221457 
11 1:-61.4771990856 2:-205.526061083 3:-157.822674579 4:49.2882879956 5:2429.33533354 6:38.7817452094 7:-48.9020856448 8:1.52259157663e-15 9:27.0385545014 10:731.083429525 11:19.0336555613 12:-15.7416487765 13:2.23880220881 14:11.513903265 15:132.569968395 16:31.9123983335 17:-29.4324665868 18:0.406636891072 19:15.8540028579 20:251.349406618 21:20.2751926056 22:-76.7043058075 23:-13.086582584 24:27.4877905931 25:755.578631689 26:107.464486242 27:-75.758583976 28:5.91594414523 29:68.3116833905 30:4666.48608764 
11 1:-72.058066974 2:-241.40692614 3:-185.223480519 4:57.9208263923 5:3354.82212997 6:43.8063813317 7:-54.8624590277 8:7.9936057773e-15 9:30.7872274463 10:947.853373828 11:21.7536359133 12:-17.5541699989 13:2.49503817112 14:13.2050988974 15:174.37463689 16:33.6169620929 17:-30.8001528907 18:0.528174775776 19:16.6591893638 20:277.528590257 21:22.5243939731 22:-84.8897304433 23:-14.4642179758 24:30.1842149802 25:911.086833973 26:111.203045 27:-77.2267040931 28:5.84382925559 29:70.5423232991 30:4976.21937644 
11 1:-76.7887765345 2:-255.786412218 3:-196.334248859 4:61.2136357416 5:3747.1092007 6:44.9256565821 7:-55.9606939517 8:2.98174183756e-15 9:31.816566521 10:1012.29390519 11:22.4850091383 12:-17.6658182919 13:2.58229315428 14:13.7845239998 15:190.0131019 16:33.5088799759 17:-30.596060734 18:0.843799662127 19:16.7088248723 20:279.184828613 21:22.8349979712 22:-88.6196617937 23:-14.9863687942 24:31.1654342862 25:971.28429425 26:111.600193865 27:-77.0597277398 28:5.92557873863 29:71.1550197722 30:5063.03683878 
11 1:-83.6608989996 2:-261.700976202 3:-202.558037824 4:60.8877459938 5:3707.3176122 6:44.29827342 7:-55.0621566409 8:3.99680288865e-15 9:31.4577365938 10:989.589191607 11:22.2216395932 12:-17.3486425979 13:2.61721020136 14:13.6893103284 15:187.397217266 16:32.115468234 17:-29.4239491018 18:0.800121970816 19:16.0183038042 20:256.586056762 21:21.4460366741 22:-89.5191501003 23:-15.1191011352 24:31.2913164134 25:979.146482886 26:108.056865885 27:-74.8977191721 28:6.02930483136 29:69.2117002859 30:4790.25945646 
11 1:-82.9864226986 2:-263.515713334 3:-203.543815955 4:61.7277512514 5:3810.31527456 6:45.3238258495 7:-56.4716101689 8:3.61615499449e-15 9:32.0662853766 10:1028.24665786 11:22.7594867721 12:-18.0036247032 13:2.54200654104 14:13.8649302396 15:192.23629055 16:32.5910287629 17:-29.7178155361 18:0.694588379293 19:16.1642765905 20:261.283837693 21:22.4764779819 22:-86.0758345434 23:-14.6239604053 24:30.4361691711 25:926.360393812 26:109.987069092 27:-76.9002647793 28:5.84545990385 29:70.0242899106 30:4903.40117748 
11 1:-80.9365890813 2:-263.70602522 3:-202.94722647 4:62.4914125844 5:3905.1766468 6:44.9279535228 7:-55.7534743539 8:-1.90323947079e-16 9:31.9740769439 10:1022.34159642 11:22.6041572964 12:-17.4919581436 13:2.56464423133 14:13.9233397809 15:193.859390653 16:32.7311924069 17:-29.7368425786 18:0.924022090005 19:16.3217553143 20:266.39969654 21:22.4666969336 22:-87.5134236519 23:-14.7960676513 24:30.8172423061 25:949.702423356 26:110.055164975 27:-76.8561890985 28:5.99749291868 29:70.2649132271 30:4937.15803081 
11 1:-84.2582556219 2:-262.176142632 3:-203.067340967 4:60.8402390966 5:3701.53469333 6:44.3419012624 7:-55.1526707428 8:5.26562920251e-15 9:31.4545734166 10:989.390188819 11:22.2314025468 12:-17.4047648429 13:2.56095000418 14:13.6482808936 15:186.275571351 16:32.4714852527 17:-29.6374320808 18:0.774381063537 19:16.1555700809 20:261.002444638 21:22.4771391546 22:-87.4047614758 23:-14.8054763099 24:30.8082145887 25:949.146086146 26:109.840247789 27:-76.9629723576 28:6.02620356391 29:70.2067788502 30:4928.99179652 
11 1:-103.903161868 2:-261.794398785 3:-209.384167885 4:54.012960639 5:2917.39991699 6:39.643419239 7:-49.3236685074 8:4.94842262404e-15 9:28.1259698168 10:791.070178137 11:19.3043178058 12:-14.8753988251 13:2.48293545633 14:12.1393030322 15:147.362678108 16:36.0520530148 17:-32.7281840335 18:0.793849535247 19:17.9508716495 20:322.233792977 21:23.7413463119 22:-87.1418512793 23:-14.788191076 24:30.8606598661 25:952.380327369 26:116.217893956 27:-81.1088831931 28:6.10861107021 29:72.5455912361 30:5262.8628078 
11 1:-84.4393135843 2:-252.604873863 3:-196.111581633 4:57.4770250409 5:3303.60840755 6:37.9608144719 7:-31.8570505182 8:1.22124532709e-15 9:23.6549448322 10:559.556415015 11:21.2116529134 12:-21.6410720796 13:2.28880370624 14:13.3104090056 15:177.166987897 16:42.234943209 17:-35.6986582891 18:4.31203499848 19:24.1319512461 20:582.351070946 21:18.9782577692 22:-88.7084192277 23:-14.1402952489 24:29.7479513579 25:884.94060999 26:111.530413522 27:-84.9244845853 28:6.08570265619 29:68.3237206743 30:4668.13080678 
11 1:-75.3536931704 2:-285.362148701 3:-216.190635551 4:71.9036534722 5:5170.13538266 6:66.7876526616 7:-86.8663539584 8:4.4408920985e-16 9:45.2229412928 10:2045.11441917 11:34.3977591207 12:-32.0989920859 13:2.62163733264 14:19.5894901748 15:383.748125308 16:37.4568727963 17:-36.7597770436 18:0.986617854728 19:19.3738223979 20:375.344994306 21:34.5946227031 22:-92.6791736231 23:-15.2889504409 24:36.0836662134 25:1302.0309674 26:118.235092806 27:-93.8555008176 28:5.7520596647 29:70.0503811551 30:4907.05589997 
11 1:23.6302034416 2:-126.471879631 3:-74.3256243885 4:51.1880502216 5:2620.21648549 6:35.4954124195 7:-39.3167394259 8:5.07530525543e-16 9:23.1506377067 10:535.952026225 11:35.6448238798 12:-44.3200429635 13:1.26653643044 14:23.0531369176 15:531.44712174 16:66.5391478975 17:-20.5225439642 18:8.49941999381 19:24.7969855676 20:614.890493238 21:20.120226981 22:-64.8145167487 23:-9.1891494873 24:24.6466764783 25:607.458661426 26:88.0057997801 27:-71.8882784529 28:4.31189686507 29:49.4723318177 30:2447.51161548 
11 1:-9.61949861841 2:-94.3086548325 3:-66.0124081492 4:28.9592542044 5:838.638404077 6:19.2624425533 7:-19.4247206929 8:2.77555756156e-15 9:12.9347153462 10:167.306861088 11:8.57594415073 12:-7.6759733774 13:1.37935918384 14:6.28793273403 15:39.5380980677 16:9.36279856052 17:-8.65529096844 18:0.229707716693 19:4.64763335629 20:21.6004958145 21:37.7246325614 22:-55.8474787499 23:-9.50312584893 24:26.7610556817 25:716.154101201 26:84.1631705365 27:-65.2987157566 28:4.1272710347 29:53.9160508456 30:2906.94053879 
11 1:-30.3581950524 2:-121.641679136 3:-91.3384181058 4:31.2233666199 5:974.898623083 6:22.5611995834 7:-27.9191674939 8:3.20378644249e-15 9:16.0721781121 10:258.314909266 11:10.9767918433 12:-8.49221138742 13:1.53876025669 14:6.97368632996 15:48.6323010287 16:19.2121675825 17:-17.6222798075 18:0.00470476661469 19:9.45139743399 20:89.3289134552 21:15.8428275314 22:-49.7639321694 23:-8.63440685996 24:18.7149910682 25:350.250890684 26:69.7846617563 27:-56.4590621215 28:5.28941213719 29:47.1140311811 30:2219.73193413 
11 1:-30.5669293444 2:-138.241429526 3:-102.417693076 4:36.8008350904 5:1354.30146335 6:25.966360745 7:-32.0826613969 8:6.97854472622e-16 9:18.5433866893 10:343.857189909 11:12.90005839 12:-9.88483532132 13:1.50323107828 14:8.00849132397 15:64.1359332862 16:20.7581258529 17:-18.6207079702 18:0.231073793729 19:10.1723564197 20:103.47683513 21:15.7714796152 22:-48.4829091722 23:-8.44228826033 24:18.5276957186 25:343.27550864 26:73.0133860054 27:-58.0436017346 28:4.55234310057 29:48.0570586769 30:2309.48088868 
