19:43:06		x: 2.0
19:43:06		x: 1.0
19:43:06		x: 0.0
19:43:07		x: 0.0
19:43:07		x: 0.0
19:43:07		x: 0.0
19:43:07		x: 0.0
19:43:07		x: 1.0
19:43:07		x: 0.0
19:43:08		x: 0.0
19:43:08		x: 0.0
19:43:08		x: 0.0
19:43:08		x: 0.0
19:43:08		x: 0.0
19:43:09		x: 0.0
19:43:09		x: 0.0
19:43:09		x: 0.0
19:43:09		x: 0.0
19:43:09		x: 0.0
19:43:09		x: 0.0
19:43:10		x: 0.0
19:43:10		x: 0.0
19:43:10		x: 0.0
19:43:10		x: 0.0
19:43:10		x: 0.0
19:43:11		x: 0.0
19:43:11		x: 0.0
19:43:11		x: 0.0
19:43:11		x: 0.0
19:43:11		x: 0.0
19:43:11		x: 0.0
19:43:12		x: 0.0
19:43:12		x: 0.0
19:43:12		x: 0.0
19:43:12		x: 0.0
19:43:12		x: 0.0
19:43:13		x: 0.0
19:43:13		x: 0.0
19:43:13		x: 0.0
19:43:13		x: 0.0
19:43:13		x: 0.0
19:43:13		x: 0.0
19:43:14		x: 0.0
19:43:14		x: 0.0
19:43:14		x: 0.0
19:43:14		x: 0.0
19:43:14		x: 0.0
19:43:15		x: 0.0
19:43:15		x: 0.0
19:43:15		x: 0.0
19:43:15		x: 0.0
19:43:15		x: 0.0
19:43:15		x: 0.0
19:43:16		x: 0.0
19:43:16		x: 0.0
19:43:16		x: 0.0
19:43:16		x: 0.0
19:43:16		x: 0.0
19:43:17		x: 0.0
19:43:17		x: 0.0
19:43:17		x: 0.0
19:43:17		x: 0.0
19:43:17		x: 0.0
19:43:17		x: 0.0
19:43:18		x: 0.0
19:43:18		x: 0.0
19:43:18		x: 0.0
19:43:18		x: 0.0
19:43:18		x: 0.0
19:43:18		x: 0.0
19:43:19		x: 0.0
19:43:19		x: 0.0
19:43:19		x: 0.0
19:43:19		x: 0.0
19:43:19		x: 0.0
19:43:20		x: 0.0
19:43:20		x: 0.0
19:43:20		x: 0.0
19:43:20		x: 0.0
19:43:20		x: 0.0
19:43:20		x: 0.0
19:43:21		x: 0.0
19:43:21		x: 0.0
19:43:21		x: 0.0
19:43:21		x: 3.0
19:43:21		x: 7.0
19:43:22		x: 5.0
19:43:22		x: 7.0
19:43:22		x: 17.0
19:43:22		x: 11.0
19:43:22		x: 12.0
19:43:22		x: 12.0
19:43:23		x: 14.0
19:43:23		x: 12.0
19:43:23		x: 8.0
19:43:23		x: 5.0
19:43:23		x: 4.0
19:43:23		x: 0.0
19:43:24		x: 0.0
19:43:24		x: 0.0
19:43:24		x: 0.0
19:43:24		x: 0.0
19:43:24		x: 0.0
19:43:25		x: 0.0
19:43:25		x: 0.0
