19:43:06		x: -152.638	y: -142.503	z: -225.95
19:43:06		x: -164.663	y: -151.663	z: -227.453
19:43:06		x: -145.133	y: -134.26	z: -234.407
19:43:07		x: -172.888	y: -172.218	z: -173.727
19:43:07		x: -175.389	y: -168.157	z: -142.898
19:43:07		x: -132.319	y: -128.948	z: -76.53
19:43:07		x: -141.775	y: -127.528	z: -62.919
19:43:07		x: -93.878	y: -73.025	z: -86.154
19:43:07		x: -100.961	y: -56.924	z: -20.652
19:43:08		x: -129.412	y: -67.572	z: 9.895
19:43:08		x: -127.467	y: -66.897	z: 10.993
19:43:08		x: -132.833	y: -66.595	z: 15.165
19:43:08		x: 69.589	y: 75.424	z: -18.362
19:43:08		x: 69.927	y: 76.298	z: -20.71
19:43:09		x: 71.681	y: 75.422	z: -21.867
19:43:09		x: 72.814	y: 72.679	z: -24.737
19:43:09		x: 77.395	y: 69.401	z: -28.282
19:43:09		x: 80.31	y: 67.971	z: -29.229
19:43:09		x: 82.234	y: 68.85	z: -29.762
19:43:09		x: 82.925	y: 68.85	z: -29.762
19:43:10		x: 82.925	y: 68.85	z: -29.762
19:43:10		x: 83.236	y: 68.85	z: -29.762
19:43:10		x: 83.58	y: 67.535	z: -29.762
19:43:10		x: 83.895	y: 67.942	z: -29.762
19:43:10		x: 83.895	y: 67.942	z: -28.776
19:43:11		x: 83.895	y: 67.942	z: -29.275
19:43:11		x: 83.895	y: 67.942	z: -29.275
19:43:11		x: 85.026	y: 67.942	z: -28.092
19:43:11		x: 85.618	y: 67.942	z: -28.092
19:43:11		x: 85.618	y: 66.828	z: -28.976
19:43:11		x: 86.1	y: 67.315	z: -27.787
19:43:12		x: 85.527	y: 66.935	z: -28.388
19:43:12		x: 85.145	y: 66.935	z: -27.99
19:43:12		x: 84.474	y: 66.935	z: -27.99
19:43:12		x: 84.474	y: 66.935	z: -28.529
19:43:12		x: 83.825	y: 67.399	z: -28.529
19:43:13		x: 83.497	y: 67.399	z: -25.465
19:43:13		x: 83.497	y: 67.399	z: -23.014
19:43:13		x: 82.983	y: 67.787	z: -19.398
19:43:13		x: 82.571	y: 72.576	z: -16.612
19:43:13		x: 83.096	y: 80.686	z: -16.017
19:43:13		x: 84.735	y: 89.387	z: -16.567
19:43:14		x: 86.694	y: 97.354	z: -21.035
19:43:14		x: 88.085	y: 102.581	z: -25.923
19:43:14		x: 88.552	y: 105.209	z: -29.344
19:43:14		x: 88.552	y: 104.525	z: -32.525
19:43:14		x: 86.227	y: 103.016	z: -34.176
19:43:14		x: 84.651	y: 99.04	z: -34.176
19:43:15		x: 82.598	y: 94.645	z: -34.596
19:43:15		x: 80.929	y: 89.344	z: -32.208
19:43:15		x: 80.155	y: 85.287	z: -31.048
19:43:15		x: 80.155	y: 81.48	z: -30.731
19:43:15		x: 80.155	y: 79.127	z: -30.731
19:43:16		x: 80.155	y: 77.465	z: -29.908
19:43:16		x: 79.353	y: 76.673	z: -29.908
19:43:16		x: 79.353	y: 75.892	z: -29.505
19:43:16		x: 79.353	y: 75.505	z: -28.829
19:43:16		x: 78.82	y: 75.505	z: -29.51
19:43:17		x: 78.82	y: 74.94	z: -29.51
19:43:17		x: 78.82	y: 74.453	z: -29.51
19:43:17		x: 77.938	y: 74.453	z: -30.667
19:43:17		x: 77.938	y: 74.453	z: -30.096
19:43:17		x: 77.938	y: 74.803	z: -30.781
19:43:17		x: 77.938	y: 74.803	z: -30.781
19:43:18		x: 77.938	y: 73.829	z: -30.781
19:43:18		x: 77.519	y: 74.191	z: -30.781
19:43:18		x: 77.519	y: 74.191	z: -30.781
19:43:18		x: 78.401	y: 74.644	z: -30.781
19:43:18		x: 78.401	y: 74.644	z: -30.781
19:43:18		x: 78.401	y: 74.33	z: -33.018
19:43:19		x: 81.237	y: 74.33	z: -36.737
19:43:19		x: 82.043	y: 74.862	z: -37.374
19:43:19		x: 82.574	y: 74.862	z: -37.374
19:43:19		x: 82.574	y: 74.533	z: -37.98
19:43:19		x: 83.326	y: 74.533	z: -37.478
19:43:20		x: 83.821	y: 74.533	z: -36.901
19:43:20		x: 83.821	y: 74.533	z: -37.306
19:43:20		x: 83.821	y: 74.533	z: -36.709
19:43:20		x: 83.821	y: 74.533	z: -36.709
19:43:20		x: 85.139	y: 74.533	z: -37.556
19:43:20		x: 85.139	y: 74.533	z: -38.301
19:43:21		x: 84.555	y: 74.917	z: -36.849
19:43:21		x: 85.269	y: 74.917	z: -37.629
19:43:21		x: 64.295	y: 50.592	z: -61.68
19:43:21		x: 52.128	y: 22.982	z: -103.443
19:43:21		x: -262.973	y: -252.694	z: -184.155
19:43:22		x: -142.118	y: -209.73	z: -199.926
19:43:22		x: -144.465	y: -220.06	z: -200.349
19:43:22		x: -136.326	y: -219.279	z: -203.398
19:43:22		x: -130.311	y: -223.37	z: -202.793
19:43:22		x: -117.62	y: -209.944	z: -230.18
19:43:22		x: -112.707	y: -206.994	z: -229.803
19:43:23		x: -117.359	y: -206.002	z: -230.262
19:43:23		x: -123.086	y: -203.741	z: -227.262
19:43:23		x: -121.307	y: -200.978	z: -223.794
19:43:23		x: -122.645	y: -202.119	z: -218.322
19:43:23		x: -123.312	y: -207.922	z: -209.205
19:43:23		x: -122.444	y: -213.911	z: -207.836
19:43:24		x: -127.238	y: -216.671	z: -202.336
19:43:24		x: -132.081	y: -219.082	z: -205.271
19:43:24		x: -134.742	y: -219.947	z: -207.022
19:43:24		x: -136.34	y: -219.604	z: -207.916
19:43:24		x: -136.34	y: -218.78	z: -210.133
19:43:25		x: -137.525	y: -218.78	z: -209.446
19:43:25		x: -137.525	y: -218.02	z: -210.25
