18:17:37		x: 42.87139
18:17:38		x: 43.850334
18:17:39		x: 43.850334
18:17:40		x: 43.850334
18:17:41		x: 43.850334
18:17:41		x: 43.850334
18:17:42		x: 43.850334
18:17:43		x: 43.300934
18:17:44		x: 43.300934
18:17:45		x: 43.300934
18:17:46		x: 42.88971
18:17:47		x: 42.88971
18:17:48		x: 42.88971
18:17:49		x: 42.38015
18:17:50		x: 42.38015
18:17:51		x: 42.38015
18:17:52		x: 42.329205
18:17:53		x: 42.329205
18:17:54		x: 42.329205
18:17:55		x: 42.329205
