18:51:52		x: 940.98
18:51:52		x: 941.0
18:51:52		x: 940.98
18:51:52		x: 941.11
18:51:52		x: 941.04
18:51:52		x: 941.09
18:51:53		x: 941.08
18:51:53		x: 941.06
18:51:53		x: 941.07
18:51:53		x: 941.04
18:51:53		x: 941.04
18:51:53		x: 941.09
18:51:54		x: 941.07
18:51:54		x: 941.06
18:51:54		x: 941.1
18:51:54		x: 941.1
18:51:54		x: 941.11
18:51:55		x: 941.11
18:51:55		x: 941.11
18:51:55		x: 940.98
18:51:55		x: 940.97
18:51:55		x: 942.15
18:51:55		x: 940.82
18:51:56		x: 940.94
18:51:56		x: 941.0
18:51:56		x: 941.05
18:51:56		x: 941.19
18:51:56		x: 941.14
18:51:57		x: 941.06
18:51:57		x: 941.15
18:51:57		x: 941.05
18:51:57		x: 941.07
18:51:57		x: 941.14
18:51:57		x: 941.04
18:51:58		x: 941.0
18:51:58		x: 941.02
18:51:58		x: 941.03
18:51:58		x: 941.09
18:51:58		x: 941.02
18:51:59		x: 941.05
18:51:59		x: 941.04
18:51:59		x: 941.06
18:51:59		x: 941.04
18:51:59		x: 941.02
18:51:59		x: 941.06
18:52:00		x: 941.05
18:52:00		x: 941.05
18:52:00		x: 941.07
18:52:00		x: 941.09
18:52:00		x: 940.98
18:52:01		x: 940.96
