18:51:52		x: 43.99419
18:51:53		x: 43.762676
18:51:54		x: 43.762676
18:51:55		x: 43.762676
18:51:56		x: 43.762676
18:51:57		x: 43.762676
18:51:58		x: 43.762676
18:51:59		x: 44.251072
18:52:00		x: 44.251072
