18:51:52		x: 24.76727
18:51:53		x: 24.746778
18:51:54		x: 24.746778
18:51:55		x: 24.746778
18:51:56		x: 24.746778
18:51:57		x: 24.746778
18:51:58		x: 24.746778
18:51:59		x: 24.746778
18:52:00		x: 24.746778
