18:19:04		x: 0.0
18:19:04		x: 0.0
18:19:05		x: 0.0
18:19:05		x: 0.0
18:19:05		x: 0.0
18:19:05		x: 0.0
18:19:05		x: 0.0
18:19:06		x: 0.0
18:19:06		x: 0.0
18:19:06		x: 0.0
18:19:06		x: 0.0
18:19:06		x: 0.0
18:19:06		x: 0.0
18:19:07		x: 0.0
