20:11:51		x: -304.049	y: -114.614	z: 24.627
20:11:51		x: -306.234	y: -109.843	z: 18.545
20:11:52		x: -306.884	y: -105.97	z: 16.751
20:11:52		x: -309.272	y: -106.759	z: 16.751
20:11:52		x: -310.513	y: -108.543	z: 17.294
20:11:52		x: -318.605	y: -114.173	z: 19.113
20:11:52		x: -321.206	y: -117.779	z: 21.273
20:11:52		x: -318.695	y: -116.938	z: 20.867
20:11:53		x: -317.433	y: -115.934	z: 20.159
20:11:53		x: -317.433	y: -114.215	z: 19.299
20:11:53		x: -313.529	y: -110.058	z: 16.842
20:11:53		x: -306.689	y: -106.114	z: 17.254
20:11:53		x: -316.325	y: -123.004	z: 23.847
20:11:54		x: -339.387	y: -79.313	z: 13.351
20:11:54		x: -343.695	y: -90.504	z: 15.524
20:11:54		x: -324.354	y: -101.66	z: 12.666
20:11:54		x: -294.856	y: -106.964	z: 23.802
20:11:54		x: -286.361	y: -109.663	z: 42.117
20:11:54		x: -292.169	y: -120.951	z: 47.065
20:11:55		x: -303.285	y: -129.748	z: 44.071
20:11:55		x: -303.285	y: -130.99	z: 50.614
20:11:55		x: -308.616	y: -133.731	z: 53.349
20:11:55		x: -307.725	y: -133.731	z: 52.928
20:11:55		x: -309.016	y: -133.731	z: 53.451
20:11:56		x: -308.551	y: -134.173	z: 52.523
20:11:56		x: -308.551	y: -134.173	z: 53.247
20:11:56		x: -308.551	y: -134.687	z: 52.935
20:11:56		x: -308.551	y: -134.687	z: 53.578
20:11:56		x: -307.919	y: -134.687	z: 54.144
20:11:56		x: -307.919	y: -134.233	z: 54.457
20:11:57		x: -308.616	y: -134.233	z: 53.599
20:11:57		x: -308.616	y: -134.233	z: 52.601
20:11:57		x: -308.616	y: -134.838	z: 52.996
20:11:58		x: -308.201	y: -134.538	z: 53.981
20:11:58		x: -308.201	y: -134.538	z: 53.981
20:11:58		x: -308.201	y: -134.135	z: 53.981
20:11:58		x: -308.201	y: -134.135	z: 53.074
20:11:58		x: -308.201	y: -134.135	z: 53.074
20:11:58		x: -308.201	y: -134.135	z: 52.706
20:11:58		x: -308.201	y: -134.135	z: 53.343
20:11:58		x: -308.201	y: -134.135	z: 53.343
20:11:58		x: -308.201	y: -134.135	z: 53.343
20:11:59		x: -308.201	y: -134.135	z: 53.343
20:11:59		x: -308.201	y: -134.135	z: 53.343
20:11:59		x: -308.201	y: -134.135	z: 53.651
20:11:59		x: -308.201	y: -134.135	z: 53.651
20:11:59		x: -308.505	y: -134.135	z: 53.651
20:12:00		x: -308.505	y: -134.135	z: 53.651
20:12:00		x: -308.505	y: -134.135	z: 53.651
20:12:00		x: -308.505	y: -134.135	z: 53.651
20:12:00		x: -308.505	y: -134.135	z: 53.309
20:12:00		x: -308.85	y: -134.135	z: 53.309
20:12:00		x: -308.85	y: -134.135	z: 53.309
20:12:01		x: -308.85	y: -134.135	z: 52.189
20:12:01		x: -308.85	y: -134.135	z: 52.189
20:12:01		x: -308.85	y: -134.135	z: 52.189
20:12:01		x: -308.85	y: -134.135	z: 52.551
20:12:01		x: -309.159	y: -134.446	z: 52.551
20:12:02		x: -309.159	y: -134.446	z: 52.551
20:12:02		x: -309.159	y: -134.446	z: 52.551
20:12:02		x: -309.159	y: -134.446	z: 52.551
20:12:02		x: -309.159	y: -134.446	z: 52.551
20:12:02		x: -309.159	y: -134.446	z: 52.551
20:12:02		x: -309.159	y: -134.446	z: 52.172
20:12:03		x: -309.159	y: -134.446	z: 52.172
20:12:03		x: -309.159	y: -134.446	z: 52.172
20:12:03		x: -309.159	y: -134.754	z: 51.835
20:12:03		x: -309.159	y: -134.754	z: 51.835
20:12:03		x: -309.159	y: -134.754	z: 51.835
20:12:03		x: -309.159	y: -134.754	z: 51.835
20:12:04		x: -309.159	y: -134.754	z: 51.835
20:12:04		x: -309.159	y: -134.754	z: 51.835
20:12:04		x: -309.159	y: -134.754	z: 51.835
20:12:04		x: -308.84	y: -134.754	z: 52.183
20:12:04		x: -308.84	y: -134.754	z: 52.183
20:12:05		x: -308.84	y: -134.754	z: 52.183
20:12:05		x: -308.84	y: -134.451	z: 52.543
20:12:05		x: -308.84	y: -134.451	z: 52.543
20:12:05		x: -308.84	y: -134.451	z: 52.543
20:12:05		x: -308.84	y: -134.451	z: 52.964
20:12:05		x: -308.84	y: -134.451	z: 52.964
20:12:06		x: -308.84	y: -134.451	z: 53.337
20:12:06		x: -308.84	y: -134.451	z: 53.666
20:12:06		x: -308.84	y: -134.451	z: 53.666
20:12:06		x: -308.84	y: -134.451	z: 53.666
20:12:06		x: -308.84	y: -134.451	z: 53.666
20:12:07		x: -308.84	y: -134.451	z: 53.666
20:12:07		x: -308.84	y: -134.451	z: 53.666
20:12:07		x: -310.101	y: -134.451	z: 54.039
20:12:07		x: -311.999	y: -134.451	z: 54.039
20:12:07		x: -313.052	y: -134.451	z: 54.38
20:12:07		x: -314.343	y: -134.451	z: 54.38
20:12:08		x: -314.955	y: -134.451	z: 54.38
20:12:08		x: -315.266	y: -134.855	z: 54.38
20:12:08		x: -315.664	y: -134.855	z: 54.725
20:12:08		x: -315.664	y: -134.855	z: 54.725
20:12:08		x: -315.208	y: -135.212	z: 54.725
20:12:09		x: -315.208	y: -135.212	z: 54.725
20:12:09		x: -315.554	y: -135.212	z: 54.725
20:12:09		x: -315.554	y: -135.556	z: 54.725
20:12:09		x: -315.554	y: -135.556	z: 54.725
20:12:09		x: -315.554	y: -135.556	z: 54.725
20:12:10		x: -315.554	y: -135.556	z: 54.725
20:12:10		x: -315.554	y: -135.891	z: 54.725
20:12:10		x: -315.554	y: -135.891	z: 54.725
20:12:10		x: -315.554	y: -135.891	z: 54.725
20:12:10		x: -315.554	y: -135.891	z: 54.725
20:12:10		x: -315.554	y: -135.891	z: 54.725
20:12:11		x: -315.93	y: -135.891	z: 54.725
20:12:11		x: -315.93	y: -135.891	z: 54.725
20:12:11		x: -315.93	y: -135.891	z: 54.725
20:12:11		x: -315.93	y: -135.891	z: 54.725
20:12:11		x: -315.93	y: -135.891	z: 54.725
20:12:11		x: -315.93	y: -135.891	z: 54.725
20:12:12		x: -315.93	y: -135.891	z: 54.725
20:12:12		x: -316.247	y: -135.891	z: 54.725
20:12:12		x: -316.247	y: -135.891	z: 54.725
20:12:12		x: -316.247	y: -135.891	z: 54.725
20:12:13		x: -316.247	y: -135.891	z: 54.725
20:12:13		x: -316.247	y: -135.891	z: 54.725
20:12:13		x: -316.247	y: -135.891	z: 54.725
20:12:13		x: -316.247	y: -135.891	z: 54.376
20:12:13		x: -316.247	y: -135.891	z: 54.376
20:12:13		x: -316.247	y: -135.891	z: 54.376
20:12:14		x: -316.555	y: -135.891	z: 54.376
20:12:14		x: -316.555	y: -135.891	z: 54.376
20:12:14		x: -316.555	y: -135.891	z: 54.376
20:12:14		x: -316.555	y: -135.891	z: 54.376
20:12:14		x: -316.555	y: -135.891	z: 54.376
20:12:14		x: -316.555	y: -135.891	z: 54.376
20:12:14		x: -316.555	y: -135.891	z: 54.376
20:12:15		x: -316.555	y: -135.891	z: 54.376
20:12:15		x: -316.555	y: -135.891	z: 54.376
20:12:16		x: -316.555	y: -135.891	z: 54.376
20:12:16		x: -316.555	y: -135.891	z: 54.376
20:12:16		x: -316.555	y: -135.891	z: 54.376
20:12:16		x: -316.555	y: -135.891	z: 54.376
20:12:16		x: -316.555	y: -135.891	z: 54.376
20:12:16		x: -316.555	y: -135.891	z: 54.376
20:12:16		x: -316.555	y: -135.891	z: 54.376
20:12:17		x: -316.555	y: -135.891	z: 54.376
20:12:17		x: -316.555	y: -135.891	z: 54.376
20:12:17		x: -316.555	y: -135.891	z: 54.376
20:12:17		x: -316.555	y: -135.891	z: 54.376
20:12:17		x: -316.555	y: -135.891	z: 54.074
20:12:17		x: -316.555	y: -135.891	z: 54.074
20:12:17		x: -316.555	y: -135.891	z: 54.074
20:12:18		x: -316.555	y: -135.891	z: 53.675
20:12:18		x: -316.555	y: -135.891	z: 53.675
20:12:18		x: -315.806	y: -135.891	z: 53.675
20:12:18		x: -311.141	y: -135.891	z: 53.361
20:12:18		x: -309.318	y: -135.891	z: 53.361
20:12:18		x: -308.645	y: -135.891	z: 53.361
20:12:19		x: -307.327	y: -135.56	z: 53.361
20:12:19		x: -307.327	y: -135.56	z: 53.361
20:12:19		x: -308.245	y: -135.171	z: 53.361
20:12:19		x: -308.245	y: -135.171	z: 53.361
20:12:19		x: -307.348	y: -134.75	z: 53.361
20:12:20		x: -306.407	y: -134.75	z: 53.361
20:12:20		x: -305.49	y: -134.391	z: 53.361
20:12:20		x: -305.079	y: -134.391	z: 53.361
20:12:20		x: -305.079	y: -134.391	z: 53.361
20:12:20		x: -304.368	y: -134.085	z: 53.361
20:12:20		x: -303.881	y: -134.085	z: 53.361
20:12:21		x: -303.881	y: -134.085	z: 53.361
20:12:21		x: -303.881	y: -133.67	z: 53.361
20:12:21		x: -303.543	y: -133.67	z: 53.726
20:12:21		x: -303.886	y: -133.338	z: 53.726
20:12:21		x: -303.886	y: -133.338	z: 53.726
20:12:22		x: -303.886	y: -133.338	z: 53.726
20:12:22		x: -303.419	y: -132.951	z: 53.726
20:12:22		x: -303.419	y: -132.951	z: 54.069
20:12:22		x: -303.419	y: -132.951	z: 54.069
20:12:22		x: -303.091	y: -132.951	z: 54.069
20:12:22		x: -303.091	y: -132.612	z: 54.069
20:12:23		x: -302.725	y: -132.612	z: 54.069
20:12:23		x: -302.725	y: -132.612	z: 54.069
20:12:23		x: -303.044	y: -132.273	z: 54.069
20:12:23		x: -303.044	y: -132.273	z: 54.069
20:12:23		x: -302.693	y: -132.273	z: 54.069
20:12:23		x: -302.693	y: -131.958	z: 54.069
20:12:24		x: -302.33	y: -131.958	z: 54.069
20:12:24		x: -302.33	y: -131.958	z: 54.069
20:12:24		x: -302.33	y: -131.958	z: 54.379
20:12:24		x: -301.943	y: -131.585	z: 54.379
20:12:24		x: -301.943	y: -131.585	z: 54.379
20:12:25		x: -301.943	y: -131.585	z: 54.379
20:12:25		x: -301.535	y: -131.585	z: 54.379
20:12:25		x: -301.535	y: -131.268	z: 54.379
20:12:25		x: -301.535	y: -131.268	z: 54.379
20:12:25		x: -301.535	y: -131.268	z: 54.379
20:12:25		x: -301.182	y: -131.268	z: 54.379
20:12:26		x: -301.182	y: -131.268	z: 54.379
20:12:26		x: -301.182	y: -131.268	z: 54.379
20:12:26		x: -301.182	y: -131.268	z: 54.379
20:12:26		x: -301.182	y: -131.268	z: 54.379
20:12:26		x: -301.182	y: -131.268	z: 54.379
20:12:27		x: -301.182	y: -131.268	z: 54.379
20:12:27		x: -301.182	y: -131.268	z: 54.379
20:12:27		x: -301.182	y: -131.268	z: 54.379
20:12:28		x: -301.182	y: -131.268	z: 54.379
20:12:28		x: -301.182	y: -131.268	z: 54.693
20:12:28		x: -300.849	y: -131.268	z: 54.693
20:12:28		x: -300.849	y: -131.268	z: 54.693
20:12:28		x: -300.849	y: -131.268	z: 54.693
20:12:28		x: -300.849	y: -131.268	z: 54.693
20:12:28		x: -300.849	y: -131.268	z: 54.693
20:12:28		x: -300.849	y: -131.268	z: 54.693
20:12:29		x: -300.849	y: -131.268	z: 54.693
20:12:29		x: -300.849	y: -131.268	z: 54.693
20:12:29		x: -300.849	y: -131.268	z: 54.693
20:12:30		x: -300.503	y: -131.268	z: 54.693
20:12:30		x: -300.503	y: -130.94	z: 54.693
20:12:30		x: -300.503	y: -130.94	z: 54.693
20:12:30		x: -300.503	y: -130.94	z: 54.693
20:12:30		x: -300.177	y: -130.94	z: 54.693
20:12:30		x: -300.177	y: -130.94	z: 54.693
20:12:31		x: -300.177	y: -130.94	z: 54.693
20:12:31		x: -300.177	y: -130.94	z: 54.693
20:12:31		x: -300.177	y: -130.622	z: 54.693
20:12:31		x: -300.177	y: -130.622	z: 54.693
20:12:31		x: -299.829	y: -130.622	z: 54.693
20:12:31		x: -299.829	y: -130.622	z: 54.693
20:12:31		x: -299.829	y: -130.622	z: 54.693
20:12:31		x: -299.829	y: -130.622	z: 54.693
20:12:32		x: -299.829	y: -130.622	z: 54.693
20:12:32		x: -299.829	y: -130.622	z: 54.693
20:12:32		x: -299.829	y: -130.622	z: 54.368
20:12:33		x: -299.829	y: -130.622	z: 54.368
20:12:33		x: -299.829	y: -130.622	z: 54.368
20:12:33		x: -299.829	y: -130.622	z: 54.368
20:12:33		x: -299.829	y: -130.622	z: 54.368
20:12:33		x: -299.829	y: -130.622	z: 54.064
20:12:33		x: -299.829	y: -130.622	z: 54.064
20:12:33		x: -299.829	y: -130.622	z: 54.064
20:12:33		x: -299.829	y: -130.622	z: 54.064
20:12:34		x: -300.219	y: -130.622	z: 54.766
20:12:34		x: -300.219	y: -130.622	z: 55.773
20:12:34		x: -300.219	y: -130.622	z: 56.642
20:12:34		x: -300.219	y: -130.984	z: 58.483
20:12:34		x: -300.582	y: -130.984	z: 59.545
20:12:35		x: -300.582	y: -130.984	z: 59.545
20:12:35		x: -300.582	y: -130.984	z: 59.545
20:12:35		x: -300.582	y: -130.984	z: 59.545
20:12:35		x: -300.582	y: -130.984	z: 59.545
20:12:35		x: -300.582	y: -130.984	z: 60.079
20:12:35		x: -300.582	y: -130.984	z: 59.262
20:12:36		x: -300.904	y: -130.984	z: 60.78
20:12:36		x: -300.904	y: -130.984	z: 62.586
20:12:36		x: -300.904	y: -130.984	z: 64.701
20:12:36		x: -300.904	y: -130.984	z: 64.701
20:12:36		x: -300.904	y: -130.604	z: 66.157
20:12:36		x: -300.575	y: -130.604	z: 66.981
20:12:37		x: -300.575	y: -130.303	z: 66.981
20:12:37		x: -300.575	y: -130.303	z: 52.664
20:12:37		x: -314.346	y: -105.941	z: 13.575
20:12:37		x: -310.418	y: -99.893	z: 12.953
20:12:37		x: -315.403	y: -100.268	z: 11.694
20:12:38		x: -312.705	y: -100.268	z: 11.323
20:12:38		x: -313.211	y: -101.899	z: 12.825
20:12:38		x: -315.573	y: -103.33	z: 12.825
20:12:38		x: -315.124	y: -105.657	z: 13.885
20:12:38		x: -310.343	y: -107.633	z: 16.223
20:12:39		x: -313.511	y: -108.631	z: 16.223
20:12:39		x: -314.549	y: -109.339	z: 15.281
20:12:39		x: -314.549	y: -110.14	z: 16.592
20:12:39		x: -312.492	y: -111.424	z: 17.62
20:12:39		x: -311.848	y: -112.484	z: 18.87
20:12:39		x: -311.848	y: -114.45	z: 20.948
