20:11:51		x: 1005.69
20:11:51		x: 1005.57
20:11:52		x: 1005.67
20:11:52		x: 1005.66
20:11:52		x: 1005.63
20:11:52		x: 1005.6
20:11:52		x: 1005.65
20:11:52		x: 1005.63
20:11:53		x: 1005.6
20:11:53		x: 1005.62
20:11:53		x: 1005.63
20:11:53		x: 1005.69
20:11:53		x: 1005.68
20:11:54		x: 1005.63
20:11:54		x: 1005.65
20:11:54		x: 1005.73
20:11:54		x: 1005.63
20:11:54		x: 1005.68
20:11:54		x: 1005.63
20:11:55		x: 1005.65
20:11:55		x: 1005.68
20:11:55		x: 1005.65
20:11:55		x: 1005.76
20:11:55		x: 1005.68
20:11:56		x: 1005.74
20:11:56		x: 1005.74
20:11:56		x: 1005.69
20:11:56		x: 1005.61
20:11:56		x: 1005.63
20:11:56		x: 1005.61
20:11:57		x: 1005.69
20:11:57		x: 1005.68
20:11:57		x: 1005.68
20:11:58		x: 1005.61
20:11:58		x: 1005.69
20:11:58		x: 1005.74
20:11:58		x: 1005.66
20:11:58		x: 1005.63
20:11:58		x: 1005.69
20:11:58		x: 1005.67
20:11:58		x: 1005.64
20:11:58		x: 1005.66
20:11:59		x: 1005.73
20:11:59		x: 1005.73
20:11:59		x: 1005.65
20:11:59		x: 1005.68
20:11:59		x: 1005.66
20:12:00		x: 1005.68
20:12:00		x: 1005.73
20:12:00		x: 1005.65
20:12:00		x: 1005.63
20:12:00		x: 1005.61
20:12:00		x: 1005.66
20:12:01		x: 1005.61
20:12:01		x: 1005.64
20:12:01		x: 1005.66
20:12:01		x: 1005.68
20:12:01		x: 1005.73
20:12:02		x: 1005.61
20:12:02		x: 1005.6
20:12:02		x: 1005.64
20:12:02		x: 1005.6
20:12:02		x: 1005.67
20:12:02		x: 1005.69
20:12:03		x: 1005.6
20:12:03		x: 1005.64
20:12:03		x: 1005.73
20:12:03		x: 1005.65
20:12:03		x: 1005.69
20:12:04		x: 1005.66
20:12:04		x: 1005.64
20:12:04		x: 1005.65
20:12:04		x: 1005.73
20:12:04		x: 1005.69
20:12:04		x: 1005.74
20:12:05		x: 1005.74
20:12:05		x: 1005.74
20:12:05		x: 1005.69
20:12:05		x: 1005.65
20:12:05		x: 1005.67
20:12:05		x: 1005.67
20:12:06		x: 1005.69
20:12:06		x: 1005.67
20:12:06		x: 1005.66
20:12:06		x: 1005.75
20:12:06		x: 1005.64
20:12:07		x: 1005.68
20:12:07		x: 1005.68
20:12:07		x: 1005.68
20:12:07		x: 1005.67
20:12:07		x: 1005.74
20:12:07		x: 1005.65
20:12:08		x: 1005.73
20:12:08		x: 1005.73
20:12:08		x: 1005.76
20:12:08		x: 1005.64
20:12:08		x: 1005.73
20:12:09		x: 1005.66
20:12:09		x: 1005.64
20:12:09		x: 1005.68
20:12:09		x: 1005.66
20:12:09		x: 1005.68
20:12:10		x: 1005.59
20:12:10		x: 1005.68
20:12:10		x: 1005.66
20:12:10		x: 1005.62
20:12:10		x: 1005.67
20:12:10		x: 1005.74
20:12:11		x: 1005.68
20:12:11		x: 1005.65
20:12:11		x: 1005.67
20:12:11		x: 1005.68
20:12:11		x: 1005.66
20:12:11		x: 1005.66
20:12:12		x: 1005.67
20:12:12		x: 1005.66
20:12:12		x: 1005.6
20:12:12		x: 1005.65
20:12:13		x: 1005.62
20:12:13		x: 1005.62
20:12:13		x: 1005.59
20:12:13		x: 1005.67
20:12:13		x: 1005.62
20:12:13		x: 1005.59
20:12:14		x: 1005.62
20:12:14		x: 1005.59
20:12:14		x: 1005.56
20:12:14		x: 1005.61
20:12:14		x: 1005.57
20:12:14		x: 1005.58
20:12:14		x: 1005.6
20:12:15		x: 1005.62
20:12:15		x: 1005.61
20:12:16		x: 1005.63
20:12:16		x: 1005.64
20:12:16		x: 1005.65
20:12:16		x: 1005.65
20:12:16		x: 1005.63
20:12:16		x: 1005.55
20:12:16		x: 1005.61
20:12:17		x: 1005.58
20:12:17		x: 1005.6
20:12:17		x: 1005.58
20:12:17		x: 1005.59
20:12:17		x: 1005.59
20:12:17		x: 1005.65
20:12:17		x: 1005.64
20:12:18		x: 1005.6
20:12:18		x: 1005.62
20:12:18		x: 1005.58
20:12:18		x: 1005.59
20:12:18		x: 1005.62
20:12:18		x: 1005.63
20:12:19		x: 1005.63
20:12:19		x: 1005.6
20:12:19		x: 1005.66
20:12:19		x: 1005.62
20:12:19		x: 1005.63
20:12:20		x: 1005.6
20:12:20		x: 1005.65
20:12:20		x: 1005.73
20:12:20		x: 1005.59
20:12:20		x: 1005.62
20:12:20		x: 1005.6
20:12:21		x: 1005.62
20:12:21		x: 1005.65
20:12:21		x: 1005.61
20:12:21		x: 1005.64
20:12:21		x: 1005.6
20:12:22		x: 1005.6
20:12:22		x: 1005.65
20:12:22		x: 1005.63
20:12:22		x: 1005.6
20:12:22		x: 1005.55
20:12:22		x: 1005.6
20:12:23		x: 1005.61
20:12:23		x: 1005.58
20:12:23		x: 1005.62
20:12:23		x: 1005.58
20:12:23		x: 1005.59
20:12:23		x: 1005.64
20:12:24		x: 1005.63
20:12:24		x: 1005.62
20:12:24		x: 1005.62
20:12:24		x: 1005.62
20:12:24		x: 1005.57
20:12:25		x: 1005.55
20:12:25		x: 1005.59
20:12:25		x: 1005.61
20:12:25		x: 1005.61
20:12:25		x: 1005.6
20:12:25		x: 1005.67
20:12:26		x: 1005.68
20:12:26		x: 1005.59
20:12:26		x: 1005.62
20:12:26		x: 1005.58
20:12:26		x: 1005.59
20:12:27		x: 1005.58
20:12:27		x: 1005.63
20:12:27		x: 1005.62
20:12:28		x: 1005.6
20:12:28		x: 1005.6
20:12:28		x: 1005.61
20:12:28		x: 1005.63
20:12:28		x: 1005.61
20:12:28		x: 1005.57
20:12:28		x: 1005.6
20:12:28		x: 1005.6
20:12:29		x: 1005.6
20:12:29		x: 1005.65
20:12:29		x: 1005.62
20:12:30		x: 1005.66
20:12:30		x: 1005.62
20:12:30		x: 1005.67
20:12:30		x: 1005.61
20:12:30		x: 1005.62
20:12:30		x: 1005.61
20:12:31		x: 1005.59
20:12:31		x: 1005.63
20:12:31		x: 1005.61
20:12:31		x: 1005.68
20:12:31		x: 1005.66
20:12:31		x: 1005.61
20:12:31		x: 1005.59
20:12:31		x: 1005.62
20:12:32		x: 1005.67
20:12:32		x: 1005.64
20:12:32		x: 1005.62
20:12:33		x: 1005.66
20:12:33		x: 1005.62
20:12:33		x: 1005.64
20:12:33		x: 1005.56
20:12:33		x: 1005.66
20:12:33		x: 1005.64
20:12:33		x: 1005.62
20:12:33		x: 1005.73
20:12:34		x: 1005.67
20:12:34		x: 1005.63
20:12:34		x: 1005.61
20:12:34		x: 1005.55
20:12:34		x: 1005.62
20:12:35		x: 1005.6
20:12:35		x: 1005.64
20:12:35		x: 1005.64
20:12:35		x: 1005.6
20:12:35		x: 1005.64
20:12:35		x: 1005.63
20:12:36		x: 1005.69
20:12:36		x: 1005.66
20:12:36		x: 1005.67
20:12:36		x: 1005.67
20:12:36		x: 1005.67
20:12:37		x: 1005.67
20:12:37		x: 1005.64
20:12:37		x: 1005.64
20:12:37		x: 1005.62
20:12:37		x: 1005.62
20:12:37		x: 1005.57
20:12:38		x: 1005.67
20:12:38		x: 1005.66
20:12:38		x: 1005.64
20:12:38		x: 1005.65
20:12:38		x: 1005.62
20:12:39		x: 1005.62
20:12:39		x: 1005.63
20:12:39		x: 1005.56
20:12:39		x: 1005.59
20:12:39		x: 1005.61
20:12:39		x: 1005.64
