18:25:38		x: 938.15
18:25:38		x: 938.14
18:25:38		x: 938.12
18:25:38		x: 938.17
18:25:39		x: 938.13
18:25:39		x: 938.1
18:25:39		x: 938.12
18:25:39		x: 938.1
18:25:39		x: 938.05
18:25:40		x: 938.02
18:25:40		x: 938.04
18:25:40		x: 938.06
18:25:40		x: 938.03
18:25:40		x: 938.02
18:25:40		x: 938.05
18:25:41		x: 938.04
18:25:41		x: 938.04
18:25:41		x: 938.0
18:25:41		x: 938.02
18:25:41		x: 938.06
18:25:42		x: 938.02
18:25:42		x: 938.06
18:25:42		x: 938.02
18:25:42		x: 938.07
18:25:42		x: 938.03
18:25:42		x: 938.02
18:25:43		x: 938.07
18:25:43		x: 938.08
18:25:43		x: 938.07
18:25:43		x: 938.08
18:25:43		x: 938.09
18:25:44		x: 938.05
18:25:44		x: 938.12
18:25:44		x: 938.09
18:25:44		x: 938.1
18:25:44		x: 938.11
18:25:44		x: 938.09
18:25:45		x: 938.11
18:25:45		x: 938.07
18:25:45		x: 938.09
18:25:45		x: 938.08
18:25:45		x: 938.05
18:25:45		x: 938.08
18:25:46		x: 938.06
18:25:46		x: 938.09
18:25:46		x: 938.04
18:25:46		x: 938.08
18:25:46		x: 938.11
18:25:47		x: 938.11
18:25:47		x: 938.02
18:25:47		x: 938.07
18:25:47		x: 938.08
18:25:47		x: 938.07
18:25:47		x: 938.07
18:25:48		x: 938.03
18:25:48		x: 938.07
18:25:48		x: 938.08
18:25:48		x: 938.02
18:25:48		x: 938.12
18:25:49		x: 938.09
18:25:49		x: 938.07
18:25:49		x: 938.07
18:25:49		x: 938.11
18:25:49		x: 938.05
18:25:49		x: 938.11
18:25:50		x: 938.11
18:25:50		x: 938.08
18:25:50		x: 938.03
18:25:50		x: 938.08
18:25:50		x: 938.04
18:25:51		x: 938.04
18:25:51		x: 938.04
18:25:51		x: 938.08
18:25:51		x: 938.07
18:25:51		x: 938.06
18:25:51		x: 938.06
18:25:52		x: 938.05
18:25:52		x: 938.1
18:25:52		x: 938.12
18:25:52		x: 938.06
18:25:52		x: 938.05
18:25:53		x: 938.07
18:25:53		x: 938.13
18:25:53		x: 938.05
18:25:53		x: 938.05
18:25:53		x: 938.01
18:25:53		x: 938.07
18:25:54		x: 938.12
18:25:54		x: 938.08
18:25:54		x: 938.12
18:25:54		x: 938.04
18:25:54		x: 938.13
18:25:54		x: 938.1
18:25:55		x: 938.07
18:25:55		x: 938.13
18:25:55		x: 938.08
18:25:55		x: 938.14
18:25:55		x: 938.15
18:25:56		x: 938.09
18:25:56		x: 938.09
18:25:56		x: 938.06
18:25:56		x: 938.07
18:25:56		x: 938.04
18:25:56		x: 938.06
18:25:57		x: 938.09
18:25:57		x: 938.07
18:25:57		x: 938.06
18:25:57		x: 938.08
18:25:57		x: 938.06
18:25:58		x: 938.1
18:25:58		x: 938.06
18:25:58		x: 938.07
18:25:58		x: 938.04
18:25:58		x: 938.04
18:25:58		x: 938.11
18:25:59		x: 938.09
18:25:59		x: 938.07
18:25:59		x: 938.08
18:25:59		x: 938.05
18:25:59		x: 938.09
18:26:00		x: 938.13
18:26:00		x: 938.08
18:26:00		x: 938.11
18:26:00		x: 938.1
18:26:00		x: 938.09
18:26:00		x: 938.05
18:26:01		x: 938.08
18:26:01		x: 938.03
18:26:01		x: 938.0
18:26:01		x: 938.11
18:26:01		x: 938.05
18:26:02		x: 938.09
18:26:02		x: 938.07
18:26:02		x: 938.08
18:26:02		x: 938.04
18:26:02		x: 938.08
18:26:02		x: 938.09
18:26:03		x: 938.06
18:26:03		x: 938.07
18:26:03		x: 938.06
18:26:03		x: 938.1
18:26:03		x: 938.04
