18:01:50		x: 164.356	y: 15.092	z: -72.29
18:01:50		x: 164.356	y: 14.572	z: -71.852
18:01:50		x: 164.356	y: 14.572	z: -71.852
18:01:51		x: 165.08	y: 14.172	z: -71.466
18:01:51		x: 166.499	y: 13.821	z: -71.466
18:01:51		x: 165.93	y: 13.821	z: -71.057
18:01:51		x: 165.93	y: 13.386	z: -71.057
18:01:51		x: 165.93	y: 13.386	z: -71.057
18:01:51		x: 166.644	y: 12.762	z: -62.571
18:01:52		x: 169.064	y: 13.995	z: -65.853
18:01:52		x: 165.533	y: 19.09	z: -70.78
18:01:52		x: 156.101	y: 16.14	z: -65.203
18:01:52		x: -3.448	y: -47.79	z: -33.453
18:01:52		x: 63.285	y: -36.767	z: -54.243
18:01:52		x: 59.675	y: -35.548	z: -57.344
18:01:53		x: 58.622	y: -35.548	z: -59.159
18:01:53		x: 58.283	y: -36.402	z: -59.535
18:01:53		x: 56.085	y: -38.458	z: -60.296
18:01:53		x: 57.844	y: -37.748	z: -58.305
18:01:53		x: 57.342	y: -37.37	z: -59.153
18:01:54		x: 57.342	y: -38.349	z: -59.463
18:01:54		x: 55.477	y: -40.879	z: -59.953
18:01:54		x: 56.072	y: -40.879	z: -60.482
18:01:54		x: 55.52	y: -39.195	z: -61.21
18:01:54		x: 55.52	y: -39.195	z: -60.795
18:01:54		x: 54.833	y: -39.195	z: -60.795
18:01:55		x: 55.708	y: -39.195	z: -61.88
18:01:55		x: 55.403	y: -39.195	z: -61.448
18:01:55		x: 54.435	y: -39.195	z: -59.996
18:01:55		x: 55.491	y: -37.76	z: -60.336
18:01:55		x: 56.388	y: -37.124	z: -61.444
18:01:56		x: 56.97	y: -37.124	z: -60.888
18:01:56		x: 56.364	y: -37.879	z: -59.913
18:01:56		x: 56.364	y: -37.879	z: -59.913
18:01:56		x: 56.364	y: -38.253	z: -60.316
18:01:56		x: 56.364	y: -38.253	z: -60.316
18:01:56		x: 56.364	y: -38.253	z: -60.316
18:01:57		x: 56.364	y: -38.253	z: -60.711
18:01:57		x: 55.972	y: -37.832	z: -60.711
18:01:57		x: 55.972	y: -35.723	z: -63.67
18:01:57		x: 53.137	y: -29.312	z: -66.523
18:01:57		x: 49.291	y: -19.596	z: -70.524
18:01:58		x: 48.675	y: -8.094	z: -73.756
18:01:58		x: 50.43	y: 1.354	z: -73.219
18:01:58		x: 52.203	y: 7.167	z: -72.846
18:01:58		x: 55.517	y: 11.593	z: -71.189
18:01:58		x: 58.053	y: 11.593	z: -71.189
18:01:58		x: 60.798	y: 9.028	z: -69.09
18:01:59		x: 62.875	y: 3.572	z: -65.66
18:01:59		x: 63.211	y: -3.555	z: -66.082
18:01:59		x: 59.649	y: -9.371	z: -67.253
18:01:59		x: 57.727	y: -10.815	z: -67.817
18:01:59		x: 57.092	y: -10.815	z: -66.757
18:02:00		x: 57.951	y: -11.335	z: -65.444
18:02:00		x: 57.63	y: -13.539	z: -63.45
18:02:00		x: 57.63	y: -14.813	z: -63.45
18:02:00		x: 58.311	y: -16.361	z: -61.605
18:02:00		x: 57.891	y: -17.736	z: -61.605
18:02:00		x: 57.891	y: -19.282	z: -61.605
18:02:01		x: 57.057	y: -20.353	z: -61.605
18:02:01		x: 57.057	y: -21.025	z: -60.392
18:02:01		x: 57.057	y: -22.396	z: -61.578
18:02:01		x: 57.057	y: -23.847	z: -62.568
18:02:01		x: 57.533	y: -23.269	z: -62.568
18:02:01		x: 57.841	y: -23.269	z: -62.568
18:02:02		x: 57.841	y: -23.269	z: -62.568
18:02:02		x: 57.841	y: -24.203	z: -62.568
18:02:02		x: 57.47	y: -25.466	z: -62.568
18:02:02		x: 57.47	y: -26.472	z: -62.568
18:02:02		x: 57.47	y: -26.472	z: -62.568
18:02:03		x: 57.47	y: -25.782	z: -62.568
18:02:03		x: 57.47	y: -26.643	z: -62.193
18:02:03		x: 57.47	y: -26.643	z: -62.193
18:02:03		x: 57.47	y: -26.24	z: -62.193
18:02:03		x: 57.47	y: -26.24	z: -61.877
18:02:03		x: 101.867	y: -3.915	z: -52.479
18:02:04		x: 127.207	y: 4.013	z: -48.107
18:02:04		x: 141.409	y: 3.268	z: -58.729
18:02:04		x: 138.992	y: -15.96	z: -81.132
18:02:04		x: 158.917	y: 12.184	z: -93.212
18:02:04		x: 156.709	y: 13.233	z: -97.583
18:02:05		x: 157.26	y: 13.233	z: -95.893
18:02:05		x: 157.26	y: 14.109	z: -96.455
18:02:05		x: 158.898	y: 16.639	z: -96.455
18:02:05		x: 158.16	y: 17.799	z: -96.455
18:02:05		x: 157.684	y: 18.797	z: -97.482
18:02:05		x: 157.217	y: 20.1	z: -99.368
18:02:06		x: 155.509	y: 18.405	z: -101.107
18:02:06		x: 155.888	y: 18.405	z: -101.858
18:02:06		x: 154.437	y: 17.018	z: -102.185
18:02:06		x: 156.97	y: 19.747	z: -100.917
