18:51:17		x: 941.05
18:51:17		x: 941.09
18:51:17		x: 941.05
18:51:17		x: 941.05
18:51:18		x: 941.11
18:51:18		x: 941.11
18:51:18		x: 941.08
18:51:18		x: 941.03
18:51:18		x: 941.06
18:51:19		x: 941.05
18:51:19		x: 941.02
18:51:19		x: 941.09
18:51:19		x: 941.14
18:51:19		x: 940.92
18:51:19		x: 941.19
18:51:20		x: 941.08
18:51:20		x: 940.94
18:51:20		x: 940.87
18:51:20		x: 941.04
18:51:20		x: 941.04
18:51:21		x: 940.99
18:51:21		x: 941.02
18:51:21		x: 941.08
18:51:21		x: 940.96
18:51:21		x: 941.09
18:51:21		x: 940.97
18:51:22		x: 941.04
18:51:22		x: 941.05
18:51:22		x: 941.1
18:51:22		x: 941.06
18:51:22		x: 941.11
18:51:23		x: 941.05
18:51:23		x: 941.0
18:51:23		x: 941.06
18:51:23		x: 941.01
18:51:23		x: 941.03
18:51:23		x: 941.01
18:51:24		x: 941.04
18:51:24		x: 941.03
18:51:24		x: 941.05
18:51:24		x: 941.03
18:51:24		x: 941.04
18:51:25		x: 940.99
18:51:25		x: 940.98
18:51:25		x: 940.95
18:51:25		x: 940.99
18:51:25		x: 940.99
18:51:25		x: 941.0
