17:26:30		x: 1.2545617	y: 4.063559	z: 9.754577
17:26:31		x: 0.83497787	y: 2.7497406	z: 9.697714
17:26:31		x: -0.96187055	y: 2.3331497	z: 8.987833
17:26:31		x: 0.01316811	y: 3.2237926	z: 7.5201874
17:26:31		x: -0.96905315	y: 4.933253	z: 11.075577
17:26:31		x: -0.82121116	y: 0.83976626	z: 11.300034
17:26:31		x: -0.4225766	y: 1.3215994	z: 8.273763
17:26:32		x: -0.5351041	y: 0.9672575	z: 10.295666
17:26:32		x: -0.9283517	y: 0.9935937	z: 10.113108
17:26:32		x: -1.3054385	y: 2.0925324	z: 9.693524
17:26:32		x: -0.022744916	y: 1.827973	z: 9.813234
17:26:32		x: -0.81522566	y: 2.2810757	z: 9.397242
17:26:33		x: -0.2645593	y: 0.94570965	z: 10.535685
17:26:33		x: 0.79128367	y: 1.6244658	z: 8.38629
17:26:33		x: -3.809175	y: 3.365649	z: 10.190321
17:26:33		x: -2.267309	y: 4.9362454	z: 7.765593
17:26:33		x: -4.4424415	y: 5.5443726	z: 6.5750766
17:26:33		x: -3.834314	y: 4.1599255	z: 11.353305
17:26:34		x: -5.8358665	y: 5.4725466	z: 7.6590514
17:26:34		x: -6.0489507	y: 7.7943234	z: 5.85921
17:26:34		x: -4.2119994	y: 3.8708255	z: 4.5920787
17:26:34		x: -7.1083846	y: 5.638345	z: 6.2225304
17:26:34		x: -3.1016884	y: 7.07726	z: 3.8187518
17:26:35		x: -6.3368535	y: 7.713519	z: 1.7531542
17:26:35		x: -1.0319009	y: 7.373543	z: 4.5633483
17:26:35		x: -3.7732618	y: 11.345523	z: 14.289194
17:26:35		x: -1.6065093	y: 10.166978	z: 4.2131963
17:26:35		x: -0.2825158	y: 8.348581	z: 1.1504139
17:26:35		x: -1.9865888	y: 9.431957	z: 2.1015105
17:26:36		x: -1.3347675	y: 9.178172	z: 2.0123265
17:26:36		x: -1.2234371	y: 9.335591	z: 1.9578584
17:26:36		x: -0.89184016	y: 9.307459	z: 1.4065934
17:26:36		x: -1.0666169	y: 9.387665	z: 1.6585833
17:26:36		x: -1.2635399	y: 9.337985	z: 1.8022354
17:26:37		x: -1.2443863	y: 9.3182335	z: 1.8219875
17:26:37		x: -1.1264719	y: 9.324219	z: 1.8052281
17:26:37		x: -1.0175357	y: 9.404425	z: 1.785476
17:26:37		x: -1.0773908	y: 9.412804	z: 1.8321629
17:26:37		x: -1.0133458	y: 9.354745	z: 1.7914615
17:26:37		x: -1.0384849	y: 9.383475	z: 1.7717092
17:26:38		x: -1.0253168	y: 9.415198	z: 1.9309237
17:26:38		x: -0.9163807	y: 9.353547	z: 1.9698294
17:26:38		x: -0.8822633	y: 9.360131	z: 2.0560207
17:26:38		x: -0.91697925	y: 9.34038	z: 2.0518308
17:26:38		x: -0.9624691	y: 9.329605	z: 2.067393
17:26:39		x: -1.0133458	y: 9.317635	z: 2.2703018
17:26:39		x: -0.9864111	y: 9.356541	z: 2.111686
17:26:39		x: -0.93373865	y: 9.334992	z: 2.1260512
17:26:39		x: -0.9911995	y: 9.3343935	z: 2.1080947
17:26:39		x: -0.985214	y: 9.139865	z: 1.8088194
17:26:39		x: -0.997185	y: 9.23683	z: 2.12246
17:26:40		x: -0.9708488	y: 8.983644	z: 1.9285295
17:26:40		x: -0.8984242	y: 8.920197	z: 2.0817583
17:26:40		x: -0.86849666	y: 8.886678	z: 1.6921021
17:26:40		x: -0.8343793	y: 8.896255	z: 2.1493945
17:26:40		x: -0.8451532	y: 8.859743	z: 1.9841946
17:26:40		x: -0.8726865	y: 8.846576	z: 1.8219875
17:26:41		x: -0.84694886	y: 8.818443	z: 1.9877859
17:26:41		x: -0.7906851	y: 8.890868	z: 1.9087774
17:26:41		x: -0.8523358	y: 8.820239	z: 1.9363106
17:26:41		x: -0.8972271	y: 8.845378	z: 1.9446903
17:26:41		x: -0.9103952	y: 9.018359	z: 1.9428947
17:26:42		x: -0.94092125	y: 9.068638	z: 1.8986019
17:26:42		x: -0.92057055	y: 9.279327	z: 2.0404584
17:26:42		x: -0.89902276	y: 9.341577	z: 2.1003134
17:26:42		x: -0.92535895	y: 9.337985	z: 2.0135236
17:26:42		x: -0.87927055	y: 9.300875	z: 1.9656396
17:26:42		x: -0.8678981	y: 9.336788	z: 2.1272483
17:26:43		x: -0.82360536	y: 9.324817	z: 1.9907787
17:26:43		x: -0.86011696	y: 9.422979	z: 1.9961656
17:26:43		x: -0.8415619	y: 9.312846	z: 2.0482395
17:26:43		x: -0.86370826	y: 9.416994	z: 2.0410569
17:26:43		x: -0.8319851	y: 9.368511	z: 2.0979192
17:26:44		x: -0.90141696	y: 9.396045	z: 1.9476831
17:26:44		x: -0.90979666	y: 9.390657	z: 2.0530279
17:26:44		x: -0.9163807	y: 9.4062195	z: 2.0811598
17:26:44		x: -0.9588778	y: 9.403826	z: 2.0763714
17:26:44		x: -0.87687635	y: 9.325416	z: 2.042254
17:26:44		x: -0.91099375	y: 9.283517	z: 1.9201498
17:26:45		x: -0.8158242	y: 9.425373	z: 1.8387469
17:26:45		x: -0.8158242	y: 9.461287	z: 2.1272483
17:26:45		x: -0.9295488	y: 9.405622	z: 2.095525
17:26:45		x: -0.8206126	y: 9.3661175	z: 2.0332758
17:26:45		x: -0.85054016	y: 9.3583355	z: 1.9632454
17:26:46		x: -0.86729956	y: 9.38168	z: 1.9967642
17:26:46		x: -0.90740246	y: 9.309255	z: 1.9524715
17:26:46		x: -0.9708488	y: 9.4457245	z: 1.963844
17:26:46		x: -0.93134445	y: 9.2625675	z: 1.9788077
17:26:46		x: -0.9660604	y: 9.309854	z: 1.8537107
17:26:46		x: -0.8158242	y: 9.363124	z: 1.834557
17:26:47		x: -0.93254155	y: 9.387066	z: 2.0590134
17:26:47		x: -0.89662856	y: 9.311649	z: 1.9045875
17:26:47		x: -0.9259575	y: 9.372701	z: 1.9572599
17:26:47		x: -0.96067345	y: 9.24521	z: 1.9231426
17:26:47		x: -0.92655605	y: 9.455301	z: 1.9997569
17:26:48		x: -0.9816227	y: 9.5013895	z: 1.8896236
17:26:48		x: -1.0145429	y: 9.697714	z: 1.9722236
17:26:48		x: -1.0462662	y: 9.741408	z: 2.0614076
17:26:48		x: -1.0115502	y: 9.717466	z: 2.022502
17:26:48		x: -0.98700964	y: 9.805453	z: 2.0685902
17:26:48		x: -0.98461545	y: 9.813234	z: 2.0638018
17:26:49		x: -0.997185	y: 9.810242	z: 2.088941
17:26:49		x: -1.0247183	y: 9.76535	z: 1.9752164
17:26:49		x: -0.94451255	y: 9.792884	z: 2.142212
17:26:49		x: -0.91458505	y: 9.81084	z: 2.1547816
17:26:49		x: -0.9307459	y: 9.610924	z: 2.1170728
17:26:50		x: -0.86729956	y: 9.585187	z: 2.111686
17:26:50		x: -0.8924387	y: 9.530719	z: 2.0326772
17:26:50		x: -0.93732995	y: 9.455899	z: 2.0979192
17:26:50		x: -0.9139865	y: 9.397242	z: 2.0027497
17:26:50		x: -0.92057055	y: 9.419388	z: 2.022502
17:26:50		x: -0.89902276	y: 9.403826	z: 1.9590555
17:26:51		x: -0.92296475	y: 9.351153	z: 1.9644425
17:26:51		x: -0.919972	y: 9.339182	z: 1.9794062
17:26:51		x: -0.95109665	y: 9.367912	z: 2.010531
17:26:51		x: -0.9660604	y: 9.3978405	z: 2.0099323
17:26:51		x: -0.9516952	y: 9.345168	z: 1.9213469
17:26:51		x: -0.9696517	y: 9.397242	z: 1.9393034
17:26:52		x: -0.9259575	y: 9.375095	z: 1.9153614
17:26:52		x: -0.97264445	y: 9.343372	z: 1.9608512
17:26:52		x: -0.9552865	y: 9.361329	z: 1.9710265
17:26:52		x: -0.9475053	y: 9.496601	z: 2.005144
17:26:52		x: -0.919972	y: 9.362526	z: 1.9219455
17:26:53		x: -0.908001	y: 9.375694	z: 1.9967642
17:26:53		x: -0.9187749	y: 9.367314	z: 2.0189106
17:26:53		x: -0.943914	y: 9.379884	z: 2.0644004
17:26:53		x: -0.92176765	y: 9.350554	z: 1.9919758
17:26:53		x: -0.92535895	y: 9.3661175	z: 2.0177135
17:26:53		x: -0.94810385	y: 9.339182	z: 1.9524715
17:26:54		x: -0.9624691	y: 9.369708	z: 1.9847932
17:26:54		x: -0.9636662	y: 9.365519	z: 1.9788077
17:26:54		x: -0.97862995	y: 9.345766	z: 1.9776106
17:26:54		x: -0.92416185	y: 9.359533	z: 1.9273324
17:26:54		x: -0.85413146	y: 9.346964	z: 1.9734207
17:26:55		x: -0.8110358	y: 9.425373	z: 1.9991584
17:26:55		x: -0.842759	y: 9.601946	z: 2.2224178
17:26:55		x: -2.2176294	y: 13.388376	z: 1.6675615
17:26:55		x: -1.3700819	y: 8.118139	z: 4.0946836
17:26:55		x: -2.3211784	y: 8.24563	z: 3.1477766
17:26:55		x: -3.0220811	y: 8.444349	z: 3.674501
17:26:56		x: -1.1306617	y: 6.882133	z: 4.605247
17:26:56		x: -1.9476831	y: 7.2065473	z: 3.9175124
17:26:56		x: -1.9925743	y: 5.192425	z: 9.9790325
17:26:56		x: -2.1392193	y: 5.2899885	z: 6.3230867
17:26:56		x: -3.6242228	y: 5.2361193	z: 6.192004
17:26:57		x: 0.05686229	y: 2.441487	z: 10.292673
17:26:57		x: 1.4550761	y: 3.0113072	z: 8.246828
17:26:57		x: 1.0672154	y: 3.2866404	z: 7.422025
17:26:57		x: -2.533664	y: 4.9039235	z: 12.02428
17:26:57		x: 0.08559271	y: 3.8498764	z: 11.90457
17:26:57		x: 0.89662856	y: 2.5701754	z: 8.061277
