18:21:22		x: 25.668127
18:21:22		x: 25.740814
18:21:24		x: 25.740814
18:21:24		x: 25.740814
18:21:25		x: 25.740814
18:21:26		x: 25.740814
18:21:27		x: 25.740814
18:21:28		x: 25.740814
18:21:29		x: 25.740814
18:21:30		x: 25.740814
