18:53:18		x: 24.980936
18:53:19		x: 24.980936
18:53:20		x: 24.986197
18:53:21		x: 24.986197
18:53:21		x: 24.986197
18:53:22		x: 24.986197
18:53:23		x: 24.986197
18:53:24		x: 24.986197
18:53:25		x: 24.964739
