18:53:18		x: 44.575233
18:53:19		x: 44.575233
18:53:20		x: 44.948566
18:53:21		x: 44.948566
18:53:21		x: 44.948566
18:53:22		x: 44.948566
18:53:23		x: 44.948566
18:53:24		x: 44.948566
18:53:25		x: 45.61151
