18:53:17		x: 940.99
18:53:17		x: 941.03
18:53:18		x: 941.01
18:53:18		x: 941.11
18:53:18		x: 941.04
18:53:18		x: 941.13
18:53:18		x: 941.07
18:53:19		x: 941.08
18:53:19		x: 941.12
18:53:19		x: 941.13
18:53:19		x: 941.08
18:53:19		x: 941.16
18:53:19		x: 941.04
18:53:20		x: 941.14
18:53:20		x: 941.01
18:53:20		x: 941.2
18:53:20		x: 941.2
18:53:20		x: 941.66
18:53:21		x: 941.31
18:53:21		x: 941.19
18:53:21		x: 940.87
18:53:21		x: 941.16
18:53:21		x: 941.17
18:53:21		x: 941.01
18:53:22		x: 941.18
18:53:22		x: 941.2
18:53:22		x: 941.15
18:53:22		x: 941.16
18:53:22		x: 941.22
18:53:23		x: 941.21
18:53:23		x: 941.18
18:53:23		x: 941.21
18:53:23		x: 941.01
18:53:23		x: 941.17
18:53:23		x: 941.14
18:53:24		x: 941.12
18:53:24		x: 941.12
18:53:24		x: 941.14
18:53:24		x: 941.13
18:53:24		x: 941.14
18:53:25		x: 941.1
18:53:25		x: 941.13
18:53:25		x: 941.16
18:53:25		x: 941.16
18:53:25		x: 941.11
18:53:25		x: 941.13
18:53:26		x: 941.13
18:53:26		x: 941.1
