18:00:51		x: 0.08002335	y: -0.06994407	z: -0.111177474
18:00:51		x: -1.4950926	y: 0.2666427	z: -0.7357872
18:00:51		x: -1.5030339	y: -0.94989544	z: -0.9416488
18:00:52		x: 0.50671273	y: -0.5488624	z: 1.2776246
18:00:52		x: -0.5366451	y: 2.6007588	z: 0.09560041
18:00:52		x: 0.17562376	y: 1.0387764	z: -0.70829827
18:00:52		x: 0.21533	y: 0.48075095	z: -0.9053023
18:00:52		x: -1.824349	y: 0.20189096	z: -1.6120734
18:00:53		x: -3.4941492	y: -0.111177474	z: -3.0375273
18:00:53		x: -1.4425583	y: -0.61086524	z: -0.77091193
18:00:53		x: 0.04153884	y: -0.30634892	z: 0.09712757
18:00:53		x: -0.1554652	y: -0.31306845	z: -0.5900958
18:00:53		x: 1.7873917	y: 0.5946773	z: 0.069027774
18:00:53		x: 2.4468207	y: -1.4807373	z: 1.3191634
18:00:54		x: -0.56321776	y: 1.3222178	z: 0.41141775
18:00:54		x: -1.1829406	y: -1.7669277	z: -0.7852673
18:00:54		x: -1.5974126	y: 1.6743816	z: -0.77579886
18:00:54		x: -0.12186762	y: 0.64904433	z: -0.75502944
18:00:54		x: 2.7094927	y: 0.6994407	z: 2.2876904
18:00:54		x: 0.72326446	y: -1.0760391	z: 1.4349225
18:00:55		x: -2.2531765	y: -2.6166413	z: -0.63407815
18:00:55		x: -0.84299403	y: 2.2180517	z: -0.9224065
18:00:55		x: -0.32986724	y: 1.998751	z: -0.72295904
18:00:55		x: 1.9248364	y: 1.2385293	z: 1.1371256
18:00:55		x: 1.5690074	y: -2.5124888	z: 1.4251486
18:00:56		x: -1.6603317	y: -2.3243423	z: -0.3707952
18:00:56		x: -1.2449434	y: 1.6395624	z: -0.2828306
18:00:56		x: -0.9025534	y: 2.4312437	z: -0.46822822
18:00:56		x: 1.4236214	y: 0.81397796	z: 0.41691554
18:00:56		x: 2.5732698	y: -1.0345002	z: 0.591623
18:00:56		x: -0.4728097	y: -0.9621128	z: 0.87872964
18:00:57		x: -1.4953982	y: -1.2272283	z: -0.68844515
18:00:57		x: -1.2290609	y: 2.0210476	z: -0.6133087
18:00:57		x: -0.54153204	y: 1.2965615	z: -0.91232723
18:00:57		x: 3.4730744	y: 0.68539083	z: 0.42943826
18:00:57		x: 1.7492126	y: -3.4984252	z: 1.4385877
18:00:58		x: -1.2696834	y: -1.9052887	z: -0.37659842
18:00:58		x: -1.5314392	y: 1.3686435	z: -0.7049385
18:00:58		x: -0.5876524	y: 1.5195273	z: -0.4718934
18:00:58		x: -0.06291912	y: 1.2831224	z: -0.6960809
18:00:58		x: 1.8231273	y: -0.012217305	z: 0.7910705
18:00:58		x: 0.37293324	y: -1.153619	z: 1.1395692
18:00:59		x: -0.47219884	y: -1.0757337	z: 0.37384954
18:00:59		x: -0.9392053	y: -0.43371433	z: -0.37720928
18:00:59		x: -1.2687671	y: 0.19853121	z: -0.51893
18:00:59		x: 0.26389378	y: 1.2421945	z: -0.42332962
18:00:59		x: 2.5045476	y: 0.9300423	z: 1.212873
18:01:00		x: 1.1386528	y: -3.6340373	z: 1.178359
18:01:00		x: -2.533869	y: -2.673757	z: -0.56413406
18:01:00		x: -1.2110404	y: 2.1459696	z: -0.44898596
18:01:00		x: -0.91904676	y: 2.4168882	z: -0.7247916
18:01:00		x: 2.9538388	y: 1.5167783	z: 1.1701124
18:01:00		x: 2.2186625	y: -2.441323	z: 1.715615
18:01:01		x: -1.5173893	y: -2.5717428	z: -0.1826487
18:01:01		x: -1.2944235	y: 1.9608774	z: -0.593761
18:01:01		x: -1.0867293	y: 1.7122552	z: -0.5342017
18:01:01		x: 0.88789266	y: 1.131017	z: -0.002443461
18:01:01		x: 2.1777346	y: 0.10903945	z: 1.1603385
18:01:01		x: 0.39828414	y: -1.5995506	z: 1.0076222
18:01:02		x: -1.9828686	y: -2.9449813	z: -0.5357288
18:01:02		x: -1.1218541	y: 2.7433958	z: -0.52839845
18:01:02		x: -0.5525276	y: 2.452013	z: -0.57848936
18:01:02		x: 1.6166549	y: 1.1575897	z: 0.44715336
18:01:02		x: 2.1856759	y: -2.9840767	z: 1.102001
18:01:03		x: -1.3567317	y: -0.48441613	z: 0.58551437
18:01:03		x: -1.5183055	y: 0.08674286	z: -0.7079928
18:01:03		x: -1.1120802	y: 1.4746287	z: -0.5714644
18:01:03		x: -0.52381694	y: 1.2840388	z: -0.77274454
18:01:03		x: 1.1878275	y: 1.0827587	z: 0.15241088
18:01:03		x: 2.5720482	y: -1.8432859	z: 1.25319
18:01:04		x: 0.33414328	y: -0.27091873	z: 0.8393288
18:01:04		x: -1.7321084	y: -1.9312505	z: -0.6270532
18:01:04		x: -1.4245378	y: 0.89949906	z: -0.22479841
18:01:04		x: -0.14905111	y: 1.7079792	z: -0.14782938
18:01:04		x: 0.5546656	y: 2.1038198	z: -0.32070425
18:01:05		x: 2.424524	y: -0.10170906	z: 1.0140363
18:01:05		x: 1.9981402	y: -0.573297	z: 1.4013249
18:01:05		x: 0.71929383	y: -1.3677273	z: 0.51007247
18:01:05		x: 1.6578883	y: 0.91324353	z: 0.8906415
18:01:05		x: 2.0286834	y: 1.462106	z: 0.9831876
18:01:05		x: 1.284955	y: -1.1618657	z: 0.22968534
18:01:06		x: 0.829555	y: -1.8533652	z: -0.19456059
18:01:06		x: -0.30115658	y: -0.505491	z: 0.1386664
18:01:06		x: -1.2089024	y: 0.038789943	z: -0.05009095
18:01:06		x: 0.23182335	y: -0.7651087	z: 0.22937989
18:01:06		x: 0.111177474	y: 0.14385876	z: -0.0033597588
18:01:07		x: 0.5876524	y: -0.092240654	z: -0.124005646
18:01:07		x: -0.042760566	y: 0.1554652	z: -0.11575896
18:01:07		x: 0.19211712	y: -0.19211712	z: -0.062002823
18:01:07		x: -0.0693332	y: -0.07819075	z: -0.094989546
18:01:07		x: 0.03145956	y: -0.172264	z: 0.02565634
18:01:07		x: -0.07880162	y: 0.07086037	z: 0.116675265
18:01:08		x: -0.042455133	y: 0.04550946	z: -0.09590584
