18:00:51		x: 193.51	y: 1.092	z: -125.747
18:00:51		x: 193.51	y: 1.512	z: -125.747
18:00:51		x: 193.51	y: 1.512	z: -125.747
18:00:52		x: 187.126	y: 19.47	z: -125.747
18:00:52		x: 193.881	y: 10.476	z: -116.775
18:00:52		x: 199.969	y: 7.574	z: -104.46
18:00:52		x: 201.139	y: 11.547	z: -103.289
18:00:52		x: 200.546	y: 14.86	z: -100.872
18:00:53		x: 186.915	y: 9.567	z: -93.37
18:00:53		x: 171.582	y: 9.567	z: -85.247
18:00:53		x: 100.424	y: -30.911	z: -68.605
18:00:53		x: 84.278	y: -33.094	z: -72.766
18:00:53		x: 82.74	y: -36.334	z: -70.536
18:00:53		x: 83.193	y: -34.921	z: -74.69
18:00:54		x: 91.841	y: -34.921	z: -85.766
18:00:54		x: 99.259	y: -32.4	z: -98.146
18:00:54		x: 97.415	y: -24.354	z: -87.434
18:00:54		x: 89.942	y: -26.42	z: -77.679
18:00:54		x: 84.199	y: -29.989	z: -73.043
18:00:54		x: 95.675	y: -17.756	z: -78.057
18:00:55		x: 141.688	y: 10.191	z: -128.875
18:00:55		x: 133.441	y: 9.419	z: -110.833
18:00:55		x: 97.198	y: -20.185	z: -86.515
18:00:55		x: 91.206	y: -26.158	z: -79.379
18:00:55		x: 84.692	y: -20.375	z: -83.766
18:00:56		x: 157.531	y: 20.558	z: -119.468
18:00:56		x: 164.179	y: 27.122	z: -114.001
18:00:56		x: 97.145	y: -1.84	z: -93.408
18:00:56		x: 80.25	y: -15.585	z: -82.752
18:00:56		x: 72.079	y: -13.269	z: -83.634
18:00:56		x: 96.844	y: 11.315	z: -101.289
18:00:57		x: 157.229	y: 44.66	z: -143.283
18:00:57		x: 136.16	y: 49.623	z: -122.706
18:00:57		x: 76.458	y: 6.188	z: -95.043
18:00:57		x: 71.986	y: 2.107	z: -80.581
18:00:57		x: 66.438	y: 7.769	z: -91.339
18:00:58		x: 122.308	y: 22.117	z: -120.289
18:00:58		x: 125.622	y: 28.379	z: -117.097
18:00:58		x: 96.563	y: 13.323	z: -94.812
18:00:58		x: 78.945	y: 4.487	z: -85.847
18:00:58		x: 74.6	y: 3.439	z: -86.756
18:00:58		x: 75.137	y: 9.75	z: -98.245
18:00:59		x: 138.88	y: 49.192	z: -125.344
18:00:59		x: 128.047	y: 31.747	z: -102.124
18:00:59		x: 87.736	y: 8.338	z: -87.059
18:00:59		x: 82.971	y: -1.477	z: -70.121
18:00:59		x: 70.962	y: -7.861	z: -64.95
18:01:00		x: 91.503	y: 0.93	z: -86.502
18:01:00		x: 117.471	y: 14.694	z: -146.955
18:01:00		x: 125.32	y: 14.694	z: -122.274
18:01:00		x: 99.223	y: -5.096	z: -91.123
18:01:00		x: 79.794	y: -15.609	z: -75.038
18:01:00		x: 72.663	y: -16.351	z: -77.052
18:01:01		x: 168.598	y: 36.212	z: -127.861
18:01:01		x: 171.981	y: 36.212	z: -124.063
18:01:01		x: 179.786	y: 36.212	z: -93.28
18:01:01		x: 100.074	y: -12.489	z: -72.515
18:01:01		x: 73.461	y: -18.84	z: -70.642
18:01:01		x: 92.161	y: 0.891	z: -78.616
18:01:02		x: 196.418	y: 71.719	z: -140.553
18:01:02		x: 155.459	y: 42.684	z: -94.726
18:01:02		x: 80.003	y: -1.449	z: -64.141
18:01:02		x: 68.572	y: -10.983	z: -57.443
18:01:02		x: 67.854	y: -0.762	z: -60.069
18:01:03		x: 110.427	y: 54.252	z: -110.816
18:01:03		x: 144.032	y: 66.117	z: -144.621
18:01:03		x: 136.154	y: 70.231	z: -118.377
18:01:03		x: 87.11	y: 29.13	z: -87.857
18:01:03		x: 57.705	y: 5.442	z: -73.35
18:01:03		x: 68.437	y: 11.36	z: -76.994
18:01:04		x: 82.533	y: 26.557	z: -112.84
18:01:04		x: 135.45	y: 51.734	z: -165.353
18:01:04		x: 148.472	y: 62.594	z: -144.311
18:01:04		x: 99.404	y: 22.337	z: -106.144
18:01:04		x: 77.645	y: 9.87	z: -91.821
18:01:05		x: 72.293	y: 11.349	z: -93.74
18:01:05		x: 71.633	y: 5.429	z: -114.616
18:01:05		x: 158.506	y: 81.475	z: -160.22
18:01:05		x: 183.457	y: 11.949	z: -118.82
18:01:05		x: 192.532	y: 0.447	z: -113.465
18:01:05		x: 185.491	y: -15.87	z: -112.586
18:01:06		x: 199.566	y: 8.549	z: -169.966
18:01:06		x: 194.227	y: 3.269	z: -161.831
18:01:06		x: 198.074	y: 4.814	z: -162.295
18:01:06		x: 200.511	y: 7.438	z: -160.818
18:01:06		x: 199.037	y: 5.102	z: -160.035
18:01:07		x: 199.815	y: 5.102	z: -160.51
18:01:07		x: 200.35	y: 3.501	z: -160.978
18:01:07		x: 201.472	y: 3.501	z: -160.247
18:01:07		x: 201.472	y: 2.676	z: -161.091
18:01:07		x: 201.472	y: 2.676	z: -160.585
18:01:07		x: 201.472	y: 2.676	z: -161.474
18:01:08		x: 202.667	y: 3.778	z: -160.745
