13:06:02		x: 107.0
13:06:02		x: 103.0
13:06:03		x: 100.0
13:06:03		x: 105.0
13:06:03		x: 108.0
13:06:03		x: 102.0
13:06:03		x: 101.0
13:06:03		x: 104.0
13:06:04		x: 101.0
13:06:04		x: 108.0
13:06:04		x: 110.0
13:06:04		x: 105.0
13:06:04		x: 104.0
13:06:05		x: 110.0
13:06:05		x: 109.0
13:06:05		x: 104.0
13:06:05		x: 106.0
13:06:05		x: 113.0
13:06:05		x: 108.0
13:06:06		x: 104.0
13:06:06		x: 108.0
13:06:06		x: 103.0
13:06:06		x: 106.0
13:06:06		x: 111.0
13:06:06		x: 106.0
13:06:07		x: 103.0
13:06:07		x: 107.0
13:06:07		x: 110.0
13:06:07		x: 104.0
13:06:07		x: 103.0
13:06:08		x: 108.0
13:06:08		x: 109.0
13:06:08		x: 110.0
13:06:08		x: 111.0
13:06:08		x: 105.0
13:06:08		x: 104.0
13:06:09		x: 110.0
13:06:09		x: 108.0
13:06:09		x: 103.0
13:06:09		x: 105.0
13:06:09		x: 110.0
13:06:10		x: 107.0
13:06:10		x: 103.0
13:06:10		x: 107.0
13:06:10		x: 110.0
13:06:10		x: 106.0
13:06:10		x: 111.0
13:06:11		x: 107.0
13:06:11		x: 103.0
13:06:11		x: 107.0
13:06:11		x: 111.0
13:06:11		x: 106.0
13:06:12		x: 102.0
13:06:12		x: 109.0
13:06:12		x: 109.0
13:06:12		x: 104.0
13:06:12		x: 104.0
13:06:12		x: 109.0
13:06:13		x: 104.0
13:06:13		x: 108.0
13:06:13		x: 106.0
13:06:13		x: 101.0
13:06:13		x: 103.0
13:06:14		x: 109.0
13:06:14		x: 107.0
13:06:14		x: 102.0
13:06:14		x: 104.0
13:06:14		x: 109.0
13:06:14		x: 105.0
13:06:15		x: 102.0
13:06:15		x: 105.0
13:06:15		x: 102.0
13:06:15		x: 106.0
13:06:15		x: 109.0
13:06:16		x: 104.0
13:06:16		x: 102.0
13:06:16		x: 108.0
13:06:16		x: 110.0
13:06:16		x: 105.0
13:06:16		x: 109.0
13:06:17		x: 123.0
13:06:17		x: 138.0
13:06:17		x: 135.0
13:06:17		x: 134.0
