13:06:02		x: -18.299	y: -18.167	z: 32.803
13:06:02		x: -18.299	y: -18.167	z: 32.803
13:06:03		x: -18.608	y: -18.167	z: 32.803
13:06:03		x: -18.608	y: -18.167	z: 32.803
13:06:03		x: -18.608	y: -18.167	z: 32.803
13:06:03		x: -18.608	y: -18.167	z: 32.803
13:06:03		x: -18.608	y: -18.167	z: 32.803
13:06:03		x: -18.608	y: -18.167	z: 32.803
13:06:04		x: -18.608	y: -17.851	z: 32.803
13:06:04		x: -18.608	y: -17.851	z: 32.803
13:06:04		x: -18.608	y: -17.851	z: 32.803
13:06:04		x: -19.007	y: -17.851	z: 32.803
13:06:04		x: -19.007	y: -17.851	z: 32.803
13:06:04		x: -19.007	y: -17.495	z: 32.803
13:06:05		x: -19.468	y: -17.495	z: 32.803
13:06:05		x: -19.468	y: -17.156	z: 32.803
13:06:05		x: -19.776	y: -17.156	z: 32.803
13:06:05		x: -19.776	y: -17.156	z: 32.803
13:06:05		x: -19.776	y: -16.769	z: 32.803
13:06:06		x: -20.248	y: -16.769	z: 32.803
13:06:06		x: -20.248	y: -16.769	z: 32.803
13:06:06		x: -20.248	y: -16.456	z: 32.803
13:06:06		x: -20.652	y: -16.456	z: 32.803
13:06:06		x: -20.652	y: -16.456	z: 32.803
13:06:06		x: -20.652	y: -16.456	z: 32.803
13:06:07		x: -21.051	y: -16.069	z: 32.803
13:06:07		x: -21.051	y: -16.069	z: 32.803
13:06:07		x: -21.051	y: -15.768	z: 32.803
13:06:07		x: -21.397	y: -15.768	z: 32.803
13:06:07		x: -21.397	y: -15.768	z: 32.803
13:06:08		x: -21.397	y: -15.38	z: 32.803
13:06:08		x: -21.397	y: -15.38	z: 32.803
13:06:08		x: -21.397	y: -15.38	z: 32.803
13:06:08		x: -21.397	y: -15.38	z: 32.449
13:06:08		x: -21.397	y: -15.38	z: 32.449
13:06:08		x: -21.397	y: -16.041	z: 32.449
13:06:09		x: -21.397	y: -19.097	z: 32.109
13:06:09		x: -20.982	y: -21.507	z: 32.109
13:06:09		x: -20.217	y: -23.593	z: 30.801
13:06:09		x: -19.59	y: -25.521	z: 28.73
13:06:09		x: -19.59	y: -27.272	z: 25.819
13:06:10		x: -19.59	y: -28.689	z: 24.023
13:06:10		x: -19.955	y: -29.69	z: 21.598
13:06:10		x: -20.336	y: -30.577	z: 20.011
13:06:10		x: -21.232	y: -31.283	z: 18.574
13:06:10		x: -22.784	y: -32.464	z: 17.77
13:06:10		x: -25.355	y: -33.648	z: 16.445
13:06:11		x: -28.172	y: -34.547	z: 15.637
13:06:11		x: -30.151	y: -35.513	z: 15.637
13:06:11		x: -31.704	y: -36.07	z: 15.036
13:06:11		x: -32.186	y: -36.598	z: 15.91
13:06:11		x: -32.186	y: -36.149	z: 17.079
13:06:12		x: -32.186	y: -34.568	z: 19.715
13:06:12		x: -31.764	y: -32.609	z: 21.849
13:06:12		x: -30.702	y: -30.656	z: 23.806
13:06:12		x: -30.201	y: -28.048	z: 25.213
13:06:12		x: -29.296	y: -25.296	z: 26.669
13:06:12		x: -28.642	y: -23.661	z: 27.76
13:06:13		x: -27.998	y: -21.794	z: 28.428
13:06:13		x: -27.204	y: -20.6	z: 29.406
13:06:13		x: -27.204	y: -19.252	z: 30.683
13:06:13		x: -26.701	y: -18.104	z: 32.722
13:06:13		x: -26.144	y: -18.74	z: 31.755
13:06:14		x: -26.56	y: -18.402	z: 31.332
13:06:14		x: -26.56	y: -18.402	z: 31.935
13:06:14		x: -26.56	y: -18.402	z: 31.935
13:06:14		x: -26.56	y: -18.402	z: 31.935
13:06:14		x: -26.213	y: -18.402	z: 31.935
13:06:14		x: -25.892	y: -18.402	z: 31.935
13:06:15		x: -25.892	y: -18.402	z: 31.935
13:06:15		x: -25.335	y: -18.402	z: 32.379
13:06:15		x: -25.335	y: -18.402	z: 32.051
13:06:15		x: -25.335	y: -18.402	z: 32.62
13:06:15		x: -25.335	y: -18.402	z: 32.62
13:06:15		x: -24.864	y: -18.896	z: 32.263
13:06:16		x: -24.864	y: -18.896	z: 32.87
13:06:16		x: -24.864	y: -18.896	z: 32.376
13:06:16		x: -24.864	y: -18.565	z: 32.376
13:06:16		x: -24.864	y: -18.565	z: 32.376
13:06:16		x: -24.864	y: -18.565	z: 32.376
13:06:17		x: -24.339	y: -18.565	z: 32.376
13:06:17		x: -23.962	y: -18.565	z: 32.376
13:06:17		x: -23.12	y: -18.565	z: 28.86
13:06:17		x: -19.947	y: -21.058	z: 28.173
