15:11:55		x: 26.823492
15:11:55		x: 26.823303
15:11:56		x: 26.823303
15:11:57		x: 26.823303
15:11:58		x: 26.719309
15:11:59		x: 26.719309
15:12:00		x: 26.719309
15:12:01		x: 26.756794
15:12:02		x: 26.756794
15:12:03		x: 26.756794
15:12:04		x: 26.756794
15:12:05		x: 26.756794
15:12:06		x: 26.756794
15:12:07		x: 26.756794
15:12:08		x: 26.756794
15:12:09		x: 26.756794
15:12:10		x: 26.756794
15:12:11		x: 26.756794
15:12:12		x: 26.756794
15:12:13		x: 26.756794
15:12:14		x: 26.756794
15:12:15		x: 26.756794
15:12:16		x: 26.756794
