13:33:18		x: 939.99
13:33:18		x: 939.99
13:33:18		x: 940.03
13:33:18		x: 939.98
13:33:18		x: 939.99
13:33:18		x: 939.99
13:33:19		x: 940.0
13:33:19		x: 939.99
13:33:19		x: 940.01
13:33:19		x: 940.0
13:33:19		x: 940.03
13:33:20		x: 940.01
13:33:20		x: 940.03
13:33:20		x: 940.06
13:33:20		x: 940.04
13:33:20		x: 940.03
13:33:20		x: 940.05
13:33:21		x: 940.05
13:33:21		x: 940.03
13:33:21		x: 940.04
13:33:21		x: 940.03
13:33:21		x: 940.0
13:33:21		x: 940.06
13:33:22		x: 940.09
13:33:22		x: 940.03
13:33:22		x: 940.01
13:33:22		x: 940.02
13:33:22		x: 940.06
13:33:23		x: 940.01
13:33:23		x: 940.04
13:33:23		x: 940.06
13:33:23		x: 940.11
13:33:23		x: 940.1
13:33:23		x: 940.05
13:33:24		x: 940.03
13:33:24		x: 939.95
13:33:24		x: 939.97
13:33:24		x: 939.98
13:33:24		x: 940.0
13:33:25		x: 940.02
13:33:25		x: 940.04
13:33:25		x: 939.98
13:33:25		x: 940.03
13:33:25		x: 940.0
13:33:25		x: 940.04
13:33:26		x: 939.96
13:33:26		x: 940.04
13:33:26		x: 940.0
13:33:26		x: 939.98
13:33:26		x: 939.98
13:33:27		x: 939.96
13:33:27		x: 939.97
13:33:27		x: 940.04
13:33:27		x: 939.99
13:33:27		x: 939.96
13:33:27		x: 939.96
13:33:28		x: 940.05
13:33:28		x: 939.98
