13:33:18		x: 12.385	y: 138.839	z: -17.82
13:33:18		x: 10.794	y: 136.866	z: -19.346
13:33:18		x: 10.021	y: 137.332	z: -19.651
13:33:18		x: 10.021	y: 137.332	z: -19.651
13:33:18		x: 10.021	y: 139.262	z: -19.134
13:33:18		x: 12.446	y: 132.246	z: -11.363
13:33:19		x: 18.989	y: 142.951	z: -4.687
13:33:19		x: 16.355	y: 118.183	z: 52.502
13:33:19		x: 21.914	y: 111.68	z: 55.52
13:33:19		x: 11.311	y: 79.431	z: 45.257
13:33:19		x: 10.905	y: 27.861	z: 16.183
13:33:20		x: -16.094	y: 8.772	z: -39.341
13:33:20		x: -39.254	y: -1.023	z: -25.721
13:33:20		x: -43.83	y: 9.576	z: -9.693
13:33:20		x: -42.575	y: 9.17	z: -17.211
13:33:20		x: -40.84	y: 15.008	z: -15.628
13:33:20		x: -40.396	y: 15.008	z: -17.388
13:33:21		x: -41.571	y: 13.327	z: -17.388
13:33:21		x: -37.556	y: 18.785	z: -16.325
13:33:21		x: -45.335	y: 3.683	z: -14.762
13:33:21		x: -44.096	y: 6.144	z: -12.176
13:33:21		x: -36.489	y: 24.479	z: -13.674
13:33:21		x: -32.997	y: 23.789	z: -16.482
13:33:22		x: -27.435	y: 28.041	z: -15.812
13:33:22		x: 9.428	y: 36.038	z: -14.147
13:33:22		x: 10.728	y: 36.038	z: -14.147
13:33:22		x: 14.92	y: 36.038	z: -12.93
13:33:22		x: 11.799	y: 36.843	z: -16.546
13:33:23		x: 10.343	y: 37.612	z: -16.024
13:33:23		x: 10.343	y: 38.002	z: -15.025
13:33:23		x: 7.56	y: 41.201	z: -8.947
13:33:23		x: 3.292	y: 41.857	z: -0.625
13:33:23		x: 14.112	y: 39.918	z: 12.698
13:33:23		x: 27.825	y: 35.867	z: 15.574
13:33:24		x: 21.726	y: 40.014	z: 4.609
13:33:24		x: 19.625	y: 35.681	z: 3.015
13:33:24		x: 18.287	y: 34.358	z: 3.414
13:33:24		x: 16.754	y: 36.369	z: -3.16
13:33:24		x: 11.618	y: 35.813	z: -10.517
13:33:25		x: 8.052	y: 34.748	z: -17.805
13:33:25		x: 1.62	y: 34.243	z: -21.177
13:33:25		x: -3.242	y: 35.382	z: -15.476
13:33:25		x: -7.725	y: 35.969	z: -6.484
13:33:25		x: -15.286	y: 34.262	z: 0.273
13:33:25		x: -19.316	y: 32.843	z: 0.273
13:33:26		x: -25.729	y: 30.723	z: -4.534
13:33:26		x: -37.96	y: 8.63	z: -20.66
13:33:26		x: -17.964	y: 10.162	z: -35.871
13:33:26		x: -17.964	y: -20.233	z: -34.892
13:33:26		x: -4.35	y: -40.705	z: -15.992
13:33:27		x: -10.346	y: -38.026	z: -13.896
13:33:27		x: -10.346	y: -38.436	z: -14.517
13:33:27		x: -12.501	y: -37.692	z: -7.888
13:33:27		x: 7.106	y: -34.027	z: 44.589
13:33:27		x: -12.181	y: 16.133	z: 60.208
13:33:27		x: -15.115	y: 14.015	z: 61.878
13:33:28		x: -11.769	y: 12.942	z: 63.681
13:33:28		x: -11.769	y: 12.423	z: 65.609
