13:06:02		x: 944.02
13:06:02		x: 944.02
13:06:03		x: 944.09
13:06:03		x: 944.04
13:06:03		x: 944.03
13:06:03		x: 944.05
13:06:03		x: 944.06
13:06:03		x: 944.02
13:06:04		x: 944.01
13:06:04		x: 944.0
13:06:04		x: 944.05
13:06:04		x: 944.0
13:06:04		x: 944.0
13:06:05		x: 944.03
13:06:05		x: 944.06
13:06:05		x: 943.99
13:06:05		x: 944.06
13:06:05		x: 944.04
13:06:05		x: 944.05
13:06:06		x: 944.03
13:06:06		x: 944.03
13:06:06		x: 944.05
13:06:06		x: 944.09
13:06:06		x: 944.02
13:06:06		x: 944.06
13:06:07		x: 944.01
13:06:07		x: 944.02
13:06:07		x: 944.09
13:06:07		x: 944.03
13:06:07		x: 944.07
13:06:08		x: 944.04
13:06:08		x: 944.04
13:06:08		x: 944.02
13:06:08		x: 944.05
13:06:08		x: 943.95
13:06:08		x: 944.0
13:06:09		x: 943.93
13:06:09		x: 944.0
13:06:09		x: 943.91
13:06:09		x: 943.92
13:06:09		x: 943.94
13:06:10		x: 943.9
13:06:10		x: 943.86
13:06:10		x: 943.91
13:06:10		x: 943.88
13:06:10		x: 943.85
13:06:10		x: 943.87
13:06:11		x: 943.85
13:06:11		x: 943.78
13:06:11		x: 943.78
13:06:11		x: 943.8
13:06:11		x: 943.74
13:06:12		x: 943.75
13:06:12		x: 943.71
13:06:12		x: 943.78
13:06:12		x: 943.75
13:06:12		x: 943.76
13:06:12		x: 943.7
13:06:13		x: 943.67
13:06:13		x: 943.69
13:06:13		x: 943.7
13:06:13		x: 943.68
13:06:13		x: 943.67
13:06:14		x: 943.69
13:06:14		x: 943.64
13:06:14		x: 943.67
13:06:14		x: 943.65
13:06:14		x: 943.64
13:06:14		x: 943.64
13:06:15		x: 943.6
13:06:15		x: 943.62
13:06:15		x: 943.66
13:06:15		x: 943.66
13:06:15		x: 943.57
13:06:15		x: 943.62
13:06:16		x: 943.67
13:06:16		x: 943.63
13:06:16		x: 943.67
13:06:16		x: 943.62
13:06:16		x: 943.62
13:06:17		x: 943.66
13:06:17		x: 943.67
13:06:17		x: 943.6
13:06:17		x: 943.64
