20:15:18		x: -1.2940661	y: 3.2315738	z: 9.264363
20:15:18		x: -1.1043255	y: 3.4075475	z: 9.387665
20:15:18		x: 2.855684	y: 0.6314707	z: 9.664195
20:15:18		x: 2.3062148	y: 2.4588451	z: 9.141661
20:15:19		x: 2.5031378	y: 1.899799	z: 9.558251
20:15:19		x: 2.9496565	y: 0.92296475	z: 9.330204
20:15:19		x: 0.5710171	y: 1.2114661	z: 8.482059
20:15:19		x: 0.81881696	y: -0.3681085	z: 11.47062
20:15:19		x: 1.2761095	y: 4.3305125	z: 15.4563675
20:15:20		x: 2.4791958	y: -3.5607765	z: 9.463681
20:15:20		x: 2.0967221	y: -3.8007953	z: 10.67395
20:15:20		x: 3.567959	y: -1.7950528	z: 12.804191
20:15:20		x: 0.3776853	y: -1.2282255	z: 6.0531406
20:15:20		x: -3.394978	y: 0.6991069	z: 7.551911
20:15:20		x: -0.28491	y: 4.344279	z: 1.0181342
20:15:21		x: -6.5684924	y: 10.137649	z: -2.4863784
20:15:21		x: -3.454833	y: 9.414599	z: -0.45250413
20:15:21		x: -1.751957	y: 9.214086	z: -3.6727054
20:15:21		x: 0.93014735	y: 11.657967	z: -1.0510546
20:15:21		x: -0.4165911	y: 10.26933	z: -0.931943
20:15:22		x: 0.64823014	y: 9.998785	z: -0.33997664
20:15:22		x: 0.4985925	y: 8.153454	z: -1.3880384
20:15:22		x: 2.6497827	y: 7.152079	z: -2.1493945
20:15:22		x: 0.26156655	y: 3.657143	z: -3.107674
20:15:22		x: -3.9175124	y: 9.937733	z: -7.256227
20:15:22		x: -2.9981391	y: 7.2149267	z: -8.207323
20:15:23		x: -4.277241	y: 4.5340195	z: -7.8829093
20:15:23		x: -7.5806413	y: 3.2423477	z: -13.528437
20:15:23		x: -5.1642933	y: 1.5352819	z: -5.891532
20:15:23		x: -4.7626657	y: 1.927931	z: -7.477092
20:15:23		x: -6.005256	y: -0.7721301	z: -8.033744
20:15:24		x: -2.8736405	y: 0.4441244	z: -8.921394
20:15:24		x: -3.626617	y: -2.6611552	z: -8.595184
20:15:25		x: -3.2010477	y: -1.9446903	z: -8.763975
20:15:25		x: -6.1004257	y: -2.6521769	z: -7.2364745
20:15:25		x: -3.8971617	y: 1.4329298	z: -7.385514
20:15:25		x: -5.01286	y: 3.0538042	z: -7.1544733
20:15:25		x: -0.32202014	y: 6.7103486	z: -8.019379
20:15:25		x: -0.74639237	y: 6.3302693	z: -7.291541
20:15:25		x: -0.22026655	y: 5.5162406	z: -7.3711486
20:15:25		x: -2.8670566	y: 5.571307	z: -7.000047
20:15:26		x: -1.1851299	y: 5.810129	z: -6.855198
20:15:26		x: -2.56419	y: 5.8508306	z: -7.603386
20:15:26		x: -1.9877859	y: 6.3224883	z: -7.231686
20:15:26		x: -0.93134445	y: 6.0758853	z: -7.1730285
20:15:26		x: -1.270124	y: 6.213552	z: -7.1460934
20:15:26		x: -1.3670892	y: 6.1704564	z: -7.243657
20:15:27		x: -1.4389153	y: 6.1040173	z: -7.2125325
20:15:27		x: -1.520318	y: 6.0663085	z: -7.2268977
20:15:27		x: -1.484405	y: 6.053739	z: -7.2406645
20:15:27		x: -1.4850036	y: 6.0597243	z: -7.247847
20:15:27		x: -1.4293385	y: 6.071097	z: -7.2628107
20:15:28		x: -1.4796166	y: 6.0782795	z: -7.2490444
20:15:28		x: -1.4526819	y: 6.081871	z: -7.225701
20:15:28		x: -1.4496891	y: 6.0746884	z: -7.2484455
20:15:28		x: -1.4287399	y: 6.0920463	z: -7.2610154
20:15:28		x: -1.4766239	y: 6.060323	z: -7.2262993
20:15:28		x: -1.4987702	y: 6.055535	z: -7.253833
20:15:29		x: -1.4814123	y: 6.0597243	z: -7.2580223
20:15:29		x: -1.4939818	y: 6.0441623	z: -7.2245035
20:15:29		x: -1.5095441	y: 6.0758853	z: -7.2304893
20:15:29		x: -1.4981717	y: 6.135142	z: -7.237672
20:15:29		x: -1.1558008	y: 5.8945246	z: -7.8236527
20:15:30		x: -1.5735891	y: 6.057929	z: -7.304111
20:15:30		x: -1.5765818	y: 5.9561753	z: -7.2849574
20:15:30		x: -1.5514427	y: 5.9543796	z: -7.323863
20:15:30		x: -1.5640123	y: 5.97892	z: -7.307702
20:15:30		x: -1.5831659	y: 5.9639564	z: -7.3867106
20:15:30		x: -1.2617443	y: 5.9705405	z: -7.225701
20:15:31		x: -1.6142905	y: 6.029797	z: -7.2993226
20:15:31		x: -1.6819267	y: 6.042965	z: -7.195773
20:15:31		x: -1.5185224	y: 5.8358665	z: -7.418434
20:15:31		x: -1.6071079	y: 6.3260794	z: -7.0287776
20:15:31		x: -1.352724	y: 6.1704564	z: -7.193379
20:15:32		x: -1.5975311	y: 6.0627174	z: -7.2047515
20:15:32		x: -1.7202339	y: 6.06152	z: -7.2125325
20:15:32		x: -1.8255788	y: 6.0519433	z: -7.1748238
20:15:32		x: -1.751957	y: 6.0184245	z: -7.217321
20:15:32		x: -1.7196354	y: 6.063316	z: -7.216124
20:15:32		x: -1.6753427	y: 6.047155	z: -7.2149267
20:15:33		x: -1.6364368	y: 6.0848637	z: -7.161656
20:15:33		x: -2.0655975	y: 5.945401	z: -7.307702
20:15:33		x: -1.7172412	y: 5.955577	z: -7.306505
20:15:33		x: -1.7232267	y: 6.0728927	z: -7.2502413
20:15:33		x: -1.6077064	y: 6.0321913	z: -7.1969705
20:15:34		x: -1.7328035	y: 6.0663085	z: -7.2203135
20:15:34		x: -1.6992847	y: 5.995081	z: -7.2430587
20:15:34		x: -1.7435774	y: 5.9567738	z: -7.2646065
20:15:34		x: -1.7489643	y: 5.9603653	z: -7.302315
20:15:34		x: -1.7417817	y: 5.9448028	z: -7.294534
20:15:34		x: -1.8219875	y: 6.0890536	z: -7.2268977
20:15:35		x: -1.9297266	y: 6.151303	z: -6.9850836
20:15:35		x: -1.7866731	y: 6.005256	z: -7.2448545
20:15:35		x: -1.7908629	y: 5.7502737	z: -7.2987237
20:15:35		x: -1.6723499	y: 5.823297	z: -7.2729864
20:15:35		x: -2.328361	y: 5.6323595	z: -7.1131735
20:15:35		x: -1.9746178	y: 4.7722425	z: -7.9756846
20:15:36		x: -2.9179332	y: 4.490924	z: -7.7985134
20:15:36		x: -4.5418005	y: 2.634819	z: -7.917625
20:15:36		x: -2.5701754	y: 4.6034513	z: -10.031705
20:15:36		x: -0.22924481	y: 7.404069	z: -5.333084
20:15:36		x: 2.7928362	y: 3.4859576	z: -1.1851299
20:15:37		x: 0.7080852	y: 2.5486276	z: 12.508507
20:15:37		x: 0.521936	y: 2.7515364	z: 10.236409
20:15:37		x: 2.2481554	y: 6.909666	z: 8.684368
20:15:37		x: 2.4091654	y: 2.3493104	z: 12.403162
20:15:37		x: 0.2633622	y: 4.908712	z: 6.770204
20:15:38		x: 1.858499	y: 4.973954	z: 7.795521
20:15:38		x: 0.75118077	y: 5.112818	z: 7.4687123
20:15:38		x: 0.6015432	y: 5.480926	z: 8.1797905
20:15:38		x: 1.4814123	y: 4.9548006	z: 8.51857
20:15:38		x: 0.9008184	y: 5.2157683	z: 8.728063
20:15:38		x: 1.3359646	y: 5.2582655	z: 9.020754
20:15:39		x: 0.40282443	y: 5.752668	z: 8.980651
20:15:39		x: 0.9828198	y: 5.5407815	z: 7.9714947
20:15:39		x: 1.2970588	y: 5.4168816	z: 8.521563
20:15:39		x: 0.96905315	y: 5.445013	z: 8.180987
20:15:39		x: 0.55605334	y: 5.7359085	z: 7.909844
20:15:39		x: 0.15083471	y: 5.843049	z: 7.9912467
20:15:40		x: 0.41180268	y: 5.674258	z: 7.9433627
20:15:40		x: 0.21547815	y: 5.8813562	z: 8.152855
