13:21:47		x: -0.8750807	y: 6.1207767	z: 7.9625163
13:21:47		x: 1.7292122	y: 4.983531	z: 8.720282
13:21:47		x: 0.34356794	y: 5.1702785	z: 7.2729864
13:21:47		x: 4.156334	y: 4.9542017	z: 7.726089
13:21:47		x: 4.759074	y: 3.8019924	z: 7.101202
13:21:47		x: 4.648941	y: 3.4171243	z: 7.3897038
13:21:48		x: 8.702923	y: 4.911106	z: 6.3141084
13:21:48		x: 6.4643445	y: 3.4446578	z: 4.84347
13:21:48		x: 5.4162827	y: 1.2204443	z: 10.242394
13:21:48		x: 5.051167	y: 2.9346926	z: 9.481637
13:21:48		x: 6.931214	y: 3.2585084	z: 5.1876364
13:21:49		x: 6.55293	y: 3.9306808	z: 4.1695023
13:21:49		x: 4.2341456	y: 3.78643	z: 13.295601
13:21:49		x: -2.7257986	y: 5.3420625	z: 8.052299
13:21:49		x: -6.7588315	y: 5.2822075	z: 6.338649
13:21:49		x: -5.427655	y: 8.74961	z: -0.5105635
13:21:49		x: -8.498817	y: 5.3701944	z: -0.3453636
13:21:50		x: -11.244369	y: 9.412206	z: 1.9560628
13:21:50		x: -5.8221	y: -1.3066356	z: 2.9311013
13:21:50		x: -2.722806	y: 19.608511	z: -0.55725044
13:21:50		x: -5.9783216	y: 11.028292	z: -2.2511482
13:21:50		x: -5.7424927	y: 9.123106	z: -1.5801731
13:21:51		x: 1.8249803	y: 6.2763996	z: -3.0735564
13:21:51		x: -3.8013937	y: 6.4721255	z: -7.394492
13:21:51		x: -4.091092	y: 10.056845	z: -0.10654198
13:21:51		x: 0.2136825	y: 10.903194	z: -1.2964603
13:21:51		x: -0.50038815	y: 12.304401	z: -1.7393875
13:21:51		x: 9.34038	y: 9.502586	z: -7.0820484
13:21:52		x: -0.7703344	y: 2.565387	z: -6.329671
13:21:52		x: 5.755062	y: 6.769605	z: -9.703101
13:21:52		x: 2.8269536	y: 9.001001	z: 0.7410054
13:21:52		x: 5.8681884	y: 9.193734	z: 1.4221559
13:21:52		x: 1.9458874	y: 17.137695	z: -1.1827357
13:21:53		x: 5.4623713	y: 9.734225	z: -1.0534488
13:21:53		x: -1.103727	y: 2.380435	z: -6.7588315
13:21:53		x: 0.3369839	y: 9.728839	z: -5.8358665
13:21:53		x: 0.050876785	y: 10.153211	z: 0.82480246
13:21:53		x: 1.3030443	y: 8.948928	z: 0.26635495
13:21:53		x: 0.98341835	y: 12.842498	z: -0.8050503
13:21:54		x: 10.002377	y: 11.440094	z: -3.3506854
13:21:54		x: -0.86969376	y: 3.1860838	z: -5.285799
13:21:54		x: -2.456451	y: 6.455366	z: -6.8731546
13:21:54		x: -1.0468647	y: 10.843938	z: -0.09756372
13:21:54		x: 2.544438	y: 8.374918	z: 0.23642741
13:21:54		x: 0.25617957	y: 11.255741	z: -0.6733692
13:21:55		x: 9.141062	y: 11.583746	z: -4.2981906
13:21:55		x: 0.25917232	y: 5.245097	z: -2.0572178
13:21:55		x: -0.81402856	y: 11.750143	z: -5.1367598
13:21:55		x: 0.49919105	y: 6.899491	z: 1.7112557
13:21:55		x: 0.5470751	y: 8.920197	z: -1.1887212
13:21:56		x: -0.40102878	y: 9.339182	z: -0.47405192
13:21:56		x: 5.315128	y: 9.958682	z: 3.0023289
13:21:56		x: -2.0512323	y: 6.5750766	z: -1.9662381
13:21:56		x: -0.9540894	y: 18.689737	z: -6.367379
13:21:56		x: 4.5561657	y: 8.084022	z: -2.528277
13:21:56		x: 1.3006501	y: 9.008782	z: -0.90261406
13:21:57		x: -1.9033904	y: 11.277887	z: 0.51475334
13:21:57		x: 2.594716	y: 13.191453	z: 0.62847793
13:21:57		x: -1.0528502	y: 9.238028	z: 0.16220717
13:21:57		x: -1.1971009	y: 5.0960584	z: -3.7481227
13:21:57		x: 1.4000094	y: 16.597803	z: -4.5244427
13:21:58		x: 2.0135236	y: 8.630499	z: -0.5231331
13:21:58		x: 0.034117375	y: 10.33517	z: 0.034715924
13:21:58		x: -0.47345337	y: 11.378444	z: -0.76195467
13:21:58		x: 8.760384	y: 13.438654	z: -6.11539
13:21:58		x: -2.280477	y: 3.9977183	z: -3.0424318
13:21:58		x: -1.2856863	y: 12.830527	z: -5.920861
13:21:59		x: 1.7465701	y: 4.4556093	z: 1.0235212
13:21:59		x: -1.6214731	y: 10.388441	z: -1.0319009
13:21:59		x: -1.2378023	y: 10.056246	z: -0.15502456
13:21:59		x: 2.3636756	y: 14.615404	z: 0.7697359
13:21:59		x: 0.338181	y: 7.615956	z: 1.3856442
13:22:00		x: -1.8052281	y: 4.313753	z: -5.5617304
13:22:00		x: 0.44891283	y: 4.71119	z: -5.45459
13:22:00		x: -1.8662802	y: 11.107899	z: 1.0223241
13:22:00		x: 0.6739678	y: 9.8042555	z: -1.055843
13:22:00		x: 2.1003134	y: 9.833585	z: -0.23822308
13:22:00		x: 1.929128	y: 11.253346	z: 1.9614497
13:22:01		x: 2.956839	y: 9.800665	z: 0.44352585
13:22:01		x: -0.82779527	y: 4.2054152	z: -3.342904
13:22:01		x: -3.1028855	y: 7.181408	z: -4.791396
13:22:01		x: -0.8810662	y: 9.569026	z: 1.7890673
13:22:01		x: 0.18435353	y: 8.313866	z: 0.08439561
13:22:02		x: -1.8728642	y: 9.375095	z: -0.54527944
13:22:02		x: 4.361637	y: 9.455301	z: -0.85772276
13:22:02		x: -1.3000516	y: 7.083844	z: -2.7204118
13:22:02		x: 0.27353755	y: 11.62744	z: -3.1597476
13:22:02		x: 4.1317935	y: 9.062054	z: 2.0248961
13:22:02		x: -0.9780314	y: 10.090961	z: 1.1007342
13:22:03		x: -1.8752584	y: 8.730456	z: 0.25258827
13:22:03		x: -0.077811554	y: 9.91439	z: -1.30484
13:22:03		x: -1.3652935	y: 5.7389016	z: -3.300407
13:22:03		x: -1.8369513	y: 7.2394676	z: -6.0291986
13:22:03		x: -0.2621651	y: 7.503428	z: 1.0061632
13:22:04		x: -0.22445641	y: 8.328231	z: -0.8439561
13:22:04		x: -0.4141969	y: 15.83944	z: -1.9512744
13:22:04		x: 5.5641246	y: 14.974535	z: -4.1539397
13:22:04		x: -0.0664391	y: 1.9153614	z: -6.599617
13:22:04		x: 0.439336	y: 6.1076083	z: -6.6026096
13:22:04		x: -2.111686	y: 10.028113	z: 0.23762453
13:22:05		x: -0.19752164	y: 10.88464	z: -0.7188591
13:22:05		x: 1.3581109	y: 12.425907	z: 1.2599486
13:22:05		x: 1.146224	y: 8.863335	z: -0.33758244
13:22:05		x: -1.1779473	y: 6.8306575	z: -6.157288
13:22:05		x: 2.1320367	y: 13.420697	z: -2.1051018
13:22:06		x: 1.9740193	y: 9.32781	z: -1.3204023
13:22:06		x: -2.707842	y: 10.4488945	z: 0.43155485
13:22:06		x: 1.7806876	y: 9.697714	z: 3.614646
13:22:06		x: -4.006098	y: 5.9465985	z: -2.3427265
13:22:06		x: -4.268263	y: 16.481087	z: -9.056666
13:22:06		x: 0.59735334	y: 10.29806	z: 0.75357497
13:22:07		x: 1.0253168	y: 9.864111	z: 0.533907
13:22:07		x: -3.2585084	y: 10.892421	z: -1.0247183
13:22:07		x: 1.9165585	y: 12.512696	z: -1.7328035
13:22:07		x: -2.5971103	y: 3.9594111	z: -1.3748703
13:22:07		x: 1.6938977	y: 11.814787	z: -5.0900726
13:22:08		x: -1.5520413	y: 4.6351743	z: 1.1121067
13:22:08		x: 0.75477207	y: 9.11712	z: 0.12030864
13:22:08		x: -0.40880993	y: 12.452243	z: -1.0857705
13:22:08		x: 6.127361	y: 17.403452	z: -3.2369606
13:22:08		x: -1.8249803	y: 2.9442697	z: -1.8836381
13:22:08		x: -2.0039468	y: 8.130111	z: -6.173449
13:22:09		x: -1.6358383	y: 7.548918	z: 0.61411273
13:22:09		x: 0.06584055	y: 9.005191	z: -1.389834
13:22:09		x: -1.751957	y: 11.620856	z: -0.6410475
13:22:09		x: 5.758055	y: 14.631565	z: -1.1665748
13:22:09		x: -2.4235306	y: 1.8387469	z: -2.690484
13:22:09		x: -2.843713	y: 5.7377043	z: -6.859388
13:22:10		x: -4.184466	y: 8.653243	z: -0.15981296
13:22:10		x: -0.38067806	y: 8.760384	z: -1.3784616
13:22:10		x: -2.457648	y: 13.92767	z: -0.6374562
13:22:10		x: 4.5561657	y: 12.155961	z: -0.3405752
13:22:10		x: -2.2008698	y: 0.9911995	z: -4.4717703
13:22:11		x: -2.6198552	y: 6.707356	z: -6.1399302
13:22:11		x: -5.134964	y: 7.9565306	z: 1.6525977
13:22:11		x: -0.92416185	y: 10.075399	z: -0.84694886
13:22:11		x: -2.7964275	y: 13.347674	z: -2.0231004
13:22:11		x: 7.1305313	y: 13.910911	z: -1.4036007
13:22:11		x: -3.2208	y: 1.0893618	z: -5.3049526
13:22:12		x: -4.3317094	y: 3.25791	z: -6.241684
13:22:12		x: -4.119224	y: 8.853758	z: 0.5201403
13:22:12		x: 0.22146365	y: 8.503606	z: -0.86011696
13:22:12		x: -3.1429882	y: 12.497733	z: -1.0666169
13:22:12		x: 6.975507	y: 12.567763	z: -2.042254
13:22:13		x: -3.0053217	y: 1.3676877	z: -4.374805
13:22:13		x: -2.903568	y: 6.0202203	z: -5.9531827
13:22:13		x: -5.21098	y: 8.613141	z: 0.62728083
13:22:13		x: -0.49919105	y: 7.72968	z: -0.60573304
13:22:13		x: -2.5570073	y: 12.059594	z: 0.31603462
13:22:13		x: 6.564901	y: 11.723807	z: 0.06823475
13:22:14		x: -3.5284548	y: 1.1731589	z: -3.7660792
13:22:14		x: -3.5104983	y: 12.179903	z: -5.9771247
13:22:14		x: -4.3077674	y: 8.048109	z: 1.6663644
13:22:14		x: -1.435324	y: 10.053851	z: -0.3477578
13:22:14		x: -2.349909	y: 14.361619	z: -1.3742718
13:22:14		x: 2.9239187	y: 9.86471	z: 1.1552023
13:22:15		x: -2.710835	y: 1.283292	z: -4.1838675
13:22:15		x: -3.6260185	y: 4.0773253	z: -5.6880245
13:22:15		x: -5.9292407	y: 9.987412	z: 0.43514615
13:22:15		x: -1.4185646	y: 9.402629	z: -1.1725603
13:22:15		x: -3.1399956	y: 12.688072	z: -0.688333
13:22:16		x: 4.9823337	y: 14.9068985	z: 0.320823
13:22:16		x: -1.9853917	y: 4.2275615	z: -2.0087352
13:22:16		x: -2.6569653	y: 6.0226145	z: -2.7162218
13:22:16		x: -3.9025488	y: 10.187328	z: -0.24121583
13:22:16		x: -0.7565677	y: 9.482236	z: -0.21906945
13:22:16		x: -2.255338	y: 13.403339	z: -0.41180268
13:22:17		x: 3.2788591	y: 18.64724	z: -2.4486697
13:22:17		x: -1.0588357	y: 4.461595	z: -1.0989386
13:22:17		x: -4.6160207	y: 7.6231384	z: -4.8919525
13:22:17		x: -0.7314286	y: 6.6163764	z: 1.0229226
13:22:17		x: -1.608305	y: 7.620744	z: -0.31603462
13:22:18		x: -1.7776948	y: 11.493365	z: -1.644218
13:22:18		x: 3.5763388	y: 13.721768	z: -3.5607765
13:22:18		x: -0.9331401	y: 3.9438488	z: -1.6130934
13:22:18		x: -0.9091981	y: 10.798449	z: -5.0906715
13:22:18		x: -1.8525136	y: 7.707534	z: 0.62488663
13:22:18		x: -0.02932897	y: 8.1881695	z: -1.1127052
13:22:19		x: -2.3786395	y: 11.226412	z: -0.6332663
13:22:19		x: 2.6366146	y: 16.50802	z: -2.9646204
13:22:19		x: -0.47524905	y: 4.4155064	z: -1.1168951
13:22:19		x: -1.9213469	y: 7.828441	z: -6.0405707
13:22:19		x: -1.4149733	y: 9.221268	z: 0.4973954
13:22:20		x: -0.80445176	y: 8.652046	z: -0.94211835
13:22:20		x: -2.6874914	y: 12.36246	z: -0.20530279
13:22:20		x: 3.3584664	y: 15.410878	z: 0.7314286
13:22:20		x: -1.4640543	y: 3.3357215	z: -2.460641
13:22:20		x: -5.7825956	y: 4.7620673	z: -5.3564277
13:22:20		x: -4.03004	y: 7.9194207	z: 0.56982
13:22:21		x: -1.2126632	y: 9.753978	z: -0.57640404
13:22:21		x: -2.9939492	y: 12.25951	z: -0.12449849
13:22:21		x: 3.6876693	y: 16.730682	z: -1.365892
13:22:21		x: -2.0231004	y: 2.5540147	z: -3.9606082
13:22:21		x: -5.018845	y: 6.0088477	z: -6.341642
13:22:22		x: -4.815338	y: 11.122264	z: 0.4429273
13:22:22		x: -1.6944963	y: 8.185177	z: -0.87687635
13:22:22		x: -3.602675	y: 11.587936	z: -0.41838676
13:22:22		x: 3.1986535	y: 15.148713	z: -5.1397524
13:22:22		x: -1.2090719	y: 3.894169	z: -2.7138276
13:22:22		x: -3.3566709	y: 7.8368206	z: -7.499837
13:22:23		x: -4.583101	y: 10.08318	z: 0.20410569
13:22:23		x: -0.7589619	y: 7.6967597	z: -1.1994951
13:22:23		x: -4.8763905	y: 11.414356	z: -0.682946
13:22:23		x: 3.376423	y: 13.932458	z: -4.2293572
13:22:23		x: -1.8986019	y: 3.1172507	z: -1.7483658
13:22:24		x: -3.3758245	y: 6.6002154	z: -7.0485296
13:22:24		x: 5.321113	y: 13.19265	z: 5.485116
13:22:24		x: -0.047285482	y: 6.861782	z: -0.86370826
13:22:24		x: -1.9883845	y: 11.010335	z: -1.216853
13:22:24		x: 4.2880154	y: 13.318944	z: -4.5447936
13:22:24		x: -2.1589713	y: 4.0282445	z: -2.2972364
13:22:25		x: -3.2513258	y: 10.662578	z: -4.76087
13:22:25		x: -2.813187	y: 8.271368	z: -0.5482722
13:22:25		x: -1.055843	y: 7.3831196	z: -0.48722005
13:22:25		x: -2.5157075	y: 10.553641	z: -1.1402385
13:22:25		x: 3.3303347	y: 11.95365	z: -3.0496144
13:22:25		x: -3.477578	y: 3.9211037	z: -1.8908207
13:22:26		x: -3.3315318	y: 12.405556	z: -2.7210102
13:22:26		x: -1.2000936	y: 7.289147	z: 0.6362591
13:22:26		x: -0.31483752	y: 8.47308	z: -2.0410569
13:22:26		x: -2.4265234	y: 10.06283	z: -1.0247183
13:22:26		x: 2.6120741	y: 10.576984	z: 1.4838065
13:22:27		x: -2.381632	y: 5.591658	z: -0.24480712
13:22:27		x: -6.799533	y: 11.134235	z: -4.55856
13:22:27		x: -1.429937	y: 4.955399	z: 0.29807812
13:22:27		x: -2.6192567	y: 10.114903	z: -1.7609353
13:22:27		x: -5.451597	y: 9.642648	z: 1.2725182
13:22:27		x: -1.3922282	y: 10.817003	z: -3.064578
13:22:28		x: -5.4647655	y: 10.960057	z: -4.662708
13:22:28		x: 3.6032736	y: 1.8255788	z: 2.7036524
13:22:28		x: 7.896077	y: 1.0001777	z: 6.341642
13:22:28		x: 6.2261214	y: 0.46926352	z: 5.501277
13:22:28		x: 5.3833623	y: 2.156577	z: 4.607043
13:22:29		x: 7.52737	y: 2.6898856	z: 12.049418
13:22:29		x: 4.2119994	y: 0.6787562	z: 6.5966244
13:22:29		x: 3.7906199	y: 1.6460136	z: 8.04751
13:22:29		x: 5.0984526	y: 2.6593595	z: 9.55047
13:22:29		x: 4.039018	y: 1.0313023	z: 8.696938
13:22:29		x: 3.9163153	y: 2.730587	z: 7.642292
13:22:30		x: 4.280833	y: 3.394978	z: 7.492056
13:22:30		x: 6.975507	y: 4.559757	z: 0.7691373
13:22:30		x: 9.303269	y: 4.2239704	z: 4.648941
13:22:30		x: 5.427057	y: -0.13227965	z: 8.728063
13:22:30		x: 2.6557682	y: 2.2990322	z: 9.108142
13:22:31		x: 1.769315	y: 3.301604	z: 8.051102
13:22:31		x: 0.6039374	y: 3.1316159	z: 8.555081
13:22:31		x: 1.7525556	y: 3.8121676	z: 9.996989
13:22:31		x: -0.9792285	y: 3.482965	z: 12.481572
13:22:31		x: 1.6358383	y: 3.4943373	z: 10.645219
13:22:31		x: 1.982399	y: 1.7567455	z: 10.455479
13:22:32		x: -0.08319851	y: 1.553837	z: 10.792462
13:22:32		x: -0.16160862	y: 3.2010477	z: 9.454104
13:22:32		x: -0.19393034	y: 3.0071173	z: 9.555858
13:22:32		x: 0.2645593	y: 2.7635074	z: 10.692505
13:22:32		x: 1.8112136	y: 3.2022448	z: 9.980828
13:22:33		x: 0.7134721	y: 3.116652	z: 9.689933
13:22:33		x: 0.6500258	y: 2.955642	z: 9.586982
13:22:33		x: 0.87208796	y: 2.9215245	z: 9.077017
13:22:33		x: 1.8602947	y: 2.0614076	z: 10.811018
13:22:33		x: 3.627814	y: 1.9482816	z: 9.463082
13:22:33		x: 3.4284968	y: 1.8650831	z: 8.620922
13:22:34		x: 2.3870192	y: 1.7501614	z: 9.473856
13:22:34		x: -0.018555064	y: 3.3877954	z: 9.291298
13:22:34		x: -0.52373165	y: 3.210026	z: 9.120112
13:22:34		x: -0.40581718	y: 3.1358056	z: 9.469068
13:22:34		x: -0.2621651	y: 2.7503393	z: 9.900622
13:22:35		x: -0.19572599	y: 2.718616	z: 9.730635
13:22:35		x: -0.39025488	y: 2.8281507	z: 9.818622
13:22:35		x: -0.5554548	y: 2.959832	z: 9.470863
13:22:35		x: -0.59136784	y: 2.8999767	z: 8.2037325
