13:38:03		x: 43.40919
13:38:04		x: 43.40919
13:38:05		x: 43.822884
13:38:06		x: 43.822884
13:38:07		x: 43.822884
13:38:08		x: 43.993687
13:38:09		x: 43.993687
13:38:09		x: 43.993687
13:38:10		x: 44.497513
13:38:11		x: 44.497513
13:38:12		x: 44.497513
13:38:13		x: 45.08593
13:38:14		x: 45.08593
