13:38:03		x: 29.087961
13:38:04		x: 29.087961
13:38:05		x: 29.228415
13:38:06		x: 29.228415
13:38:07		x: 29.228415
13:38:08		x: 29.228415
13:38:09		x: 29.228415
13:38:09		x: 29.228415
13:38:10		x: 29.228415
13:38:11		x: 29.228415
13:38:12		x: 29.228415
13:38:13		x: 29.254238
13:38:14		x: 29.254238
