12 1:5323.43960246 2:5323.30307636 3:5323.39388065 4:0.0426417171353 5:0.00181831604024 6:0.0404561015335 7:-0.0335287732434 8:-1.07765648257e-13 9:0.0223344730021 10:0.000498828684281 11:0.0388948182113 12:-0.0340733558445 13:-4.79616346638e-14 14:0.0222164764407 15:0.000493571825438 16:0.0517914419362 17:-0.0492723095628 18:-4.26325641456e-14 19:0.0318174778908 20:0.00101235189933 21:0.0248158128918 22:-0.0250513261418 23:-1.12502599829e-14 24:0.0185998215731 25:0.000345953362552 26:0.0341722344029 27:-0.0275922171539 28:-0.00213194813677 29:0.0197967047697 30:0.000391909519738 
12 1:5323.36733774 2:5323.32373058 3:5323.35275138 4:0.013623315635 5:0.000185594728892 6:0.013032736465 7:-0.0108553494019 8:-2.36847578587e-13 9:0.00721276582611 10:5.20239908623e-05 11:0.0123805900212 12:-0.0105283781911 13:-1.32042525062e-13 14:0.00692534415534 15:4.79603916699e-05 16:0.0165858351981 17:-0.0159202620752 18:-8.05281767195e-14 19:0.0101259631577 20:0.000102535129872 21:0.00738197721792 22:-0.00884582583018 23:-4.85537536103e-14 24:0.00612078175933 25:3.74639693453e-05 26:0.0256351469836 27:-0.0296403214737 28:-0.00142826063799 29:0.0200424235181 30:0.000401698740479 
12 1:5323.4768678 2:5323.4587221 3:5323.46449261 4:0.00578640849473 5:3.34825232679e-05 6:0.00735631383606 7:-0.00716469448956 8:-2.20268248086e-13 9:0.00558625232569 10:3.12062150462e-05 11:0.00523241725565 12:-0.00875838796209 13:-1.59872115546e-14 14:0.00558638387637 15:3.12076848141e-05 16:0.0320345494501 17:-0.0296908228956 18:-6.86857977901e-14 19:0.0194835012537 20:0.000379606821102 21:0.0549843377475 22:-0.0550666385177 23:-4.88498130835e-14 24:0.0331448725983 25:0.00109858257956 26:0.0249167632373 27:-0.0298596397751 28:0.000630732717049 29:0.0180362509156 30:0.00032530634709 
12 1:5323.35976775 2:5323.22005291 3:5323.31318998 4:0.0437123487637 5:0.00191076943444 6:0.0416674442274 7:-0.036396538304 8:-2.47505719623e-13 9:0.0238119483899 10:0.000567008886121 11:0.0433045424638 12:-0.0369860820149 13:-1.24937097704e-13 14:0.0242765457786 15:0.00058935067494 16:0.0739766282865 17:-0.073276156022 18:-1.00660220899e-13 19:0.0445936369711 20:0.00198859245831 21:0.0248399133061 22:-0.0280257891677 23:2.96059473233e-15 24:0.0177486522436 25:0.000315014656465 26:0.0644978834394 27:-0.0501204254594 28:0.00189111038522 29:0.0375732416427 30:0.00141174848754 
12 1:5323.32228737 2:5323.13995362 3:5323.26082605 4:0.0568363919194 5:0.00323037544642 6:0.0530074320868 7:-0.0410062074118 8:-1.00660220899e-13 9:0.0287407242803 10:0.000826029232156 11:0.0473021707873 12:-0.0446353758538 13:-2.48689957516e-14 14:0.0292404166245 15:0.000855001964373 16:0.0448355975308 17:-0.0327762832721 18:-8.881784197e-14 19:0.0306334587081 20:0.00093840879242 21:0.103045480201 22:-0.110984872776 23:-6.7205500424e-14 24:0.0670395639172 25:0.00449430313021 26:0.0250017020497 27:-0.0142666207744 28:-0.00194289969593 29:0.0138069450415 30:0.000190631731379 
12 1:5323.46801434 2:5323.39123344 3:5323.41639542 4:0.0241549448203 5:0.000583461359271 6:0.0240164387717 7:-0.0243643852098 8:-2.49874195409e-13 9:0.0160055455357 10:0.000256177487895 11:0.0191869057024 12:-0.0275577783466 13:1.06581410364e-14 14:0.0155787712936 15:0.000242698115018 16:0.0696047581991 17:-0.0662185848584 18:-7.69754630407e-15 19:0.0415929030647 20:0.00172996958535 21:0.086793008978 22:-0.0833906522821 23:-8.28966525053e-15 24:0.0516932475485 25:0.00267219184211 26:0.0954269252111 27:-0.0962534045476 28:0.005120025619 29:0.0585207430011 30:0.00342467736141 
12 1:5323.49975519 2:5323.45552315 3:5323.47035166 4:0.0138146370551 5:0.000190844196964 6:0.0107530402513 7:-0.0129417510981 8:-8.64493661841e-14 9:0.00715398631971 10:5.11795202626e-05 11:0.0117578133617 12:-0.0128915065305 13:-7.69754630407e-15 14:0.00764133979757 15:5.8390073902e-05 16:0.0170918238157 17:-0.0180413744707 18:-7.40148683083e-14 19:0.0110992186799 20:0.000123192655304 21:0.00867294520196 22:-0.00884659414775 23:-7.63833440942e-14 24:0.00531555917862 25:2.82551693814e-05 26:0.0532672544722 27:-0.0676807780769 28:-0.00174087595299 29:0.0384299018673 30:0.00147685735753 
12 1:5323.62001293 2:5323.48474989 3:5323.5747935 4:0.0422786800196 5:0.0017874867842 6:0.0400534291292 7:-0.0340359567792 8:-1.06581410364e-13 9:0.0224288237027 10:0.000503052132687 11:0.040322749011 12:-0.0353130968405 13:-1.24344978758e-14 14:0.0230145743294 15:0.000529670631561 16:0.0615907782775 17:-0.0598221689315 18:-5.92118946467e-14 19:0.037292103809 20:0.0013907010065 21:0.0162040333058 22:-0.0202341122357 23:-1.50990331349e-14 24:0.0114017666095 25:0.000130000281818 26:0.0240495484766 27:-0.0199686400991 28:0.000894063183425 29:0.0154457475538 30:0.000238571117495 
12 1:5323.35582953 2:5323.31680384 3:5323.3430472 4:0.0122816286117 5:0.000150838401355 6:0.0123657093785 7:-0.0122818258214 8:-1.06581410364e-13 9:0.00821485417823 10:6.74838291695e-05 11:0.0142190872023 12:-0.00997923481158 13:-2.84217094304e-14 14:0.0080073322487 15:6.41173697411e-05 16:0.0348392297647 17:-0.036624905514 18:-2.60532336445e-14 19:0.0218900483973 20:0.000479174218836 21:0.0453651397694 22:-0.0469722905962 23:-1.03620815632e-14 24:0.0279839944287 25:0.000783103944187 26:0.0401931895059 27:-0.0405081926692 28:-0.00211887764535 29:0.0246226302954 30:0.000606273922662 
12 1:5323.28441615 2:5323.19327858 3:5323.25396307 4:0.0284887557759 5:0.000811609205657 6:0.0270916295798 7:-0.0230547460577 8:-8.64493661841e-14 9:0.0151843537377 10:0.000230564598433 11:0.0270962990385 12:-0.0234328184104 13:-1.14871075615e-13 14:0.0153203812258 15:0.000234714080902 16:0.0413547660977 17:-0.0402770787422 18:-7.22385114689e-14 19:0.0250163968279 20:0.000625820110251 21:0.00986357360727 22:-0.0117589667128 23:-5.92118946467e-16 24:0.00658049083834 25:4.33028596734e-05 26:0.0283499458086 27:-0.0190989125955 28:-2.18552632013e-05 29:0.0142613584451 30:0.000203386344699 
12 1:5323.17247232 2:5323.14651783 3:5323.16375011 4:0.00809598019108 5:6.55448952544e-05 6:0.00771240623455 7:-0.0060599670628 8:-6.98700356831e-14 9:0.00418881812886 10:1.75461973167e-05 11:0.00667395661215 12:-0.00582176832088 13:-1.18423789293e-14 14:0.00380393626981 15:1.44699311447e-05 16:0.00572869453804 17:-0.00497565517916 18:-9.82917451135e-14 19:0.00406141677991 20:1.64951062602e-05 21:0.0126229099797 22:-0.0144456033744 23:-2.96059473233e-16 24:0.0090381752777 25:8.16886123505e-05 26:0.0329513866931 27:-0.0240015754437 28:-0.00186734526301 29:0.0199269648337 30:0.000397083927482 
12 1:5323.20443317 2:5323.16124799 3:5323.17581855 4:0.0134599651537 5:0.000181170661939 6:0.00961064465975 7:-0.0124248295623 8:-6.39488462184e-14 9:0.00673544589147 10:4.53662313569e-05 11:0.011108989976 12:-0.0113989721218 13:-4.91458725567e-14 14:0.00735150083218 15:5.40445644856e-05 16:0.00844956320289 17:-0.0112829627361 18:-1.0717352931e-13 19:0.00778842120428 20:6.06595048552e-05 21:0.0263182462786 22:-0.0256127302138 23:-1.03620815632e-14 24:0.0158029776284 25:0.000249734101924 26:0.0294553112652 27:-0.0342476392709 28:-0.0012343156793 29:0.0222211229174 30:0.000493778303711 
12 1:5323.15525969 2:5322.88783362 3:5323.06598795 4:0.0836207351006 5:0.00699242733877 6:0.0797475111302 7:-0.0684654446124 8:-1.11318361936e-13 9:0.0449677844564 10:0.00202210163891 11:0.0804150517849 12:-0.0687762145035 13:-1.09542005096e-13 14:0.0451267975966 15:0.00203642786132 16:0.127244448761 17:-0.124847251667 18:-3.07901852163e-14 19:0.0768044457344 20:0.00589892288457 21:0.0268335256036 22:-0.0389312543316 23:-4.32246830921e-14 24:0.0232667042716 25:0.000541339527664 26:0.0553954792136 27:-0.0329659517881 28:-0.000915689426909 29:0.0289579212473 30:0.000838561202964 
12 1:5322.99636403 2:5322.94767413 3:5322.9652206 4:0.0157842476213 5:0.000249142472969 6:0.0216536367693 7:-0.0253892923071 8:-4.73695157173e-15 9:0.0142031751603 10:0.000201730184634 11:0.0870365197013 12:-0.085270129525 13:-1.19608027186e-13 14:0.0521529268672 15:0.00271992778082 16:0.0463718997157 17:-0.0416069864705 18:-0.00215502587205 19:0.034069120809 20:0.0011607049927 21:0.0945091773906 22:-0.0945091773906 23:-0.00585257220837 24:0.0636579159632 25:0.00405233026478 26:0.00655393382332 27:-0.00655393382333 28:-7.1054273576e-15 29:0.00655393382332 30:4.29540485605e-05 
