18:31:34		x: 941.0
18:31:34		x: 940.97
18:31:34		x: 941.03
18:31:34		x: 941.02
18:31:34		x: 941.0
18:31:34		x: 941.05
18:31:35		x: 941.11
18:31:35		x: 941.05
18:31:35		x: 941.0
18:31:35		x: 941.05
18:31:35		x: 941.06
18:31:36		x: 941.0
18:31:36		x: 940.99
18:31:36		x: 941.1
18:31:36		x: 941.05
18:31:36		x: 941.1
18:31:36		x: 941.02
18:31:37		x: 941.09
18:31:37		x: 941.07
18:31:37		x: 941.04
18:31:37		x: 941.05
18:31:37		x: 941.03
18:31:38		x: 941.08
18:31:38		x: 941.08
18:31:38		x: 941.06
18:31:38		x: 941.06
18:31:38		x: 941.12
18:31:38		x: 941.05
18:31:39		x: 941.07
18:31:39		x: 941.09
18:31:39		x: 941.06
18:31:39		x: 941.15
18:31:39		x: 941.06
18:31:39		x: 941.1
18:31:40		x: 941.11
18:31:40		x: 941.05
18:31:40		x: 941.04
18:31:40		x: 941.06
18:31:40		x: 941.03
18:31:41		x: 941.11
18:31:41		x: 941.08
18:31:41		x: 941.08
18:31:41		x: 941.05
18:31:41		x: 941.05
18:31:41		x: 941.09
18:31:42		x: 941.09
18:31:42		x: 941.11
18:31:42		x: 941.11
18:31:42		x: 941.02
18:31:42		x: 941.04
18:31:43		x: 941.09
18:31:43		x: 941.08
18:31:43		x: 941.07
18:31:43		x: 941.11
18:31:43		x: 941.1
18:31:43		x: 941.11
18:31:44		x: 941.08
18:31:44		x: 941.07
18:31:44		x: 941.01
18:31:44		x: 941.05
18:31:44		x: 941.08
18:31:45		x: 941.05
18:31:45		x: 941.09
