18:31:34		x: 57.424553
18:31:35		x: 58.563576
18:31:36		x: 58.563576
18:31:37		x: 58.563576
18:31:38		x: 58.563576
18:31:38		x: 58.563576
18:31:39		x: 58.563576
18:31:40		x: 55.911346
18:31:41		x: 55.911346
18:31:42		x: 55.911346
18:31:43		x: 53.34456
18:31:44		x: 53.34456
