10 1:33.0806776458 2:16.6465160498 3:22.0806576364 4:5.6266192559 5:31.6588442508 6:4.66909010925 7:-5.961692689 8:-1.03092138001e-16 9:3.22771625236 10:10.4181522057 11:2.40007433367 12:-2.04785840497 13:0.223331132258 14:1.40126093027 15:1.9635321947 16:2.62552977099 17:-2.50684523767 18:0.180283636873 19:1.49956789803 20:2.2487038808 21:2.66570293054 22:-9.01323512287 23:-1.43344715231 24:3.06147760985 25:9.37264515563 26:7.13888916212 27:-8.01350348031 28:-0.0386858169229 29:5.12326940142 30:26.2478893596 
10 1:33.1634292128 2:16.7849421219 3:22.1980866551 4:5.60800527229 5:31.4497231341 6:4.71595780078 7:-6.03613412084 8:-9.51619735393e-17 9:3.2523473845 10:10.5777635094 11:2.43357253947 12:-2.0976743003 13:0.220288937146 14:1.41380431966 15:1.9988426543 16:2.53422706946 17:-2.43978516216 18:0.181844052437 19:1.46855446353 20:2.15665221235 21:2.62108938378 22:-8.91312370777 23:-1.41238275278 24:3.02565782407 25:9.15460526835 26:7.14122168549 27:-7.87205081049 28:-0.02109585083 29:5.06083357068 30:25.6120364302 
10 1:42.3054052581 2:15.7098123819 3:24.4818921862 4:9.09806757218 5:82.7748335479 6:8.53196088546 7:-11.1445494388 8:-3.64787565234e-16 9:5.75425893332 10:33.1114958717 11:4.44730520178 12:-4.20716021436 13:0.241749410983 14:2.50331585378 15:6.26659026379 16:4.03942002737 17:-3.84589622522 18:0.198326762421 19:2.17690928629 20:4.73893404072 21:2.34746940014 22:-8.84074761052 23:-1.39710274073 24:3.07994882083 25:9.4860847389 26:8.02755465547 27:-8.34344017876 28:-0.019259491005 29:5.27552837543 30:27.83119964 
10 1:32.7782117789 2:22.5723182097 3:25.9069774852 4:3.51251358663 5:12.3377516962 6:3.25838924273 7:-4.19661518256 8:-1.07850236678e-15 9:2.26486165946 10:5.12959833651 11:1.63044770698 12:-1.3991637783 13:0.269440733211 14:1.05546606753 15:1.1140086197 16:1.93339238473 17:-2.09882445569 18:0.1532104901 19:1.34479342799 20:1.80846936396 21:2.40593414473 22:-11.7588261527 23:-1.84799169982 24:3.82153663552 25:14.6041422567 26:7.43608925073 27:-7.91774294333 28:0.121633135349 29:5.19174371272 30:26.9542027786 
10 1:33.4616999509 2:17.2401493686 3:22.6126517014 4:5.55100564618 5:30.8136636839 6:4.47471435771 7:-5.68822690466 8:2.77555756156e-16 9:3.10509597296 10:9.64162100128 11:2.3086553652 12:-1.94324212192 13:0.206595646793 14:1.34922318095 15:1.82040319202 16:2.49531400966 17:-2.34871734945 18:0.166527701929 19:1.39178961634 20:1.93707833614 21:2.54042791926 22:-8.06608330078 23:-1.29129471361 24:2.75435465912 25:7.58646958824 26:6.99261621433 27:-7.51749080836 28:0.0345487997022 29:4.88483282474 30:23.8615917257 
10 1:34.0734724098 2:17.7540625268 3:23.149624233 4:5.58596919753 5:31.2030518758 6:4.69004517618 7:-6.00139525697 8:-1.02299121555e-15 9:3.229707698 10:10.4310118145 11:2.39450072989 12:-2.07088552791 13:0.214996948233 14:1.39040702552 15:1.93323169662 16:2.81093670058 17:-2.65257883003 18:0.152245634585 19:1.53089213213 20:2.34363072023 21:2.49211843889 22:-8.37938871648 23:-1.34615954223 24:2.83763550054 25:8.0521752339 26:7.01451045502 27:-7.59936609329 28:0.00323361149848 29:4.87026782696 30:23.7195087063 
10 1:33.5752664376 2:17.9027106797 3:23.084402471 4:5.36546576506 5:28.7882228761 6:4.45190829697 7:-5.68012805173 8:-4.9167019662e-16 9:3.07603588737 10:9.46199678039 11:2.27618817601 12:-1.95055298049 13:0.218871510379 14:1.33098343547 15:1.77151690549 16:2.51065173757 17:-2.39551328465 18:0.135631443655 19:1.38729207456 20:1.92457930015 21:2.80495464171 22:-8.67469755329 23:-1.39379126977 24:2.97859679509 25:8.87203886772 26:7.05622409244 27:-7.50662674149 28:0.0198564135368 29:4.86099338074 30:23.6292566476 
10 1:33.6188021555 2:17.8592174554 3:23.0738513242 4:5.39474830097 5:29.1033092308 6:4.40288882427 7:-5.60497446021 8:-9.3575940647e-16 9:3.05202335157 10:9.31484653855 11:2.25586324865 12:-1.90415260381 13:0.214402178269 14:1.32350225391 15:1.75165821611 16:2.58038035888 17:-2.44235726789 18:0.164132758604 19:1.4410435022 20:2.07660637522 21:2.56563283512 22:-8.52518531711 23:-1.36369061288 24:2.89192859986 25:8.36325102667 26:7.01751870354 27:-7.54706867136 28:0.00682550625938 29:4.87429216787 30:23.7587241378 
10 1:32.5638716054 2:18.1551068486 3:22.9200496501 4:4.93441113358 5:24.3484132352 6:4.01951876315 7:-5.11075936153 8:-4.99600361081e-16 9:2.79419134496 10:7.80750527225 11:2.074834457 12:-1.74265696741 13:0.210863884589 14:1.22481000686 15:1.50015955291 16:2.13246039192 17:-2.07337110397 18:0.158838468371 19:1.25040380603 20:1.56350967814 21:2.24174814436 22:-8.47222577278 23:-1.34885183941 24:2.81987056784 25:7.9516700194 26:7.02721607489 27:-7.58618112356 28:-0.0138751105405 29:4.88649661182 30:23.8778491373 
10 1:30.6758240851 2:17.8536791034 3:22.1122963367 4:4.38898756884 5:19.2632118795 6:3.13256777038 7:-3.88071750625 8:-7.13714801545e-16 9:2.25166895225 10:5.07001307051 11:1.57526286747 12:-1.15788456703 13:0.199210951951 14:1.008499722 15:1.01707168927 16:2.32867309037 17:-2.14323540506 18:0.16459235094 19:1.29806805043 20:1.68498066356 21:2.68829826323 22:-8.07045559888 23:-1.3008257581 24:2.77277668682 25:7.688290555 26:6.67629437639 27:-7.54884838301 28:0.0100186428691 29:4.7223844582 30:22.300914971 
10 1:33.0853141498 2:15.4498362694 3:21.3007607107 4:6.02913436787 5:36.3504612258 6:4.74068351891 7:-5.99919145633 8:-8.80248255239e-16 9:3.29313962695 10:10.8447686026 11:2.45242351069 12:-2.0779451581 13:0.202106270055 14:1.42180862322 15:2.02153976106 16:2.21112333235 17:-2.03525358201 18:0.0743331014159 19:1.14907491325 20:1.32037315626 21:4.07277900467 22:-7.59083216664 23:-1.24213430018 24:3.02448987087 25:9.14753897899 26:6.70434540527 27:-7.27581703221 28:0.0149791160963 29:4.5501556922 30:20.7039168232 
10 1:33.1790029496 2:18.0049955814 3:23.0223262993 4:5.19613028773 5:26.999769967 6:4.30393969901 7:-5.49579273736 8:-8.80248255239e-16 9:2.97966329253 10:8.87839333686 11:2.2105139838 12:-1.86833756833 13:0.20773751502 14:1.29582675273 15:1.67916697308 16:2.60824793563 17:-2.48297726387 18:0.204075496029 19:1.51435141859 20:2.29326021899 21:2.08002204604 22:-8.46543788462 23:-1.33822414662 24:2.80316384093 25:7.85772751909 26:7.07488353668 27:-7.72678158159 28:-0.0331426941109 29:4.94268114434 30:24.4300968946 
10 1:33.1186328201 2:17.6309124423 3:22.7535558991 4:5.30263324182 5:28.1179192973 6:4.36298791028 7:-5.5629842644 8:-3.25136742926e-16 9:3.02195651857 10:9.13222120014 11:2.24178214331 12:-1.89689441757 13:0.211658410584 14:1.31355736498 15:1.7254329511 16:2.5202295327 17:-2.40031132894 18:0.180806532191 19:1.44408101667 20:2.08536998271 21:2.40478910909 22:-8.51562044051 23:-1.35316213391 24:2.86879558819 25:8.22998812683 26:6.94231345851 27:-7.64803140469 28:-0.0157671320124 29:4.89295090804 30:23.9409685885 
10 1:32.441249761 2:17.6187589052 3:22.644483718 4:5.07093114011 5:25.7143426277 6:3.3842295623 7:-2.88587501804 8:-7.69225952776e-16 9:1.76574866047 10:3.11786833197 11:2.79555055258 12:-3.35539433081 13:-2.53765262771e-16 14:2.07097489481 15:4.28893701493 16:1.58221469412 17:-1.0365041019 18:0.228410637727 19:0.823917499469 20:0.678840045932 21:5.02320990783 22:-8.4631310754 23:-0.981071278348 24:4.79606422778 25:23.002232077 26:4.52568026526 27:-7.64888140487 28:-0.00639093687984 29:3.82177695895 30:14.605979124 
