10:44:27		x: 943.63
10:44:27		x: 943.68
10:44:27		x: 943.68
10:44:28		x: 943.63
10:44:28		x: 943.7
10:44:28		x: 943.65
10:44:28		x: 943.67
10:44:28		x: 943.69
10:44:28		x: 943.68
10:44:29		x: 943.68
10:44:29		x: 943.65
10:44:29		x: 943.67
10:44:29		x: 943.71
10:44:29		x: 943.69
10:44:30		x: 943.71
10:44:30		x: 943.7
10:44:30		x: 943.65
10:44:30		x: 943.7
10:44:30		x: 943.74
10:44:30		x: 943.72
10:44:31		x: 943.72
10:44:31		x: 943.67
10:44:31		x: 943.73
10:44:31		x: 943.74
10:44:31		x: 943.68
10:44:31		x: 943.69
10:44:32		x: 943.71
10:44:32		x: 943.73
10:44:32		x: 943.69
10:44:32		x: 943.72
10:44:32		x: 943.69
10:44:33		x: 943.66
10:44:33		x: 943.76
10:44:33		x: 943.76
10:44:33		x: 943.8
10:44:33		x: 943.77
10:44:33		x: 943.82
10:44:34		x: 943.69
10:44:34		x: 943.79
10:44:34		x: 943.75
10:44:34		x: 943.69
10:44:34		x: 943.74
10:44:35		x: 943.79
10:44:35		x: 943.76
10:44:35		x: 943.71
10:44:35		x: 943.72
10:44:35		x: 943.72
10:44:35		x: 943.72
10:44:36		x: 943.74
10:44:36		x: 943.73
10:44:36		x: 943.73
10:44:36		x: 943.69
10:44:36		x: 943.68
10:44:37		x: 943.71
10:44:37		x: 943.67
10:44:37		x: 943.76
10:44:37		x: 943.73
10:44:37		x: 943.75
10:44:37		x: 943.71
10:44:38		x: 943.73
10:44:38		x: 943.68
10:44:38		x: 943.75
10:44:38		x: 943.76
10:44:38		x: 943.72
10:44:39		x: 943.74
10:44:39		x: 943.74
10:44:39		x: 943.71
10:44:39		x: 943.76
10:44:39		x: 943.74
10:44:39		x: 943.66
10:44:40		x: 943.71
10:44:40		x: 943.67
10:44:40		x: 943.75
10:44:40		x: 943.73
10:44:40		x: 943.75
10:44:41		x: 943.74
10:44:41		x: 943.66
10:44:41		x: 943.74
10:44:41		x: 943.72
10:44:41		x: 943.68
10:44:41		x: 943.71
10:44:42		x: 943.72
10:44:42		x: 943.77
10:44:42		x: 943.71
10:44:42		x: 943.7
10:44:42		x: 943.74
10:44:42		x: 943.72
10:44:43		x: 943.69
10:44:43		x: 943.74
10:44:43		x: 943.75
10:44:43		x: 943.73
10:44:43		x: 943.73
10:44:44		x: 943.73
10:44:44		x: 943.73
10:44:44		x: 943.76
10:44:44		x: 943.73
10:44:44		x: 943.76
10:44:44		x: 943.71
10:44:45		x: 943.74
10:44:45		x: 943.76
10:44:45		x: 943.75
10:44:45		x: 943.73
10:44:45		x: 943.71
10:44:46		x: 943.73
10:44:46		x: 943.77
10:44:46		x: 943.74
10:44:46		x: 943.74
10:44:46		x: 943.77
10:44:46		x: 943.73
10:44:47		x: 943.78
10:44:47		x: 943.73
10:44:47		x: 943.73
10:44:47		x: 943.69
10:44:47		x: 943.8
10:44:48		x: 943.72
10:44:48		x: 943.72
10:44:48		x: 943.72
10:44:48		x: 943.76
10:44:48		x: 943.77
10:44:48		x: 943.74
10:44:49		x: 943.64
10:44:49		x: 943.74
10:44:49		x: 943.7
10:44:49		x: 943.8
10:44:49		x: 943.74
10:44:50		x: 943.74
10:44:50		x: 943.7
10:44:50		x: 943.75
10:44:50		x: 943.72
10:44:50		x: 943.71
10:44:50		x: 943.68
10:44:51		x: 943.71
10:44:51		x: 943.7
10:44:51		x: 943.73
10:44:51		x: 943.73
10:44:51		x: 943.77
10:44:51		x: 943.72
10:44:52		x: 943.64
10:44:52		x: 943.71
10:44:52		x: 943.7
10:44:52		x: 943.71
10:44:52		x: 943.74
10:44:53		x: 943.71
10:44:53		x: 943.74
10:44:53		x: 943.69
10:44:53		x: 943.71
10:44:53		x: 943.67
10:44:53		x: 943.73
10:44:54		x: 943.79
10:44:54		x: 943.71
10:44:54		x: 943.64
10:44:54		x: 943.73
10:44:54		x: 943.68
10:44:55		x: 943.75
10:44:55		x: 943.72
10:44:55		x: 943.73
10:44:55		x: 943.69
10:44:55		x: 943.73
10:44:55		x: 943.74
10:44:56		x: 943.66
10:44:56		x: 943.74
10:44:56		x: 943.76
10:44:56		x: 943.77
10:44:56		x: 943.72
10:44:57		x: 943.74
10:44:57		x: 943.76
10:44:57		x: 943.76
10:44:57		x: 943.77
10:44:57		x: 943.79
10:44:57		x: 943.72
10:44:58		x: 943.78
10:44:58		x: 943.72
10:44:58		x: 943.75
10:44:58		x: 943.74
10:44:58		x: 943.72
10:44:59		x: 943.73
10:44:59		x: 943.77
10:44:59		x: 943.71
10:44:59		x: 943.81
10:44:59		x: 943.76
10:44:59		x: 943.77
10:45:00		x: 943.81
10:45:00		x: 943.82
10:45:00		x: 943.76
10:45:00		x: 943.8
10:45:00		x: 943.8
10:45:00		x: 943.75
10:45:01		x: 943.76
10:45:01		x: 943.71
10:45:01		x: 943.74
10:45:01		x: 943.67
10:45:01		x: 943.71
10:45:02		x: 943.75
10:45:02		x: 943.71
10:45:02		x: 943.73
10:45:02		x: 943.69
10:45:02		x: 943.7
10:45:02		x: 943.7
10:45:03		x: 943.63
10:45:03		x: 943.7
10:45:03		x: 943.64
10:45:03		x: 943.64
10:45:03		x: 943.69
10:45:04		x: 943.7
10:45:04		x: 943.69
