21:27:57	 Latitud: 54.57877302	Longitud: -5.93948232
21:28:03	 Latitud: 54.57867464	Longitud: -5.93954928
21:28:10	 Latitud: 54.57857274	Longitud: -5.93958877
21:28:17	 Latitud: 54.57848272	Longitud: -5.93964627
21:28:25	 Latitud: 54.57843378	Longitud: -5.93979379
21:28:32	 Latitud: 54.57837472	Longitud: -5.93991865
21:28:38	 Latitud: 54.57831609	Longitud: -5.94004325
21:28:46	 Latitud: 54.57826028	Longitud: -5.94017154
21:28:52	 Latitud: 54.57821224	Longitud: -5.94030315
21:28:59	 Latitud: 54.57814288	Longitud: -5.94041675
21:29:06	 Latitud: 54.57808402	Longitud: -5.94055148
21:29:12	 Latitud: 54.57803129	Longitud: -5.94069299
21:29:19	 Latitud: 54.57797373	Longitud: -5.94083114
21:29:25	 Latitud: 54.5779152	Longitud: -5.9409506499999996
21:29:31	 Latitud: 54.57785973	Longitud: -5.94107444
21:29:38	 Latitud: 54.57780581	Longitud: -5.94120541
21:29:45	 Latitud: 54.57774824	Longitud: -5.94133615
21:29:52	 Latitud: 54.57769655	Longitud: -5.94147981
21:30:00	 Latitud: 54.57762026	Longitud: -5.94158747
21:30:07	 Latitud: 54.577558	Longitud: -5.94172572
21:30:13	 Latitud: 54.57750617	Longitud: -5.94186099
21:30:20	 Latitud: 54.57745529	Longitud: -5.94199499
21:30:27	 Latitud: 54.57738897	Longitud: -5.94213079
21:30:33	 Latitud: 54.57732479	Longitud: -5.9422767
21:30:40	 Latitud: 54.57725976	Longitud: -5.94239734
21:30:46	 Latitud: 54.57718423	Longitud: -5.94252351
21:30:54	 Latitud: 54.5771056	Longitud: -5.94261943
21:31:01	 Latitud: 54.57702985	Longitud: -5.94271207
21:31:07	 Latitud: 54.57695939	Longitud: -5.94282676
21:31:15	 Latitud: 54.57688464	Longitud: -5.94295046
21:31:22	 Latitud: 54.57681124	Longitud: -5.94306719
21:31:30	 Latitud: 54.57674047	Longitud: -5.94318572
21:31:37	 Latitud: 54.57664514	Longitud: -5.94313215
21:31:44	 Latitud: 54.5765816	Longitud: -5.94301797
21:31:52	 Latitud: 54.57651459	Longitud: -5.94289108
21:32:00	 Latitud: 54.57645586	Longitud: -5.94275673
21:32:06	 Latitud: 54.5763744	Longitud: -5.94268503
21:32:13	 Latitud: 54.57629386	Longitud: -5.9425829
21:32:21	 Latitud: 54.57622665	Longitud: -5.94246219
21:32:29	 Latitud: 54.57617497	Longitud: -5.942311
21:32:36	 Latitud: 54.57612063	Longitud: -5.94216618
21:32:43	 Latitud: 54.57610411	Longitud: -5.9420119
21:32:51	 Latitud: 54.57607864	Longitud: -5.94184121
21:33:05	 Latitud: 54.57602259	Longitud: -5.94170928
21:33:11	 Latitud: 54.57598204	Longitud: -5.9415448
21:33:17	 Latitud: 54.57597116	Longitud: -5.94136168
21:33:23	 Latitud: 54.57593849	Longitud: -5.94119737
21:33:35	 Latitud: 54.57597378	Longitud: -5.94104052
