17:56:57		x: -0.058337633	y: 0.044593163	z: -0.009162978
17:56:57		x: 0.018936822	y: -0.10751228	z: -0.0027488936
17:56:57		x: 0.2098322	y: -0.14508049	z: -0.38820487
17:56:57		x: -0.14996742	y: -0.01863139	z: -0.007330383
17:56:58		x: -0.12217305	y: -0.11484267	z: 0.19425514
17:56:58		x: -0.008552114	y: 0.19272798	z: -0.015271631
17:56:58		x: 0.025350908	y: -0.2724459	z: 0.020158553
17:56:58		x: -0.15882497	y: 9.162979E-4	z: 0.006414085
17:56:58		x: 0.6096435	y: -0.11911872	z: -0.057726767
17:56:58		x: -1.142318	y: -0.21960606	z: -0.72051555
17:57:05		x: -0.28313604	y: -0.16890424	z: 0.20280726
17:57:05		x: -0.12889257	y: -0.16890424	z: 0.0580322
17:57:05		x: 0.067500606	y: -0.052534413	z: -0.002443461
17:57:05		x: 0.052534413	y: 0.01985312	z: -0.09132435
17:57:05		x: 0.5519168	y: 0.0983493	z: -0.04886922
17:57:05		x: -0.12461651	y: 0.17195857	z: 0.017104227
17:57:06		x: -0.10293079	y: -0.14110987	z: -0.095294975
17:57:06		x: 0.22479841	y: 0.22388211	z: 0.046731193
17:57:06		x: 0.040927973	y: -0.09101892	z: 0.02321288
17:57:06		x: 0.07452556	y: 0.16707164	z: 0.010995574
17:57:06		x: -0.06291912	y: 0.01985312	z: -0.1872302
17:57:07		x: -0.17684549	y: 0.01985312	z: 0.017104227
17:57:07		x: -0.025961773	y: -0.11209377	z: 0.015271631
17:57:07		x: -0.18997909	y: 0.004581489	z: -0.0012217305
