2 1:34.073055009 2:20.5161326976 3:24.9834080556 4:4.64513903047 5:21.5773166124 6:4.15914999648 7:-5.37606254007 8:-2.22044604925e-16 9:2.84324520218 10:8.08404327969 11:2.14760417147 12:-1.92050973677 13:0.190703068107 14:1.23776322016 15:1.53205778918 16:2.03957593344 17:-2.02267589599 18:0.158463277628 19:1.26186148984 20:1.59229441953 21:2.44792544241 22:-8.01999658174 23:-1.25364335425 24:2.80981024663 25:7.89503362207 26:4.99900426546 27:-6.94373892212 28:-0.141669598872 29:4.4393586131 30:19.7079048957 
2 1:34.8199465266 2:20.7022036546 3:25.3613886219 4:4.83475181466 5:23.3748251093 6:4.24179543062 7:-5.47089955504 8:-8.72318090777e-17 9:2.90330223717 10:8.42916388038 11:2.1738998022 12:-1.92075104912 13:0.183911120213 14:1.25200290816 15:1.56751128203 16:2.409548825 17:-2.29863062298 18:0.179517795245 19:1.41873173745 20:2.01279974285 21:1.96457856332 22:-7.61795609323 23:-1.19224102912 24:2.69500327128 25:7.26304263223 26:4.48239460053 27:-6.75723223731 28:-0.201842712744 29:4.18627436457 30:17.5248930554 
2 1:33.0534197142 2:20.559098944 3:24.652679251 4:4.28412075477 5:18.3536906414 6:4.34908281905 7:-5.722994292 8:-3.80647894157e-16 9:2.92412121612 10:8.55048488656 11:2.1725171374 12:-2.08549001783 13:0.18369742187 14:1.25194902747 15:1.56737636737 16:2.82533622672 17:-2.73813223995 18:0.110342815662 19:1.56449500237 20:2.44764461245 21:2.06406722307 22:-7.73010388589 23:-1.2293263318 24:2.69760783072 25:7.27708800836 26:8.22838878446 27:-10.6116919003 28:0.00504460396207 29:5.53701140636 30:30.6584953142 
2 1:24.950965737 2:-37.5669832083 3:3.87364784055 4:21.2631820149 5:452.122909399 6:14.6864101159 7:-12.3038054195 8:6.34413156929e-17 9:9.12841935345 10:83.3280398925 11:5.71561341136 12:-7.47768496713 13:0.04151899474 14:4.66429955776 15:21.7556903646 16:4.63203998928 17:-5.13145142856 18:-0.0653410876486 19:3.22256457176 20:10.3849224192 21:0.713117695711 22:-11.6085921879 23:-1.78434430025 24:3.67573091665 25:13.5109977716 26:7.41314348902 27:-13.1823568456 28:-1.04371430291 29:6.1174490867 30:37.4231833284 
2 1:-25.1678215365 2:-42.9534939946 3:-36.9293016761 4:6.06724168816 5:36.8114217025 6:3.906915921 7:-2.82807038802 8:7.25610048237e-16 9:2.22368516339 10:4.9447757059 11:2.57071659496 12:-2.40897555406 13:0.118514401917 14:1.46283253231 15:2.13987901759 16:3.26660574114 17:-1.62191683768 18:0.442063838016 19:1.43493564116 20:2.05904029428 21:7.36366257369 22:-7.49198104544 23:-0.730434226449 24:4.20310100247 25:17.6660580369 26:3.71865415748 27:-5.47254484269 28:-0.40532078637 29:3.53382346435 30:12.4879082772 
2 1:-12.9310054117 2:-18.5305859323 3:-16.6252240679 4:1.89465803303 5:3.58972906212 6:0.994660984382 7:-1.023288158 8:3.33066907388e-16 9:0.745047016732 10:0.555095057141 11:0.879047621 12:-0.84296249011 13:-0.0609731505612 14:0.524770768804 15:0.275384359791 16:4.28325245122 17:-4.83906386408 18:-0.254678839555 19:2.64720420282 20:7.00769009145 21:5.07255993652 22:-2.78382444841 23:0.764425715576 24:2.55039659912 25:6.5045228128 26:6.71755624275 27:-10.0409677707 28:0.913712369788 29:5.92207217424 30:35.0709388369 
2 1:-7.62625202519 2:-23.5065243428 3:-12.9294340536 4:5.42717649538 5:29.454244712 6:4.74580719835 7:-3.79501058097 8:8.04911692853e-16 9:2.71632765925 10:7.37843595242 11:1.90903339187 12:-2.38469083792 13:-0.06339352818 14:1.39757645059 15:1.95321993524 16:2.12975290066 17:-2.97019093278 18:-0.35843011653 19:1.54958681434 20:2.40121929518 21:3.94753120499 22:-2.40376469156 23:0.467635764113 24:1.95645497646 25:3.8277160749 26:6.8411577781 27:-9.94833957022 28:1.09399740528 29:6.46183302305 30:41.7552860178 
2 1:-29.8524755118 2:-31.0650451899 3:-30.6113909368 4:0.416320031965 5:0.173322369016 6:2.02102005112 7:-1.25675229781 8:5.63041676774e-16 9:1.01240336389 10:1.02496057122 11:1.33671562662 12:-0.996602665101 13:0.172008385282 14:0.843361451836 15:0.711258538443 16:2.68615839281 17:-2.23458151681 18:-0.254329018476 19:1.62907409787 20:2.65388241636 21:3.18833538614 22:-4.00043506604 23:-0.804380700395 24:2.2231828917 25:4.94254216996 26:8.23346326514 27:-11.4311453012 28:0.792578097722 29:5.58706086998 30:31.2152491649 
2 1:-22.5322491062 2:-23.2914317133 3:-22.8747283826 4:0.262026930022 5:0.0686581120569 6:2.14815333605 7:-3.30726381224 8:4.79774949927e-16 9:1.58986621127 10:2.52767456974 11:1.18487936686 12:-1.47589542343 13:-0.0981606683248 14:0.850616052268 15:0.723547668376 16:3.94634683719 17:-3.70788857322 18:0.155085038378 19:2.0353869317 20:4.14279996175 21:4.05403248794 22:-4.26308248542 23:0.529885048377 24:2.36213333718 25:5.5796739026 26:6.85083060997 27:-7.94332647674 28:0.223879110238 29:4.83696790504 30:23.3962585144 
2 1:-17.5005422425 2:-22.9472332108 3:-19.3234222463 4:1.87118693602 5:3.50134054952 6:1.18082117341 7:-1.33321868613 8:5.55111512313e-17 9:0.86934779152 10:0.75576558262 11:0.792388907722 12:-0.868508569637 13:-0.0595546198819 14:0.538528046537 15:0.290012456907 16:1.22142037612 17:-2.77789738861 18:-0.326897999668 19:1.08948460845 20:1.18697671205 21:4.88475665634 22:-2.19812567821 23:0.634518116681 24:2.08869608821 25:4.36265134891 26:5.57784056602 27:-9.27453838186 28:0.380593175566 29:5.03519935984 30:25.3532325934 
2 1:-25.0938530991 2:-26.9147611113 3:-25.7076769482 4:0.614243656103 5:0.377295269062 6:0.568231590988 7:-0.457106766908 8:-7.93016446161e-17 9:0.37108268976 10:0.137702362639 11:0.241942455691 12:-0.184628529781 13:0.0125226385994 14:0.140610807326 15:0.0197713991368 16:1.92168822531 17:-0.813832009066 18:0.22999617295 19:0.744461313443 20:0.554222647214 21:2.84215909878 22:-2.59240870536 23:-0.135297785888 24:1.51029703366 25:2.28099712987 26:5.65858691553 27:-6.55402082908 28:0.960959345064 29:4.2714410078 30:18.2452082831 
2 1:-24.5718506247 2:-55.0087148775 3:-34.5435921352 4:10.4116885604 5:108.403258678 6:16.4127648271 7:-12.1458508779 8:1.5701725634e-15 9:8.05087122397 10:64.816527465 11:6.77107676006 12:-6.4567663038 13:-0.0308356028619 14:3.72478788039 15:13.8740447539 16:5.29725002544 17:-5.5075373005 18:-0.372922603396 19:3.06064466443 20:9.36754576192 21:3.33952262529 22:-2.87247517913 23:0.0290699512102 24:1.82499073418 25:3.33059117986 26:6.62293303776 27:-9.74213117627 28:0.977363662218 29:5.45119991081 30:29.7155804676 
2 1:-35.6052833352 2:-38.1078136693 3:-36.6512786108 4:0.783053592726 5:0.613172929081 6:6.99251388978 7:-4.84965371895 8:3.48927236311e-16 9:3.31303690348 10:10.9762135238 11:3.63251339607 12:-3.64767278404 13:-0.255060147457 14:2.55774892853 15:6.54207958138 16:9.29932154926 17:-2.94809495661 18:1.19309587383 19:3.46449506477 20:12.0027260538 21:6.50668946339 22:-4.01279225971 23:1.32291831388 24:3.13209615992 25:9.81002635496 26:8.4582206369 27:-13.1685055727 28:0.489794702047 29:6.65358894824 30:44.2702458921 
2 1:-25.6902014855 2:-26.9324694458 3:-26.4902717144 4:0.443204569535 5:0.196430290457 6:0.242446245442 7:-0.363302213007 8:4.75809867696e-16 9:0.221657142863 10:0.0491318889823 11:0.736170591482 12:-1.25568223171 13:-0.164345260494 14:0.597716497054 15:0.357265010851 16:3.76557359958 17:-1.83947646715 18:0.478324027631 19:1.65093679056 20:2.72559228641 21:6.73396321796 22:-5.34005728624 23:1.2705278902 24:3.13604894138 25:9.83480296273 26:9.46061566655 27:-10.3017368322 28:0.998921623627 29:6.09745017092 30:37.1788985869 
2 1:-23.4598029408 2:-42.9925654008 3:-29.8716041196 4:6.68046066274 5:44.6285546665 6:10.0739289295 7:-7.48866868266 8:1.16573417586e-15 9:4.97189113432 10:24.7197014515 11:4.0569755934 12:-3.94744932985 13:-0.027292004661 14:2.26115197357 15:5.11280824758 16:3.59734524643 17:-3.84181565506 18:-0.268581774414 19:2.13608335322 20:4.56285209192 21:4.25535215424 22:-3.61290478578 23:0.093247005313 24:2.1315663206 25:4.5435749791 26:8.39125598242 27:-6.92123366085 28:1.28960628794 29:4.60317237272 30:21.189195893 
2 1:-29.4715920519 2:-35.2012292407 3:-33.1419165375 4:1.92855890921 5:3.71933946628 6:2.48421289416 7:-1.94911722399 8:1.58603289232e-16 9:1.39282484567 10:1.93996105072 11:1.57090473944 12:-1.9002586963 13:-0.0583459953548 14:1.15089451769 15:1.32455819085 16:1.98344145368 17:-2.34246370738 18:0.0632336717773 19:1.12178305001 20:1.2583972113 21:4.44982967036 22:-4.36072513634 23:0.602643471639 24:2.63112293004 25:6.92280787296 26:8.70165452125 27:-13.3350121076 28:0.00398545916996 29:6.33141515161 30:40.086817822 
2 1:-23.6528202546 2:-24.1708608349 3:-23.9041333391 4:0.18654038371 5:0.0347973147548 6:2.03198792834 7:-3.12316763211 8:4.4408920985e-16 9:1.49854794025 10:2.24564592922 11:1.36172039709 12:-1.69472304505 13:-0.1230757656 14:0.991211265648 15:0.982499773147 16:1.05665382504 17:-0.70532106147 18:0.129858859973 19:0.575108764267 20:0.330750090737 21:5.77120101406 22:-3.1931603702 23:1.01406988357 24:2.85958067577 25:8.17720164123 26:9.5719858162 27:-8.1168644341 28:1.18309258871 29:5.489391432 30:30.1334182937 
2 1:-23.7011118543 2:-35.1477363105 3:-27.4363914873 4:3.92239235568 5:15.3851617919 6:6.67007515181 7:-4.89219527586 8:5.63041676774e-16 9:3.2482516215 10:10.5511385966 11:2.846322676 12:-2.70355137941 13:0.00754090495903 14:1.56519668184 15:2.44984065285 16:1.61396087906 17:-2.3949455057 18:-0.273326302551 19:1.19772769809 20:1.43455163877 21:4.06618410746 22:-3.09571572182 23:0.0657642664179 24:2.08583932108 25:4.35072567338 26:7.66210763257 27:-5.41476644243 28:1.31758104214 29:4.20034554957 30:17.6429027358 
2 1:-26.4794885714 2:-31.6487267017 3:-29.7811336486 4:1.7490484274 5:3.0591704014 6:2.85268386274 7:-1.9836584946 8:2.81520838387e-16 9:1.52724842585 10:2.33248775427 11:1.73140916498 12:-2.23941237732 13:-0.012171173782 14:1.30174586341 15:1.69454229291 16:1.60950799242 17:-2.21057711052 18:0.247379566925 19:1.13953059265 20:1.29852997158 21:4.60047125544 22:-4.74555248669 23:0.178647276304 24:2.48308620983 25:6.16571712547 26:7.10564030394 27:-11.2109007103 28:0.450386835992 29:5.4606533207 30:29.8187346889 
2 1:-21.4127150634 2:-22.3584467374 3:-21.7814055615 4:0.329066502384 5:0.108284762991 6:1.36648402539 7:-2.1371685226 8:5.35286101159e-16 9:1.05498597487 10:1.11299540718 11:1.31137350512 12:-1.35805310986 13:-0.123114617769 14:0.852913356836 15:0.727461194269 16:0.851636461675 17:-1.22587104595 18:-0.0947500585365 19:0.707637631159 20:0.500751017033 21:6.14391353128 22:-3.67680131815 23:0.99129742094 24:2.66710838434 25:7.11346713383 26:8.09507523118 27:-7.91851341912 28:0.943425474673 29:5.27701712416 30:27.8469097287 
2 1:-23.3995695219 2:-26.862936786 3:-24.5137649469 4:1.1961344657 5:1.43073766003 6:2.53814437559 7:-1.81751999269 8:2.69625591695e-16 9:1.2327289085 10:1.51962056184 11:1.11906866811 12:-1.0760594399 13:0.0193035741139 14:0.625855524066 15:0.391695137004 16:1.42880563325 17:-2.38175992018 18:-0.271208544597 19:1.01206687623 20:1.02427936196 21:3.30570910566 22:-2.74651778939 23:0.170157949091 24:1.8191799261 25:3.30941560353 26:6.28188887758 27:-4.7802692643 28:1.1063982334 29:3.81445056117 30:14.5500330836 
2 1:-29.1106097076 2:-31.9584286002 3:-29.9809623767 4:0.983091082163 5:0.966468075828 6:3.93139051848 7:-2.72726734262 8:3.9650822308e-16 9:1.84383915838 10:3.39974284198 11:1.97169256951 12:-1.51960463783 13:0.0572096182256 14:1.08251658811 15:1.17184216353 16:0.69154018078 17:-1.01991330132 18:0.0315421931507 19:0.485013068707 20:0.235237676816 21:2.58171064338 22:-2.31645163054 23:-0.343298659132 24:1.69969325318 25:2.88895715492 26:5.53155388437 27:-7.89998164729 28:0.422604149737 29:4.15496612765 30:17.2637435219 
2 1:-24.4967190196 2:-33.2834183869 3:-30.2561381116 4:2.97631298833 5:8.85843900449 6:1.75056172091 7:-1.90172109769 8:1.58603289232e-17 9:1.02407588712 10:1.04873142257 11:1.29907823258 12:-1.51632867979 13:0.0525100327396 14:0.796585662963 15:0.634548718438 16:3.21206623642 17:-2.6355914282 18:-0.0971637297833 19:1.88406303057 20:3.54969350316 21:5.29037234597 22:-6.11210891206 23:0.0790471310149 24:3.16076854614 25:9.99045780229 26:7.63118070126 27:-9.38284877785 28:0.535025659675 29:5.38276982966 30:28.9742110391 
2 1:-22.5931414563 2:-26.2891241883 3:-23.8623328885 4:1.27913374434 5:1.6361831359 6:0.863607197903 7:-1.03808753104 8:1.58603289232e-17 9:0.670030875077 10:0.448941373556 11:1.34049571887 12:-1.12373218546 13:-0.049464912735 14:0.682791469589 15:0.466204190943 16:1.84030969531 17:-4.74819194415 18:-0.566167832591 19:1.80312478446 20:3.25125898832 21:4.79500617112 22:-3.83662558822 23:0.545531746493 24:2.56510154591 25:6.57974594083 26:9.40861087651 27:-11.9995300572 28:0.82366697279 29:5.62576652228 30:31.6492489632 
2 1:-27.5280069514 2:-28.2360121192 3:-27.9456479425 4:0.237415501319 5:0.0563661202664 6:0.647135082767 7:-0.685907089532 8:1.3639882874e-15 9:0.449012422399 10:0.201612155469 11:0.392293384407 12:-0.44960622672 13:0.0116593454308 14:0.242849769367 15:0.0589760104817 16:2.22840141569 17:-4.75346349266 18:-0.561122082122 19:2.1831202209 20:4.7660138989 21:2.40418621386 22:-2.29032973192 23:0.18043890398 24:1.48439986558 25:2.20344296093 26:6.77400354787 27:-7.09719467962 28:1.10838858368 29:4.43699145612 30:19.6868931817 
2 1:-23.3512445639 2:-26.1578944251 3:-24.290883497 4:0.955300971721 5:0.912599946571 6:0.669613890702 7:-0.572345934885 8:1.22124532709e-15 9:0.435844593522 10:0.189960509702 11:0.358155586078 12:-0.372971937943 13:-0.0350678538987 14:0.22251087827 15:0.0495110909486 16:1.6587236989 17:-1.48011737512 18:0.145553698272 19:0.927803951551 20:0.860820172514 21:3.15597195575 22:-3.51737795388 23:0.123645917707 24:1.66663152759 25:2.77766064876 26:3.83632229218 27:-8.63381365973 28:-0.0789578928363 29:3.6953292811 30:13.6554584957 
2 1:-23.0091480121 2:-23.194554507 3:-23.1106157758 4:0.0618281540364 5:0.00382272063155 6:0.888316555444 7:-1.33931227943 8:8.16806939546e-16 9:0.662357841585 10:0.43871791031 11:0.750684468221 12:-0.70378419925 13:-0.0431310341033 14:0.450101354081 15:0.202591228945 16:0.578935657906 17:-1.3277866045 18:-0.158306308361 19:0.566539214993 20:0.320966682125 21:2.65582563517 22:-0.696721720653 23:0.361599994629 24:0.96796752048 25:0.936961120704 26:5.31394640898 27:-7.64387941804 28:0.224526962274 29:4.15635626787 30:17.2752974254 
2 1:-28.0624702144 2:-28.2631213687 3:-28.1547451247 4:0.0758803789605 5:0.00575783191119 6:1.68609576962 7:-1.0961510706 8:5.98727416851e-16 9:0.808530064969 10:0.653720865959 11:0.971588591931 12:-0.711953845773 13:0.0881114218566 14:0.573210351412 15:0.328570106966 16:1.13269489716 17:-1.09782681648 18:-0.118639079893 19:0.777252018908 20:0.604120700896 21:2.66895652884 22:-2.68895630531 23:-0.418919486393 24:1.87430890355 25:3.51303386594 26:4.09270453876 27:-5.23167533755 28:0.737620980339 29:3.3100741485 30:10.9565908686 
2 1:-27.9787451544 2:-31.1827328607 3:-28.966529958 4:1.11437238442 5:1.24182581117 6:3.80359529311 7:-2.65085362552 8:8.24737104007e-16 9:1.79962214434 10:3.2386398624 11:1.59758995755 12:-1.36434168499 13:0.00930516957598 14:0.843246746006 15:0.71106507465 16:2.24555463623 17:-2.86137340342 18:-0.327586484488 19:1.6729901303 20:2.79889597608 21:1.52159918846 22:-1.89469072237 23:0.068495758397 24:1.17223467454 25:1.37413413221 26:6.79153540483 27:-10.5050725964 28:0.400518537437 29:5.34796524838 30:28.6007322978 
2 1:-25.8973980174 2:-26.8637244432 3:-26.2103197986 4:0.339026763659 5:0.114939146477 6:0.280728559393 7:-0.354913431793 8:1.74463618155e-15 9:0.195167243447 10:0.0380902529145 11:0.14502958417 12:-0.645200840006 13:-0.0905109392801 14:0.25242564928 15:0.0637187084146 16:2.01165855825 17:-1.63010436397 18:0.0883241140644 19:1.02937680389 20:1.05961660439 21:4.36551121504 22:-2.16601983748 23:0.687853026384 24:1.75650245497 25:3.08530087432 26:6.97878611363 27:-8.94798111956 28:1.040705795 29:5.79247136762 30:33.5527245447 
2 1:-24.0090679478 2:-28.4976455702 3:-25.4985625559 4:1.52863946311 5:2.33673860816 6:1.57994760186 7:-1.2533341394 8:-3.01346249541e-16 9:0.871238542156 10:0.759056597337 11:0.512707552085 12:-0.50771878093 13:-0.0592591720668 14:0.313809261865 15:0.0984762528325 16:1.99058488292 17:-1.35748349316 18:0.241889236632 19:1.00183053037 20:1.00366441157 21:2.69123399569 22:-2.82290546395 23:0.278681443455 24:1.46187033581 25:2.13706487873 26:7.39552550579 27:-7.02051911798 28:1.16570330469 29:4.72636337112 30:22.3385107159 
2 1:-27.4438438674 2:-30.1005516029 3:-28.261058131 4:0.927279247402 5:0.859846802662 6:3.09684698187 7:-2.16185361883 8:8.881784197e-16 9:1.47650693522 10:2.18007272975 11:1.32923380541 12:-1.16217386923 13:-0.00635867565245 14:0.702527863189 15:0.493545398556 16:1.78399174968 17:-2.78759472896 18:-0.318302793745 19:1.3634721534 20:1.85905631311 21:1.96758537516 22:-1.96211058593 23:0.152160989905 24:1.2833673195 25:1.64703167676 26:6.87298243891 27:-10.0643892572 28:0.461348641999 29:5.36322147814 30:28.7641446236 
2 1:-22.4657276799 2:-27.649239378 3:-25.915068205 4:1.76450360117 5:3.11347295855 6:1.4604099795 7:-1.90530587513 8:1.66533453694e-16 9:0.988704365535 10:0.977536322428 11:0.721603927202 12:-0.628365547737 13:-0.0333014609274 14:0.47511014915 15:0.225729653826 16:2.37447925567 17:-1.97831185399 18:0.135872502978 19:1.22271091653 20:1.49502198539 21:2.77584732485 22:-1.9605231106 23:0.43671978192 24:1.49150543558 25:2.22458846435 26:6.9244650065 27:-8.16181383253 28:0.825605514202 29:5.31460463956 30:28.2450224748 
2 1:-21.5077889477 2:-26.7314608102 3:-23.2573574171 4:1.77702323796 5:3.15781158825 6:1.52019318266 7:-1.22765896486 8:3.80647894157e-16 9:0.871125215366 10:0.758859140846 11:0.479333958231 12:-0.577153179415 13:-0.0202366588504 14:0.342482600438 15:0.117294331603 16:0.723544602338 17:-0.987004139497 18:0.0847630055743 19:0.57070186846 20:0.325700622663 21:3.61725987374 22:-3.23615900217 23:0.0829757523065 24:1.77837474273 25:3.16261672558 26:6.59109112746 27:-8.9202844868 28:1.15604624357 29:5.08213231156 30:25.8280688322 
2 1:-27.6195900405 2:-34.0711448415 3:-29.6840404458 4:2.22357329693 5:4.94427820682 6:5.23118595314 7:-3.72285303754 8:-1.42742960309e-16 9:2.49488951911 10:6.22447371255 11:2.12894521004 12:-1.94429340881 13:0.0271956241093 14:1.15457298939 15:1.33303878784 16:2.80109500457 17:-3.90784305918 18:-0.451849122009 19:2.18350478414 20:4.76769314238 21:2.73928071701 22:-3.09288806708 23:0.054761880511 24:1.92962591219 25:3.72345616099 26:7.78748977033 27:-11.7967970419 28:0.510682841006 29:5.73075075162 30:32.8415041772 
2 1:-24.7737533107 2:-25.8513717264 3:-25.1739443641 4:0.352615755387 5:0.124337870947 6:0.785471512718 7:-0.607007391263 8:9.67480064316e-16 9:0.397969580322 10:0.158379786862 11:0.609027701183 12:-1.03479276417 13:-0.133428773571 14:0.5231014956 15:0.273635174699 16:2.34163360087 17:-1.46122427685 18:0.310574559361 19:1.27282977548 20:1.62009563734 21:5.28745794904 22:-4.44097737912 23:0.907826153589 24:2.70809621081 25:7.333785087 26:7.76286292758 27:-11.0198572528 28:0.685204499954 29:6.61370690475 30:43.7411190219 
2 1:-22.1659381542 2:-25.7829695667 3:-23.4092621557 4:1.22465628617 5:1.49978301925 6:0.900359331896 7:-0.731059939192 8:4.28228880927e-16 9:0.49339072946 10:0.243434411917 11:0.654385013731 12:-0.495609557979 13:-0.0708539521889 14:0.378299025144 15:0.143110152425 16:1.91044791199 17:-2.26034950858 18:0.226695214222 19:1.36656260758 20:1.86749336043 21:4.87656852946 22:-5.17589311737 23:0.489478313707 24:2.53649817152 25:6.43382297411 26:8.25255719176 27:-10.4872745608 28:1.19948640443 29:5.80253832196 30:33.6694509778 
2 1:-23.9317791386 2:-40.9162080649 3:-29.4254438275 4:5.82742111445 5:33.9588368452 6:11.564570585 7:-8.3718183395 8:4.99600361081e-16 9:5.55144851247 10:30.8185805866 11:4.97996093401 12:-4.51228800644 13:0.0121772601447 14:2.67767748735 15:7.16995672625 16:3.15203969971 17:-3.60628274384 18:-0.405437559648 19:2.26844223781 20:5.14583018629 21:4.37091324299 22:-3.9907739791 23:0.0314971273465 24:2.39646992488 25:5.74306810084 26:7.14963242417 27:-6.89018769046 28:1.07482944565 29:4.73145769419 30:22.3866919119 
2 1:-24.0294776227 2:-30.6510501857 3:-28.2934248005 4:2.23705269978 5:5.00440478158 6:1.96579505554 7:-1.8792772429 8:4.59949538773e-16 9:1.2123992535 10:1.46991194989 11:1.92039683609 12:-2.03650077378 13:-0.105725971281 14:1.2504960111 15:1.56374027377 16:1.9337145608 17:-2.45137090717 18:0.297447965677 19:1.25830877924 20:1.58334098391 21:5.44807410196 22:-3.80839976066 23:0.844197858339 24:2.65891636345 25:7.06983622782 26:6.04119299478 27:-9.79794308356 28:0.207012311967 29:5.50063939743 30:30.2570337806 
2 1:-20.5588692954 2:-23.1679337848 3:-21.465168618 4:0.898164484378 5:0.806699440998 6:0.852972566514 7:-0.81914928613 8:6.34413156929e-17 9:0.599396434558 10:0.359276085761 11:1.16195399594 12:-0.76108334421 13:-0.0796937955197 14:0.608181040911 15:0.369884178524 16:0.933159796239 17:-2.33091761945 18:-0.274020419051 19:0.957386687546 20:0.91658926949 21:5.52023891997 22:-3.55659081658 23:0.796667995734 24:2.6255700737 25:6.8936182119 26:7.27274585911 27:-8.25978137075 28:0.792882176657 29:4.89144719124 30:23.9262556247 
2 1:-21.3662070264 2:-28.2723816072 3:-23.6206647219 4:2.37078553065 5:5.62062403235 6:3.84550747189 7:-2.83255157431 8:9.51619735393e-16 9:1.89542847653 10:3.59264910963 11:1.57307371043 12:-1.56730587945 13:-0.0171421379137 14:0.888938902356 15:0.790212372121 16:1.6055718774 17:-2.59353652499 18:-0.295501121613 19:1.16685832181 20:1.36155834317 21:3.34250508665 22:-3.10519889271 23:0.239536244147 24:2.18036057993 25:4.75397225853 26:6.62762716934 27:-5.76944122268 28:0.901982272198 29:4.17019925164 30:17.3905617984 
2 1:-28.9008625909 2:-32.1659981016 3:-29.8811746897 4:1.13968888668 5:1.29889075842 6:4.93075417386 7:-3.39944065963 8:2.61695427233e-16 9:2.32141323478 10:5.38895940661 11:2.31477344046 12:-1.88176024291 13:0.0529660793431 14:1.23873177254 15:1.53445640429 16:2.13593015542 17:-2.66969053816 18:-0.292383279639 19:1.3463168049 20:1.81256893916 21:2.92619023558 22:-3.29101495138 23:-0.118474950195 24:1.88722727665 25:3.56162679372 26:6.05013616701 27:-9.05740307397 28:0.376237180365 29:5.16749783485 30:26.7030338732 
2 1:-24.9524100112 2:-29.1967753588 3:-27.7062912808 4:1.42960138231 5:2.0437601123 6:0.806736958086 7:-1.12458190447 8:3.17206578464e-16 9:0.658302860058 10:0.433362655561 11:0.836149609722 12:-1.03451710664 13:-0.0010501934601 14:0.604291510164 15:0.365168229256 16:3.21022169186 17:-2.40997838459 18:-0.0569017654253 19:1.76740229621 20:3.12371087666 21:3.79543515433 22:-4.30845622865 23:0.348964695682 24:2.46788700744 25:6.09046628147 26:7.53353423887 27:-9.86363642827 28:0.555712619933 29:5.95227797813 30:35.4296131289 
2 1:-18.4113998731 2:-27.1205100922 3:-21.2857950359 4:2.98978065877 5:8.93878838757 6:3.40434859467 7:-2.62075671156 8:4.75809867696e-16 9:1.82936834324 10:3.34658853524 11:1.23270733037 12:-1.48075488342 13:-0.0863039500405 14:0.858296841848 15:0.736673468726 16:1.81625058393 17:-3.34690191012 18:-0.386938867672 19:1.39754545471 20:1.95313329798 21:5.75293121451 22:-2.22138126446 23:0.75056533585 24:2.42299424989 25:5.87090113501 26:6.70883182021 27:-9.46518677712 28:0.634928569496 29:5.2888210606 30:27.9716282111 
2 1:-25.9223123454 2:-26.7463284924 3:-26.4278504882 4:0.275449218722 5:0.0758722720943 6:1.17734973913 7:-0.752043114612 8:3.72717729696e-16 9:0.57798796529 10:0.33407008802 11:0.484540464428 12:-0.453187771714 13:0.00672511554697 14:0.289040207348 15:0.0835442414637 16:1.1779313432 17:-1.23508825891 18:-0.0253952646732 19:0.76043780602 20:0.578265656824 21:5.25024398796 22:-4.48386879313 23:0.15655621479 24:2.52660410599 25:6.38372830842 26:8.89243056085 27:-10.9244634486 28:0.961789948274 29:5.39237588497 30:29.0777176848 
2 1:-25.0389340308 2:-27.1128407382 3:-25.6993145643 4:0.72296830832 5:0.522683174834 6:1.72351665108 7:-1.21850734992 8:5.55111512313e-16 9:0.85464421919 10:0.730416741395 11:0.819256246333 12:-0.803423375528 13:0.0200549618873 14:0.466132652624 15:0.217279649842 16:1.64835543091 17:-2.70798408914 18:-0.304641257852 19:1.29183486685 20:1.6688373232 21:3.72595630205 22:-3.42907247601 23:0.123129219567 24:2.52131380295 25:6.35702329293 26:5.61940306068 27:-6.88485408685 28:0.711901189766 29:4.01147458535 30:16.0919283489 
2 1:-26.3199889296 2:-28.470853352 3:-27.744708926 4:0.730181950417 5:0.533165680714 6:0.403333574625 7:-0.416281183863 8:4.9167019662e-16 9:0.328545779145 10:0.107942328994 11:0.328582484646 12:-0.265451675701 13:0.0397245270978 14:0.21397558505 15:0.0457855509977 16:1.49314192022 17:-2.87673053329 18:-0.334949725836 19:1.43544275839 20:2.06049591261 21:2.96392452884 22:-2.31933960347 23:-0.0221255118169 24:1.83348873273 25:3.36168093305 26:7.59799277301 27:-8.65145034944 28:0.565955365674 29:5.03830662585 30:25.3845336561 
2 1:-21.3787497569 2:-22.5479619141 3:-21.8453824546 4:0.421485704129 5:0.177650198785 6:1.78080981546 7:-2.74486483738 8:3.9650822308e-16 9:1.38240534619 10:1.91104454118 11:1.55973141681 12:-1.301221392 13:-0.0653786199936 14:0.88136092389 15:0.776797078161 16:3.00901502373 17:-2.65896722022 18:-0.261166464042 19:1.68554688797 20:2.84106831155 21:4.57781419788 22:-3.34606868114 23:0.61589781141 24:2.72067480966 25:7.40207141994 26:11.0820396265 27:-9.87630340241 28:0.846897610553 29:6.18225212705 30:38.2202413624 
2 1:34.2282824165 2:-51.9268147413 3:-23.1705130884 4:29.3913795385 5:863.853191177 6:21.147855904 7:-26.4510541457 8:5.70971841236e-16 9:14.8700308793 10:221.11781835 11:11.9904614032 12:-10.1516448794 13:0.492219433219 14:6.83544634159 15:46.7233266887 16:1.41090039484 17:-1.76450783722 18:0.185763683106 19:0.984789932869 20:0.96981121188 21:4.0383310183 22:-11.3208704396 23:-1.84912806935 24:4.06135299398 25:16.4945881417 26:5.95693741612 27:-7.32553143438 28:-0.0246757107822 29:4.31620473132 30:18.6296232826 
2 1:31.9662093268 2:20.1397548356 3:24.0175243793 4:4.05081854912 5:16.4091309179 6:3.83894687934 7:-4.94646561147 8:-2.53765262771e-16 9:2.59091699147 10:6.71285085671 11:1.87535458779 12:-1.89203895056 13:0.252887469193 14:1.20318754755 15:1.44766027458 16:1.12995293157 17:-2.87535988372 18:-0.368513251835 19:1.1980663201 20:1.43536290736 21:2.42140478009 22:-7.65486837964 23:-1.39001264625 24:2.6838300852 25:7.20294392621 26:5.87934955455 27:-8.59710149703 28:-0.210342728974 29:4.74191601201 30:22.485767465 
2 1:27.2270890144 2:21.6032794394 3:23.4820858181 4:1.93259532312 5:3.73492468295 6:1.43714089448 7:-0.969815787351 8:4.75809867696e-17 9:0.857269134499 10:0.734910368965 11:0.74272346262 12:-0.917818369507 13:0.133200562802 14:0.549721155614 15:0.30219334893 16:2.00298225623 17:-1.05918021254 18:0.229239357074 19:0.852446127563 20:0.726664400398 21:2.64860706028 22:-6.90539879917 23:-1.05081655205 24:2.50519468406 25:6.27600040505 26:5.50889371754 27:-8.14270469391 28:-0.347815977922 29:4.79729501988 30:23.0140395078 
