2 1:171.810050805 2:171.810050805 3:171.810050805 4:0.0 5:0.0 6:-1.55431223448e-15 7:-1.55431223448e-15 8:-1.55431223448e-15 9:0.0 10:0.0 11:1.33226762955e-15 12:1.33226762955e-15 13:1.33226762955e-15 14:0.0 15:0.0 16:-2.55351295664e-15 17:-2.55351295664e-15 18:-2.55351295664e-15 19:0.0 20:0.0 21:-4.77395900589e-15 22:-4.77395900589e-15 23:-4.77395900589e-15 24:0.0 25:0.0 26:1.22124532709e-15 27:1.22124532709e-15 28:1.22124532709e-15 29:0.0 30:0.0 
2 1:171.298264152 2:171.19222667 3:171.263379915 4:0.0333429343645 5:0.00111175127203 6:0.0327004373116 7:-0.0320676471033 8:-8.14163551392e-15 9:0.0213458190051 10:0.000455643988999 11:0.0387361295424 12:-0.0297950333335 13:-2.86807614695e-15 14:0.0211710016698 15:0.000448211311701 16:0.0929200871492 17:-0.0964976837617 18:2.22044604925e-16 19:0.057534972469 20:0.00331027305701 21:0.117182104046 22:-0.120043207497 23:-1.17498603439e-15 24:0.0716414130797 25:0.00513249206806 26:0.0186123120212 27:-0.0269590420912 28:0.00163762703145 29:0.0144441646487 30:0.000208633892398 
2 1:171.788651244 2:171.331481426 3:171.484398403 4:0.142862867138 5:0.0204097988068 6:0.114198300166 7:-0.135393612321 8:-6.84637531852e-15 9:0.0754630992656 10:0.00569467935077 11:0.11781587137 12:-0.134484271592 13:-1.35077134663e-15 14:0.0767898479725 15:0.00589668075164 16:0.191062219282 17:-0.197791003048 18:-2.55351295664e-15 19:0.120108545006 20:0.0144260625835 21:0.0658244327402 22:-0.0622810153512 23:-7.95659834315e-16 24:0.0393762335137 25:0.00155048776572 26:0.0278341773503 27:-0.027600337236 28:-0.000241270687531 29:0.0189075509207 30:0.000357495481819 
2 1:171.605131682 2:171.41928697 3:171.543222897 4:0.0581503026281 5:0.00338145769574 6:0.0557948320694 7:-0.0487926115241 8:2.59052039079e-16 9:0.0319120867945 10:0.00101838128358 11:0.0572313793022 12:-0.0478205661485 13:-3.64523226419e-15 14:0.0317046493366 15:0.00100518478955 16:0.0971989399028 17:-0.0966711544916 18:2.77555756156e-16 19:0.0586185314039 20:0.00343613222395 21:0.0352685691475 22:-0.0424776622126 23:-6.56881956237e-16 24:0.0281113286352 25:0.000790246797637 26:0.0317210763493 27:-0.0288741527981 28:-0.00190312301634 29:0.019224462863 30:0.000369579972372 
2 1:171.425605333 2:171.425605333 3:171.425605333 4:2.84217094304e-14 5:8.07793566946e-28 6:-9.10382880193e-15 7:-9.10382880193e-15 8:-9.10382880193e-15 9:0.0 10:0.0 11:-9.43689570931e-15 12:-9.43689570931e-15 13:-9.43689570931e-15 14:0.0 15:0.0 16:-3.21964677141e-15 17:-3.21964677141e-15 18:-3.21964677141e-15 19:0.0 20:0.0 21:-4.99600361081e-16 22:-4.99600361081e-16 23:-4.99600361081e-16 24:0.0 25:0.0 26:-9.43689570931e-16 27:-9.43689570931e-16 28:-9.43689570931e-16 29:0.0 30:0.0 
2 1:171.279293844 2:170.914579014 3:171.157301781 4:0.113971229648 5:0.0129894411875 6:0.108012507322 7:-0.0911035943374 8:-6.29126380621e-15 9:0.0602019432248 10:0.00362427396804 11:0.107287065623 12:-0.0939895719663 13:-4.99600361081e-15 14:0.0612603790842 15:0.00375283404554 16:0.157791064133 17:-0.15242306491 18:-4.23735121065e-15 19:0.0958185905116 20:0.00918120228763 21:0.0496857164183 22:-0.0525125366066 23:-6.10622663544e-16 24:0.0314130455477 25:0.000986779430579 26:0.0220186283288 27:-0.0222051781713 28:0.000192477705974 29:0.0150838133886 30:0.000227521426342 
2 1:170.735096081 2:170.566034615 3:170.678778149 4:0.052898870967 5:0.00279829054959 6:0.0507561180058 7:-0.0443862532868 8:-2.99760216649e-15 9:0.0290301732809 10:0.000842750960717 11:0.0520629336762 12:-0.0435019912869 13:-9.25185853854e-17 14:0.028841469064 15:0.00083183033777 16:0.0884211078476 17:-0.087940985628 18:-3.62672854711e-15 19:0.0533248149858 20:0.00284353589327 21:0.0320835387643 22:-0.0386415937805 23:-1.90588285894e-15 24:0.0255726536059 25:0.000653960612447 26:0.0288564125877 27:-0.0262665887213 28:-0.00173125597505 29:0.017488342011 30:0.000305842106293 
2 1:170.524375668 2:170.354012061 3:170.467378824 4:0.0532335459217 5:0.0028338104114 6:0.0504297459555 7:-0.0424350183955 8:-3.10862446895e-15 9:0.0280683112513 10:0.0007878300965 11:0.0499416903625 12:-0.0438328156775 13:-2.81256499572e-15 14:0.0285599699322 15:0.000815671882526 16:0.0726441655977 17:-0.0700148228278 18:-2.62752782495e-15 19:0.0441686920257 20:0.00195087335526 21:0.021459479383 22:-0.0205232471725 23:-5.27355936697e-16 24:0.0141359871333 25:0.000199826132233 26:0.0437314748018 27:-0.0321561292933 28:0.000480994827075 29:0.0229886118664 30:0.000528476275544 
2 1:170.196314336 2:170.196314336 3:170.196314336 4:0.0 5:0.0 6:-1.44328993201e-14 7:-1.44328993201e-14 8:-1.44328993201e-14 9:0.0 10:0.0 11:9.99200722163e-16 12:9.99200722163e-16 13:9.99200722163e-16 14:0.0 15:0.0 16:-3.66373598126e-15 17:-3.66373598126e-15 18:-3.66373598126e-15 19:0.0 20:0.0 21:-1.44328993201e-15 22:-1.44328993201e-15 23:-1.44328993201e-15 24:0.0 25:0.0 26:-1.05471187339e-15 27:-1.05471187339e-15 28:-1.05471187339e-15 29:0.0 30:0.0 
2 1:170.196314336 2:170.196314336 3:170.196314336 4:0.0 5:0.0 6:-1.44328993201e-14 7:-1.44328993201e-14 8:-1.44328993201e-14 9:0.0 10:0.0 11:9.99200722163e-16 12:9.99200722163e-16 13:9.99200722163e-16 14:0.0 15:0.0 16:-3.66373598126e-15 17:-3.66373598126e-15 18:-3.66373598126e-15 19:0.0 20:0.0 21:-1.44328993201e-15 22:-1.44328993201e-15 23:-1.44328993201e-15 24:0.0 25:0.0 26:-1.05471187339e-15 27:-1.05471187339e-15 28:-1.05471187339e-15 29:0.0 30:0.0 
