2 1:164.880388229 2:85.2967386187 3:137.709669386 4:27.1566742127 5:737.484954294 6:15.6975884424 7:-17.9561716418 8:-3.60029466557e-15 9:9.33544777024 10:87.1505850708 11:11.7867792699 12:-11.9667096526 13:1.14194368247e-15 14:6.89349096639 15:47.5202177037 16:33.7493294548 17:-23.551334898 18:-1.7763568394e-15 19:17.5816676366 20:309.115036884 21:26.7460773097 22:-12.7906376192 23:3.82360732832 24:13.1273594316 25:172.327565647 26:50.8966854235 27:-50.8966242144 28:10.6982054698 29:38.3704258413 30:1472.28957924 
2 1:164.87861572 2:85.2944603624 3:137.707723552 4:27.1568461361 5:737.494292059 6:15.6976881375 7:-17.9562773573 8:-1.79221716832e-15 9:9.33550282247 10:87.1516129483 11:11.7868452755 12:-11.9667805796 13:-1.64947420801e-15 14:6.89352869232 15:47.5207378318 16:33.7494970332 17:-23.5514580609 18:2.53765262771e-16 19:17.5817414758 20:309.117633321 21:26.7460467942 22:-12.7906832022 23:3.82360286411 24:13.1273683306 25:172.327799288 26:50.8967028358 27:-50.8968769084 28:10.6982129103 29:38.370563806 30:1472.30016679 
2 1:164.876682097 2:85.2920670042 3:137.705632892 4:27.1570029072 5:737.5028069 6:15.697779011 7:-17.9563798867 8:-1.55431223448e-15 9:9.33555614864 10:87.1526086045 11:11.7869125092 12:-11.9668489409 13:-1.26882631386e-15 14:6.89356778664 15:47.5212768291 16:33.7496750792 17:-23.5515833645 18:-1.7763568394e-15 19:17.5818323445 20:309.120828589 21:26.7461796457 22:-12.790739998 23:3.82362164159 24:13.127431053 25:172.329446051 26:50.896935159 27:-50.8971181994 28:10.6982612096 29:38.3707422878 30:1472.31386372 
2 1:164.874652552 2:85.2897433443 3:137.70350302 4:27.1571033618 5:737.508263006 6:15.6978370274 7:-17.9564474069 8:-2.96588150864e-15 9:9.33559123898 10:87.1532637813 11:11.7869560795 12:-11.9668927485 13:-7.61295788314e-16 14:6.89359354157 15:47.5216319164 16:33.7498218529 17:-23.5516845664 18:2.53765262771e-16 19:17.581908511 20:309.123506888 21:26.7463022922 22:-12.7907991933 23:3.82363926464 24:13.1274914644 25:172.331032148 26:50.8971874257 27:-50.8973583355 28:10.6983146369 29:38.3709281336 30:1472.32812583 
2 1:164.872687183 2:85.2873346349 3:137.701386126 4:27.1572545988 5:737.516477343 6:15.6979234685 7:-17.9565461768 8:3.42583104741e-15 9:9.3356425675 10:87.154222148 11:11.7870244496 12:-11.9669647421 13:-2.41076999633e-15 14:6.8936330844 15:47.5221771023 16:33.749978646 17:-23.551795695 18:2.03012210217e-15 19:17.5819974711 20:309.126635074 21:26.7464183336 22:-12.7908578924 23:3.82365635713 24:13.1275504372 25:172.332580482 26:50.8974329903 27:-50.8975916767 28:10.698366461 29:38.3711045873 30:1472.34166725 
2 1:164.870670287 2:85.2848769471 3:137.699218668 4:27.1574048733 5:737.524639453 6:15.6980108767 7:-17.9566442141 8:-3.26722775818e-15 9:9.33569357127 10:87.1551744567 11:11.787088802 12:-11.9670295986 13:-2.6645352591e-15 14:6.89367041187 15:47.5226917476 16:33.7501375713 17:-23.5519080516 18:1.01506105109e-15 19:17.582077954 20:309.129465181 21:26.746544084 22:-12.7909145491 23:3.82367391078 24:13.1276102578 25:172.33415108 26:50.8976690286 27:-50.8978486785 28:10.698416173 29:38.3712959823 30:1472.35635536 
2 1:164.868505992 2:85.2826582203 3:137.6970362 4:27.1574239029 5:737.52567304 6:15.6980212602 7:-17.9566620495 8:-9.51619735393e-17 9:9.3357027697 10:87.1553462042 11:11.7871039901 12:-11.9670431562 13:-2.53765262771e-15 14:6.89367981649 15:47.5228214122 16:33.7501860798 17:-23.5519379703 18:1.7763568394e-15 19:17.5821156328 20:309.130790124 21:26.7466852489 22:-12.7909510054 23:3.82369442813 24:13.1276673208 25:172.335649285 26:50.8978941751 27:-50.8979625776 28:10.6984626334 29:38.3714122282 30:1472.36527639 
2 1:164.866454134 2:85.2807687067 3:137.695040152 4:27.1573688293 5:737.52268173 6:15.697989389 7:-17.9566297557 8:-3.71131696803e-15 9:9.33568594311 10:87.1550320283 11:11.7870920182 12:-11.9670278952 13:-2.91830052187e-15 14:6.89367236634 15:47.5227186944 16:33.7500423764 17:-23.5518367051 18:-1.52259157663e-15 19:17.5820617654 20:309.128895924 21:26.7467421875 22:-12.7909064262 23:3.82370243531 24:13.1276666882 25:172.335632677 26:50.8980026448 27:-50.8980758665 28:10.6984856658 29:38.3715006838 30:1472.37206473 
2 1:164.86481401 2:85.2816386806 3:137.694260181 4:27.156514942 5:737.476303794 6:15.6974999344 7:-17.9561006111 8:-5.77315972805e-15 9:9.33541061725 10:87.1498913926 11:11.7867173893 12:-11.9666212634 13:-3.80647894157e-15 14:6.89346132751 15:47.5198090738 16:33.7495766362 17:-23.5514737512 18:-1.26882631386e-15 19:17.5817914478 20:309.119390512 21:26.7467445784 22:-12.790795389 23:3.8237015771 24:13.1276203547 25:172.334416177 26:50.897945515 27:-50.8974811574 28:10.6984644332 29:38.3711820946 30:1472.34761534 
2 1:164.86489545 2:85.2829371728 3:137.694757516 4:27.156100057 5:737.453770304 6:15.6972594447 7:-17.9558309997 8:-4.17126650681e-15 9:9.33527037691 10:87.1472730099 11:11.7865464903 12:-11.9664458622 13:-2.6645352591e-15 14:6.89336156497 15:47.5184336654 16:33.7490469188 17:-23.551101488 18:-1.26882631386e-15 19:17.5815334939 20:309.110319997 21:26.746436381 22:-12.7906333517 23:3.82365798052 24:13.1274624116 25:172.330269368 26:50.8973330946 27:-50.8968747026 28:10.6983361528 29:38.3707245873 30:1472.31250535 
2 1:164.865505351 2:85.284933888 3:137.695841335 4:27.1556269735 5:737.428076321 6:15.6969888105 7:-17.9555218403 8:-6.31241091144e-15 9:9.3351097027 10:87.1442731615 11:11.786326975 12:-11.9662163064 13:-1.52259157663e-15 14:6.8932351928 15:47.5166914232 16:33.7486328134 17:-23.55080555 18:7.61295788314e-16 19:17.5812839284 20:309.101544573 21:26.7460686347 22:-12.7904563205 23:3.8236042933 24:13.1272806613 25:172.32549756 26:50.8967144024 27:-50.8962456411 28:10.6982062633 29:38.3702471807 30:1472.27586871 
2 1:164.928556675 2:84.9361465131 3:137.5595779 4:27.2362507767 5:741.813356371 6:15.6964364549 7:-17.2588300803 8:-4.63121604558e-15 9:9.03978938908 10:81.717792199 11:13.7020481867 12:-14.1916861558 13:-2.53765262771e-15 14:7.71137595083 15:59.4653190551 16:14.4969047528 17:-14.0503630173 18:-1.7763568394e-15 19:8.04704956755 20:64.7550067425 21:29.0496420434 22:-25.5392601757 23:1.52259157663e-15 24:20.2140672548 25:408.608514981 26:50.896072153 27:-50.8957911085 28:6.11319348174 29:38.915273812 30:1514.39853586 
