2 1:354.706888369 2:354.472527503 3:354.55059804 4:0.0733308744838 5:0.00537741715256 6:0.0615302880587 7:-0.070360490701 8:-1.15463194561e-14 9:0.0402429759688 10:0.00161949711482 11:0.0603044829604 12:-0.072172059344 13:-1.51730480032e-15 14:0.0399813854095 15:0.00159851117926 16:0.121907883121 17:-0.122573450865 18:-1.92438657602e-15 19:0.073921337887 20:0.005464364195 21:0.0535667739513 22:-0.0444756931691 23:-5.01450732789e-15 24:0.0354500014369 25:0.00125670260187 26:0.0364119665585 27:-0.0400021008169 28:0.00239994752788 29:0.0242431528215 30:0.000587730458725 
2 1:354.591482133 2:354.569221883 3:354.58415895 4:0.00699961994512 5:4.89946793761e-05 6:0.00686474173858 7:-0.00673190127186 8:-8.58572472377e-15 9:0.00448108792162 10:2.00801489613e-05 11:0.00813180333728 12:-0.00625481570714 13:-3.21964677141e-15 14:0.00444438884488 15:1.97525922045e-05 16:0.0195065403723 17:-0.0202575785482 18:-4.25585492773e-15 19:0.0120782093272 20:0.000145883140551 21:0.0245998202715 22:-0.0252004463761 23:-6.84637531852e-16 24:0.0150395480616 25:0.000226188005897 26:0.00390724790518 27:-0.00565946136175 28:0.000343783984535 29:0.00303223651104 30:9.19445825891e-06 
2 1:356.174206395 2:355.022129353 3:355.407483178 4:0.360017269073 5:0.129612434031 6:0.287781989695 7:-0.341194598249 8:-8.58572472377e-15 9:0.190168512348 10:0.0361640630888 11:0.296898341144 12:-0.33890304151 13:-4.62592926927e-15 14:0.1935119455 15:0.0374468730514 16:0.481480595953 17:-0.498437264989 18:-6.55031584529e-15 19:0.302675924344 20:0.0916127151778 21:0.165878880833 22:-0.156949398476 23:-4.29286236188e-15 24:0.0992288922937 25:0.00984637306584 26:0.0701426810012 27:-0.0695533992582 28:-0.000608006935408 29:0.0476474047015 30:0.00227027517479 
2 1:359.252785305 2:357.743124849 3:358.246024519 4:0.472368631421 5:0.223132123951 6:0.396353898216 7:-0.453234588194 8:-1.02880666949e-14 9:0.25922941212 10:0.0671998881082 11:0.388457744232 12:-0.464904000384 13:-7.03141248929e-16 14:0.257544348696 15:0.066329091545 16:0.785282601831 17:-0.789569927281 18:-5.36607795235e-15 19:0.476172164266 20:0.226739930022 21:0.345056074664 22:-0.286494910387 23:-3.66373598126e-15 24:0.228354956633 25:0.0521459862189 26:0.234551557331 27:-0.257677789197 28:0.015459517389 29:0.156164848711 30:0.0243874599729 
2 1:361.417482321 2:361.037145198 3:361.162268598 4:0.119595028838 5:0.0143029709227 6:0.115020805852 7:-0.117290509004 8:8.14163551392e-16 9:0.0765635625099 10:0.00586197910421 11:0.106869354442 12:-0.138939437034 13:-3.47869881049e-15 14:0.0759365245884 15:0.00576635576656 16:0.346119605014 17:-0.33328741798 18:-4.73695157173e-15 19:0.206367460536 20:0.0425875287679 21:0.430573107497 22:-0.420310850852 23:2.03540887848e-16 24:0.256964692117 25:0.0660308529946 26:0.0966971707136 27:-0.0667589711385 28:-0.00587386970539 29:0.0518085861553 30:0.00268412959941 
2 1:364.270918311 2:362.347457009 3:362.990828192 4:0.601070292703 5:0.36128549677 6:0.480469187564 7:-0.569644721672 8:-1.03620815632e-14 9:0.317497668027 10:0.100804769202 11:0.495689479768 12:-0.565818831087 13:-4.99600361081e-15 14:0.323079728989 15:0.104380511283 16:0.803860557815 17:-0.832170727622 18:-5.55111512313e-16 19:0.505335499345 20:0.255363966898 21:0.276944680216 22:-0.262036377101 23:-7.9936057773e-15 24:0.165668551092 25:0.027446068821 26:0.117107387401 27:-0.116123546402 28:-0.00101510382424 29:0.0795501825904 30:0.00632823155017 
2 1:364.149781295 2:364.001749266 3:364.10046871 4:0.0463188173264 5:0.00214543283852 6:0.0444425999106 7:-0.0388650782184 8:5.92118946467e-16 9:0.0254191302871 10:0.000646132184553 11:0.0455868616918 12:-0.0380908089515 13:-2.40548322002e-15 14:0.0252538988561 15:0.000637759407433 16:0.077422467953 17:-0.0770020678012 18:-1.18423789293e-15 19:0.046691778466 20:0.00218012217632 21:0.0280926897691 22:-0.0338349928987 23:4.16333634234e-15 24:0.0223916890714 25:0.000501387739472 26:0.0252669835653 27:-0.0229993060821 28:-0.00151590625258 29:0.0153129793536 30:0.000234487336685 
2 1:364.006782071 2:364.006782071 3:364.006782071 4:0.0 5:0.0 6:-5.3290705182e-15 7:-5.3290705182e-15 8:-5.3290705182e-15 9:0.0 10:0.0 11:-1.1768364061e-14 12:-1.1768364061e-14 13:-1.1768364061e-14 14:0.0 15:0.0 16:-6.88338275268e-15 17:-6.88338275268e-15 18:-6.88338275268e-15 19:0.0 20:0.0 21:5.66213742559e-15 22:5.66213742559e-15 23:5.66213742559e-15 24:0.0 25:0.0 26:1.11022302463e-15 27:1.11022302463e-15 28:1.11022302463e-15 29:0.0 30:0.0 
2 1:363.479431096 2:362.164888252 3:363.039734709 4:0.410786872352 5:0.168745854497 6:0.389309830161 7:-0.328364980297 8:-1.73934940525e-14 9:0.216986059053 10:0.0470829498235 11:0.386695118294 12:-0.338766918817 13:-3.44169137634e-15 14:0.220800982851 15:0.0487530740281 16:0.568726843786 17:-0.54937894679 18:-5.07001847912e-15 19:0.345359256287 20:0.119273015903 21:0.179082388696 22:-0.189271105861 23:-5.18104078158e-16 24:0.113222141863 25:0.0128192534081 26:0.0793618134381 27:-0.0800341956402 28:0.000693748019381 29:0.0543666374766 30:0.00295573127051 
2 1:361.256785882 2:360.393111496 3:360.969077768 4:0.27024135539 5:0.0730303901629 6:0.259294799179 7:-0.226753445388 8:-1.40628249786e-14 9:0.148304741315 10:0.0219942962965 11:0.265970851646 12:-0.222236068041 13:2.88657986403e-15 14:0.147340719165 15:0.021709287524 16:0.451711720741 17:-0.449258948555 18:-3.21964677141e-15 19:0.272417350583 20:0.0742112128986 21:0.163903290238 22:-0.197406040748 23:8.51170985546e-16 24:0.130641513609 25:0.0170672050782 26:0.147417060267 27:-0.134186579179 28:-0.00884436572407 29:0.0893416657514 30:0.00798193323924 
2 1:360.422474767 2:360.422474767 3:360.422474767 4:0.0 5:0.0 6:-8.881784197e-16 7:-8.881784197e-16 8:-8.881784197e-16 9:0.0 10:0.0 11:2.6645352591e-15 12:2.6645352591e-15 13:2.6645352591e-15 14:0.0 15:0.0 16:-8.881784197e-16 17:-8.881784197e-16 18:-8.881784197e-16 19:0.0 20:0.0 21:-7.88258347484e-15 22:-7.88258347484e-15 23:-7.88258347484e-15 24:0.0 25:0.0 26:-5.10702591328e-15 27:-5.10702591328e-15 28:-5.10702591328e-15 29:0.0 30:0.0 
2 1:359.892042978 2:358.569820498 3:359.449777859 4:0.413186713069 5:0.170723259857 6:0.391584200753 7:-0.330283307544 8:-4.95899617666e-15 9:0.218253704187 10:0.0476346793912 11:0.388954213588 12:-0.340746014792 13:-9.14083623608e-15 14:0.222090914991 15:0.0493243745214 16:0.57204937897 17:-0.552588450439 18:-7.91959090899e-15 19:0.347376865079 20:0.120670686392 21:0.18012859839 22:-0.190376838632 23:-2.0169051614e-15 24:0.113883592178 25:0.0129694725675 26:0.079825449752 27:-0.0805017600498 28:0.000697800935514 29:0.0546842505238 30:0.00299036725535 
2 1:357.923308362 2:357.31446796 3:357.720490811 4:0.190504498059 5:0.0362919637809 6:0.182787810163 7:-0.15984804115 8:-1.52470628715e-14 9:0.104546250012 10:0.0109299183915 11:0.187494040348 12:-0.156663551853 13:-2.14643118094e-15 14:0.10386667025 15:0.0107882851888 16:0.318430591437 17:-0.316701529157 18:1.18423789293e-15 19:0.192038448596 20:0.0368787657391 21:0.115542323239 22:-0.139159821236 23:-1.68383825401e-15 24:0.0920946978674 25:0.00848143337529 26:0.103920486304 27:-0.0945937636967 28:-0.00623476540254 29:0.0629806979958 30:0.00396656832004 
2 1:356.715931744 2:354.490609426 3:355.971427961 4:0.695346852362 5:0.48350724509 6:0.658723075993 7:-0.554294401403 8:-5.18104078158e-15 9:0.366633699517 10:0.134420269622 11:0.652347999629 12:-0.572552699313 13:-1.18053714952e-14 14:0.37305584011 15:0.139170659841 16:0.948892113351 17:-0.914547130556 18:-2.47949808833e-15 19:0.576939981007 20:0.332859741685 21:0.280307861969 22:-0.268078616117 23:-7.19794594299e-15 24:0.184646992568 25:0.0340945118645 26:0.571228965234 27:-0.420029567843 28:0.00628284727645 29:0.300281685631 30:0.0901690907252 
2 1:353.817828304 2:352.827869803 3:353.15899722 4:0.309356182501 5:0.0957012476515 6:0.24728574258 7:-0.293182209498 8:-6.29126380621e-15 9:0.163408286395 10:0.0267022680626 11:0.255119254817 12:-0.291213117163 13:-1.11022302463e-14 14:0.166281236682 15:0.0276494496724 16:0.4137273734 17:-0.428297925569 18:-1.51730480032e-15 19:0.260083825232 20:0.0676435961472 21:0.142536655156 22:-0.134863716075 23:-1.66533453694e-16 24:0.0852655523797 25:0.00727021442262 26:0.0602723088277 27:-0.0597659499219 28:-0.000522449117387 29:0.040942533847 30:0.00167629107781 
2 1:352.562392627 2:351.324477127 3:352.150016922 4:0.387340377196 5:0.150032567807 6:0.371650538736 7:-0.325008601812 8:-1.55431223448e-15 9:0.212567074932 10:0.0451847613454 11:0.38121940978 12:-0.318533787316 13:-1.3692750637e-15 14:0.211185329704 15:0.0445992434822 16:0.647444163546 17:-0.643928573928 18:-4.58892183512e-15 19:0.390459258826 20:0.152458432803 21:0.234924673809 22:-0.282944592896 23:-3.62672854711e-15 24:0.187250145656 25:0.0350626170482 26:0.211294750378 27:-0.192331333296 28:-0.0126767420578 29:0.128054547616 30:0.0163979671651 
2 1:351.230006206 2:350.739264358 3:351.065823625 4:0.153342190902 5:0.0235138275108 6:0.145265689098 7:-0.122236431541 8:-3.47869881049e-15 9:0.0808523322594 10:0.00653709963178 11:0.143859817808 12:-0.126262864384 13:-4.25585492773e-15 14:0.0822685824451 15:0.00676811965753 16:0.209255560872 17:-0.201681592728 18:-4.4408920985e-15 19:0.127230374893 20:0.0161875682955 21:0.0618152243523 22:-0.0591183553787 23:-3.46019509342e-15 24:0.0407194974534 25:0.00165807747285 26:0.125970946353 27:-0.0926275195724 28:0.00138553236159 29:0.0662199755504 30:0.0043850851619 
2 1:350.190145727 2:349.953681608 3:350.111051752 4:0.073893640209 5:0.00546027006334 6:0.0700302820172 7:-0.0590673299086 8:-5.84717459636e-15 9:0.0390321377269 10:0.00152350777554 11:0.0695599393871 12:-0.0609384634676 13:-6.29126380621e-15 14:0.0397183782705 15:0.00157754957244 16:0.102304381178 17:-0.0988240203493 18:-3.81176571788e-15 19:0.0621243139558 20:0.00385943038448 21:0.0322139057714 22:-0.0340466843996 23:5.18104078158e-16 24:0.0203667565291 25:0.000414804771516 26:0.0142758536926 27:-0.014396803927 28:0.000124793585167 29:0.00977964248484 30:9.56414071314e-05 
2 1:348.521778194 2:347.131212647 3:348.058551546 4:0.435104159737 5:0.189315629821 6:0.417479573245 7:-0.365086117855 8:-7.9936057773e-15 9:0.238779182268 10:0.0570154978845 11:0.428228402545 12:-0.35781287993 13:8.51170985546e-16 14:0.237227051037 15:0.0562766737436 16:0.727281908475 17:-0.72333280387 18:-1.81336427355e-15 19:0.43860763743 20:0.192376659611 21:0.263893745183 22:-0.317835104708 23:-4.32986979604e-15 24:0.210340367498 25:0.0442430701992 26:0.237349964611 27:-0.216048127414 28:-0.0142399386327 29:0.143845231794 30:0.0206914507098 
2 1:347.178489206 2:347.178489206 3:347.178489206 4:5.68434188608e-14 5:3.23117426779e-27 6:8.43769498715e-15 7:8.43769498715e-15 8:8.43769498715e-15 9:0.0 10:0.0 11:1.55431223448e-15 12:1.55431223448e-15 13:1.55431223448e-15 14:0.0 15:0.0 16:0.0 17:0.0 18:0.0 19:0.0 20:0.0 21:-1.44328993201e-15 22:-1.44328993201e-15 23:-1.44328993201e-15 24:0.0 25:0.0 26:-4.21884749358e-15 27:-4.21884749358e-15 28:-4.21884749358e-15 29:0.0 30:0.0 
2 1:346.727165828 2:345.602139144 3:346.350859974 4:0.35156419187 5:0.123597381005 6:0.33318347065 7:-0.281024971114 8:-9.84397748501e-15 9:0.185703423435 10:0.0344857614756 11:0.330945718846 12:-0.289927273879 13:-3.0716170348e-15 14:0.188968353968 15:0.0357090388015 16:0.486734135601 17:-0.470175603112 18:-6.06921920128e-15 19:0.295569201484 20:0.0873611528661 21:0.153264282521 22:-0.161984103814 23:-2.83106871279e-15 24:0.096899033258 25:0.00938942264633 26:0.0679203102255 27:-0.0684957558431 28:0.000593731149191 29:0.0465286606159 30:0.00216491625871 
2 1:345.584070895 2:345.584070895 3:345.584070895 4:0.0 5:0.0 6:-1.68753899743e-14 7:-1.68753899743e-14 8:-1.68753899743e-14 9:0.0 10:0.0 11:1.26565424807e-14 12:1.26565424807e-14 13:1.26565424807e-14 14:0.0 15:0.0 16:8.881784197e-15 17:8.881784197e-15 18:8.881784197e-15 19:0.0 20:0.0 21:-1.1768364061e-14 22:-1.1768364061e-14 23:-1.1768364061e-14 24:0.0 25:0.0 26:2.33146835171e-15 27:2.33146835171e-15 28:2.33146835171e-15 29:0.0 30:0.0 
2 1:343.908464298 2:342.876442645 3:343.56489448 4:0.323031662638 5:0.104349455066 6:0.309268408067 7:-0.273342071512 8:-6.88338275268e-15 9:0.178534453275 10:0.0318745510062 11:0.324562481684 12:-0.272762323446 13:-1.25825276124e-15 14:0.180300304602 15:0.0325081998397 16:0.577398063281 17:-0.576481072672 18:9.99200722163e-16 19:0.34834648749 20:0.121345275347 21:0.279825835856 22:-0.310762850294 23:-1.60982338571e-15 24:0.190793651442 25:0.0364022174306 26:0.182983381875 27:-0.139302318474 28:0.00676640957202 29:0.113861697911 30:0.0129644862513 
2 1:342.847533548 2:342.297345941 3:342.48137608 4:0.17193037653 5:0.0295600543738 6:0.137433590267 7:-0.162941394167 8:-7.40148683083e-15 9:0.090817154456 10:0.00824775554348 11:0.141787208473 12:-0.16184703496 13:-7.03141248929e-15 14:0.0924138493096 15:0.00854031954422 16:0.229936581563 17:-0.238034433367 18:-1.88737914186e-15 19:0.144546359604 20:0.0208936500748 21:0.0792173623045 22:-0.0749529855767 23:6.10622663544e-16 24:0.0473878957492 25:0.00224561266353 26:0.0334974419044 27:-0.0332160236485 28:-0.000290360686322 29:0.0227545646688 30:0.000517770213268 
2 1:342.271838571 2:341.702672819 3:342.082237481 4:0.178090408467 5:0.031716193588 6:0.170876573028 7:-0.149431657683 8:1.33226762955e-15 9:0.0977335682777 10:0.00955185036829 11:0.175276125083 12:-0.146454683357 13:4.81096644004e-16 14:0.097098272846 15:0.00942807458968 16:0.297680289311 17:-0.29606390014 18:-8.77076189454e-15 19:0.179524400212 20:0.0322290102716 21:0.108013090245 22:-0.130091570848 23:-3.70074341542e-15 24:0.0860934126383 25:0.0074120756997 26:0.097148582015 27:-0.0884296286272 28:-0.00582848136682 29:0.0588766057803 30:0.00346645470821 
2 1:340.579589518 2:339.572149352 3:340.243597978 4:0.315135537744 5:0.0993104071491 6:0.300560114384 7:-0.261047320772 8:-5.99520433298e-15 9:0.170968899875 10:0.0292303647246 11:0.309006078345 12:-0.263695571471 13:-5.95819689882e-15 14:0.173147645908 15:0.0299801072834 16:0.514853851307 17:-0.508625821979 18:-4.4408920985e-16 19:0.310413389985 20:0.0963564726817 21:0.144725452256 22:-0.175386850962 23:-2.22044604925e-15 24:0.119066915101 25:0.0141769302717 26:0.207732396914 27:-0.15480449103 28:0.00523652179673 29:0.118228398742 30:0.0139779542691 
2 1:338.736149013 2:338.736149013 3:338.736149013 4:0.0 5:0.0 6:-7.9936057773e-15 7:-7.9936057773e-15 8:-7.9936057773e-15 9:0.0 10:0.0 11:3.10862446895e-15 12:3.10862446895e-15 13:3.10862446895e-15 14:0.0 15:0.0 16:-9.32587340685e-15 17:-9.32587340685e-15 18:-9.32587340685e-15 19:0.0 20:0.0 21:-4.4408920985e-16 22:-4.4408920985e-16 23:-4.4408920985e-16 24:0.0 25:0.0 26:4.4408920985e-15 27:4.4408920985e-15 28:4.4408920985e-15 29:0.0 30:0.0 
2 1:338.736149013 2:338.736149013 3:338.736149013 4:0.0 5:0.0 6:-7.9936057773e-15 7:-7.9936057773e-15 8:-7.9936057773e-15 9:0.0 10:0.0 11:3.10862446895e-15 12:3.10862446895e-15 13:3.10862446895e-15 14:0.0 15:0.0 16:-9.32587340685e-15 17:-9.32587340685e-15 18:-9.32587340685e-15 19:0.0 20:0.0 21:-4.4408920985e-16 22:-4.4408920985e-16 23:-4.4408920985e-16 24:0.0 25:0.0 26:4.4408920985e-15 27:4.4408920985e-15 28:4.4408920985e-15 29:0.0 30:0.0 
2 1:338.736149013 2:338.736149013 3:338.736149013 4:0.0 5:0.0 6:-7.9936057773e-15 7:-7.9936057773e-15 8:-7.9936057773e-15 9:0.0 10:0.0 11:3.10862446895e-15 12:3.10862446895e-15 13:3.10862446895e-15 14:0.0 15:0.0 16:-9.32587340685e-15 17:-9.32587340685e-15 18:-9.32587340685e-15 19:0.0 20:0.0 21:-4.4408920985e-16 22:-4.4408920985e-16 23:-4.4408920985e-16 24:0.0 25:0.0 26:4.4408920985e-15 27:4.4408920985e-15 28:4.4408920985e-15 29:0.0 30:0.0 
2 1:338.719571218 2:338.678247275 3:338.705748931 4:0.0129134880167 5:0.000166758172757 6:0.012238336142 7:-0.0103224750438 8:-7.40148683083e-16 9:0.00682116947247 10:4.65283529722e-05 11:0.0121561401113 12:-0.0106494701779 13:-5.95819689882e-15 14:0.00694109534172 15:4.81788045429e-05 16:0.0178784858434 17:-0.0172702657351 18:-2.55351295664e-15 19:0.0108567067686 20:0.000117868081859 21:0.00562963043873 22:-0.00594992275058 23:-2.60902410787e-15 24:0.00355924901836 25:1.26682535747e-05 26:0.00249481640187 27:-0.00251595339551 28:2.18086490559e-05 29:0.00170906854336 30:2.9209152859e-06 
2 1:337.038948595 2:335.443387895 3:336.507433747 4:0.499246583018 5:0.249247150655 6:0.479023805583 7:-0.418906583095 8:-5.03301104497e-15 9:0.273979662513 10:0.075064855471 11:0.491357211686 12:-0.410561135 13:-4.07081775696e-15 14:0.27219871835 15:0.0740921422716 16:0.834496751113 17:-0.829965475243 18:-3.81176571788e-15 19:0.503266538303 20:0.253277208575 21:0.302796577817 22:-0.364689894219 23:-3.20114305434e-15 24:0.241348438975 25:0.0582490689957 26:0.272339751666 27:-0.247897628567 28:-0.0163391697038 29:0.165050686943 30:0.0272417292604 
2 1:336.382994917 2:335.831124863 3:336.197086728 4:0.172062960918 5:0.0296056625198 6:0.16053403148 7:-0.125279882846 8:-9.62193288008e-15 9:0.0870953041579 10:0.00758559200636 11:0.145296541174 12:-0.136577720405 13:-3.1456319031e-15 14:0.089351278629 15:0.00798365099264 16:0.133015983909 17:-0.112805022471 18:-3.77475828373e-15 19:0.0967553663135 20:0.00936160091045 21:0.295991164784 22:-0.314200462078 23:-1.48029736617e-15 24:0.189369447539 25:0.0358607876613 26:0.2029695809 27:-0.146766256207 28:-0.00132473736573 29:0.103703892484 30:0.0107544973163 
2 1:336.138484221 2:335.471509476 3:335.694603296 4:0.208425667352 5:0.0434412588112 6:0.166606322548 7:-0.197528613058 8:-2.29446091756e-15 9:0.110094716283 10:0.0121208465534 11:0.171884073917 12:-0.196201956579 13:-7.25345709422e-15 14:0.112030338115 15:0.0125507966582 16:0.278744724627 17:-0.288561489998 18:4.07081775696e-16 19:0.175228904117 20:0.0307051688381 21:0.0960326612284 22:-0.0908630944347 23:-2.53500923956e-15 24:0.0574468223432 25:0.00330013739733 26:0.0406078717701 27:-0.040266717467 28:-0.000351994924004 29:0.0275846271155 30:0.0007609116531 
2 1:336.149196025 2:336.149196025 3:336.149196025 4:0.0 5:0.0 6:4.4408920985e-16 7:4.4408920985e-16 8:4.4408920985e-16 9:0.0 10:0.0 11:-7.1054273576e-15 12:-7.1054273576e-15 13:-7.1054273576e-15 14:0.0 15:0.0 16:-1.46549439251e-14 17:-1.46549439251e-14 18:-1.46549439251e-14 19:0.0 20:0.0 21:-3.99680288865e-15 22:-3.99680288865e-15 23:-3.99680288865e-15 24:0.0 25:0.0 26:-2.22044604925e-15 27:-2.22044604925e-15 28:-2.22044604925e-15 29:0.0 30:0.0 
2 1:335.681868676 2:334.779416471 3:335.380209526 4:0.282073379339 5:0.079565391332 6:0.267725248536 7:-0.227322550894 8:-8.36368011884e-15 9:0.149838783397 10:0.02245166101 11:0.267981869663 12:-0.233318153247 13:-5.07001847912e-15 14:0.152268940617 15:0.0231858302765 16:0.406197516584 17:-0.394606809418 18:-3.58972111295e-15 19:0.245950615574 20:0.060491705301 21:0.0997827842491 22:-0.115754176494 23:-2.55351295664e-15 24:0.0653717578329 25:0.00427346672217 26:0.218896683808 27:-0.161472504157 28:0.00314786194616 29:0.116818406807 30:0.0136465401688 
2 1:333.968269409 2:333.968269409 3:333.968269409 4:5.68434188608e-14 5:3.23117426779e-27 6:8.881784197e-15 7:8.881784197e-15 8:8.881784197e-15 9:0.0 10:0.0 11:4.4408920985e-16 12:4.4408920985e-16 13:4.4408920985e-16 14:0.0 15:0.0 16:-6.88338275268e-15 17:-6.88338275268e-15 18:-6.88338275268e-15 19:0.0 20:0.0 21:-2.22044604925e-16 22:-2.22044604925e-16 23:-2.22044604925e-16 24:0.0 25:0.0 26:3.21964677141e-15 27:3.21964677141e-15 28:3.21964677141e-15 29:0.0 30:0.0 
2 1:333.968269409 2:333.968269409 3:333.968269409 4:5.68434188608e-14 5:3.23117426779e-27 6:8.881784197e-15 7:8.881784197e-15 8:8.881784197e-15 9:0.0 10:0.0 11:4.4408920985e-16 12:4.4408920985e-16 13:4.4408920985e-16 14:0.0 15:0.0 16:-6.88338275268e-15 17:-6.88338275268e-15 18:-6.88338275268e-15 19:0.0 20:0.0 21:-2.22044604925e-16 22:-2.22044604925e-16 23:-2.22044604925e-16 24:0.0 25:0.0 26:3.21964677141e-15 27:3.21964677141e-15 28:3.21964677141e-15 29:0.0 30:0.0 
2 1:332.513595413 2:332.212200355 3:332.414442393 4:0.0947721073201 5:0.00898175232589 6:0.0929459093321 7:-0.091147301541 8:-6.2172489379e-15 9:0.0606721720252 10:0.00368111245826 11:0.110101426168 12:-0.0846877502087 13:-5.29206308405e-15 14:0.0601752809273 15:0.00362106443467 16:0.264110902035 17:-0.27427966422 18:-5.18104078158e-15 19:0.163534214652 20:0.0267434393619 21:0.333071913205 22:-0.341204154967 23:-7.73455373822e-15 24:0.203629579051 25:0.0414650054644 26:0.0529026033842 27:-0.0766268859959 28:0.0046547002456 29:0.0410552924727 30:0.00168553704002 
2 1:332.086720489 2:332.086720489 3:332.086720489 4:0.0 5:0.0 6:0.0 7:0.0 8:0.0 9:0.0 10:0.0 11:-3.77475828373e-15 12:-3.77475828373e-15 13:-3.77475828373e-15 14:0.0 15:0.0 16:-7.1054273576e-15 17:-7.1054273576e-15 18:-7.1054273576e-15 19:0.0 20:0.0 21:-2.33146835171e-15 22:-2.33146835171e-15 23:-2.33146835171e-15 24:0.0 25:0.0 26:-2.10942374679e-15 27:-2.10942374679e-15 28:-2.10942374679e-15 29:0.0 30:0.0 
2 1:332.086720489 2:332.086720489 3:332.086720489 4:0.0 5:0.0 6:0.0 7:0.0 8:0.0 9:0.0 10:0.0 11:-3.77475828373e-15 12:-3.77475828373e-15 13:-3.77475828373e-15 14:0.0 15:0.0 16:-7.1054273576e-15 17:-7.1054273576e-15 18:-7.1054273576e-15 19:0.0 20:0.0 21:-2.33146835171e-15 22:-2.33146835171e-15 23:-2.33146835171e-15 24:0.0 25:0.0 26:-2.10942374679e-15 27:-2.10942374679e-15 28:-2.10942374679e-15 29:0.0 30:0.0 
2 1:332.086720489 2:332.086720489 3:332.086720489 4:0.0 5:0.0 6:0.0 7:0.0 8:0.0 9:0.0 10:0.0 11:-3.77475828373e-15 12:-3.77475828373e-15 13:-3.77475828373e-15 14:0.0 15:0.0 16:-7.1054273576e-15 17:-7.1054273576e-15 18:-7.1054273576e-15 19:0.0 20:0.0 21:-2.33146835171e-15 22:-2.33146835171e-15 23:-2.33146835171e-15 24:0.0 25:0.0 26:-2.10942374679e-15 27:-2.10942374679e-15 28:-2.10942374679e-15 29:0.0 30:0.0 
2 1:332.086720489 2:332.086720489 3:332.086720489 4:0.0 5:0.0 6:0.0 7:0.0 8:0.0 9:0.0 10:0.0 11:-3.77475828373e-15 12:-3.77475828373e-15 13:-3.77475828373e-15 14:0.0 15:0.0 16:-7.1054273576e-15 17:-7.1054273576e-15 18:-7.1054273576e-15 19:0.0 20:0.0 21:-2.33146835171e-15 22:-2.33146835171e-15 23:-2.33146835171e-15 24:0.0 25:0.0 26:-2.10942374679e-15 27:-2.10942374679e-15 28:-2.10942374679e-15 29:0.0 30:0.0 
2 1:332.707455516 2:332.401221601 3:332.503234563 4:0.0958197553432 5:0.00918142551402 6:0.0804002023633 7:-0.0919384236484 8:-8.58572472377e-15 9:0.0525845646701 10:0.00276513644155 11:0.0787984712311 12:-0.0943055584382 13:-3.18263933726e-15 14:0.0522427503447 15:0.00272930496358 16:0.159294207484 17:-0.160163889441 18:-6.69834558191e-15 19:0.096591300197 20:0.00932987927374 21:0.0699944629144 22:-0.058115358206 23:-2.12792746386e-15 24:0.0463216958547 25:0.00214569950685 26:0.0475786734 27:-0.0522698186878 28:0.00313595585184 29:0.0316779663198 30:0.00100349355016 
2 1:332.642787503 2:332.489928865 3:332.5916615 4:0.0477682976744 5:0.00228181026271 6:0.0452799440017 7:-0.0382122358875 8:-1.20644235343e-14 9:0.0252454781983 10:0.000637334169462 11:0.0449961065942 12:-0.0393900322626 13:-2.47949808833e-15 14:0.0256773014233 15:0.000659323808383 16:0.066339321822 17:-0.0641068668692 18:-1.62832710278e-15 19:0.0402736796454 20:0.00162196927218 21:0.018501346476 22:-0.0187960293134 23:-2.31296463464e-15 24:0.0118939195989 25:0.000141465323426 26:0.038546379651 27:-0.0283714521319 28:0.000464096158375 29:0.0203513321522 30:0.000414176720369 
2 1:331.925678827 2:330.868591372 3:331.572097704 4:0.330333584362 5:0.109120276957 6:0.313062856386 7:-0.264054156111 8:1.25825276124e-15 9:0.174488980705 10:0.0304464043874 11:0.31096024016 12:-0.272418857777 13:-1.17313566269e-14 14:0.177556745371 15:0.0315263978267 16:0.457340751312 17:-0.441782171925 18:-2.1834386151e-15 19:0.277720075056 20:0.0771284400894 21:0.144008806843 22:-0.152202046909 23:-1.2952601954e-16 24:0.0910473982206 25:0.00828962872275 26:0.0638186710894 27:-0.0643593661257 28:0.000557876322998 29:0.0437188416575 30:0.00191133711587 
2 1:331.364082673 2:331.111261089 3:331.195481279 4:0.0791071828761 5:0.00625794638259 6:0.0663770585601 7:-0.0759028205284 8:-3.33066907388e-15 9:0.0434129346179 10:0.00188468289214 11:0.0650546962023 12:-0.0778570873082 13:-7.69754630407e-15 14:0.043130738444 15:0.00186026059872 16:0.13151062594 17:-0.132228620776 18:-1.59131966863e-15 19:0.0797441573666 20:0.00635913063412 21:0.0577862546012 22:-0.047979064996 23:-4.88498130835e-15 24:0.0382424151678 25:0.00146248231786 26:0.0392801547466 27:-0.043153085614 28:0.00258899255351 29:0.0261527976755 30:0.000683968826254 
2 1:332.344407394 2:331.570766578 3:331.829595832 4:0.241739680347 5:0.0584380730543 6:0.192702319653 7:-0.22900730087 8:-2.44249065418e-15 9:0.127461443199 10:0.0162464195023 11:0.199049878552 12:-0.226790984053 13:-5.44009282066e-15 14:0.129694122054 15:0.0168205652953 16:0.317945396965 17:-0.329885546165 18:-2.03540887848e-15 19:0.200575131842 20:0.0402303835133 21:0.0931984357846 22:-0.0974499743846 23:-1.83186799063e-15 24:0.064193150237 25:0.00412076053735 26:0.146024697058 27:-0.198589677931 28:-0.00218425306323 29:0.104393941602 30:0.0108980950431 
2 1:333.019458783 2:332.917076948 3:332.985213476 4:0.0319937184997 5:0.00102359802344 6:0.0303210008734 7:-0.0255743731163 8:-6.66133814775e-16 9:0.0168997389132 10:0.000285601175334 11:0.0301173566942 12:-0.0263845175373 13:-8.14163551392e-16 14:0.0171968603801 15:0.000295732006932 16:0.0442947128255 17:-0.0427878215111 18:-4.14483262527e-15 19:0.0268979550482 20:0.000723499985776 21:0.0139476500293 22:-0.0147411879216 23:-2.92358729818e-15 24:0.00881819156969 25:7.77605025598e-05 26:0.00618101426716 27:-0.00623338207232 28:5.4031860159e-05 29:0.00423429036387 30:1.79292148855e-05 
2 1:332.559882675 2:332.21367892 3:332.444554918 4:0.10832620903 5:0.0117345675628 6:0.103938283524 7:-0.0908940864657 8:-7.54951656745e-15 9:0.0594479345498 10:0.00353405692224 11:0.106614378209 12:-0.0890832963961 13:-8.73375446038e-15 14:0.0590615064074 15:0.00348826153911 16:0.181068579277 17:-0.180085385894 18:-3.77475828373e-15 19:0.109198456395 20:0.0119243028791 21:0.0657006106761 22:-0.0791301834727 23:-3.27515792264e-15 24:0.0523676322259 25:0.00274236890495 26:0.0590921077273 27:-0.0537886712573 28:-0.00354526274774 29:0.0358125940618 30:0.00128254189344 
2 1:332.86517838 2:332.755381321 3:332.791502384 4:0.0345251139278 5:0.00119198349173 6:0.033204611134 7:-0.0338598370296 8:-3.25665420557e-15 9:0.0221026387473 10:0.000488526639594 11:0.0308514214458 12:-0.040109525783 13:-3.92278802034e-15 14:0.0219216232328 15:0.000480557565161 16:0.0999190259988 17:-0.0962145850734 18:8.14163551392e-16 19:0.05957488497 20:0.00354916691919 21:0.124299360392 22:-0.121336816018 23:2.44249065418e-15 24:0.0741814718971 25:0.00550289077282 26:0.0279148796386 27:-0.0192722147957 28:-0.00169568938397 29:0.0149562850298 30:0.000223690461894 
2 1:332.910890212 2:332.910890212 3:332.910890212 4:0.0 5:0.0 6:1.73194791842e-14 7:1.73194791842e-14 8:1.73194791842e-14 9:0.0 10:0.0 11:-6.2172489379e-15 12:-6.2172489379e-15 13:-6.2172489379e-15 14:0.0 15:0.0 16:-2.88657986403e-15 17:-2.88657986403e-15 18:-2.88657986403e-15 19:0.0 20:0.0 21:2.22044604925e-16 22:2.22044604925e-16 23:2.22044604925e-16 24:0.0 25:0.0 26:-1.66533453694e-15 27:-1.66533453694e-15 28:-1.66533453694e-15 29:0.0 30:0.0 
2 1:332.910890212 2:332.910890212 3:332.910890212 4:0.0 5:0.0 6:1.73194791842e-14 7:1.73194791842e-14 8:1.73194791842e-14 9:0.0 10:0.0 11:-6.2172489379e-15 12:-6.2172489379e-15 13:-6.2172489379e-15 14:0.0 15:0.0 16:-2.88657986403e-15 17:-2.88657986403e-15 18:-2.88657986403e-15 19:0.0 20:0.0 21:2.22044604925e-16 22:2.22044604925e-16 23:2.22044604925e-16 24:0.0 25:0.0 26:-1.66533453694e-15 27:-1.66533453694e-15 28:-1.66533453694e-15 29:0.0 30:0.0 
2 1:332.791171121 2:332.766366427 3:332.783010867 4:0.00779970676456 5:6.08354256131e-05 6:0.00764941139593 7:-0.00750138668961 8:-4.81096644004e-15 9:0.00499329564304 10:2.49330013788e-05 11:0.00906130361295 12:-0.00696976818238 13:-1.14723045878e-15 14:0.00495240170318 15:2.45262826297e-05 16:0.0217362222646 17:-0.0225731073508 18:9.25185853854e-16 19:0.0134588008679 20:0.000181139320803 21:0.0274116860748 22:-0.0280809663396 23:-1.16573417586e-15 24:0.0167586334217 25:0.000280851794164 26:0.00435386323197 27:-0.00630636226152 28:0.000383079980163 29:0.00337883425276 30:1.14165209076e-05 
2 1:332.756039484 2:332.756039484 3:332.756039484 4:0.0 5:0.0 6:3.5527136788e-15 7:3.5527136788e-15 8:3.5527136788e-15 9:0.0 10:0.0 11:-3.5527136788e-15 12:-3.5527136788e-15 13:-3.5527136788e-15 14:0.0 15:0.0 16:-9.7699626167e-15 17:-9.7699626167e-15 18:-9.7699626167e-15 19:0.0 20:0.0 21:1.11022302463e-15 22:1.11022302463e-15 23:1.11022302463e-15 24:0.0 25:0.0 26:-5.3290705182e-15 27:-5.3290705182e-15 28:-5.3290705182e-15 29:0.0 30:0.0 
2 1:333.082507757 2:332.921447637 3:332.975100153 4:0.0503952711273 5:0.00253968335199 6:0.0422855389505 7:-0.0483539304623 8:-6.88338275268e-15 9:0.0276562321013 10:0.000764867174041 11:0.0414431273372 12:-0.0495988971093 13:-5.92118946467e-15 14:0.027476458885 15:0.000754955792859 16:0.0837789112112 17:-0.0842363101876 18:-4.14483262527e-15 19:0.0508010560508 20:0.00258074729588 21:0.0368127629146 22:-0.0305650877834 23:-1.86887542479e-15 24:0.0243623500531 25:0.00059352410011 26:0.0250234425801 27:-0.027490695161 28:0.00164931902436 29:0.0166606530744 30:0.000277577360866 
2 1:334.545289202 2:334.011468444 3:334.36471065 4:0.166231647202 5:0.0276329605316 6:0.153619131787 7:-0.114007822376 8:-6.66133814775e-16 9:0.0835402019675 10:0.00697896534477 11:0.13083732149 12:-0.128923105761 13:-5.51410768897e-15 14:0.0859380682553 15:0.00738535157546 16:0.149578292377 17:-0.104536640091 18:-2.77555756156e-15 19:0.0844606184458 20:0.00713359606825 21:0.445052251755 22:-0.463238165293 23:1.2952601954e-15 24:0.277582835097 25:0.0770522303407 26:0.232436824225 27:-0.16705489069 28:-0.00297920058267 29:0.120163075301 30:0.0144391646658 
2 1:333.336279995 2:333.336279995 3:333.336279995 4:0.0 5:0.0 6:-1.1990408666e-14 7:-1.1990408666e-14 8:-1.1990408666e-14 9:0.0 10:0.0 11:-2.39808173319e-14 12:-2.39808173319e-14 13:-2.39808173319e-14 14:0.0 15:0.0 16:-1.02140518266e-14 17:-1.02140518266e-14 18:-1.02140518266e-14 19:0.0 20:0.0 21:1.7763568394e-15 22:1.7763568394e-15 23:1.7763568394e-15 24:0.0 25:0.0 26:-1.7763568394e-15 27:-1.7763568394e-15 28:-1.7763568394e-15 29:0.0 30:0.0 
2 1:334.095227825 2:333.720807895 3:333.845535053 4:0.117154973133 5:0.0137252877299 6:0.0983021039249 7:-0.112409424485 8:-9.54791801178e-15 9:0.0642930389365 10:0.00413359485569 11:0.096343731488 12:-0.115303625287 13:-8.28966525053e-15 14:0.0638751162653 15:0.0040800304779 16:0.19476264087 17:-0.19582596613 18:-3.92278802034e-15 19:0.118098310092 20:0.0139472108467 21:0.0855794235005 22:-0.0710553184453 23:-1.11022302463e-15 24:0.0566356803346 25:0.00320760028696 26:0.0581725363829 27:-0.0639082116431 28:0.00383420748941 29:0.0387313793469 30:0.00150011974611 
2 1:334.625194813 2:334.330087688 3:334.428615722 4:0.09227701648 5:0.00851504777046 6:0.0754470955976 7:-0.0878055349342 8:-1.66533453694e-14 9:0.0495430679392 10:0.00245451558083 11:0.0767901485023 12:-0.0891351919355 13:-5.8101671622e-15 14:0.0502578852761 15:0.00252585503242 16:0.139437630847 17:-0.142203250507 18:-4.95899617666e-15 19:0.0858324359384 20:0.00736720705912 21:0.040937398856 22:-0.0265398646833 23:-2.68303897618e-15 24:0.025503822697 25:0.00065044497216 26:0.0489164221679 27:-0.0659880596829 28:-0.00129234210855 29:0.0362224911375 30:0.0013120688642 
2 1:334.879831873 2:334.879831873 3:334.879831873 4:0.0 5:0.0 6:-1.37667655054e-14 7:-1.37667655054e-14 8:-1.37667655054e-14 9:0.0 10:0.0 11:-3.5527136788e-15 12:-3.5527136788e-15 13:-3.5527136788e-15 14:0.0 15:0.0 16:-6.88338275268e-15 17:-6.88338275268e-15 18:-6.88338275268e-15 19:0.0 20:0.0 21:-3.88578058619e-15 22:-3.88578058619e-15 23:-3.88578058619e-15 24:0.0 25:0.0 26:1.66533453694e-15 27:1.66533453694e-15 28:1.66533453694e-15 29:0.0 30:0.0 
2 1:334.879831873 2:334.879831873 3:334.879831873 4:0.0 5:0.0 6:-1.37667655054e-14 7:-1.37667655054e-14 8:-1.37667655054e-14 9:0.0 10:0.0 11:-3.5527136788e-15 12:-3.5527136788e-15 13:-3.5527136788e-15 14:0.0 15:0.0 16:-6.88338275268e-15 17:-6.88338275268e-15 18:-6.88338275268e-15 19:0.0 20:0.0 21:-3.88578058619e-15 22:-3.88578058619e-15 23:-3.88578058619e-15 24:0.0 25:0.0 26:1.66533453694e-15 27:1.66533453694e-15 28:1.66533453694e-15 29:0.0 30:0.0 
2 1:334.099940411 2:334.035147741 3:334.057883152 4:0.0200371864281 5:0.000401488839955 6:0.0205474759216 7:-0.0225123548618 8:-1.48029736617e-15 9:0.0148901753389 10:0.000221717321625 11:0.0227095269819 12:-0.0237371479324 13:-2.92358729818e-15 14:0.0147993823398 15:0.00021902171764 16:0.0577078475961 17:-0.0680350341922 18:-8.14163551392e-15 19:0.0473002613968 20:0.0022373147282 21:0.229761832736 22:-0.226931269074 23:9.62193288008e-16 24:0.137823863963 25:0.0189954174776 26:0.0476047960956 27:-0.0675408198063 28:0.00221095655863 29:0.0386607894954 30:0.00149465664441 
2 1:334.256525731 2:334.256525731 3:334.256525731 4:5.68434188608e-14 5:3.23117426779e-27 6:1.37667655054e-14 7:1.37667655054e-14 8:1.37667655054e-14 9:0.0 10:0.0 11:-6.66133814775e-16 12:-6.66133814775e-16 13:-6.66133814775e-16 14:0.0 15:0.0 16:2.88657986403e-15 17:2.88657986403e-15 18:2.88657986403e-15 19:0.0 20:0.0 21:-2.33146835171e-15 22:-2.33146835171e-15 23:-2.33146835171e-15 24:0.0 25:0.0 26:-2.10942374679e-15 27:-2.10942374679e-15 28:-2.10942374679e-15 29:0.0 30:0.0 
2 1:333.925858088 2:333.603882607 3:333.818601279 4:0.100745248323 5:0.0101496050597 6:0.0966644016961 7:-0.0845330727817 8:-1.40628249786e-15 9:0.0552876075158 10:0.00305671954482 11:0.0991532160472 12:-0.0828490066923 13:-3.0716170348e-15 14:0.0549282226586 15:0.00301710964443 16:0.168396911017 17:-0.167482524162 18:1.48029736617e-15 19:0.101556453462 20:0.0103137132397 21:0.0611027044778 22:-0.0735924394956 23:-3.29366163972e-15 24:0.0487028038731 25:0.0023719631051 26:0.0549566824154 27:-0.0500243947547 28:-0.00329715568459 29:0.0333063319964 30:0.00110931175105 
2 1:334.257106742 2:333.818269942 3:334.109351757 4:0.136842694366 5:0.0187259230013 6:0.127821650283 7:-0.100344265568 8:-1.40628249786e-15 9:0.0693960556157 10:0.00481581253502 11:0.116516706865 12:-0.108925753259 13:-4.58892183512e-15 14:0.071160135347 15:0.0050637648626 16:0.111512626649 17:-0.0964755561288 18:-3.0716170348e-15 19:0.0788676792975 20:0.00622011083778 21:0.21934726877 22:-0.233769223342 23:-2.9050835811e-15 24:0.141145092721 25:0.0199219371992 26:0.157754051757 27:-0.114173970441 28:-0.000882074258195 29:0.0805407216242 30:0.00648680783975 
2 1:334.803823682 2:333.749442459 3:334.102118384 4:0.329487902446 5:0.108562277858 6:0.263378155138 7:-0.312261388995 8:1.62832710278e-15 9:0.174042274156 10:0.0302907131933 11:0.27172144246 12:-0.310164155644 13:-6.95739762098e-15 14:0.177102185085 15:0.0313651839618 16:0.440651172199 17:-0.456169920306 18:-3.51570624465e-15 19:0.277009088174 20:0.0767340349313 21:0.151812396795 22:-0.143640132117 23:-3.51570624465e-16 24:0.0908143091803 25:0.0082472387519 26:0.0641946007048 27:-0.0636552898936 28:-0.000556448112435 29:0.0436069177251 30:0.00190156327348 
2 1:333.788451775 2:332.783282112 3:333.453608606 4:0.314514840885 5:0.0989195851372 6:0.30177491668 7:-0.263902331653 8:-4.29286236188e-15 9:0.172601421607 10:0.0297912507407 11:0.309544702975 12:-0.258644874979 13:-1.33226762955e-15 14:0.171479464263 15:0.029405206664 16:0.525715391599 17:-0.52286078316 18:-3.36767650803e-15 19:0.317047328117 20:0.100519008266 21:0.190755471809 22:-0.229746958626 23:-2.23894976633e-15 24:0.152044437487 25:0.0231175109707 26:0.171568312284 27:-0.156170289105 28:-0.010293333063 29:0.103978459358 30:0.0108115200105 
2 1:332.817455951 2:332.817455951 3:332.817455951 4:0.0 5:0.0 6:-2.79776202206e-14 7:-2.79776202206e-14 8:-2.79776202206e-14 9:0.0 10:0.0 11:-7.9936057773e-15 12:-7.9936057773e-15 13:-7.9936057773e-15 14:0.0 15:0.0 16:-3.99680288865e-15 17:-3.99680288865e-15 18:-3.99680288865e-15 19:0.0 20:0.0 21:-9.99200722163e-15 22:-9.99200722163e-15 23:-9.99200722163e-15 24:0.0 25:0.0 26:2.55351295664e-15 27:2.55351295664e-15 28:2.55351295664e-15 29:0.0 30:0.0 
2 1:332.817455951 2:332.817455951 3:332.817455951 4:0.0 5:0.0 6:-2.79776202206e-14 7:-2.79776202206e-14 8:-2.79776202206e-14 9:0.0 10:0.0 11:-7.9936057773e-15 12:-7.9936057773e-15 13:-7.9936057773e-15 14:0.0 15:0.0 16:-3.99680288865e-15 17:-3.99680288865e-15 18:-3.99680288865e-15 19:0.0 20:0.0 21:-9.99200722163e-15 22:-9.99200722163e-15 23:-9.99200722163e-15 24:0.0 25:0.0 26:2.55351295664e-15 27:2.55351295664e-15 28:2.55351295664e-15 29:0.0 30:0.0 
2 1:332.817455951 2:332.817455951 3:332.817455951 4:0.0 5:0.0 6:-2.79776202206e-14 7:-2.79776202206e-14 8:-2.79776202206e-14 9:0.0 10:0.0 11:-7.9936057773e-15 12:-7.9936057773e-15 13:-7.9936057773e-15 14:0.0 15:0.0 16:-3.99680288865e-15 17:-3.99680288865e-15 18:-3.99680288865e-15 19:0.0 20:0.0 21:-9.99200722163e-15 22:-9.99200722163e-15 23:-9.99200722163e-15 24:0.0 25:0.0 26:2.55351295664e-15 27:2.55351295664e-15 28:2.55351295664e-15 29:0.0 30:0.0 
2 1:332.817455951 2:332.817455951 3:332.817455951 4:0.0 5:0.0 6:-2.79776202206e-14 7:-2.79776202206e-14 8:-2.79776202206e-14 9:0.0 10:0.0 11:-7.9936057773e-15 12:-7.9936057773e-15 13:-7.9936057773e-15 14:0.0 15:0.0 16:-3.99680288865e-15 17:-3.99680288865e-15 18:-3.99680288865e-15 19:0.0 20:0.0 21:-9.99200722163e-15 22:-9.99200722163e-15 23:-9.99200722163e-15 24:0.0 25:0.0 26:2.55351295664e-15 27:2.55351295664e-15 28:2.55351295664e-15 29:0.0 30:0.0 
2 1:332.817455951 2:332.817455951 3:332.817455951 4:0.0 5:0.0 6:-2.79776202206e-14 7:-2.79776202206e-14 8:-2.79776202206e-14 9:0.0 10:0.0 11:-7.9936057773e-15 12:-7.9936057773e-15 13:-7.9936057773e-15 14:0.0 15:0.0 16:-3.99680288865e-15 17:-3.99680288865e-15 18:-3.99680288865e-15 19:0.0 20:0.0 21:-9.99200722163e-15 22:-9.99200722163e-15 23:-9.99200722163e-15 24:0.0 25:0.0 26:2.55351295664e-15 27:2.55351295664e-15 28:2.55351295664e-15 29:0.0 30:0.0 
2 1:332.817455951 2:332.817455951 3:332.817455951 4:0.0 5:0.0 6:-2.79776202206e-14 7:-2.79776202206e-14 8:-2.79776202206e-14 9:0.0 10:0.0 11:-7.9936057773e-15 12:-7.9936057773e-15 13:-7.9936057773e-15 14:0.0 15:0.0 16:-3.99680288865e-15 17:-3.99680288865e-15 18:-3.99680288865e-15 19:0.0 20:0.0 21:-9.99200722163e-15 22:-9.99200722163e-15 23:-9.99200722163e-15 24:0.0 25:0.0 26:2.55351295664e-15 27:2.55351295664e-15 28:2.55351295664e-15 29:0.0 30:0.0 
2 1:332.817455951 2:332.817455951 3:332.817455951 4:0.0 5:0.0 6:-2.79776202206e-14 7:-2.79776202206e-14 8:-2.79776202206e-14 9:0.0 10:0.0 11:-7.9936057773e-15 12:-7.9936057773e-15 13:-7.9936057773e-15 14:0.0 15:0.0 16:-3.99680288865e-15 17:-3.99680288865e-15 18:-3.99680288865e-15 19:0.0 20:0.0 21:-9.99200722163e-15 22:-9.99200722163e-15 23:-9.99200722163e-15 24:0.0 25:0.0 26:2.55351295664e-15 27:2.55351295664e-15 28:2.55351295664e-15 29:0.0 30:0.0 
2 1:332.428930598 2:331.460442346 3:332.104984682 4:0.302646856504 5:0.0915951197519 6:0.286823665104 7:-0.241922602113 8:-9.10382880193e-15 9:0.159864282667 10:0.0255565888728 11:0.284897278502 12:-0.249586220905 13:-5.18104078158e-15 14:0.162674924324 15:0.0264631310037 16:0.419008987546 17:-0.404754441942 18:-9.62193288008e-16 19:0.254443119571 20:0.0647413010969 21:0.131938787829 22:-0.139445315981 23:-2.16493489802e-15 24:0.0834163105687 25:0.00695828086889 26:0.0584697442399 27:-0.0589651212189 28:0.00051111822554 29:0.0400545709672 30:0.00160436865536 
2 1:332.391821041 2:331.92466041 3:332.080281448 4:0.146173285005 5:0.021366629249 6:0.122650716988 7:-0.140252303449 8:-7.69754630407e-15 9:0.0802178896287 10:0.00643490981648 11:0.120207271997 12:-0.143863373703 13:-5.03301104497e-15 14:0.0796964509898 15:0.00635152430037 16:0.243003726181 17:-0.244330428259 18:-4.62592926927e-15 19:0.147350278678 20:0.0217121046264 21:0.106776734502 22:-0.0886551294956 23:-2.22044604925e-16 24:0.0706638670263 25:0.00499338210311 26:0.072581389528 27:-0.0797377438172 28:0.00478390877592 29:0.0483248196851 30:0.0023352881976 
2 1:332.244959704 2:331.774266521 3:332.087484604 4:0.147077580856 5:0.0216318147906 6:0.139331034781 7:-0.117242609733 8:-1.81336427355e-14 9:0.0775492078555 10:0.00601387963901 11:0.137982598664 12:-0.121104547524 13:-5.07001847912e-15 14:0.07890759885 15:0.00622640915627 16:0.200706677612 17:-0.193442134791 18:-4.36687723019e-15 19:0.12203253156 20:0.0148919387589 21:0.0592898380043 22:-0.0567031463561 23:-1.62832710278e-15 24:0.0390559515544 25:0.00152536735182 26:0.120824555452 27:-0.0888433341096 28:0.00132892811001 29:0.0635146384111 30:0.00403410929249 
2 1:331.338567574 2:331.338567574 3:331.338567574 4:0.0 5:0.0 6:8.43769498715e-15 7:8.43769498715e-15 8:8.43769498715e-15 9:0.0 10:0.0 11:-6.66133814775e-16 12:-6.66133814775e-16 13:-6.66133814775e-16 14:0.0 15:0.0 16:-6.66133814775e-15 17:-6.66133814775e-15 18:-6.66133814775e-15 19:0.0 20:0.0 21:-6.10622663544e-15 22:-6.10622663544e-15 23:-6.10622663544e-15 24:0.0 25:0.0 26:-3.66373598126e-15 27:-3.66373598126e-15 28:-3.66373598126e-15 29:0.0 30:0.0 
2 1:331.338567574 2:331.338567574 3:331.338567574 4:0.0 5:0.0 6:8.43769498715e-15 7:8.43769498715e-15 8:8.43769498715e-15 9:0.0 10:0.0 11:-6.66133814775e-16 12:-6.66133814775e-16 13:-6.66133814775e-16 14:0.0 15:0.0 16:-6.66133814775e-15 17:-6.66133814775e-15 18:-6.66133814775e-15 19:0.0 20:0.0 21:-6.10622663544e-15 22:-6.10622663544e-15 23:-6.10622663544e-15 24:0.0 25:0.0 26:-3.66373598126e-15 27:-3.66373598126e-15 28:-3.66373598126e-15 29:0.0 30:0.0 
2 1:331.338567574 2:331.338567574 3:331.338567574 4:0.0 5:0.0 6:8.43769498715e-15 7:8.43769498715e-15 8:8.43769498715e-15 9:0.0 10:0.0 11:-6.66133814775e-16 12:-6.66133814775e-16 13:-6.66133814775e-16 14:0.0 15:0.0 16:-6.66133814775e-15 17:-6.66133814775e-15 18:-6.66133814775e-15 19:0.0 20:0.0 21:-6.10622663544e-15 22:-6.10622663544e-15 23:-6.10622663544e-15 24:0.0 25:0.0 26:-3.66373598126e-15 27:-3.66373598126e-15 28:-3.66373598126e-15 29:0.0 30:0.0 
2 1:331.302180651 2:331.211477929 3:331.271841846 4:0.0283440646857 5:0.000803386002906 6:0.0268621607738 7:-0.022657000183 8:-2.14643118094e-15 9:0.0149719168446 10:0.000224158294002 11:0.0266817471157 12:-0.0233747281293 13:-4.55191440096e-15 14:0.0152351444552 15:0.000232109626572 16:0.0392418344736 17:-0.0379068403905 18:-2.22044604925e-16 19:0.0238295957316 20:0.000567849632732 21:0.0123565847667 22:-0.0130596005587 23:-3.64523226419e-15 24:0.00781226453137 25:6.1031477108e-05 26:0.00547592078779 27:-0.00552231478408 28:4.78682257374e-05 29:0.00375126761125 30:1.40720086912e-05 
2 1:331.210021218 2:331.210021218 3:331.210021218 4:5.68434188608e-14 5:3.23117426779e-27 6:3.10862446895e-15 7:3.10862446895e-15 8:3.10862446895e-15 9:0.0 10:0.0 11:2.22044604925e-16 12:2.22044604925e-16 13:2.22044604925e-16 14:0.0 15:0.0 16:-6.2172489379e-15 17:-6.2172489379e-15 18:-6.2172489379e-15 19:0.0 20:0.0 21:-7.43849426499e-15 22:-7.43849426499e-15 23:-7.43849426499e-15 24:0.0 25:0.0 26:-1.44328993201e-15 27:-1.44328993201e-15 28:-1.44328993201e-15 29:0.0 30:0.0 
2 1:331.210021218 2:331.210021218 3:331.210021218 4:5.68434188608e-14 5:3.23117426779e-27 6:3.10862446895e-15 7:3.10862446895e-15 8:3.10862446895e-15 9:0.0 10:0.0 11:2.22044604925e-16 12:2.22044604925e-16 13:2.22044604925e-16 14:0.0 15:0.0 16:-6.2172489379e-15 17:-6.2172489379e-15 18:-6.2172489379e-15 19:0.0 20:0.0 21:-7.43849426499e-15 22:-7.43849426499e-15 23:-7.43849426499e-15 24:0.0 25:0.0 26:-1.44328993201e-15 27:-1.44328993201e-15 28:-1.44328993201e-15 29:0.0 30:0.0 
2 1:331.102235928 2:330.833556456 3:331.012366364 4:0.0839607474999 5:0.00704940712074 6:0.079571053871 7:-0.0671145332389 8:1.85037170771e-15 9:0.0443497904665 10:0.00196690391442 11:0.0790366327937 12:-0.0692405859254 13:-2.33146835171e-15 14:0.0451295229148 15:0.00203667383852 16:0.116242105436 17:-0.11228758789 18:3.25665420557e-15 19:0.0705879940804 20:0.00498266490829 21:0.0366026575604 22:-0.0386851299246 23:-5.14403334743e-15 24:0.0231414787185 25:0.000535528037281 26:0.0162207646536 27:-0.0163581928824 28:0.000141795189195 29:0.0111119995034 30:0.000123476532964 
2 1:330.829241388 2:330.829241388 3:330.829241388 4:0.0 5:0.0 6:-6.66133814775e-15 7:-6.66133814775e-15 8:-6.66133814775e-15 9:0.0 10:0.0 11:3.33066907388e-15 12:3.33066907388e-15 13:3.33066907388e-15 14:0.0 15:0.0 16:-7.54951656745e-15 17:-7.54951656745e-15 18:-7.54951656745e-15 19:0.0 20:0.0 21:-2.22044604925e-15 22:-2.22044604925e-15 23:-2.22044604925e-15 24:0.0 25:0.0 26:3.44169137634e-15 27:3.44169137634e-15 28:3.44169137634e-15 29:0.0 30:0.0 
2 1:330.65308932 2:330.02005867 3:330.441302601 4:0.197803197497 5:0.0391261049401 6:0.187384943577 7:-0.157678437142 8:-1.2730557349e-14 9:0.104295169854 10:0.0108774824549 11:0.185571445055 12:-0.16287231944 13:-1.55431223448e-15 14:0.106122056594 15:0.0112618908957 16:0.269928444291 17:-0.260158431826 18:-4.81096644004e-15 19:0.164120356078 20:0.0269354912791 21:0.0797383222382 22:-0.0762595059837 23:-3.49720252757e-15 24:0.0525259665937 25:0.0027589771666 26:0.162495760846 27:-0.119484529599 28:0.00178726239495 29:0.0854202149126 30:0.00729661311572 
2 1:329.199485123 2:328.614675293 3:329.003874329 4:0.182749616853 5:0.0333974224598 6:0.173194975515 7:-0.146082015702 8:4.4408920985e-15 9:0.0965320993033 10:0.0093184461959 11:0.172031750437 12:-0.150709598536 13:1.59131966863e-15 14:0.0982292710226 15:0.00964898968562 16:0.253013471927 17:-0.244406038241 18:-5.77315972805e-15 19:0.153642377619 20:0.0236059802005 21:0.0796696294891 22:-0.0842023550543 23:-1.22124532709e-15 24:0.050369922793 25:0.00253712912218 26:0.0353062426643 27:-0.0356053700173 28:0.000308632513031 29:0.0241864646539 30:0.000584985072453 
2 1:328.088263087 2:327.584833842 3:327.92056021 4:0.157521635041 5:0.024813065506 6:0.151140970506 7:-0.132172862355 8:-3.84877315203e-15 9:0.0864457081433 10:0.00747286045639 11:0.15503239082 12:-0.129539717385 13:-3.9597954545e-15 14:0.0858837869484 15:0.0073760248606 16:0.263299333722 17:-0.261869631431 18:2.14643118094e-15 19:0.158790006124 20:0.0252142660449 21:0.0955379839242 22:-0.115066482925 23:-2.77555756156e-15 24:0.07614994677 25:0.00579881439307 26:0.0859282855973 27:-0.078216338585 28:-0.00515531365562 29:0.0520765789017 30:0.0027119700701 
2 1:328.03770665 2:327.696810033 3:327.810860397 4:0.106520025432 5:0.0113465158181 6:0.0849122326992 7:-0.100909637499 8:-1.11762451146e-14 9:0.0561645326563 10:0.0031544547285 11:0.0877092171843 12:-0.0999330410071 13:-1.06951484706e-14 14:0.0571483389064 15:0.00326593263976 16:0.140099265963 17:-0.14536056603 18:-6.55031584529e-15 19:0.0883813038645 20:0.0078112548728 21:0.0410669019492 22:-0.042940297327 23:3.70074341542e-17 24:0.0282860306012 25:0.000800099527173 26:0.0643442335246 27:-0.0875064346631 28:-0.000962467938703 29:0.0460000828099 30:0.00211600761852 
2 1:328.348677719 2:328.337258053 3:328.344857999 4:0.00356857811412 5:1.27347497566e-05 6:0.00338200325527 7:-0.00285256458034 8:-3.92278802034e-15 9:0.00188499621951 10:3.55321074755e-06 11:0.00335928879149 12:-0.00294292805745 13:-2.22044604925e-15 14:0.00191813713634 15:3.67925007382e-06 16:0.00494063054165 17:-0.0047725519432 18:-5.51410768897e-15 19:0.00300019685742 20:9.00118118325e-06 21:0.00155572034049 22:-0.00164423152606 23:-8.32667268469e-16 24:0.000983580743888 25:9.67431079747e-07 26:0.000689430090385 27:-0.000695271193333 28:6.02671157598e-06 29:0.000472292582107 30:2.23060283113e-07 
2 1:328.004494775 2:327.680657327 3:327.896617706 4:0.101327852614 5:0.0102673337153 6:0.0972234066726 7:-0.085021922943 8:-1.36187357687e-14 9:0.0556073327424 10:0.00309217545472 11:0.0997266137017 12:-0.083328117991 13:-5.69914485974e-15 14:0.0552458695821 15:0.00305210610588 16:0.169370741193 17:-0.168451066489 18:-4.32986979604e-15 19:0.102143748907 20:0.0104333454409 21:0.0614560580938 22:-0.0740180205698 23:-2.83106871279e-15 24:0.0489844495384 25:0.00239947629658 26:0.0552744939202 27:-0.0503136831082 28:-0.00331622295655 29:0.0334989407024 30:0.00112217902819 
2 1:327.691667178 2:327.691667178 3:327.691667178 4:0.0 5:0.0 6:-1.68753899743e-14 7:-1.68753899743e-14 8:-1.68753899743e-14 9:0.0 10:0.0 11:-4.4408920985e-15 12:-4.4408920985e-15 13:-4.4408920985e-15 14:0.0 15:0.0 16:-1.26565424807e-14 17:-1.26565424807e-14 18:-1.26565424807e-14 19:0.0 20:0.0 21:-8.881784197e-16 22:-8.881784197e-16 23:-8.881784197e-16 24:0.0 25:0.0 26:5.55111512313e-16 27:5.55111512313e-16 28:5.55111512313e-16 29:0.0 30:0.0 
2 1:327.691667178 2:327.691667178 3:327.691667178 4:0.0 5:0.0 6:-1.68753899743e-14 7:-1.68753899743e-14 8:-1.68753899743e-14 9:0.0 10:0.0 11:-4.4408920985e-15 12:-4.4408920985e-15 13:-4.4408920985e-15 14:0.0 15:0.0 16:-1.26565424807e-14 17:-1.26565424807e-14 18:-1.26565424807e-14 19:0.0 20:0.0 21:-8.881784197e-16 22:-8.881784197e-16 23:-8.881784197e-16 24:0.0 25:0.0 26:5.55111512313e-16 27:5.55111512313e-16 28:5.55111512313e-16 29:0.0 30:0.0 
2 1:327.992475495 2:327.844074479 3:327.893509981 4:0.046434272445 5:0.0021561416575 6:0.0389619540125 7:-0.0445533783358 8:-5.40308538651e-15 9:0.0254824904692 10:0.000649357320513 11:0.0381857547882 12:-0.0457004923246 13:-5.95819689882e-15 14:0.0253168471794 15:0.000640942751103 16:0.0771940045427 17:-0.0776154525914 18:-3.47869881049e-15 19:0.0468081632342 20:0.00219100414536 21:0.0339193306116 22:-0.0281627141137 23:-1.72084568817e-15 24:0.022447502999 25:0.00050389039089 26:0.0230566345668 27:-0.0253299645037 28:0.00151968482781 29:0.0153511487619 30:0.000235657768308 
2 1:329.139456442 2:329.023809417 3:329.061268333 4:0.0366157457686 5:0.00134071283819 6:0.0405813524626 7:-0.0369648411443 8:-1.25085127441e-14 9:0.0289061017303 10:0.000835562717244 11:0.0349866602694 12:-0.0498335143849 13:-2.2574534834e-15 14:0.0281817170432 15:0.000794209175503 16:0.157715544099 17:-0.148643557033 18:-2.59052039079e-16 19:0.0947791435795 20:0.00898308605765 21:0.254991531729 22:-0.25231833632 23:-3.9597954545e-15 24:0.152809234974 25:0.0233506622932 26:0.0472087775981 27:-0.0387543769673 28:-0.00311299596841 29:0.030602324153 30:0.000936502243565 
2 1:329.134051875 2:329.134051875 3:329.134051875 4:0.0 5:0.0 6:-1.02140518266e-14 7:-1.02140518266e-14 8:-1.02140518266e-14 9:0.0 10:0.0 11:-1.26565424807e-14 12:-1.26565424807e-14 13:-1.26565424807e-14 14:0.0 15:0.0 16:-1.57651669497e-14 17:-1.57651669497e-14 18:-1.57651669497e-14 19:0.0 20:0.0 21:-2.99760216649e-15 22:-2.99760216649e-15 23:-2.99760216649e-15 24:0.0 25:0.0 26:-2.77555756156e-15 27:-2.77555756156e-15 28:-2.77555756156e-15 29:0.0 30:0.0 
