1 1:5323.62779458 2:5323.58153464 3:5323.61233052 4:0.0144599305375 5:0.000209089591149 6:0.0136918595673 7:-0.0116521837852 8:2.25005199657e-14 9:0.00767460698243 10:5.88995923348e-05 11:0.0138353129599 12:-0.0121328762989 13:-2.54611146981e-14 14:0.00790487591028 15:6.2487063157e-05 16:0.0213090562293 17:-0.0207117638393 18:-8.64493661841e-14 19:0.0128969113828 20:0.000166330323216 21:0.00479516909321 22:-0.00613457022287 23:-3.28626015289e-14 24:0.00344650150622 25:1.18783726324e-05 26:0.00841014601188 27:-0.0108973217659 28:0.000524135046264 29:0.00650922273755 30:4.23699806471e-05 
1 1:5323.6155445 2:5323.5722475 3:5323.60090158 4:0.0134858497159 5:0.000181868142561 6:0.0123498855696 7:-0.0093130533014 8:-1.27897692437e-13 9:0.00669857732141 10:4.48709381309e-05 11:0.0110929029464 12:-0.0111703602432 13:-1.62240591332e-13 14:0.00751399450574 15:5.64601134324e-05 16:0.0123445653256 17:-0.00775594624798 18:-8.881784197e-14 19:0.00748701470796 20:5.60553892372e-05 21:0.0304200121394 22:-0.0314710831883 23:-5.62512999143e-15 24:0.0188566519724 25:0.00035557332361 26:0.0224590380534 27:-0.0290552243458 28:0.00142217070663 29:0.0187280172759 30:0.000350738631086 
1 1:5323.80165955 2:5323.74771309 3:5323.76558343 4:0.016928334412 5:0.000286568505965 6:0.0151972913646 7:-0.0161585387684 8:-1.55135163974e-13 9:0.0099795447132 10:9.95913126827e-05 11:0.0158573740748 12:-0.0188794991012 13:-5.38828241285e-14 14:0.0104837100313 15:0.00010990817602 16:0.0420064122937 17:-0.041245383459 18:-9.00020798629e-14 19:0.0250978276869 20:0.000629900954601 21:0.0432819137668 22:-0.0426101821847 23:-1.09542005096e-14 24:0.0259087334713 25:0.000671262470088 26:0.0637146224501 27:-0.0524130343254 28:-0.0035022343435 29:0.0364982205664 30:0.00133212010451 
1 1:5323.88461058 2:5323.789509 3:5323.85269532 4:0.0296899199544 5:0.000881491346897 6:0.0278140031769 7:-0.0227849751952 8:-1.31450406116e-13 9:0.0152757754488 10:0.000233349315563 11:0.0270552122039 12:-0.0247638315344 13:-6.80936788437e-14 14:0.016104974174 15:0.000259370193146 16:0.0349050432701 17:-0.0325957857591 18:-2.36847578587e-15 19:0.0218192075729 20:0.000476077819108 21:0.0176413984885 22:-0.0211068393749 23:6.80936788437e-15 24:0.0140264526141 25:0.000196741372936 26:0.0312788049294 27:-0.0295329990463 28:0.00140790680181 29:0.018673118301 30:0.000348685347085 
1 1:5323.85980961 2:5323.84932516 3:5323.85617176 4:0.00324592008053 5:1.05359971692e-05 6:0.00278271411347 7:-0.00230844189706 8:-5.92118946467e-15 9:0.00198665008204 10:3.94677854849e-06 11:0.00336859610458 12:-0.00307699101135 13:1.53950926081e-14 14:0.00223080834898 15:4.9765058899e-06 16:0.00672521344512 17:-0.00679762602893 18:-9.94759830064e-14 19:0.00514280799636 20:2.64484740875e-05 21:0.0236435714343 22:-0.0249467199826 23:-5.59552404411e-14 24:0.0148695285095 25:0.000221102878094 26:0.0235321055127 27:-0.0354285031206 28:-0.000194835587518 29:0.0179554265202 30:0.000322397341522 
1 1:5323.72652872 2:5323.70043211 3:5323.71802541 4:0.00824474670371 5:6.79758482084e-05 6:0.00817008435202 7:-0.00869242058011 8:-1.71714494475e-13 9:0.00606000723785 10:3.67236877227e-05 11:0.0108142299216 12:-0.00803460666272 13:-1.22568621919e-13 14:0.00596444373176 15:3.55745890293e-05 16:0.0306012749776 17:-0.0322141425455 18:-1.48029736617e-14 19:0.0192856296455 20:0.000371935510823 21:0.0495432776746 22:-0.0502547735699 23:-3.52310773148e-14 24:0.0300676455217 25:0.000904063307216 26:0.0231823337159 27:-0.0222947083218 28:0.00131817268709 29:0.0160585495778 30:0.000257877014543 
1 1:5323.80814409 2:5323.76702973 3:5323.79428098 4:0.0128145466531 5:0.000164212605926 6:0.0119592474617 7:-0.00920150194867 8:-3.5527136788e-15 9:0.00648349083276 10:4.20356533785e-05 11:0.010551918933 12:-0.00995150636304 13:-4.61852778244e-14 14:0.00652024864218 15:4.25136423558e-05 16:0.0101846086326 17:-0.0067072210405 18:-4.32246830921e-14 19:0.00670265070952 20:4.49255265338e-05 21:0.0246771885547 22:-0.0265697441252 23:-5.38828241285e-14 24:0.0160398321108 25:0.000257276214144 26:0.010185927847 27:-0.00677166255614 28:-0.000689423593963 29:0.00574680529928 30:3.30257711478e-05 
1 1:5323.9018359 2:5323.84480425 3:5323.88259901 4:0.0177735638721 5:0.000315899572716 6:0.0165891636087 7:-0.0126949674954 8:-1.93030776548e-13 9:0.00899385415737 10:8.0889412604e-05 11:0.0144932916242 12:-0.01368474342 13:-1.21384384026e-13 14:0.00897152458702 15:8.04882534155e-05 16:0.0142450201201 17:-0.00841367409584 18:-3.90798504668e-14 19:0.00906385237187 20:8.2153419819e-05 21:0.032885654804 22:-0.0366799751572 23:-2.96059473233e-14 24:0.022418337095 25:0.000502581838107 26:0.0399787230625 27:-0.0520224526668 28:-0.00161051315996 29:0.0294298540174 30:0.000866116307483 
1 1:5324.02463468 2:5323.96009938 3:5323.98177964 4:0.0201382209094 5:0.000405547941397 6:0.0152214396767 7:-0.0189019477452 8:-1.45661260831e-13 9:0.0103186956693 10:0.000106475480316 11:0.016241451759 12:-0.0177734102875 13:-4.02640883597e-14 14:0.01056826701 15:0.000111688267595 16:0.0185876827601 17:-0.0203606345496 18:-4.38168020385e-14 19:0.0131351352031 20:0.000172531776803 21:0.0215919883603 22:-0.0183860912782 23:-2.72374715375e-14 24:0.0138706115407 25:0.000192393864514 26:0.0292746618816 27:-0.0204313757414 28:0.000413027865203 29:0.0150059150526 30:0.000225177486565 
1 1:5323.93451743 2:5323.88289572 3:5323.90020515 4:0.0161151724556 5:0.000259698783274 6:0.0124532864948 7:-0.0153102225426 8:-1.80004159726e-13 9:0.00838587619803 10:7.03229196087e-05 11:0.0124256818533 12:-0.0141982417792 13:-1.04212934578e-13 14:0.00810679214502 15:6.57200788825e-05 16:0.0155241866567 17:-0.0166733664882 18:-6.86857977901e-14 19:0.010493888258 20:0.000110121690771 21:0.016477359801 22:-0.0138529461981 23:-1.62832710278e-14 24:0.0108139760419 25:0.000116942077836 26:0.0240015754437 27:-0.0307726247576 28:0.00179487790722 29:0.0179804960992 30:0.000323298239972 
1 1:5324.14862513 2:5324.04443925 3:5324.07914399 4:0.0326042540093 5:0.0010630373795 6:0.027400956347 7:-0.0311766717556 8:-1.93030776548e-13 9:0.0179089972291 10:0.000320732181753 11:0.0274501217409 12:-0.0325034139988 13:-5.80276567537e-14 14:0.0181027859859 15:0.000327710860451 16:0.0563841500148 17:-0.0566554035866 18:6.51330841113e-15 19:0.0341641799237 20:0.00116719118986 21:0.0270846772805 22:-0.023946032037 23:-6.63173220043e-14 24:0.0169098147327 25:0.000285941834293 26:0.0145953116123 27:-0.0194480140669 28:-0.000637231080399 29:0.0117022402396 30:0.000136942426625 
1 1:5323.92306914 2:5323.87468736 3:5323.90727052 4:0.0152576651578 5:0.000232796346067 6:0.0152390680617 7:-0.0157432025456 8:-1.74082970261e-13 9:0.0107642588375 10:0.00011586926832 11:0.018987271671 12:-0.0137545215643 13:-5.03301104497e-14 14:0.0105549024232 15:0.000111405965163 16:0.0508229259443 17:-0.0534931266069 18:-4.91458725567e-14 19:0.0320079009601 20:0.00102450572387 21:0.0770676735798 22:-0.0790548304978 23:-2.72374715375e-14 24:0.0471266877527 25:0.00222092469854 26:0.0242082882087 27:-0.0302902023192 28:-1.04656111271e-05 29:0.0159291707662 30:0.000253738481298 
1 1:5323.78370064 2:5323.68447746 3:5323.75063393 4:0.0310486659341 5:0.000964019656285 6:0.0295979547158 7:-0.0259689099101 8:-8.52651282912e-14 9:0.0169780051656 10:0.000288252659404 11:0.0309840874507 12:-0.0264365412437 13:-1.26713454544e-13 14:0.0173583008432 15:0.000301310608162 16:0.053878587607 17:-0.0535002470069 18:-4.08562073062e-14 19:0.0324812301092 20:0.00105503030941 21:0.0235372997535 22:-0.0268882581831 23:-5.59552404411e-14 24:0.0167989814252 25:0.000282205776926 26:0.0224110650206 27:-0.0236147700513 28:0.00120428644251 29:0.0141607529491 30:0.000200526924085 
1 1:5323.68405062 2:5323.66243395 3:5323.66976027 4:0.00673111723496 5:4.53079392307e-05 6:0.00452561147475 7:-0.006042703827 8:-1.80004159726e-13 9:0.0032784297963 10:1.07481019293e-05 11:0.00603762299417 12:-0.00566554657466 13:-1.13686837722e-13 14:0.00420131542827 15:1.76510513278e-05 16:0.0043042269803 17:-0.00682648370387 18:-6.2172489379e-14 19:0.00413741904445 20:1.71182363494e-05 21:0.0146814550302 22:-0.014320851115 23:-2.69414120642e-14 24:0.00879010159473 25:7.72658860457e-05 26:0.0357200384379 27:-0.0324596944885 28:-0.00186884669018 29:0.0210021041787 30:0.000441088379933 
1 1:5323.87923782 2:5323.73093389 3:5323.78050469 4:0.0463492653599 5:0.0021482543994 6:0.0373277706607 7:-0.0441741101613 8:-1.45661260831e-13 9:0.0246474478412 10:0.000607496685083 11:0.0373190952555 12:-0.0434215371148 13:-3.37507799486e-14 14:0.0244490366081 15:0.000597755391064 16:0.0617343280073 17:-0.0636322047549 18:-6.92779167366e-14 19:0.0385732640648 20:0.00148789670061 21:0.0237487091597 22:-0.0224446566872 23:1.3914795242e-14 24:0.0141608786886 25:0.000200530485233 26:0.0304115901686 27:-0.0388919057778 28:0.00235513212154 29:0.0231412778471 30:0.000535518740396 
1 1:5323.85151645 2:5323.68431227 3:5323.79548729 4:0.0522186573014 5:0.00272678817036 6:0.0492932129724 7:-0.040794717403 8:-1.12502599829e-13 9:0.0271949349034 10:0.0007395644844 11:0.0478705509532 12:-0.0426571058878 13:-2.13162820728e-14 14:0.0277436724824 15:0.000769711362809 16:0.0641393223475 17:-0.0607818086696 18:-1.01252339846e-13 19:0.0395138978139 20:0.00156134812045 21:0.0279975040113 22:-0.0297190140664 23:-6.92779167366e-14 24:0.0215292719125 25:0.000463509549083 26:0.00645798775764 27:-0.00385158216823 28:-0.000123158442256 29:0.00334604913827 30:1.11960448357e-05 
1 1:5323.83017456 2:5323.79293528 3:5323.81750972 4:0.0115793607598 5:0.000134081595605 6:0.0105936689035 7:-0.00729803298357 8:9.47390314347e-15 9:0.00591680572971 10:3.50085900431e-05 11:0.00814892096249 12:-0.00854170034687 13:-2.00136203906e-13 14:0.00592425585457 15:3.50968074305e-05 16:0.0122293279841 17:-0.0110495010338 18:-5.56591809679e-14 19:0.00713727395699 20:5.09406795371e-05 21:0.0443535952872 22:-0.0464804527669 23:-2.54611146981e-14 24:0.0277968033473 25:0.00077266227633 26:0.0154021519239 27:-0.0113539163172 28:-0.00102071190578 29:0.00986847103645 30:9.73867205973e-05 
1 1:5323.84310884 2:5323.79293307 3:5323.80977721 4:0.015660102561 5:0.000245238812221 6:0.0119418346323 7:-0.0147536550724 8:-1.25529216651e-13 9:0.00806715569843 10:6.50790010627e-05 11:0.0124976334109 12:-0.0138621050998 13:-1.56319401867e-13 14:0.00812838841287 15:6.60706981905e-05 16:0.0149534062342 17:-0.0162329409189 18:-4.20404451991e-14 19:0.010342746116 20:0.00010697239722 21:0.0165559770195 22:-0.0144189265762 23:1.45069141884e-14 24:0.010503456037 25:0.00011032258872 26:0.00518115213291 27:-0.00788214971387 28:0.000549480589523 29:0.00459154819319 30:2.10823148104e-05 
1 1:5323.83561475 2:5323.76736433 3:5323.81289066 4:0.0213534148522 5:0.000455968325849 6:0.0206818922042 7:-0.0179819217111 8:-1.3737159558e-13 9:0.0117715214544 10:0.000138568717352 11:0.0205503564063 12:-0.0166236314951 13:-1.25529216651e-13 14:0.0112507027469 15:0.0001265783123 16:0.0334874735948 17:-0.0333687120008 18:-4.97379915032e-14 19:0.020206535215 20:0.000408304065396 21:0.00748862147437 22:-0.0119101904016 23:-4.32246830921e-14 24:0.00764173875558 25:5.83961712085e-05 26:0.0492867979288 27:-0.05368986995 28:-0.00277297228176 29:0.0334501908845 30:0.00111891527021 
1 1:5323.88048117 2:5323.67263275 3:5323.81068678 4:0.0648672143495 5:0.00420775549747 6:0.0609839754398 7:-0.0493109363208 8:-2.97243711126e-13 9:0.0333340236271 10:0.00111115713117 11:0.0575087309594 12:-0.0522229680219 13:-7.93439388265e-14 14:0.0339672522952 15:0.00115377422849 16:0.067408016188 17:-0.0619412662166 18:-6.63173220043e-14 19:0.0430723116953 20:0.00185522403477 21:0.0632221107926 22:-0.0707165148581 23:-1.86517468137e-14 24:0.0440423145435 25:0.00193972547035 26:0.0348725753148 27:-0.0242734296301 28:-0.000653383419835 29:0.0179021262652 30:0.000320486124814 
1 1:5323.79464864 2:5323.74789568 3:5323.76326609 4:0.0147000715778 5:0.000216092104392 6:0.0142131152835 7:-0.0145286055272 8:-9.71075072205e-14 9:0.00944820847912 10:8.9268643465e-05 11:0.0126586836839 12:-0.0168870675131 13:-1.06581410364e-13 14:0.00926737175562 15:8.58841792569e-05 16:0.0418017063932 17:-0.0401427384651 18:-9.59232693276e-14 19:0.0249282529925 20:0.00062141779726 21:0.0518572902701 22:-0.0501474527464 23:-2.87177689036e-14 24:0.030887251404 25:0.000954022299295 26:0.0108678711956 27:-0.0113715843783 28:0.000545682295805 29:0.00789110242702 30:6.22694975137e-05 
1 1:5323.93792621 2:5323.90951967 3:5323.91878332 4:0.00895585411982 5:8.02073230155e-05 6:0.00932763263417 7:-0.00908967829091 8:-5.21064672891e-14 9:0.00634758769828 10:4.02918695873e-05 11:0.00744368905297 12:-0.0108788335315 13:-8.23045335589e-14 14:0.00622439857606 15:3.87431376336e-05 16:0.0303065437897 17:-0.0286548699259 18:7.69754630407e-15 19:0.0181660882893 20:0.000330006763734 21:0.040955330165 22:-0.0404255923552 23:-4.17443857259e-14 24:0.0245375478305 25:0.000602091253536 26:0.0325076675212 27:-0.0296367836762 28:0.00120127835932 29:0.0213822480734 30:0.000457200532671 
1 1:5323.79343434 2:5323.70676642 3:5323.76471293 4:0.0271693433315 5:0.000738173217063 6:0.0263496584987 7:-0.0241836311174 8:4.26325641456e-14 9:0.0157992187521 10:0.000249615313177 11:0.0286287270431 12:-0.0229450452974 13:-1.81780516565e-13 14:0.0156525755868 15:0.000245003122502 16:0.0574116323541 17:-0.0584831182887 18:-9.53311503811e-14 19:0.0349347251011 20:0.00122043501789 21:0.0482325218892 22:-0.0514673712764 23:-1.36187357687e-14 24:0.0307421944008 25:0.000945082516577 26:0.0100153120805 27:-0.00845811904468 28:-0.000524617243185 29:0.00767572352107 30:5.89167315719e-05 
1 1:5323.88574254 2:5323.83747999 3:5323.85330596 4:0.0151768776568 5:0.000230337615411 6:0.0149863974964 7:-0.0153496509115 8:-8.28966525053e-14 9:0.00994501404009 10:9.89033042576e-05 11:0.0116818463815 12:-0.0169850139907 13:-9.47390314347e-14 14:0.00966313998123 15:9.33762742969e-05 16:0.0417968183018 17:-0.0397602432419 18:-8.17124146124e-14 19:0.024970470373 20:0.00062352439065 21:0.0506449607388 22:-0.048117896837 23:-2.22044604925e-14 24:0.0301617714063 25:0.000909732454364 26:0.0721486454298 27:-0.0766469119524 28:0.00410660228707 29:0.0456315590459 30:0.00208223918096 
1 1:5323.88348154 2:5323.7991591 3:5323.82740124 4:0.0263366381998 5:0.000693618511666 6:0.0206877950767 7:-0.0249523379914 8:-4.73695157173e-14 9:0.0137780187894 10:0.00018983380176 11:0.0212006594969 12:-0.0240889066829 13:-5.74355378073e-14 14:0.0138110966619 15:0.000190746391006 16:0.0306989633051 17:-0.0322908192584 18:-6.39488462184e-14 19:0.019840415686 20:0.000393642094593 21:0.0178488860971 22:-0.0158221049775 23:-8.79296635503e-14 24:0.0115248077511 25:0.0001328211937 26:0.0410852328083 27:-0.0617721765513 28:0.000365726640478 29:0.0315985542292 30:0.000998468629374 
1 1:5324.06360917 2:5323.93886089 3:5323.98073371 4:0.0389350107528 5:0.00151593506232 6:0.029729775824 7:-0.0367380929044 8:-3.5527136788e-15 9:0.0200867155392 10:0.000403476141151 11:0.0308276164335 12:-0.0343680993076 13:4.26325641456e-14 14:0.0200537267703 15:0.000402151957378 16:0.036810291118 17:-0.0399506791177 18:-9.7699626167e-14 19:0.0254551117528 20:0.000647962714347 21:0.0424833377222 22:-0.0372194615849 23:-4.55931588779e-14 24:0.0268419490985 25:0.000720490231405 26:0.0247728441388 27:-0.029452563028 28:0.00190876415181 29:0.0170526919119 30:0.000290794301441 
1 1:5324.293093 2:5324.08325745 3:5324.15350557 4:0.0655522824552 5:0.00429710173508 6:0.0518238979716 7:-0.0620378669617 8:-2.02504679692e-13 9:0.034388261878 10:0.00118255255499 11:0.0536430798629 12:-0.0608287432191 13:-7.87518198801e-14 14:0.0349276845064 15:0.00121994314498 16:0.0816790538146 17:-0.0853085164754 18:-1.50990331349e-13 19:0.0521082277247 20:0.00271526739661 21:0.0290065711172 22:-0.0325708618477 23:-5.03301104497e-14 24:0.02193747839 25:0.00048125295811 26:0.012373698345 27:-0.00910539093206 28:0.000465220378763 29:0.00674214476956 30:4.54565160937e-05 
1 1:5324.00673659 2:5323.9773593 3:5323.98755523 4:0.00909879382871 5:8.27880491373e-05 6:0.00699040471822 7:-0.00801533379123 8:-6.63173220043e-14 9:0.00583131930596 10:3.4004284848e-05 11:0.00760310585433 12:-0.00826118044344 13:-3.43428988951e-14 14:0.00546851437487 15:2.99046494681e-05 16:0.0199101294665 17:-0.0218726449795 18:4.73695157173e-15 19:0.0158295089438 20:0.000250573353401 21:0.0811490331404 22:-0.0788991268262 23:1.83556873405e-14 24:0.0485102099272 25:0.00235324046718 26:0.0183148563811 27:-0.029461952029 28:0.00187114355667 29:0.0168060317476 30:0.0002824427031 
1 1:5324.10188822 2:5324.06113219 3:5324.08805064 4:0.0126785856934 5:0.000160746535186 6:0.0116158184741 7:-0.00821862755781 8:-7.34227493619e-14 9:0.00640800406992 10:4.106251616e-05 11:0.00933211083193 12:-0.0096272324024 13:-7.28306304154e-14 14:0.00659616258241 15:4.35093608137e-05 16:0.0128354435062 17:-0.010718629979 18:-2.96059473233e-15 19:0.00710861877079 20:5.05324608284e-05 21:0.0447231565682 22:-0.0461503377021 23:-7.6087284621e-14 24:0.0276304034189 25:0.000763439193091 26:0.0201898321919 27:-0.0144523975241 28:-0.000342369950231 29:0.0105821322624 30:0.00011198152322 
1 1:5324.14464765 2:5323.98381134 3:5324.09054001 4:0.0501690324369 5:0.00251693181566 6:0.0468541454098 7:-0.0372374009842 8:-1.63424829225e-13 9:0.0254916496589 10:0.000649824202333 11:0.0436388818941 12:-0.0406704280428 13:2.07241631263e-14 14:0.0265393628884 15:0.000704337782524 16:0.0462892622699 17:-0.0412092776638 18:-4.50010399315e-14 19:0.0310712011613 20:0.000965419541605 21:0.0603147593275 22:-0.0673536410034 23:-7.84557604068e-14 24:0.0415195791203 25:0.00172387545033 26:0.0285553779801 27:-0.0399091436887 28:0.000284390289994 29:0.0226908273954 30:0.000514873647886 
1 1:5324.02649529 2:5324.0011864 3:5324.00974809 4:0.0078815655432 5:6.21190754118e-05 6:0.00541044504153 7:-0.00725438732013 8:-3.67113746809e-14 9:0.00394110719144 10:1.55323258944e-05 11:0.00627963957137 12:-0.0063044770647 13:-5.15143483426e-14 14:0.0042049405154 15:1.76815247381e-05 16:0.00485328639815 17:-0.00718579973455 18:-8.76336040771e-14 19:0.00414134403474 20:1.7150730414e-05 21:0.0216123500029 22:-0.0212760042313 23:-7.75675819871e-14 24:0.0129819329062 25:0.000168530581981 26:0.0225664118992 27:-0.0293255280956 28:-0.00041952099946 29:0.0156781649428 30:0.000245804855974 
1 1:5323.85250288 2:5323.5468262 3:5323.75047997 4:0.0955900236402 5:0.00913745261954 6:0.0911069890784 7:-0.0784502704149 8:-1.172395514e-13 9:0.0514845123901 10:0.00265065501605 11:0.092461587254 12:-0.0791956224766 13:-3.37507799486e-14 14:0.0519337955633 15:0.00269711912161 16:0.1484640831 17:-0.145909753406 18:-7.87518198801e-14 19:0.0895786139018 20:0.00802432806857 21:0.0324571273673 22:-0.0512329616058 23:3.5527136788e-15 24:0.0333933071449 25:0.00111511296207 26:0.0299739442718 27:-0.0382934757045 28:-0.000662039590223 29:0.0202904199634 30:0.000411701142289 
1 1:5323.80277543 2:5323.72689168 3:5323.77716226 4:0.0236438091944 5:0.000559029713221 6:0.0220476883277 7:-0.0167213359464 8:-2.96059473233e-14 9:0.0119581608111 10:0.000142997609984 11:0.0190101844352 12:-0.0180564980394 13:-9.71075072205e-14 14:0.0118620613073 15:0.000140708498458 16:0.019439176824 17:-0.0121871215783 18:-3.90798504668e-14 19:0.0117777855439 20:0.000138716232319 21:0.0518950864952 22:-0.0557350108807 23:-5.56591809679e-14 24:0.033579731181 25:0.00112759834619 26:0.0296990833351 27:-0.0195437189731 28:-0.00188191718149 29:0.0173919488118 30:0.000302479883472 
1 1:5324.08120136 2:5323.96299138 3:5324.00231518 4:0.0370081753236 5:0.00136960504078 6:0.0315733354688 7:-0.0355497964073 8:-1.36187357687e-13 9:0.0206125016668 10:0.000424875224962 11:0.0310098292883 12:-0.037332926715 13:-9.17784367023e-14 14:0.0206268439386 15:0.000425466690867 16:0.0675142382171 17:-0.0673726821454 18:-9.17784367023e-14 19:0.040682123937 20:0.00165503520802 21:0.0375393583567 22:-0.0343685314265 23:-5.41788836017e-14 24:0.022881423376 25:0.000523559535712 26:0.0300338190481 27:-0.0456348472661 28:-0.000210118722584 29:0.0228977769005 30:0.000524308186987 
1 1:5323.89846382 2:5323.89143534 3:5323.8943457 4:0.00226600119092 5:5.13476139725e-06 6:0.0113752708561 7:-0.0110568792935 8:-9.23705556488e-14 9:0.00679084591995 10:4.61155883085e-05 11:0.0132024259995 12:-0.0125686550863 13:-1.00068101953e-13 14:0.00786364716427 15:6.18369467241e-05 16:0.0375798331824 17:-0.0425759605277 18:-7.57912251477e-14 19:0.0275517805703 20:0.000759100612593 21:0.106565255917 22:-0.105920873844 23:-7.57912251477e-14 24:0.0640259293721 25:0.00409931963197 26:0.0382292687869 27:-0.0441947804448 28:-0.00177301741507 29:0.0251799282293 30:0.000634028785634 
1 1:5324.03620087 2:5323.98408613 3:5324.00130191 4:0.0163487704955 5:0.000267282296713 6:0.0150142179932 7:-0.0161469685027 8:-2.09610107049e-13 9:0.0098234380605 10:9.64999353285e-05 11:0.0129514892385 12:-0.0172499963321 13:-5.62512999143e-14 14:0.00944670316661 15:8.92402007181e-05 16:0.0366141292112 17:-0.0355070487244 18:-3.78956125739e-14 19:0.0218132339946 20:0.000475817177305 21:0.0358535536803 22:-0.0329895011724 23:-2.78295904839e-14 24:0.0214924468454 25:0.0004619252714 26:0.0432795926513 27:-0.0530415309018 28:0.00286469524936 29:0.0321808774785 30:0.00103560887529 
1 1:5323.9009197 2:5323.70688962 3:5323.835973 4:0.0606196192267 5:0.00367473823519 6:0.0573330068202 7:-0.0480328410653 8:-1.78819921833e-13 9:0.0318309721457 10:0.00101321078774 11:0.0565813013517 12:-0.0499712130727 13:-1.592799966e-13 14:0.0325270217159 15:0.00105800714171 16:0.0807403972766 17:-0.0774739968671 18:-3.84877315203e-14 19:0.0492311970036 20:0.00242371075841 21:0.0268767093078 22:-0.0244716267271 23:-1.71714494475e-14 24:0.018040195056 25:0.00032544863766 26:0.0194988802806 27:-0.0182700176888 28:0.000643724214586 29:0.0138847826145 30:0.000192787188251 
1 1:5323.96450835 2:5323.86446194 3:5323.89764189 4:0.0313590951761 5:0.000983392850261 6:0.027706488219 7:-0.030264764237 8:-1.30266168223e-14 9:0.0180979396893 10:0.000327535420999 11:0.0269626240954 12:-0.0330887602118 13:-1.43292785045e-13 14:0.0181605108722 15:0.000329804155139 16:0.0671397154041 17:-0.0661245755159 18:-9.47390314347e-15 19:0.0401553081661 20:0.00161244877391 21:0.0532689581007 22:-0.0514882746499 23:-6.48370246381e-14 24:0.0318644235515 25:0.00101534148827 26:0.0447364787968 27:-0.0617939926777 28:-0.0013351366615 29:0.0330684400327 30:0.0010935217262 
1 1:5323.94695179 2:5323.81845809 3:5323.90432638 4:0.0402625466748 5:0.00162107266474 6:0.0390506594755 7:-0.035420302735 8:-1.16055313507e-13 9:0.0231158162137 10:0.000534340959227 11:0.0415913879121 12:-0.0333612642444 13:-2.13162820728e-14 14:0.0227394117382 15:0.000517080846199 16:0.080146626912 17:-0.0813284116178 18:-4.50010399315e-14 19:0.0486527612409 20:0.00236709117636 21:0.0547665895705 22:-0.0579781645655 23:-9.32587340685e-14 24:0.0348085029087 25:0.00121163187474 26:0.0754835789777 27:-0.0469661804268 28:-0.00127104564562 29:0.0415679648296 30:0.00172789570007 
1 1:5323.79362477 2:5323.70712188 3:5323.76449293 4:0.026969544367 5:0.000727356323365 6:0.0253237194153 7:-0.0196755291343 8:-1.61056353439e-13 9:0.0137355028884 10:0.000188664039598 11:0.0223504381055 12:-0.020592043797 13:-1.36779476634e-13 14:0.0134292944692 15:0.000180345949942 16:0.0202009036013 17:-0.0157024518606 18:2.42768768051e-14 19:0.0141360428119 20:0.000199827706379 21:0.0458781260643 22:-0.0507954634665 23:-5.62512999143e-15 24:0.0310445151424 25:0.000963761920429 26:0.0466584282949 27:-0.0349713153714 28:-0.00279951646745 29:0.0309360826349 30:0.000957041208794 
1 1:5323.80035903 2:5323.60205478 3:5323.73400672 4:0.0619599450234 5:0.00383903478731 6:0.0587382313129 7:-0.0493053663029 8:-1.84741111298e-13 9:0.0326462306628 10:0.00106577637649 11:0.0578279015916 12:-0.0506602441441 13:-9.35547935417e-14 14:0.0330225092892 15:0.00109048611976 16:0.0828845947751 17:-0.0797620066476 18:-3.43428988951e-14 19:0.0504538172109 20:0.00254558767115 21:0.0295019743207 22:-0.0283972929315 23:2.04281036531e-14 24:0.0189965575938 25:0.000360869200414 26:0.00938522862611 27:-0.0103783340303 28:-0.000776945065002 29:0.00713531086355 30:5.09126611196e-05 
1 1:5323.92805347 2:5323.77616172 3:5323.82679582 4:0.0475184303929 5:0.002258001227 6:0.0395645919948 7:-0.0454250987914 8:-3.5527136788e-14 9:0.0258967689622 10:0.000670642642683 11:0.0395110464826 12:-0.0466748636388 13:-1.19608027186e-13 14:0.0260303011845 15:0.000677576579755 16:0.0776666942761 17:-0.0784048853847 18:-6.57252030578e-14 19:0.0472710282184 20:0.00223455010882 21:0.0298014480506 22:-0.0247052410288 23:-6.01000730664e-14 24:0.0199541315948 25:0.000398167367702 26:0.0110869797119 27:-0.0186843798157 28:8.40311909937e-05 29:0.0091869848243 30:8.44006901618e-05 
1 1:5323.99369495 2:5323.92569106 3:5323.94846197 4:0.0212381056598 5:0.000451057132018 6:0.016701455961 7:-0.0202635192235 8:3.5527136788e-15 9:0.0111580858026 10:0.000124502878778 11:0.0163607278027 12:-0.0190244791297 13:2.42768768051e-14 14:0.0107201014967 15:0.000114920576099 16:0.0228237407237 17:-0.024070632477 18:-4.08562073062e-14 19:0.014846945249 20:0.000220431783228 21:0.0182172095131 22:-0.0157266805427 23:-4.4408920985e-15 24:0.0118828769724 25:0.00014120276514 26:0.0440508613464 27:-0.0381523448566 28:0.00223806361065 29:0.0291479242236 30:0.000849601486546 
1 1:5323.8240477 2:5323.62275762 3:5323.75706578 4:0.0630048303121 5:0.00396960864266 6:0.0606484662776 7:-0.0535201452551 8:-1.14871075615e-13 9:0.0349586224813 10:0.00122210528579 11:0.0627083272338 12:-0.0517629233584 13:-5.74355378073e-14 14:0.0345589527888 15:0.00119432121786 16:0.110011633869 17:-0.110064990237 18:-7.69754630407e-14 19:0.066408450444 20:0.00441008229037 21:0.050276497726 22:-0.0579374491388 23:3.84877315203e-15 24:0.0365467090421 25:0.00133566194181 26:0.0445636144657 27:-0.0445084552432 28:-0.00258559945118 29:0.0274703059372 30:0.000754617708281 
1 1:5324.00839902 2:5323.85557223 3:5323.90639192 4:0.0478518831706 5:0.00228980272298 6:0.0410045789452 7:-0.04601696432 8:1.06581410364e-14 9:0.0267638643697 10:0.000716304435998 11:0.0400984996014 12:-0.0484734672232 13:-5.44749430749e-14 14:0.0267372546005 15:0.00071488078357 16:0.0888075587808 17:-0.0884543449836 18:-6.33567272719e-14 19:0.0534418600014 20:0.00285603240041 21:0.0513748660428 22:-0.0475033790156 23:-9.62193288008e-14 24:0.0311591096702 25:0.000970890115437 26:0.0457725804764 27:-0.0697203421325 28:-0.000234674055288 29:0.0350213871584 30:0.0012264975585 
1 1:5324.1431895 2:5324.13232382 3:5324.13971765 4:0.00345305731239 5:1.19236048027e-05 6:0.00378287091774 7:-0.00423465893675 8:-8.52651282912e-14 9:0.00310953280242 10:9.6691942493e-06 11:0.00486613094769 12:-0.00313563941389 13:-3.67113746809e-14 14:0.00319608526375 15:1.02149610131e-05 16:0.0156012009567 17:-0.0168633330014 18:6.51330841113e-15 19:0.0102624651332 20:0.00010531819061 21:0.0296729779008 22:-0.0308702103701 23:-8.61533067109e-14 24:0.0183295600274 25:0.000335972770797 26:0.028093798032 27:-0.028093798032 28:-0.00145250795703 29:0.0213052635536 30:0.000453914255089 
1 1:5324.06370405 2:5324.04949708 3:5324.05912208 4:0.00451329096283 5:2.03697953152e-05 6:0.00466301697125 7:-0.00519101452076 8:-2.96059473233e-14 9:0.00382417635583 10:1.46243248005e-05 11:0.00659358019377 12:-0.00472749698427 13:-5.09222293961e-14 14:0.00369548216917 15:1.36565884627e-05 16:0.0209570404688 17:-0.0222507279932 18:-2.25005199657e-14 19:0.0133841234463 20:0.000179134760427 21:0.0372641030039 22:-0.037086240925 23:-4.70734562441e-14 24:0.0224001413369 25:0.000501766331913 26:0.0167723189909 27:-0.0233870277458 28:0.00135350164462 29:0.0133436624003 30:0.000178053326254 
1 1:5323.95694243 2:5323.86607427 3:5323.89676572 4:0.0283117732466 5:0.000801556504365 6:0.0198986318403 7:-0.0261049956323 8:2.84217094304e-14 9:0.0141508062508 10:0.000200245317547 11:0.0230297515589 12:-0.0234324061336 13:-1.12502599829e-14 14:0.0153061309081 15:0.000234277643376 16:0.0145601660294 17:-0.024520816989 18:5.3290705182e-15 19:0.015529221801 20:0.000241156729746 21:0.0605981415933 22:-0.0573637732344 23:-3.1678363636e-14 24:0.0363684360869 25:0.00132266314341 26:0.0318238760906 27:-0.0309171570982 28:-0.00142367213375 29:0.0193050003845 30:0.000372683039846 
1 1:5323.80281003 2:5323.65369834 3:5323.75303416 4:0.046634203918 5:0.00217474897507 6:0.0442370198599 7:-0.0382440969101 8:-5.68434188608e-14 9:0.0250751452676 10:0.000628762910192 11:0.0456965211034 12:-0.0397163198645 13:-3.07901852163e-14 14:0.0259238142974 15:0.000672044147727 16:0.0753275059372 17:-0.0740265295393 18:-1.19608027186e-13 19:0.045435362242 20:0.00206437214206 21:0.0193951696816 22:-0.0238622053684 23:-2.90138283769e-14 24:0.0164309178728 25:0.000269975062143 26:0.0412314883314 27:-0.0508627689662 28:0.00259461847176 29:0.0293612378744 30:0.000862082289517 
1 1:5323.68903496 2:5323.68627779 3:5323.6879852 4:0.000885405828499 5:7.83943481139e-07 6:0.00298274794882 7:-0.00298131081513 8:-1.52766688188e-13 9:0.0017981553475 10:3.23336265373e-06 11:0.00176574526383 12:-0.00199679002727 13:-1.50398212403e-13 14:0.00123368770481 15:1.52198535299e-06 16:0.0119020143247 17:-0.0107325182898 18:-1.89478062869e-14 19:0.00749688739053 20:5.62033205462e-05 21:0.0285285711083 22:-0.0297290329595 23:-8.23045335589e-14 24:0.0177319751406 25:0.000314422942386 26:0.0310191450646 27:-0.022970646884 28:-0.00176803093698 29:0.0204271656212 30:0.000417269095316 
1 1:5324.03636366 2:5323.80811802 3:5323.88446318 4:0.0713205504696 5:0.00508662091929 6:0.0569712109721 7:-0.0677412721126 8:2.36847578587e-14 9:0.0376909592036 10:0.00142060840568 11:0.0579531887488 12:-0.0665987869995 13:-1.87109587083e-13 14:0.0378330676127 15:0.00143134100499 16:0.092598547906 17:-0.0959734642237 18:-1.59872115546e-14 19:0.0583382251998 20:0.00340334851946 21:0.0354150203602 22:-0.0353603546172 23:-6.69094409507e-14 24:0.0223632465016 25:0.000500114794093 26:0.0336669029677 27:-0.0321243655776 28:0.00212514698876 29:0.0247354102725 30:0.000611840521348 
1 1:5323.86629985 2:5323.53736506 3:5323.75615925 4:0.10275748254 5:0.010559100218 6:0.0970430069628 7:-0.0810859234551 8:-1.172395514e-13 9:0.0537997833424 10:0.00289441668769 11:0.0956842422616 12:-0.0849600359524 13:-7.1054273576e-15 14:0.0552644009725 15:0.00305415401485 16:0.135110862745 17:-0.129249798414 18:-9.65153882741e-14 19:0.0825572981131 20:0.00681570747174 21:0.0464804490616 22:-0.0406638663677 23:-6.77976193704e-14 24:0.0320561543184 25:0.00102759702969 26:0.0360983092311 27:-0.0457457589092 28:0.0018848410417 29:0.0285192624822 30:0.000813348332528 
1 1:5323.71076522 2:5323.65650859 3:5323.67432238 4:0.0170728985993 5:0.000291483866582 6:0.0167395874638 7:-0.0168413896621 8:-2.84217094304e-14 9:0.011209881334 10:0.000125661439523 11:0.015215392023 12:-0.0201671861762 13:-1.00068101953e-13 14:0.0110576541442 15:0.000122271715174 16:0.0519757150576 17:-0.0498393037853 18:-2.42768768051e-14 19:0.0310109229511 20:0.000961677342276 21:0.0663568537962 22:-0.0652354395432 23:4.14483262527e-15 24:0.0396905938708 25:0.00157534324182 26:0.0109961553473 27:-0.0169669794038 28:-0.000651802998928 29:0.00949453010836 30:9.01461019785e-05 
1 1:5323.84546325 2:5323.75121018 3:5323.78273857 4:0.0294482762371 5:0.000867200973337 6:0.0234824670644 7:-0.0280548765313 8:1.16055313507e-13 9:0.0155673654275 10:0.000242342866354 11:0.023411655829 12:-0.0271564340456 13:-2.07241631263e-14 14:0.0153247336111 15:0.000234847460251 16:0.0364214318023 17:-0.0378425606168 18:-1.12502599829e-13 19:0.0230496363581 20:0.000531285736239 21:0.0155188742997 22:-0.0168427486074 23:-5.59552404411e-14 24:0.0109870300776 25:0.000120714829926 26:0.0260017067307 27:-0.0362259801409 28:0.00213693984378 29:0.0223207149604 30:0.000498214316344 
1 1:5323.8824961 2:5323.74500968 3:5323.79119072 4:0.0429087045247 5:0.00184115692399 6:0.032533690015 7:-0.0401402841853 8:-1.26713454544e-13 9:0.0219574714164 10:0.000482130551 11:0.0354869018174 12:-0.0384875271943 13:-1.42700666098e-13 14:0.0231027207811 15:0.000533735707488 16:0.0429480596275 17:-0.0466573962806 18:-6.27646083255e-14 19:0.029708077141 20:0.000882569847413 21:0.0403369562435 22:-0.0351670148292 23:-2.51650552248e-14 24:0.0255623503404 25:0.000653433754925 26:0.035214096735 27:-0.0389176822461 28:-0.00160075353644 29:0.022899115905 30:0.000524369509232 
1 1:5323.94509351 2:5323.79975252 3:5323.84850218 4:0.0453739323514 5:0.00205879373703 6:0.0349886401771 7:-0.0428321361638 8:-4.26325641456e-14 9:0.0234975767352 10:0.000552136112424 11:0.0363565791996 12:-0.0406791271011 13:-1.20200146133e-13 14:0.0236487548791 15:0.000559263607333 16:0.0469735234795 17:-0.0503150633973 18:-3.73034936274e-14 19:0.0315098639507 20:0.00099287152619 21:0.0397709895225 22:-0.0338386349749 23:-5.38828241285e-14 24:0.0259355328607 25:0.000672651864769 26:0.0163626981269 27:-0.0207340031978 28:0.00145709646118 29:0.0119048477007 30:0.000141725398778 
1 1:5323.94496029 2:5323.83374307 3:5323.90780017 4:0.0347617670439 5:0.00120838044801 6:0.0332017142134 7:-0.0281183282017 8:-2.00136203906e-13 9:0.0185504501563 10:0.000344119201001 11:0.0325903411461 12:-0.0277937162725 13:-4.08562073062e-14 14:0.0182587917842 15:0.000333383477418 16:0.0480670827953 17:-0.0467701454704 18:2.13162820728e-14 19:0.0291048999296 20:0.00084709519991 21:0.0181829911599 22:-0.0202195773071 23:-1.7763568394e-14 24:0.0116102106866 25:0.000134796992188 26:0.0438580974598 27:-0.033399847128 28:-0.00255146913617 29:0.0298108633366 30:0.000888687572873 
1 1:5323.98493879 2:5323.97885255 3:5323.98104586 4:0.00197303095293 5:3.89285114124e-06 6:0.00270670459601 7:-0.00317366153873 8:-1.19608027186e-13 9:0.00177539689511 10:3.15203413517e-06 11:0.0108795649618 12:-0.0106587661903 13:-1.12502599829e-13 14:0.00651911585804 15:4.24988715706e-05 16:0.00579648746448 17:-0.0052008733087 18:-0.000269378233991 19:0.00425864010109 20:1.81360155106e-05 21:0.0118136471735 22:-0.0118136471737 23:-0.000731571526107 24:0.00795723949525 25:6.33176603848e-05 26:0.000819241727942 27:-0.000819241727919 28:1.15463194561e-14 29:0.000819241727931 30:6.71157008783e-07 
