7 1:1.68116061316 2:-0.0709647415821 3:0.479968534067 4:0.601847506474 5:0.36222042105 6:1.23182256676 7:-1.73396853407 8:-1.18952466924e-17 9:0.821155549179 10:0.674296435948 11:0.633117467734 12:-0.827010061459 13:0.00341253647534 14:0.458418795563 15:0.210147792125 16:0.192713822999 17:-0.87063385321 18:-0.108996943309 19:0.333348274834 20:0.111121072335 21:0.52300707976 22:-0.28183725149 23:0.0619205436167 24:0.239943768723 25:0.0575730121488 26:1.42600932243 27:-1.19328849978 28:0.0497042017903 29:0.784488259674 30:0.615421829567 
7 1:-1.64449777576 2:-2.06941078859 3:-1.90232122791 4:0.142753235056 5:0.020378486119 6:0.532068840434 7:-0.338539287612 8:3.9650822308e-17 9:0.279719265202 10:0.0782428673252 11:0.432411879007 12:-0.186643852383 13:0.0561115208077 14:0.188936630806 15:0.0356970504605 16:1.26122402354 17:-1.54328799017 18:-0.181655600884 19:0.952064348492 20:0.90642652367 21:2.93051147758 22:-2.20507650181 23:-0.127590138354 24:1.43984469177 25:2.07315273641 26:1.63399119361 27:-1.581869071 28:0.134943990156 29:0.967846390537 30:0.936726635676 
7 1:2.39546063041 2:-0.255890119786 3:1.50292358756 4:0.905937604234 5:0.820722942766 6:0.50506300738 7:-0.627653009877 8:-8.12841857315e-17 9:0.34289297536 10:0.117575592551 11:0.316184269727 12:-0.384660172227 13:-0.0650584761657 14:0.210557445895 15:0.0443344380219 16:0.271692269712 17:-0.129059986141 18:0.0336206260797 19:0.129836189123 20:0.0168574360059 21:2.16122196889 22:-0.410200808398 23:0.365919582686 24:0.703736289926 25:0.495244765759 26:0.813167953257 27:-0.347211804938 28:0.0743550296884 29:0.303868018342 30:0.092335772571 
7 1:0.205400962772 2:-0.203498872226 3:-0.0621716111633 4:0.140273562857 5:0.0196766724367 6:0.107315198345 7:-0.0869743275371 8:2.9738116731e-18 9:0.0575202387825 10:0.0033085778696 11:0.307085854979 12:-0.220843646289 13:1.30104260698e-17 14:0.165983212491 15:0.0275504268288 16:0.39302553716 17:-0.156080451791 18:0.0571338564961 19:0.18098854159 20:0.0327568521867 21:0.102560862 22:-0.204761532823 23:-0.0280519972493 24:0.0924510625857 25:0.00854719897322 26:0.243811698395 27:-0.198300362804 28:0.00600381168888 29:0.119940004957 30:0.0143856047891 
