7 1:42.7474650463 2:8.76127793145 3:31.385272797 4:11.5847746348 5:134.207003339 6:9.80905635602 7:-7.93746748567 8:3.17206578464e-17 9:5.64659198984 10:31.8840010998 11:3.55154173768 12:-4.30022550776 13:-0.230189661235 14:2.48094483615 15:6.15508728004 16:2.44252570691 17:-2.88222547968 18:0.170141097414 19:1.91263366567 20:3.65816753904 21:9.64723167864 22:-9.76001637186 23:0.556263784396 24:5.69286572303 25:32.4087201404 26:26.2891944166 27:-22.1501615048 28:-2.40543637769 29:17.2033537351 30:295.955379736 
7 1:13.3668574284 2:12.1035430315 3:12.4984023508 4:0.414267174524 5:0.171617291889 6:4.06925360154 7:-6.04260149685 8:-4.20298716465e-16 9:2.85116180809 10:8.12912365594 11:2.86521385265 12:-3.78297729909 13:-0.085040154829 14:2.16101749676 15:4.66999662129 16:7.70887089712 17:-9.66042506224 18:0.00130542614284 19:4.97786409441 20:24.7791309424 21:15.9301512674 22:-14.4564767051 23:0.371245690875 24:8.14689359236 25:66.3718752052 26:34.6063920638 27:-25.711617579 28:-3.39008066779 29:20.6088746683 30:424.725715093 
7 1:6.81747638561 2:-14.2336121487 3:-0.443289800632 4:7.13445793361 5:50.9004900064 6:4.34653842777 7:-4.18574527133 8:-2.85485920618e-16 9:2.34809763314 10:5.51356249475 11:3.51111342222 12:-3.42216488077 13:-0.0102883190868 14:1.93128954078 15:3.72987929031 16:4.29014079415 17:-3.17773967309 18:-0.181394533027 19:2.14698038173 20:4.60952475953 21:5.02659871969 22:-7.74257650691 23:-1.01287401657 24:4.45746630035 25:19.8690058187 26:24.3560772738 27:-21.8931063265 28:-2.19600629824 29:14.0288312968 30:196.808107555 
7 1:-8.54476864366 2:-25.2572087213 3:-14.2458584089 4:5.68541794061 5:32.3239771594 6:3.24577002802 7:-3.35066232474 8:6.34413156929e-17 9:1.83972019576 10:3.38457039868 11:3.95903134534 12:-3.07006219933 13:6.66133814775e-16 14:2.11584539132 15:4.47680171999 16:3.44287115584 17:-2.81615549458 18:0.411453903994 19:1.83123505442 20:3.35342182452 21:11.4448047067 22:-8.42381048545 23:-0.234455607528 24:5.61943729708 25:31.5780755359 26:15.3317236657 27:-13.9820761422 28:0.188128746437 29:10.457918614 30:109.368061738 
