18:49:10		x: 24.682209
18:49:11		x: 24.682209
18:49:12		x: 24.682209
18:49:13		x: 24.682209
18:49:14		x: 24.682209
18:49:15		x: 24.682209
18:49:16		x: 24.682209
18:49:16		x: 24.682209
18:49:17		x: 24.648827
18:49:18		x: 24.648827
18:49:19		x: 24.648827
18:49:20		x: 24.639027
18:49:21		x: 24.639027
18:49:22		x: 24.639027
18:49:23		x: 24.639027
18:49:24		x: 24.639027
18:49:25		x: 24.639027
18:49:26		x: 24.639027
18:49:27		x: 24.639027
18:49:28		x: 24.639027
18:49:29		x: 24.651684
18:49:30		x: 24.651684
18:49:31		x: 24.651684
18:49:32		x: 24.72264
18:49:33		x: 24.72264
18:49:34		x: 24.72264
