17:22:56		x: 79.716	y: 35.54	z: -41.899
17:22:57		x: 78.065	y: 35.205	z: -41.899
17:22:57		x: 74.697	y: 24.783	z: -41.899
17:22:57		x: 71.278	y: 37.85	z: -38.394
17:22:57		x: 64.294	y: 30.036	z: -38.394
17:22:57		x: 111.05	y: 149.353	z: -25.646
17:22:57		x: 125.978	y: 148.867	z: -7.957
17:22:58		x: 126.341	y: 137.193	z: 9.365
17:22:58		x: 131.764	y: 134.681	z: 9.365
17:22:58		x: 134.916	y: 132.115	z: -8.805
17:22:58		x: 148.075	y: 169.735	z: -14.154
17:22:58		x: 113.056	y: 178.55	z: 57.672
17:22:59		x: 82.682	y: 50.183	z: -48.876
17:22:59		x: 24.678	y: -32.469	z: -21.789
17:22:59		x: -5.88	y: -60.314	z: -5.03
17:22:59		x: -16.342	y: -70.654	z: -1.571
17:22:59		x: -18.118	y: -78.462	z: 12.152
17:22:59		x: -26.867	y: -97.958	z: 25.41
17:23:00		x: -32.272	y: -107.298	z: 50.172
17:23:00		x: -36.1	y: -99.52	z: 62.083
17:23:00		x: -22.996	y: -94.297	z: 53.683
17:23:00		x: -18.055	y: -90.866	z: 49.414
17:23:00		x: -11.312	y: -87.672	z: 46.022
17:23:01		x: -8.5	y: -87.672	z: 42.561
17:23:01		x: -9.997	y: -87.234	z: 41.159
17:23:01		x: -12.913	y: -89.288	z: 39.311
17:23:01		x: -18.283	y: -95.794	z: 38.595
17:23:01		x: -16.74	y: -91.88	z: 37.831
17:23:01		x: 46.351	y: -5.647	z: 15.698
17:23:02		x: 83.422	y: 46.398	z: 113.378
17:23:02		x: 78.517	y: 33.151	z: 111.016
17:23:02		x: 76.019	y: 19.175	z: 121.067
17:23:02		x: 59.191	y: 11.349	z: 117.922
17:23:02		x: 104.37	y: 33.322	z: 36.84
17:23:02		x: 95.114	y: 15.174	z: 30.032
17:23:03		x: 37.632	y: -37.582	z: 26.46
17:23:03		x: 27.424	y: -49.563	z: 34.655
17:23:03		x: 36.505	y: -46.504	z: 49.278
17:23:03		x: 50.357	y: -38.52	z: 47.566
17:23:03		x: 49.047	y: -40.815	z: 46.609
17:23:04		x: 53.404	y: -38.546	z: 45.408
17:23:04		x: 56.112	y: -35.061	z: 43.838
17:23:04		x: 60.754	y: -34.002	z: 34.466
17:23:04		x: 68.115	y: -30.288	z: 31.031
17:23:04		x: 54.176	y: -46.469	z: 40.451
17:23:04		x: 55.69	y: -38.935	z: 35.169
17:23:05		x: 55.07	y: -38.935	z: 33.387
17:23:05		x: 50.666	y: -51.358	z: 32.405
17:23:05		x: 63.912	y: -34.423	z: 33.413
17:23:05		x: 63.912	y: -33.992	z: 31.381
17:23:05		x: 65.066	y: -33.146	z: -1.396
17:23:06		x: 74.604	y: 10.739	z: -29.763
17:23:06		x: 81.582	y: 38.389	z: -32.574
17:23:06		x: 75.851	y: 29.782	z: -31.419
17:23:06		x: 78.207	y: 27.835	z: -31.419
17:23:06		x: 78.207	y: 26.983	z: -31.419
17:23:06		x: 79.017	y: 28.088	z: -31.03
17:23:07		x: 79.754	y: 27.149	z: -31.03
17:23:07		x: 80.487	y: 27.677	z: -31.03
17:23:07		x: 79.876	y: 27.069	z: -31.03
17:23:07		x: 79.876	y: 27.069	z: -31.03
17:23:07		x: 80.932	y: 26.045	z: -31.532
