17:22:56		x: -0.63713247	y: -0.18417588	z: -0.75228053
17:22:57		x: 1.7815884	y: -0.17073683	z: -0.06627888
17:22:57		x: -2.3512204	y: -0.01282817	z: -2.6847527
17:22:57		x: 0.9233228	y: 0.28924468	z: -2.8884764
17:22:57		x: -0.77946407	y: -0.675617	z: -1.1459832
17:22:57		x: 3.444669	y: -1.7223345	z: -1.7162259
17:22:57		x: 0.94989544	y: 2.207667	z: -0.12461651
17:22:58		x: 0.2929099	y: 0.11026118	z: -0.6575964
17:22:58		x: -0.0729984	y: 1.1578951	z: -0.8503244
17:22:58		x: -0.3200934	y: 0.0711658	z: 2.7000244
17:22:58		x: -0.49021935	y: -0.08552113	z: -0.029932396
17:22:58		x: -0.14477506	y: -0.956615	z: 2.0323486
17:22:59		x: -0.1591304	y: 0.38026363	z: 3.5457673
17:22:59		x: 1.0995574	y: 1.6178766	z: 0.24129178
17:22:59		x: 0.52564955	y: 0.09101892	z: -0.035430185
17:22:59		x: 3.5460727	y: 0.28344148	z: -0.13836098
17:22:59		x: 1.6163495	y: 0.16554448	z: -0.9483683
17:22:59		x: 3.2146783	y: -2.0366247	z: -0.9257663
17:23:00		x: 2.1352794	y: 0.34513888	z: -0.1469131
17:23:00		x: -0.7312057	y: 2.5094345	z: -0.43890667
17:23:00		x: -0.19333886	y: 1.001819	z: -0.036651913
17:23:00		x: -0.37782016	y: 0.42852196	z: -0.2660318
17:23:00		x: -0.54336464	y: 0.04184427	z: -0.22082779
17:23:01		x: 0.025350908	y: 0.23060162	z: 0.39522982
17:23:01		x: -0.19547687	y: 0.36743546	z: 0.094989546
17:23:01		x: -0.105374254	y: 0.44501534	z: -0.15821409
17:23:01		x: 0.029626964	y: -0.77457714	z: 0.090713486
17:23:01		x: -0.06505715	y: 0.058337633	z: 0.02321288
17:23:01		x: -0.03940081	y: -0.04886922	z: -0.17501289
17:23:02		x: -0.03634648	y: -0.2706133	z: -0.29565877
17:23:02		x: 0.042760566	y: 0.5708536	z: -1.2434162
17:23:02		x: 4.183816	y: 0.36560285	z: 0.9615019
17:23:02		x: 0.17592919	y: 0.90408057	z: -0.09437868
17:23:02		x: 0.21930063	y: 0.07422013	z: 0.096516706
17:23:02		x: -0.04734206	y: 0.19730948	z: -0.49510628
17:23:03		x: -0.06658431	y: 0.24220806	z: 0.34422258
17:23:03		x: 0.3576616	y: -0.2779437	z: -0.34422258
17:23:03		x: 0.4978552	y: -0.95539325	z: -0.09896017
17:23:03		x: -0.015271631	y: -0.61850107	z: 0.070554934
17:23:03		x: 0.108123146	y: -0.040927973	z: 0.006414085
17:23:04		x: 0.01282817	y: 0.39522982	z: -0.31978795
17:23:04		x: -0.50976706	y: 0.36285394	z: -0.5354234
17:23:04		x: -0.46853364	y: -0.3145956	z: -0.28191432
17:23:04		x: 0.5552765	y: -0.5708536	z: 1.3646729
17:23:04		x: 0.038179077	y: 0.065973446	z: -0.043676864
17:23:04		x: -0.0061086523	y: -0.11026118	z: -0.31948254
17:23:05		x: 0.39064834	y: -0.12522738	z: -0.087964594
17:23:05		x: -0.17592919	y: 0.062002823	z: 0.03390302
17:23:05		x: -0.28985557	y: 0.23671028	z: -0.29229903
17:23:05		x: -7.530747	y: 0.21563543	z: -2.6514606
17:23:05		x: -1.7336355	y: -0.20219639	z: -1.4731015
17:23:06		x: -2.4636195	y: -3.3212743	z: -0.32925636
17:23:06		x: 0.58123827	y: -1.2791518	z: -0.18661933
17:23:06		x: 0.04642576	y: 0.8848383	z: -0.0143553335
17:23:06		x: 0.09682214	y: 0.04886922	z: -0.03145956
17:23:06		x: -0.22968534	y: 0.24220806	z: 0.057421334
17:23:06		x: 0.113926366	y: -0.031154128	z: -0.03176499
17:23:07		x: -0.028405234	y: 0.18081611	z: -0.0061086523
17:23:07		x: 0.13194689	y: -0.067500606	z: -0.060170226
17:23:07		x: -0.0125227375	y: -0.044898596	z: 0.010995574
17:23:07		x: 0.037873644	y: -0.064751714	z: -0.015882496
17:23:07		x: -0.17745635	y: 0.031154128	z: -0.031154128
