18:19:01		x: 23.611507
18:19:02		x: 23.611507
18:19:03		x: 23.611507
18:19:04		x: 23.611507
18:19:05		x: 23.611507
18:19:06		x: 23.611507
18:19:07		x: 23.775791
18:19:08		x: 23.775791
18:19:09		x: 23.775791
18:19:10		x: 23.775791
18:19:11		x: 23.775791
18:19:12		x: 23.775791
18:19:13		x: 23.682396
18:19:14		x: 23.682396
18:19:15		x: 23.682396
18:19:16		x: 23.682396
18:19:17		x: 23.682396
18:19:18		x: 23.682396
18:19:19		x: 23.755934
18:19:20		x: 23.755934
18:19:20		x: 23.755934
18:19:21		x: 23.755934
