19:49:25		x: 21.18775
19:49:26		x: 21.18775
19:49:27		x: 21.18775
19:49:28		x: 21.18775
19:49:29		x: 21.18775
19:49:30		x: 21.18775
19:49:31		x: 21.18775
19:49:32		x: 21.18775
19:49:33		x: 21.18775
19:49:33		x: 21.18775
19:49:34		x: 21.192484
19:49:35		x: 21.192484
