19:49:24		x: 17.927	y: -27.122	z: -18.263
19:49:24		x: 17.927	y: -27.722	z: -19.288
19:49:24		x: 17.927	y: -27.722	z: -19.822
19:49:25		x: 17.927	y: -27.722	z: -21.343
19:49:25		x: 17.927	y: -28.411	z: -23.208
19:49:25		x: 17.59	y: -28.044	z: -24.163
19:49:25		x: 17.59	y: -28.044	z: -24.163
19:49:25		x: 17.59	y: -27.297	z: -24.163
19:49:25		x: 17.59	y: -26.86	z: -23.846
19:49:26		x: 17.59	y: -26.86	z: -23.439
19:49:26		x: 17.59	y: -26.86	z: -23.439
19:49:26		x: 17.189	y: -26.86	z: -24.09
19:49:26		x: 17.189	y: -27.194	z: -24.09
19:49:26		x: 17.189	y: -27.194	z: -24.09
19:49:27		x: 16.87	y: -27.194	z: -24.438
19:49:27		x: 16.87	y: -27.566	z: -24.438
19:49:27		x: 16.87	y: -27.566	z: -24.438
19:49:27		x: 16.87	y: -27.566	z: -25.122
19:49:27		x: 16.87	y: -27.566	z: -25.122
19:49:27		x: 16.542	y: -27.566	z: -25.508
19:49:28		x: 16.542	y: -27.566	z: -24.995
19:49:28		x: 16.542	y: -27.566	z: -24.995
19:49:28		x: 16.542	y: -27.566	z: -24.995
19:49:28		x: 16.542	y: -27.566	z: -24.995
19:49:28		x: 16.542	y: -27.2	z: -24.995
19:49:29		x: 16.542	y: -27.2	z: -24.995
19:49:29		x: 16.542	y: -27.2	z: -24.995
19:49:29		x: 16.542	y: -27.2	z: -24.995
19:49:29		x: 16.542	y: -26.806	z: -24.995
19:49:29		x: 16.542	y: -26.806	z: -24.995
19:49:29		x: 16.857	y: -26.806	z: -24.995
19:49:30		x: 16.857	y: -26.486	z: -24.995
19:49:30		x: 16.857	y: -26.486	z: -25.302
19:49:30		x: 16.857	y: -26.486	z: -25.302
19:49:30		x: 16.857	y: -26.486	z: -25.302
19:49:30		x: 16.857	y: -26.486	z: -25.302
19:49:31		x: 16.857	y: -26.486	z: -25.665
19:49:31		x: 16.857	y: -26.486	z: -25.665
19:49:31		x: 16.857	y: -26.486	z: -25.665
19:49:31		x: 16.532	y: -26.486	z: -25.665
19:49:31		x: 16.532	y: -26.486	z: -25.665
19:49:31		x: 16.532	y: -26.486	z: -25.665
19:49:32		x: 16.532	y: -26.486	z: -25.665
19:49:32		x: 16.532	y: -26.486	z: -25.665
19:49:32		x: 16.198	y: -26.486	z: -26.019
19:49:32		x: 16.198	y: -26.486	z: -26.019
19:49:32		x: 16.198	y: -26.486	z: -26.019
19:49:33		x: 16.198	y: -26.486	z: -26.019
19:49:33		x: 16.198	y: -26.486	z: -26.019
19:49:33		x: 16.198	y: -26.486	z: -26.019
19:49:33		x: 16.198	y: -26.486	z: -26.019
19:49:33		x: 16.198	y: -26.486	z: -26.019
19:49:33		x: 16.198	y: -26.486	z: -26.019
19:49:34		x: 16.198	y: -26.486	z: -26.019
19:49:34		x: 16.198	y: -26.486	z: -26.019
19:49:34		x: 16.198	y: -26.486	z: -26.019
19:49:34		x: 16.198	y: -26.486	z: -26.019
19:49:34		x: 16.198	y: -26.486	z: -26.019
19:49:34		x: 16.198	y: -26.486	z: -26.019
19:49:35		x: 16.198	y: -26.486	z: -26.019
19:49:35		x: 16.198	y: -26.486	z: -26.019
19:49:35		x: 16.198	y: -26.486	z: -26.019
19:49:35		x: 16.198	y: -26.486	z: -26.019
19:49:35		x: 16.198	y: -26.486	z: -26.019
19:49:36		x: 16.198	y: -26.486	z: -26.019
19:49:36		x: 16.198	y: -26.486	z: -26.019
19:49:36		x: 16.198	y: -26.486	z: -26.019
