19:49:24		x: 0.0
19:49:24		x: 0.0
19:49:24		x: 0.0
19:49:25		x: 1.0
19:49:25		x: 0.0
19:49:25		x: 0.0
19:49:25		x: 0.0
19:49:25		x: 0.0
19:49:25		x: 0.0
19:49:26		x: 0.0
19:49:26		x: 0.0
19:49:26		x: 0.0
19:49:26		x: 0.0
19:49:26		x: 0.0
19:49:27		x: 0.0
19:49:27		x: 0.0
19:49:27		x: 0.0
19:49:27		x: 0.0
19:49:27		x: 0.0
19:49:27		x: 0.0
19:49:28		x: 0.0
19:49:28		x: 0.0
19:49:28		x: 1.0
19:49:28		x: 0.0
19:49:28		x: 0.0
19:49:29		x: 0.0
19:49:29		x: 1.0
19:49:29		x: 0.0
19:49:29		x: 2.0
19:49:29		x: 0.0
19:49:29		x: 0.0
19:49:30		x: 0.0
19:49:30		x: 0.0
19:49:30		x: 0.0
19:49:30		x: 0.0
19:49:30		x: 0.0
19:49:31		x: 0.0
19:49:31		x: 0.0
19:49:31		x: 0.0
19:49:31		x: 0.0
19:49:31		x: 0.0
19:49:31		x: 1.0
19:49:32		x: 0.0
19:49:32		x: 0.0
19:49:32		x: 0.0
19:49:32		x: 0.0
19:49:32		x: 0.0
19:49:33		x: 1.0
19:49:33		x: 0.0
19:49:33		x: 0.0
19:49:33		x: 0.0
19:49:33		x: 0.0
19:49:33		x: 0.0
19:49:34		x: 0.0
19:49:34		x: 0.0
19:49:34		x: 0.0
19:49:34		x: 0.0
19:49:34		x: 0.0
19:49:34		x: 0.0
19:49:35		x: 0.0
19:49:35		x: 0.0
19:49:35		x: 0.0
19:49:35		x: 0.0
19:49:35		x: 0.0
19:49:36		x: 0.0
19:49:36		x: 0.0
19:49:36		x: 0.0
