18:17:05		x: 42.391773
18:17:06		x: 42.91344
18:17:07		x: 42.91344
18:17:08		x: 42.91344
18:17:09		x: 42.992256
18:17:10		x: 42.992256
18:17:11		x: 42.992256
18:17:12		x: 42.61106
18:17:13		x: 42.61106
18:17:14		x: 42.61106
18:17:15		x: 41.958946
18:17:16		x: 41.958946
18:17:16		x: 41.958946
18:17:17		x: 41.513363
18:17:18		x: 41.513363
18:17:19		x: 41.513363
18:17:20		x: 41.24727
18:17:21		x: 41.24727
18:17:22		x: 41.24727
18:17:23		x: 41.24727
