2 1:1.04789802044 2:-5.52968625424 3:-1.10200230919 4:2.25178746762 5:5.07054679931 6:3.3932271795 7:-2.54037680859 8:-1.18952466924e-17 9:1.68512582702 10:2.83964905288 11:1.3230680595 12:-1.25909984828 13:-0.0698434006935 14:0.732966138707 15:0.53723936049 16:1.59919670436 17:-1.68663751768 18:0.0303500790179 19:0.85038403276 20:0.723153003173 21:2.06418165106 22:-0.39252501518 23:0.367188689167 24:0.729627998813 25:0.532357016652 26:3.80789902487 27:-2.76146418465 28:0.226217849001 29:1.7773438898 30:3.15895130262 
2 1:2.38839542101 2:-2.3455149364 3:-0.704533799407 4:1.60237645067 5:2.56761028966 6:0.89596961659 7:-0.940487928026 8:-7.93016446161e-18 9:0.5067649453 10:0.256810709785 11:0.896838250606 12:-0.783587207504 13:-0.0466772914417 14:0.500864469184 15:0.25086521649 16:0.66916459273 17:-0.822897159856 18:0.0831995035223 19:0.441936703344 20:0.195308049762 21:3.062774735 22:-1.12828219033 23:0.467471174044 24:1.10098879331 25:1.212176323 26:1.45788535194 27:-2.4493371167 28:-0.219098151817 29:1.02212438325 30:1.04473825483 
2 1:3.10460034629 2:-3.13661765253 3:1.00671414701 4:2.12271045514 5:4.50589967637 6:1.64710183621 7:-1.34640561764 8:-3.17206578464e-17 9:0.973489160014 10:0.947681144665 11:0.459947107663 12:-0.640204668089 13:-0.0128560258645 14:0.419154885664 15:0.175690818176 16:1.34814909519 17:-1.74030328372 18:0.00351875694628 19:0.867906277124 20:0.753261305871 21:1.43130264516 22:-1.43976819863 23:-0.0194510019582 24:0.792945456092 25:0.628762496336 26:2.0326474627 27:-1.89975362307 28:0.0716680174083 29:1.0008222004 30:1.0016450768 
2 1:-1.25047241327 2:-2.65036005652 3:-1.64338032607 4:0.49261981275 5:0.242674279914 6:3.39288825997 7:-2.3307774609 8:1.18952466924e-17 9:1.59546360067 10:2.54550410106 11:1.67421835403 12:-1.35273169337 13:-0.00927464274538 14:0.974729351534 15:0.950097308742 16:1.66990198903 17:-0.586262282189 18:0.216951978759 19:0.711529196255 20:0.506273797124 21:0.937455802758 22:-0.752366505093 23:0.00195191861049 24:0.517748871309 25:0.268063893742 26:2.30848623918 27:-1.97131171076 28:0.0537340448595 29:1.11128054308 30:1.23494444543 
2 1:-0.0673050732639 2:-3.18808330263 3:-2.09458627134 4:1.05480179013 5:1.11260681646 6:0.718171673991 7:-0.898825259462 8:3.56857400772e-17 9:0.52530243492 10:0.275942648133 11:0.520876741775 12:-0.689710563632 13:0.0178647729109 14:0.370090119907 15:0.136966696853 16:0.771311789993 17:-0.48520035308 18:-0.0408710883237 19:0.470172526783 20:0.221062204941 21:0.786479993297 22:-0.797160049427 23:0.0417046547356 24:0.51103637083 25:0.261158172311 26:1.94462832164 27:-1.67321435697 28:0.0484136370695 29:0.887940871522 30:0.788438991319 
2 1:2.67706120309 2:-1.48333455569 3:1.2003740815 4:1.40705183624 5:1.97979486986 6:1.57450782586 7:-1.89833014267 8:-6.34413156929e-17 9:1.08534316671 10:1.17796978953 11:1.34572526715 12:-1.10969820471 13:-0.0789260201939 14:0.764096543636 15:0.583843527997 16:0.697791801438 17:-1.07179483616 18:0.0625447041108 19:0.644991230579 20:0.416013687524 21:1.54257013318 22:-1.5134700712 23:0.292294563118 24:1.01768798888 25:1.03568884271 26:1.40165907416 27:-1.56159946068 28:-0.0421134152743 29:0.920486044281 30:0.847294557716 
2 1:2.25504685088 2:0.690967820734 3:1.73728485541 4:0.53330406139 5:0.284413221895 6:0.543401849286 7:-0.443678896885 8:3.17206578464e-17 9:0.347973396181 10:0.12108548445 11:0.340321548187 12:-0.333931385111 13:-0.0330139453743 14:0.254628352786 15:0.0648355980427 16:2.40400784936 17:-1.03584472277 18:0.290635422236 19:1.06732795686 20:1.13918896749 21:1.62185209534 22:-1.44776813906 23:0.0828783044304 24:0.881126662739 25:0.77638419579 26:2.92121269075 27:-2.28019241116 28:-0.128133423758 29:1.49199815855 30:2.22605850511 
2 1:0.837868572939 2:-2.75399118084 3:-1.54108952805 4:1.21845674577 5:1.4846368413 6:0.684738065817 7:-0.594087872359 8:7.93016446161e-18 9:0.50914526304 10:0.259228898876 11:0.34290719936 12:-0.317984368566 13:0.0382562950205 14:0.210972908773 15:0.0445095682361 16:1.28041769221 17:-2.65933731049 18:-0.31310608552 19:1.25338694592 20:1.57097883619 21:1.04951954011 22:-1.33715590895 23:-0.00628908819353 24:0.810450131515 25:0.656829415672 26:2.16759584845 27:-1.44592920414 28:0.0722703083202 29:1.10244530133 30:1.21538564242 
2 1:1.59622316255 2:-0.706585277284 3:0.799005563434 4:0.795521411683 5:0.632854316446 6:0.585573571895 7:-0.633311913218 8:7.93016446161e-18 9:0.435455917932 10:0.189621856462 11:0.887167876346 12:-0.745758051248 13:-0.0215590307592 14:0.457432786258 15:0.209244753944 16:0.883229113371 17:-2.72889504236 18:-0.331334522688 19:1.00497083391 20:1.00996637702 21:2.677388476 22:-0.959434282998 23:0.319112534808 24:0.986460269751 25:0.973103863798 26:1.61860949938 27:-1.79085684524 28:0.0869337673232 29:0.995748038652 30:0.991514156479 
2 1:2.8986112936 2:-2.83725333146 3:-0.885044805371 4:1.95178699908 5:3.80947248979 6:1.22329868947 7:-1.04435632745 8:5.15460690005e-17 9:0.665124206013 10:0.442390209425 11:0.782268970764 12:-0.86044314031 13:0.0566482994068 14:0.457170277616 15:0.209004662736 16:1.31021971914 17:-0.960790612984 18:0.0709038236001 19:0.685780305734 20:0.470294627732 21:0.995716798904 22:-1.20822202822 23:-0.219509959023 24:0.69446380567 25:0.482279977385 26:2.31377051421 27:-1.48724784389 28:0.199027077952 29:1.09126219532 30:1.19085317893 
2 1:0.610936624402 2:-0.147599037006 3:0.326364130848 4:0.263975894575 5:0.0696832729165 6:0.442559576899 7:-0.68739808888 8:-1.9825411154e-18 9:0.349505115976 10:0.122153826093 11:0.696958975236 12:-0.553077115371 13:0.0109170462985 14:0.420118691713 15:0.176499715127 16:1.27934001469 17:-1.96697876481 18:-0.245079327313 19:1.09500450685 20:1.19903487001 21:1.94055945732 22:-2.43157063948 23:-0.0647753431913 24:1.18218300882 25:1.39755666635 26:1.88737117542 27:-1.45581145886 28:-0.029151315933 29:1.15934937504 30:1.3440909734 
2 1:7.25596545161 2:-2.00935488043 3:4.15319478675 4:3.16245775715 5:10.0011390658 6:2.07106227636 7:-2.02493152775 8:-1.58603289232e-17 9:1.37722059227 10:1.89673655978 11:0.646287356198 12:-0.965789864466 13:-0.130761612071 14:0.639158791802 15:0.408523961138 16:0.508599386845 17:-0.388704511882 18:0.0535453471753 19:0.279802752032 20:0.0782895800445 21:3.86878792473 22:-1.17814371628 23:0.665986509643 24:1.47611559355 25:2.17891724552 26:1.29375682659 27:-1.3476490515 28:-0.0259913068312 29:0.760363345986 30:0.578152417919 
2 1:-3.10086863608 2:-4.32325382502 3:-3.8231722283 4:0.418441125685 5:0.175092975664 6:2.91085709908 7:-1.89142274218 8:-7.93016446161e-18 9:1.40832259067 10:1.98337251939 11:1.61767978021 12:-1.56618191367 13:0.0513056508722 14:0.993175501447 15:0.986397576675 16:1.07951513695 17:-0.927610196682 18:0.149040989639 19:0.530535245919 20:0.281467647162 21:1.35751455916 22:-1.6991674136 23:-0.291922856264 24:0.975977663214 25:0.952532399093 26:1.55613651296 27:-1.69731496654 28:0.189639130157 29:0.792932905787 30:0.62874259308 
2 1:-1.8165204367 2:-2.36107154748 3:-2.16266997823 4:0.195247947488 5:0.0381217609983 6:0.319411548082 7:-0.233351966231 8:-4.36159045388e-17 9:0.209143567487 10:0.043741031821 11:0.393738084023 12:-0.403885203081 13:-0.0216127545592 14:0.242234873429 15:0.058677733905 16:1.47129547895 17:-0.460406218527 18:0.178287667531 19:0.553069162166 20:0.305885498138 21:1.6264263252 22:-1.79496530886 23:-0.0107037396689 24:1.01712465878 25:1.0345425715 26:0.583417390165 27:-1.11575261305 28:-0.100556399224 29:0.548579798062 30:0.300939794842 
2 1:2.74356520867 2:-1.00122294883 3:1.47424609997 4:1.27104171176 5:1.61554703305 6:0.698803479297 7:-0.749599600844 8:-8.72318090777e-17 9:0.47955538123 10:0.229973363667 11:0.250134111028 12:-0.334490503354 13:-0.056440431983 14:0.18209388329 15:0.0331581823317 16:2.10591213313 17:-1.13028107258 18:0.243099788672 19:0.888499392068 20:0.789431169705 21:2.87168302009 22:-2.08248737183 23:0.18512688694 24:1.49016213313 25:2.22058318302 26:1.00812388166 27:-1.91877522529 28:-0.0944133554078 29:0.763758877277 30:0.583327622619 
2 1:3.35735880944 2:-6.38767388149 3:-3.09072157103 4:3.31803440357 5:11.0093523032 6:2.07941296698 7:-1.59765946393 8:2.22044604925e-16 9:1.22178332767 10:1.49275449977 11:0.982328607644 12:-0.923658174286 13:0.0925487792112 14:0.634891207315 15:0.403086845126 16:0.968776713061 17:-0.935193820714 18:-0.0331843463815 19:0.574243536055 20:0.329755638701 21:1.32274450585 22:-2.19137635449 23:-0.398938302619 24:1.02026261291 25:1.04093579929 26:2.62233578386 27:-2.1405147471 28:0.0346370813773 29:1.4641240195 30:2.14365914447 
2 1:1.53757379885 2:-0.557357709051 3:0.780068771251 4:0.726719599468 5:0.528121376251 6:0.836929723939 7:-1.32756753289 8:-1.58603289232e-17 9:0.756099053452 10:0.571685778632 11:1.19420449853 12:-0.969790339094 13:0.00641352747446 14:0.649552477999 15:0.421918421674 16:1.55393413098 17:-3.26789257991 18:-0.402861110375 19:1.41448875458 20:2.00077843683 21:1.25275366101 22:-1.81572408612 23:0.0484404741422 24:0.857597545424 25:0.735473549918 26:2.99156299105 27:-0.845826683899 28:0.2456584967 29:1.0706633851 30:1.14632008419 
2 1:0.347391224046 2:-1.39943605073 3:-0.213978475704 4:0.596258518582 5:0.355524220981 6:1.38715596775 7:-1.00245552777 8:0.0 9:0.674994414149 10:0.455617459132 11:0.763205291728 12:-0.584841851032 13:0.00756296622838 14:0.43874446485 15:0.192496705437 16:1.72912114165 17:-0.895833078942 18:0.212988151288 19:0.822777794691 20:0.676963299437 21:1.11546684367 22:-1.29308938303 23:-0.149701656914 24:0.788158812087 25:0.62119431307 26:2.11863064979 27:-1.16605413774 28:0.120430905995 29:0.925845634104 30:0.857190138189 
2 1:-0.706220954464 2:-1.84419007127 3:-1.45306791837 4:0.383902401086 5:0.14738105356 6:0.199292088616 7:-0.208893338901 8:1.9825411154e-17 9:0.137976597133 10:0.0190375413563 11:0.150493842099 12:-0.139672502016 13:-0.0121258172389 14:0.0894498513756 15:0.00800127591112 16:1.0861075484 17:-1.24849409115 18:-0.106421285074 19:0.759074684346 20:0.576194376416 21:2.14051193191 22:-2.3463302655 23:0.167318193613 24:1.25070504883 25:1.56426311918 26:2.0880531128 27:-1.67306446026 28:0.167982021446 29:1.21339585812 30:1.47232950849 
2 1:4.68041785173 2:-2.4729132467 3:2.25281303089 4:2.44323464364 5:5.96939552388 6:1.34141353343 7:-1.66215225957 8:-7.53365623853e-17 9:0.87640612515 10:0.7680876962 11:1.21712211275 12:-1.0451682399 13:-0.102352144673 14:0.647036828685 15:0.418656657674 16:0.447996885285 17:-1.71813559012 18:-0.219729528977 19:0.658559156502 20:0.433700162613 21:3.71843825754 22:-2.04899520899 23:0.559645875401 24:1.52692564545 25:2.33150192674 26:1.70164618226 27:-1.3972520526 28:-0.170483267987 29:0.998615744813 30:0.997233405788 
2 1:-4.00262822077 2:-4.33868200474 3:-4.14574714261 4:0.118224563944 5:0.0139770475198 6:3.14681476169 7:-2.09762062582 8:-1.18952466924e-17 9:1.50032935437 10:2.25098817159 11:1.62034845934 12:-1.51528314122 13:0.0321272878154 14:0.980883786685 15:0.962133002981 16:1.69709067082 17:-0.693196862804 18:0.218453833573 19:0.732457494761 20:0.536493981632 21:1.06876293442 22:-1.65708967888 23:-0.232576891335 24:0.748020717817 25:0.559534994283 26:2.3684860553 27:-2.22824853778 28:0.163565427817 29:1.0903398477 30:1.18884098348 
2 1:-0.399109813196 2:-1.42105432802 3:-1.11051947371 4:0.360365704384 5:0.129863440897 6:1.09167593457 7:-1.60553956658 8:9.51619735393e-17 9:0.763427178177 10:0.58282105638 11:0.679241070319 12:-0.788456894549 13:-0.0565854611387 14:0.449252661403 15:0.201827953777 16:1.8404943011 17:-0.920039550641 18:0.217377606423 19:0.735799876347 20:0.541401458032 21:1.81170505842 22:-0.679626642139 23:0.253995546633 24:0.734562296005 25:0.539581766712 26:1.04601091072 27:-1.29070458664 28:-0.0434498367422 29:0.633492019891 30:0.401312139266 
2 1:3.45368384749 2:-0.819350751394 3:2.03402323228 4:1.45358191263 5:2.11290037673 6:1.53731454586 7:-1.21395941675 8:-1.42742960309e-16 9:0.845189112392 10:0.714344635706 11:0.713199082224 12:-0.645912179 13:-0.0372252802693 14:0.403181654809 15:0.162555446774 16:2.37314847052 17:-0.95556581093 18:0.282962650309 19:0.964961541764 20:0.931150777083 21:1.76670010858 22:-1.48193803772 23:0.0660995559371 24:0.947285684647 25:0.897350168337 26:3.81493269296 27:-3.1052170616 28:-0.132684703495 29:1.77283811954 30:3.14295499809 
2 1:1.49842310315 2:-5.74992321319 3:-3.29896641983 4:2.46100105106 5:6.0565261733 6:1.43883210132 7:-1.19356355623 8:2.06184276002e-16 9:0.958216323608 10:0.918178522829 11:0.649834996565 12:-0.488432436056 13:0.068544552802 14:0.382528781932 15:0.146328269006 16:1.87726698521 17:-3.27584535848 18:-0.380479894216 19:1.65552015254 20:2.74074697548 21:0.626390903697 22:-1.96886342097 23:-0.0788093643302 24:0.773506276022 25:0.598311959046 26:2.29908724333 27:-1.54656830888 28:0.0528126325241 29:1.14929446649 30:1.3208777707 
2 1:2.40249212749 2:-1.92412694287 3:0.940854107046 4:1.482984751 5:2.1992437717 6:0.664161746875 7:-1.02585350774 8:-1.03092138001e-16 9:0.5922289505 10:0.35073512981 11:0.768967647599 12:-0.789992254667 13:-0.0346831750067 14:0.446594121024 15:0.199446308934 16:0.810798732017 17:-2.37795250734 18:-0.288464680613 19:0.881221498844 20:0.776551330025 21:2.85772086656 22:-0.850091004894 23:0.359133099551 24:1.03660061676 25:1.07454083866 26:1.75748288075 27:-1.83613055034 28:0.273902757232 29:1.12171888254 30:1.25825325146 
2 1:3.23762759992 2:-3.15155154784 3:-0.993538857877 4:2.17639591679 5:4.7366991866 6:1.32534910993 7:-1.19163002015 8:-3.17206578464e-17 9:0.853553233338 10:0.728553122142 11:0.8385826432 12:-0.707548615357 13:0.0318929693107 14:0.475059729958 15:0.225681747028 16:1.57593066898 17:-1.23773915818 18:0.126070424856 19:0.843088022793 20:0.710797414176 21:0.857498857337 22:-0.616036891557 23:-0.0895715743307 24:0.451086118835 25:0.203478686606 26:2.55171933782 27:-1.82623355277 28:0.324883183835 29:1.33205183717 30:1.77436209692 
2 1:0.939665121907 2:-1.52050860486 3:0.0863511978887 4:0.843464255968 5:0.711431951095 6:0.493481726867 7:-0.552314322246 8:3.9650822308e-18 9:0.314619726181 10:0.0989855721023 11:0.896385157853 12:-0.839264013751 13:0.0105696868843 14:0.501193790637 15:0.251195215773 16:1.67065691057 17:-2.95796462076 18:-0.364872431705 19:1.50552796788 20:2.26661446208 21:2.14761353759 22:-2.51904671084 23:-0.0247457906956 24:1.28466743336 25:1.65037041432 26:2.49788556313 27:-1.60689260455 28:0.0571505056983 29:1.33381080141 30:1.77905125395 
2 1:7.63893018266 2:-6.25800346856 3:2.98062550008 4:4.73987727986 5:22.4664366282 6:3.13103458176 7:-2.97687139909 8:1.42742960309e-16 9:2.05797928551 10:4.23527873957 11:0.952977407757 12:-1.41574832238 13:-0.174298013967 14:0.928882248853 15:0.862822232235 16:0.764378919699 17:-0.879492821189 18:0.0761995241936 19:0.585353708557 20:0.342638964121 21:4.45768809736 22:-2.26464347335 23:0.795552309669 24:1.83576503364 25:3.37003325875 26:1.9017793209 27:-1.67693175889 28:-0.200928346956 29:1.16400888665 30:1.35491668821 
2 1:-4.24743849739 2:-6.82512349406 3:-5.83125017975 4:0.877953024437 5:0.770801513118 6:3.72483144198 7:-2.39295177764 8:2.33939851617e-16 9:1.82912976531 10:3.34571569835 11:2.11349362829 12:-2.25604432571 13:0.033654407658 14:1.37345597393 15:1.88638131233 16:2.34593849074 17:-1.43674878529 18:0.314552214144 19:0.989638256835 20:0.979383879391 21:1.67184012365 22:-1.85617962054 23:-0.152409860681 24:1.09831595792 25:1.20629794341 26:1.47396840702 27:-1.66869353184 28:0.299927693214 29:0.883622556612 30:0.780788822554 
2 1:-3.23906932796 2:-3.98206969244 3:-3.46996418258 4:0.257653179387 5:0.0663851608482 6:0.935926100448 7:-0.665781476076 8:6.34413156929e-17 9:0.468132643465 10:0.219148171877 11:0.41375361577 12:-0.44929280201 13:-0.0196820593152 14:0.287729751118 15:0.0827884096785 16:1.69661372877 17:-0.76708844593 18:0.205780127669 19:0.729920625223 20:0.532784119126 21:1.09558866023 22:-0.739136263284 23:-0.0254621491957 24:0.574831897398 25:0.330431710266 26:1.1460482003 27:-0.928844448161 28:-0.0491928451573 29:0.588534222738 30:0.346372531334 
2 1:1.33115001623 2:-2.69715471087 3:-0.0116447857346 4:1.37166600805 5:1.88146763764 6:1.1316996369 7:-0.937780832648 8:3.17206578464e-17 9:0.686150660077 10:0.470802728324 11:0.371373226569 12:-0.428408493438 13:-0.0668088287013 14:0.26564385232 15:0.0705666562755 16:2.16243709704 17:-0.932792955305 18:0.255397184106 19:0.921772597194 20:0.849664720939 21:2.13352364678 22:-1.71036646051 23:0.252155497981 24:1.20466350804 25:1.45121416759 26:1.09428913956 27:-2.15838376022 28:-0.100907176595 29:0.925913617573 30:0.857316027207 
2 1:1.05943630494 2:-5.64725520238 3:-3.35101469558 4:2.28288241496 5:5.21155212051 6:1.48538290248 7:-1.38290416949 8:9.11968913085e-17 9:0.780495679074 10:0.609173505052 11:0.984260608081 12:-1.0701631593 13:0.0506753658218 14:0.571633663432 15:0.326765045169 16:1.54697799065 17:-1.5841357774 18:0.10484132239 19:0.861702103942 20:0.742530515939 21:1.35791764408 22:-1.67411154285 23:-0.254043333535 24:0.881393163091 25:0.776853907943 26:2.52295099556 27:-2.12217737351 28:0.109246070555 29:1.44557587032 30:2.08968959686 
2 1:1.77024666271 2:-3.96347200908 3:-0.159581195166 4:1.96161600134 5:3.84793733671 6:1.14915964939 7:-1.29376079853 8:3.56857400772e-17 9:0.82496769996 10:0.680571705978 11:0.692531345471 12:-0.845479639342 13:-0.0322927874594 14:0.512429145828 15:0.262583629494 16:0.72466788975 17:-2.29006802879 18:-0.280452075175 19:0.873397645796 20:0.762823447681 21:1.89396635558 22:-1.01634406651 23:0.194168720147 24:0.923193027463 25:0.852285365956 26:2.31742667342 27:-0.765378502175 28:0.138516992523 29:0.808536152141 30:0.653730709319 
2 1:-1.49278139114 2:-2.93493591236 3:-2.43147454737 4:0.486918788741 5:0.237089906829 6:0.278058359329 7:-0.362683790889 8:4.75809867696e-17 9:0.20006138092 10:0.0400245561355 11:0.236709299439 12:-0.259332498926 13:-0.00365699580862 14:0.14523778475 15:0.0210940141192 16:0.42491728605 17:-0.333557226839 18:-0.0313726145788 19:0.243767631891 20:0.0594226583575 21:0.628226464742 22:-0.767033679189 23:0.083609243685 24:0.41562271057 25:0.172742237541 26:2.12161639436 27:-1.36517500941 28:0.0175652139186 29:0.82343937464 30:0.678052403707 
2 1:0.730374379569 2:-0.973941559185 3:-0.444052813212 4:0.587172635376 5:0.344771703735 6:1.41101894662 7:-2.02169923399 8:9.91270557701e-18 9:0.948974995744 10:0.900553542547 11:0.843887711321 12:-1.05952570668 13:-0.034038501007 14:0.579710531621 15:0.336064300473 16:0.563655665929 17:-0.755764584229 18:-0.0188317961444 19:0.409565387795 20:0.16774380688 21:1.05611458203 22:-1.24319230421 23:0.192723953691 24:0.781792409686 25:0.611199371843 26:1.64458692748 27:-3.22234890712 28:-0.207156577197 29:1.36780367463 30:1.87088689234 
2 1:0.40127780515 2:-0.192361494584 3:0.0493495086639 4:0.20207141339 5:0.0408328561094 6:1.33157261537 7:-0.864865304742 8:-4.95635278851e-17 9:0.643928271087 10:0.414643618305 11:0.733177107408 12:-0.707430299707 13:0.017145661342 14:0.450570628354 15:0.203013891136 16:0.374901028748 17:-0.450187266551 18:0.0545167796877 19:0.226600732388 20:0.051347891919 21:0.506218511325 22:-0.483557718872 23:-0.0475032075829 24:0.281795154047 25:0.0794085088441 26:1.65853382088 27:-1.10561414193 28:0.0975179323593 29:0.678076497571 30:0.459787736559 
2 1:1.07357569141 2:-0.0478059617288 3:0.695486378825 4:0.381651252872 5:0.145657678819 6:0.18683143357 7:-0.234816125202 8:-9.91270557701e-18 9:0.149213703921 10:0.0222647294377 11:0.073308462749 12:-0.0960623321103 13:-0.0132080697015 14:0.0659674926071 15:0.00435171008087 16:0.228752960908 17:-0.134343000385 18:0.0261526239023 19:0.105070522823 20:0.0110398147663 21:0.253464758255 22:-0.0736068843104 23:0.0541903162411 24:0.11034261104 25:0.0121754918112 26:0.109355782503 27:-0.0982986245723 28:0.00960572459242 29:0.0660731871018 30:0.00436566605378 
2 1:0.0162441786519 2:-0.161915542613 3:-0.101021249626 4:0.0603809405456 5:0.00364585798117 6:0.0306757986179 7:-0.0357896842601 8:9.91270557701e-19 9:0.022085326312 10:0.000487761638309 11:0.0382829252227 12:-0.055795893646 13:7.43452918276e-19 14:0.0266148807625 15:0.000708351878004 16:0.0514792121218 17:-0.115656005792 18:-0.0156510974182 19:0.0513340136163 20:0.00263518095396 21:0.135288544556 22:-0.095480351012 23:0.00771445798354 24:0.0689628163613 25:0.00475587004049 26:0.0600296286086 27:-0.0615530996314 28:-0.0103255482511 29:0.0372451251487 30:0.00138719934734 
