20:18:52		x: 1005.68
20:18:52		x: 1005.63
20:18:52		x: 1005.73
20:18:52		x: 1005.73
20:18:52		x: 1005.67
20:18:53		x: 1005.77
20:18:53		x: 1005.73
20:18:53		x: 1005.64
20:18:53		x: 1005.69
20:18:53		x: 1005.78
20:18:53		x: 1005.82
20:18:54		x: 1005.86
20:18:54		x: 1005.77
20:18:54		x: 1005.75
20:18:54		x: 1005.81
20:18:54		x: 1005.74
20:18:55		x: 1005.74
20:18:55		x: 1005.78
20:18:55		x: 1005.79
20:18:55		x: 1005.78
20:18:55		x: 1005.78
20:18:56		x: 1005.74
20:18:56		x: 1005.75
20:18:56		x: 1005.74
20:18:56		x: 1005.73
20:18:56		x: 1005.75
20:18:56		x: 1005.77
20:18:57		x: 1005.69
20:18:57		x: 1005.75
20:18:58		x: 1005.74
20:18:58		x: 1005.78
20:18:58		x: 1005.77
20:18:58		x: 1005.67
20:18:58		x: 1005.66
20:18:58		x: 1005.67
20:18:58		x: 1005.65
20:18:58		x: 1005.63
20:18:58		x: 1005.64
20:18:59		x: 1005.64
20:18:59		x: 1005.65
20:18:59		x: 1005.69
20:18:59		x: 1005.75
20:18:59		x: 1005.73
20:18:59		x: 1005.65
20:19:00		x: 1005.64
20:19:00		x: 1005.68
20:19:00		x: 1005.68
20:19:00		x: 1005.73
20:19:00		x: 1005.63
20:19:01		x: 1005.74
