20:18:41		x: -1.8567034	y: 6.229114	z: 5.336077
20:18:42		x: -2.1853075	y: 5.6766524	z: 8.4664955
20:18:42		x: 1.1091139	y: 4.879383	z: 9.316438
20:18:42		x: 2.3774424	y: 5.0236335	z: 9.218874
20:18:42		x: 1.2258313	y: 4.335301	z: 8.695142
20:18:42		x: 0.53689975	y: 3.839701	z: 9.508572
20:18:43		x: 1.4891934	y: 1.6196774	z: 5.1571107
20:18:43		x: 0.7140707	y: 4.3544545	z: 1.8022354
20:18:43		x: -1.8579005	y: -0.492607	z: 12.779052
20:18:43		x: -2.1984756	y: -3.122039	z: 9.033921
20:18:43		x: 0.6368576	y: -5.3941364	z: 12.628816
20:18:43		x: 0.9756372	y: -1.6190789	z: 6.3763576
20:18:44		x: -0.96546185	y: 5.2121773	z: 9.959281
20:18:44		x: -2.4372973	y: 7.739257	z: 1.845331
20:18:44		x: -3.5847185	y: 1.5442601	z: 0.33758244
20:18:44		x: -2.5516205	y: 11.020511	z: 2.3588872
20:18:44		x: 2.2068555	y: 11.048642	z: -1.5215151
20:18:44		x: -2.610877	y: 15.43901	z: -7.225102
20:18:45		x: 1.4628572	y: 10.214263	z: -1.1683705
20:18:45		x: -0.700304	y: 11.444882	z: -1.2838906
20:18:45		x: -4.4286747	y: 7.7332716	z: -2.123657
20:18:45		x: -2.4408886	y: 0.4794389	z: -8.345589
20:18:45		x: 17.539324	y: 19.09316	z: -11.3802395
20:18:46		x: 2.8293478	y: 4.7937903	z: -7.635708
20:18:46		x: -2.5031378	y: 15.8544035	z: -2.111686
20:18:46		x: -1.4993688	y: 10.530297	z: -0.99778354
20:18:46		x: -0.56563014	y: 9.667188	z: -1.3096284
20:18:46		x: -1.2144588	y: 9.191938	z: 0.3597288
20:18:46		x: -2.1589713	y: 6.6145806	z: 1.0426749
20:18:47		x: 1.7699136	y: 13.065159	z: -0.7721301
20:18:47		x: 4.148553	y: 4.8404775	z: 7.595605
20:18:47		x: -2.7192147	y: 2.5169046	z: 3.9091327
20:18:47		x: -1.3748703	y: 4.6160207	z: 10.882245
20:18:47		x: 2.2906525	y: 4.608838	z: 9.787497
20:18:48		x: 3.1148565	y: 3.7762547	z: 8.696938
20:18:48		x: 2.2930467	y: 3.2309752	z: 8.768764
20:18:48		x: -0.40821138	y: 4.1916485	z: 10.644621
20:18:48		x: 0.026934769	y: 4.7147818	z: 9.497798
20:18:48		x: -0.27712885	y: 4.362834	z: 8.464102
20:18:48		x: -0.50038815	y: 4.583101	z: 8.842984
20:18:49		x: -0.31603462	y: 4.35625	z: 9.050681
20:18:49		x: -0.10115502	y: 4.3305125	z: 8.933964
20:18:49		x: -0.61291564	y: 4.583699	z: 8.794501
20:18:49		x: -0.57999533	y: 4.5926776	z: 9.014768
20:18:49		x: -0.6739678	y: 4.991312	z: 9.153033
