20:15:44		x: 21.821447
20:15:45		x: 21.99729
20:15:46		x: 21.99729
20:15:47		x: 21.99729
20:15:48		x: 22.085238
20:15:49		x: 22.085238
20:15:50		x: 22.085238
20:15:51		x: 22.1693
20:15:52		x: 22.1693
20:15:53		x: 22.1693
