19:50:46		x: 20.872557
19:50:47		x: 20.872557
19:50:47		x: 20.872557
19:50:48		x: 20.872557
19:50:49		x: 20.774645
19:50:50		x: 20.774645
19:50:51		x: 20.774645
19:50:52		x: 20.774645
19:50:53		x: 20.774645
19:50:54		x: 20.774645
19:50:55		x: 20.774645
19:50:56		x: 20.774645
19:50:57		x: 20.774645
19:50:58		x: 20.648869
19:50:59		x: 20.648869
19:51:00		x: 20.648869
19:51:01		x: 20.648869
19:51:02		x: 20.648869
19:51:03		x: 20.648869
19:51:04		x: 20.69099
19:51:05		x: 20.69099
19:51:06		x: 20.69099
19:51:07		x: 20.69099
19:51:08		x: 20.69099
19:51:09		x: 20.69099
19:51:10		x: 20.725527
19:51:11		x: 20.725527
