18:13:54		x: 151.724	y: -13.914	z: -32.971
18:13:54		x: 149.504	y: -13.284	z: -35.919
18:13:54		x: 147.811	y: -5.224	z: -38.194
18:13:54		x: 137.469	y: 7.467	z: -40.4
18:13:54		x: 99.995	y: 24.317	z: -21.011
18:13:55		x: 84.024	y: -2.311	z: -6.747
18:13:55		x: 89.064	y: -17.52	z: -0.379
18:13:55		x: 95.343	y: -19.732	z: 7.179
18:13:55		x: 90.859	y: -19.732	z: 13.18
18:13:55		x: 96.29	y: -28.024	z: 19.821
18:13:56		x: 103.443	y: -22.047	z: 16.787
18:13:56		x: 60.958	y: -64.608	z: 23.965
18:13:56		x: 60.958	y: -68.074	z: 25.164
18:13:56		x: 114.242	y: -3.764	z: 6.48
18:13:56		x: 72.305	y: -65.728	z: 22.442
18:13:56		x: 84.934	y: -64.587	z: 19.606
18:13:57		x: 81.501	y: -68.397	z: 15.235
18:13:57		x: 70.939	y: -79.014	z: 12.303
18:13:57		x: 66.894	y: -76.171	z: 7.978
18:13:57		x: 66.4	y: -70.875	z: 6.883
18:13:57		x: 62.35	y: -72.216	z: 6.152
18:13:58		x: 63.641	y: -67.143	z: -0.038
18:13:58		x: 87.992	y: -37.911	z: -11.997
18:13:58		x: 139.883	y: 9.91	z: -5.917
18:13:58		x: 148.652	y: 18.963	z: 17.654
18:13:58		x: 145.906	y: 24.201	z: 36.695
18:13:58		x: 148.425	y: 27.395	z: 40.461
18:13:59		x: 159.112	y: 31.855	z: 41.923
18:13:59		x: 162.054	y: 36.26	z: 39.483
18:13:59		x: 161.367	y: 42.701	z: 40.869
18:13:59		x: 159.89	y: 48.277	z: 39.46
18:13:59		x: 154.393	y: 51.248	z: 36.781
18:14:00		x: 143.586	y: 43.55	z: 30.27
18:14:00		x: 147.096	y: 36.494	z: 21.302
18:14:00		x: 145.913	y: 34.466	z: -4.37
18:14:00		x: 142.359	y: 31.819	z: -7.409
18:14:00		x: 138.296	y: 27.723	z: -12.969
18:14:00		x: 130.706	y: 18.284	z: -24.449
18:14:01		x: 125.814	y: 14.5	z: -27.415
18:14:01		x: 124.351	y: 12.988	z: -23.081
18:14:01		x: 121.813	y: 9.373	z: -18.589
18:14:01		x: 120.497	y: 9.373	z: -17.173
18:14:01		x: 121.879	y: 7.913	z: -17.906
18:14:01		x: 121.879	y: 7.191	z: -16.584
18:14:02		x: 121.0	y: 7.907	z: -15.211
18:14:02		x: 121.0	y: 8.988	z: -16.12
18:14:02		x: 121.621	y: 10.403	z: -17.968
18:14:02		x: 121.621	y: 11.738	z: -16.629
18:14:02		x: 122.108	y: 12.35	z: -17.268
18:14:03		x: 122.108	y: 11.482	z: -17.605
18:14:03		x: 117.312	y: 5.679	z: -21.575
18:14:03		x: 110.617	y: -1.098	z: -17.131
18:14:03		x: 84.875	y: -29.771	z: -22.511
18:14:03		x: 70.903	y: -41.685	z: -19.813
18:14:03		x: 57.142	y: -46.91	z: -16.418
18:14:04		x: 87.907	y: -18.453	z: -13.334
18:14:04		x: 109.713	y: -4.368	z: -0.349
18:14:04		x: 112.014	y: 4.73	z: 47.956
18:14:04		x: 118.545	y: 16.772	z: 25.982
18:14:04		x: 118.545	y: 18.388	z: 17.842
18:14:05		x: 119.824	y: 11.447	z: 57.672
18:14:05		x: 118.833	y: -13.774	z: 15.75
18:14:05		x: 135.717	y: -12.831	z: 29.144
18:14:05		x: 146.871	y: -17.581	z: 24.803
18:14:05		x: 147.32	y: -15.66	z: 22.267
18:14:05		x: 150.814	y: -19.309	z: 4.696
18:14:06		x: 150.09	y: -20.121	z: 4.335
18:14:06		x: 149.516	y: -20.471	z: 5.798
18:14:06		x: 149.154	y: -20.011	z: 6.24
18:14:06		x: 151.473	y: -20.011	z: 7.997
18:14:06		x: 150.718	y: -20.011	z: 9.683
18:14:07		x: 150.146	y: -20.011	z: 10.441
18:14:07		x: 150.604	y: -20.011	z: 12.953
18:14:07		x: 150.604	y: -20.52	z: 11.21
18:14:07		x: 149.613	y: -20.52	z: 10.702
