18:19:15		x: -0.009773844	y: 0.048258353	z: -0.034208454
18:19:15		x: -0.24190263	y: 0.36713	z: 0.20219639
18:19:15		x: -1.1059716	y: -0.42730024	z: 0.66737026
18:19:15		x: 0.98471475	y: -1.1016954	z: 1.1523973
18:19:16		x: 0.8011498	y: 2.5088236	z: -0.18570304
18:19:16		x: -0.5699373	y: 1.0512991	z: -0.051618114
18:19:16		x: -0.2883284	y: 0.9193522	z: 0.21197024
18:19:16		x: -0.30207285	y: -2.6126707	z: 0.16920967
18:19:16		x: 0.4642576	y: 0.12370021	z: 6.1086525E-4
18:19:16		x: 0.768163	y: -0.6771441	z: -0.36896262
18:19:17		x: 0.3640757	y: 0.15882497	z: 0.039095376
18:19:17		x: 0.090713486	y: 0.25289822	z: -0.27122417
