13:26:21		x: 0.2574797	y: -0.5332854	z: -1.1249083
13:26:22		x: -0.13744467	y: -1.3426818	z: -0.82986045
13:26:22		x: -0.75411314	y: -1.3637567	z: -1.5879441
13:26:22		x: -1.9034561	y: -0.7031059	z: -2.0595322
13:26:22		x: -3.073874	y: -6.7363167	z: -1.2657127
13:26:22		x: -5.3948565	y: -6.6156707	z: -0.7641924
13:26:22		x: -2.87687	y: -1.5848899	z: -3.5304956
13:26:23		x: -1.174083	y: -0.8151997	z: -1.2993103
13:26:23		x: -2.3200662	y: -1.3726143	z: 1.3545936
13:26:23		x: 2.087632	y: -0.38148534	z: 0.7492262
13:26:23		x: 0.9120218	y: 0.1328632	z: -0.101098195
13:26:23		x: -0.13439035	y: -1.4117095	z: -0.015271631
13:26:24		x: 1.3127494	y: 1.0360274	z: 0.625526
13:26:24		x: 0.45998153	y: -2.9190195	z: -1.2443326
13:26:24		x: 0.7275405	y: 1.9895881	z: -2.9000828
13:26:24		x: -0.46181414	y: -0.16157386	z: -1.8716911
13:26:24		x: 0.28344148	y: 0.5412266	z: -1.5818355
13:26:24		x: -0.116675265	y: -1.8585575	z: -2.2565362
13:26:25		x: -0.05589417	y: -2.7406468	z: -0.34972036
13:26:25		x: -0.29657507	y: -0.40286562	z: -0.59895337
13:26:25		x: 0.1600467	y: 0.25534168	z: -0.3481932
13:26:25		x: 0.81183994	y: 1.5008959	z: -1.3857478
13:26:25		x: 0.6206391	y: -0.49205196	z: -0.21502456
13:26:25		x: -0.31703907	y: 0.8002335	z: -0.9947941
13:26:26		x: 1.6698002	y: -0.61819565	z: 2.85213
13:26:26		x: 1.219287	y: -0.9947941	z: -0.54825157
13:26:26		x: 1.4352279	y: 0.07391469	z: -0.9550878
13:26:26		x: 0.97524637	y: -0.053450707	z: -0.6985244
13:26:26		x: -2.830444	y: -0.226631	z: 2.2693644
13:26:27		x: 0.4914411	y: -1.1548407	z: 0.51251596
13:26:27		x: -0.09193522	y: -0.2406809	z: -0.3368922
13:26:27		x: -0.5900958	y: 0.19394971	z: -0.80970186
13:26:27		x: 0.77366084	y: -1.0332786	z: 0.8891144
13:26:27		x: -0.09896017	y: -4.7842965	z: -0.96852684
13:26:27		x: -0.84788096	y: 1.149343	z: -2.513405
13:26:28		x: -0.40133846	y: 0.60139686	z: 0.91507614
13:26:28		x: 0.3594942	y: -3.2809572	z: -1.6713274
13:26:28		x: 0.7449502	y: -2.3237314	z: -0.40591997
13:26:28		x: 2.5332582	y: 0.623388	z: -1.5228871
13:26:28		x: -0.88178396	y: 1.9575176	z: 0.97433007
13:26:29		x: 0.6612616	y: -2.787378	z: -0.16371189
13:26:29		x: 0.28069258	y: -3.2061262	z: -0.38759398
13:26:29		x: 1.992337	y: 1.7192802	z: -1.466382
13:26:29		x: -1.5198327	y: 1.6468927	z: 1.5836681
13:26:29		x: 0.75136423	y: -1.8701639	z: 0.82344633
13:26:29		x: 0.13103059	y: -2.7207937	z: 0.33964106
13:26:30		x: 2.101682	y: 1.1206323	z: -1.6581937
13:26:30		x: -2.0540345	y: 2.2883012	z: 1.2000448
13:26:30		x: -0.48441613	y: -0.11881329	z: 1.3121386
13:26:30		x: -0.2733622	y: -1.2986995	z: 0.904386
13:26:30		x: 3.3215797	y: 1.8017471	z: -0.9388999
13:26:31		x: -2.264783	y: 2.7568347	z: 1.1249083
13:26:31		x: 0.035430185	y: 0.09101892	z: 1.2840388
13:26:31		x: -0.6957755	y: -0.77854776	z: 1.0485502
13:26:31		x: 3.0161471	y: 0.57360244	z: -1.536326
13:26:31		x: -1.9138408	y: 2.420248	z: 0.93737274
13:26:31		x: -0.76083267	y: 0.1826487	z: 1.5738943
13:26:32		x: 1.7919732	y: -1.4880677	z: -0.27366763
13:26:32		x: 2.2342396	y: 0.8735373	z: -1.4575244
13:26:32		x: -1.6533068	y: 2.221106	z: 1.5561792
13:26:32		x: -0.37995818	y: -0.9443977	z: 0.16707164
13:26:32		x: 0.99296147	y: -2.5836546	z: 0.08460484
13:26:33		x: 3.3200526	y: 0.7761043	z: -1.2269229
13:26:33		x: -1.2883148	y: 2.414445	z: 1.8212948
13:26:33		x: 0.19975294	y: -1.9025398	z: 0.061086524
13:26:33		x: 1.2892311	y: -2.2229385	z: -0.65240407
13:26:33		x: 2.3661866	y: 0.17959438	z: -2.0048597
13:26:33		x: -1.1029172	y: 1.2644911	z: 1.7611245
13:26:34		x: 0.29443705	y: -2.0292943	z: -0.6554584
13:26:34		x: 0.7473936	y: -2.3044891	z: 0.42852196
13:26:34		x: 2.0824397	y: 1.8032742	z: -2.5607471
13:26:34		x: -1.5696182	y: 0.6826419	z: 1.6233743
13:26:34		x: 0.21471913	y: -1.5894713	z: 0.6429357
13:26:34		x: 1.8255708	y: -1.0238101	z: -0.28221974
13:26:35		x: 2.2327125	y: 1.7305813	z: -1.7950275
13:26:35		x: -1.2165382	y: 1.1249083	z: 1.8903224
13:26:35		x: 0.22602014	y: -1.6533068	z: 0.13225232
13:26:35		x: 1.5082263	y: -1.9037615	z: -0.43127087
13:26:35		x: 1.7687603	y: 0.83077675	z: -1.5311338
13:26:36		x: -1.3713925	y: 2.519819	z: 1.5384641
13:26:36		x: 0.58246	y: -2.162463	z: 0.66339964
13:26:36		x: 1.1792754	y: -2.0766363	z: -0.7498371
13:26:36		x: 2.8005116	y: 0.18875736	z: -2.0775528
13:26:36		x: -0.74036866	y: -0.06383542	z: 2.6728408
13:26:36		x: 0.9398162	y: -1.7712038	z: -0.172264
13:26:37		x: 1.0705414	y: -1.2651019	z: -0.1469131
13:26:37		x: 2.07572	y: -1.1646146	z: -2.0760255
13:26:37		x: -0.8353582	y: -0.46395215	z: 2.5961773
13:26:37		x: 1.5454891	y: -3.0360003	z: -0.39858958
13:26:37		x: 1.0714576	y: -1.1038336	z: -1.2483032
13:26:38		x: 1.1087204	y: -1.781894	z: -1.461495
13:26:38		x: -3.1716123	y: 1.3778065	z: 2.808453
13:26:38		x: -0.59223384	y: -3.1395419	z: -0.07086037
13:26:38		x: 0.6747007	y: 0.77274454	z: -0.96486163
13:26:38		x: 0.6771441	y: -1.8555032	z: -2.0659463
13:26:38		x: -2.86282	y: 1.8527542	z: 1.4520267
13:26:39		x: 1.2709051	y: -0.6939429	z: 0.35918877
13:26:39		x: -1.1869112	y: 0.7473936	z: 0.67011917
13:26:39		x: 0.528093	y: -1.5625933	z: -0.98624194
13:26:39		x: -2.3478606	y: 1.3475688	z: 1.5451837
13:26:39		x: 0.72051555	y: -1.4117095	z: 1.0100657
13:26:40		x: 0.5497787	y: 0.79504114	z: 0.48258355
13:26:40		x: 1.0833695	y: -0.0012217305	z: -1.475545
13:26:40		x: -2.7476718	y: 2.2800546	z: 1.9770653
13:26:40		x: 0.95264435	y: 0.88331115	z: 0.9263771
13:26:40		x: 0.27091873	y: 0.92149025	z: 0.90377516
13:26:40		x: 1.0372492	y: -0.872621	z: -0.84116143
13:26:41		x: -2.4495697	y: 2.8075366	z: 2.1395555
13:26:41		x: 1.1679744	y: -0.3182608	z: 1.3652838
13:26:41		x: 0.61727935	y: -0.47586402	z: 0.24465153
13:26:41		x: 1.312444	y: -0.08307768	z: -0.86101454
13:26:41		x: -2.1777346	y: 2.257758	z: 2.2094996
13:26:42		x: 1.2431108	y: -0.15882497	z: 0.78038037
13:26:42		x: 0.7858781	y: -0.16554448	z: 1.0812315
13:26:42		x: 1.5018122	y: -1.1301007	z: -1.1291844
13:26:42		x: -2.3231206	y: 0.9236283	z: 1.813048
13:26:42		x: 0.49449542	y: 0.7476991	z: 0.18295415
13:26:42		x: 2.8002062	y: -0.60048056	z: 1.0250319
13:26:43		x: 2.0152445	y: 0.106901415	z: -2.2525656
13:26:43		x: -2.2504275	y: 0.7125743	z: 2.046704
13:26:43		x: 0.20463985	y: -1.9666806	z: 0.22418754
13:26:43		x: 4.583627	y: -0.30787608	z: 0.77518797
13:26:43		x: 1.4159856	y: -0.4746423	z: -1.2287555
13:26:44		x: -2.9981265	y: 0.8081747	z: 2.2369885
13:26:44		x: 0.12614368	y: -2.0152445	z: 0.25045475
13:26:44		x: 1.3784174	y: 0.799928	z: 0.6606508
13:26:44		x: 1.6545285	y: -0.07544186	z: -1.378112
13:26:44		x: -3.4773505	y: 1.7217237	z: 2.4767532
13:26:44		x: 0.67347896	y: -0.6750061	z: 0.68416905
13:26:45		x: 2.194228	y: -0.10048734	z: 1.2953397
13:26:45		x: 0.6264423	y: 0.36285394	z: -0.5039638
13:26:45		x: -2.105958	y: 1.2886202	z: 2.8637362
13:26:45		x: 0.23915374	y: 0.6383542	z: 0.81581056
13:26:45		x: 3.663359	y: 1.382388	z: 1.1426234
13:26:45		x: 1.0965031	y: -0.064446285	z: -0.9975429
13:26:46		x: -1.1734722	y: 1.9126191	z: 0.26145032
13:26:46		x: -0.37965274	y: -0.31398472	z: 1.8643607
13:26:46		x: 0.07819075	y: -2.207667	z: -0.7425067
13:26:46		x: -0.60903263	y: 0.8677341	z: -0.6951646
13:26:46		x: 1.3267993	y: 1.1340714	z: -1.2498302
13:26:47		x: 0.18295415	y: 2.259896	z: 0.10903945
13:26:47		x: -3.2232304	y: 0.8744536	z: 2.5552492
13:26:47		x: -0.8029824	y: -1.5036448	z: 1.6349808
13:26:47		x: 1.0461067	y: -1.0619892	z: 0.89675015
13:26:47		x: -5.3798904	y: -2.6175575	z: 3.6575556
13:26:47		x: -2.2510383	y: -0.7367035	z: -0.0036651916
13:26:48		x: 1.2880094	y: -2.0781636	z: -10.022466
13:26:48		x: -2.2214115	y: 3.4419203	z: 0.49235737
13:26:48		x: -0.16371189	y: 1.566564	z: -1.4688255
13:26:48		x: -0.007941248	y: 0.17470746	z: -0.06536258
13:26:48		x: 0.4016439	y: 0.40866885	z: 0.12522738
13:26:49		x: 0.18661933	y: -1.17897	z: 1.244027
13:26:49		x: 0.029932396	y: -0.4654793	z: 1.3203852
13:26:49		x: -0.77304995	y: 0.9761627	z: 1.2565498
13:26:49		x: 0.109650314	y: -1.606881	z: 0.75502944
13:26:49		x: -1.3054191	y: -0.20372356	z: -1.1456778
13:26:49		x: -0.33658674	y: -1.2370021	z: -1.3683381
13:26:50		x: 0.6035349	y: -2.9959886	z: -0.10354166
13:26:50		x: 0.6478226	y: -1.328021	z: -0.10354166
13:26:50		x: 0.050396383	y: 0.657291	z: -0.30085114
13:26:50		x: 0.12034045	y: -0.35033122	z: -0.27947086
