13:26:21		x: 940.13
13:26:22		x: 940.18
13:26:22		x: 940.19
13:26:22		x: 940.16
13:26:22		x: 940.21
13:26:22		x: 940.19
13:26:22		x: 940.15
13:26:23		x: 940.18
13:26:23		x: 940.17
13:26:23		x: 940.2
13:26:23		x: 940.18
13:26:23		x: 940.19
13:26:24		x: 940.21
13:26:24		x: 940.18
13:26:24		x: 940.19
13:26:24		x: 940.13
13:26:24		x: 940.21
13:26:24		x: 940.15
13:26:25		x: 940.2
13:26:25		x: 940.12
13:26:25		x: 940.18
13:26:25		x: 940.19
13:26:25		x: 940.2
13:26:25		x: 940.2
13:26:26		x: 940.22
13:26:26		x: 940.17
13:26:26		x: 940.19
13:26:26		x: 940.12
13:26:26		x: 940.17
13:26:27		x: 940.16
13:26:27		x: 940.09
13:26:27		x: 940.14
13:26:27		x: 940.13
13:26:27		x: 940.08
13:26:27		x: 940.18
13:26:28		x: 940.16
13:26:28		x: 940.18
13:26:28		x: 940.09
13:26:28		x: 940.19
13:26:28		x: 940.14
13:26:29		x: 940.13
13:26:29		x: 940.13
13:26:29		x: 940.14
13:26:29		x: 940.13
13:26:29		x: 940.14
13:26:29		x: 940.11
13:26:30		x: 940.19
13:26:30		x: 940.18
13:26:30		x: 940.19
13:26:30		x: 940.09
13:26:30		x: 940.16
13:26:31		x: 940.12
13:26:31		x: 940.23
13:26:31		x: 940.09
13:26:31		x: 940.2
13:26:31		x: 940.2
13:26:31		x: 940.18
13:26:32		x: 940.19
13:26:32		x: 940.17
13:26:32		x: 940.13
13:26:32		x: 940.17
13:26:32		x: 940.16
13:26:33		x: 940.27
13:26:33		x: 940.13
13:26:33		x: 940.26
13:26:33		x: 940.14
13:26:33		x: 940.13
13:26:33		x: 940.18
13:26:34		x: 940.24
13:26:34		x: 940.08
13:26:34		x: 940.17
13:26:34		x: 940.21
13:26:34		x: 940.13
13:26:35		x: 940.09
13:26:35		x: 940.16
13:26:35		x: 940.22
13:26:35		x: 940.22
13:26:35		x: 940.13
13:26:35		x: 940.23
13:26:36		x: 940.16
13:26:36		x: 940.35
13:26:36		x: 940.08
13:26:36		x: 940.19
13:26:36		x: 940.13
13:26:36		x: 940.22
13:26:37		x: 940.0
13:26:37		x: 940.14
13:26:37		x: 940.11
13:26:37		x: 940.2
13:26:37		x: 940.0
13:26:38		x: 940.18
13:26:38		x: 940.12
13:26:38		x: 940.23
13:26:38		x: 940.1
13:26:38		x: 940.18
13:26:38		x: 940.11
13:26:39		x: 940.24
13:26:39		x: 940.11
13:26:39		x: 940.17
13:26:39		x: 940.11
13:26:39		x: 940.17
13:26:40		x: 940.1
13:26:40		x: 940.21
13:26:40		x: 940.07
13:26:40		x: 940.21
13:26:40		x: 940.15
13:26:40		x: 940.2
13:26:41		x: 940.16
13:26:41		x: 940.29
13:26:41		x: 940.1
13:26:41		x: 940.21
13:26:41		x: 940.11
13:26:42		x: 940.29
13:26:42		x: 940.1
13:26:42		x: 940.13
13:26:42		x: 940.07
13:26:42		x: 940.24
13:26:42		x: 940.1
13:26:43		x: 940.08
13:26:43		x: 940.08
13:26:43		x: 940.23
13:26:43		x: 940.1
13:26:43		x: 940.14
13:26:44		x: 940.12
13:26:44		x: 940.27
13:26:44		x: 940.21
13:26:44		x: 940.22
13:26:44		x: 940.1
13:26:44		x: 940.22
13:26:45		x: 940.1
13:26:45		x: 940.11
13:26:45		x: 940.15
13:26:45		x: 940.19
13:26:45		x: 940.14
13:26:45		x: 940.2
13:26:46		x: 940.19
13:26:46		x: 940.19
13:26:46		x: 940.24
13:26:46		x: 940.18
13:26:46		x: 940.16
13:26:47		x: 940.2
13:26:47		x: 940.11
13:26:47		x: 940.17
13:26:47		x: 940.13
13:26:47		x: 940.11
13:26:47		x: 940.13
13:26:48		x: 940.13
13:26:48		x: 940.09
13:26:48		x: 940.1
13:26:48		x: 940.15
13:26:48		x: 940.13
13:26:49		x: 940.08
13:26:49		x: 940.14
13:26:49		x: 940.14
13:26:49		x: 940.14
13:26:49		x: 940.1
13:26:49		x: 940.15
13:26:50		x: 940.13
13:26:50		x: 940.15
13:26:50		x: 940.14
13:26:50		x: 940.14
