18:21:22		x: 40.619503
18:21:22		x: 40.619503
18:21:24		x: 40.619503
18:21:24		x: 40.619503
18:21:25		x: 40.619503
18:21:26		x: 40.619503
18:21:27		x: 40.619503
18:21:28		x: 40.096657
18:21:29		x: 40.096657
18:21:30		x: 40.096657
