17:03:34		x: 0.0
17:03:35		x: 0.0
17:03:35		x: 0.0
17:03:35		x: 0.0
17:03:35		x: 0.0
17:03:35		x: 0.0
17:03:36		x: 0.0
17:03:36		x: 1.0
17:03:36		x: 3.0
17:03:36		x: 0.0
17:03:36		x: 0.0
17:03:36		x: 0.0
17:03:37		x: 0.0
17:03:37		x: 0.0
17:03:37		x: 0.0
17:03:37		x: 0.0
17:03:37		x: 0.0
17:03:38		x: 0.0
17:03:38		x: 1.0
17:03:38		x: 9.0
17:03:38		x: 8.0
17:03:38		x: 8.0
17:03:38		x: 8.0
17:03:39		x: 8.0
17:03:39		x: 7.0
17:03:39		x: 7.0
17:03:39		x: 4.0
17:03:39		x: 6.0
17:03:40		x: 5.0
17:03:40		x: 11.0
17:03:40		x: 12.0
17:03:40		x: 11.0
17:03:40		x: 10.0
17:03:40		x: 10.0
17:03:41		x: 10.0
17:03:41		x: 10.0
17:03:41		x: 10.0
17:03:41		x: 8.0
17:03:41		x: 6.0
17:03:42		x: 5.0
17:03:42		x: 5.0
17:03:42		x: 6.0
17:03:42		x: 5.0
17:03:42		x: 6.0
17:03:42		x: 5.0
17:03:43		x: 6.0
17:03:43		x: 5.0
17:03:43		x: 6.0
17:03:43		x: 6.0
17:03:43		x: 6.0
17:03:43		x: 6.0
17:03:44		x: 6.0
17:03:44		x: 6.0
17:03:44		x: 6.0
17:03:44		x: 6.0
17:03:44		x: 5.0
17:03:45		x: 5.0
17:03:45		x: 5.0
17:03:45		x: 6.0
17:03:45		x: 5.0
17:03:45		x: 6.0
17:03:45		x: 5.0
17:03:46		x: 6.0
17:03:46		x: 5.0
17:03:46		x: 4.0
17:03:46		x: 4.0
17:03:46		x: 5.0
17:03:47		x: 5.0
17:03:47		x: 5.0
17:03:47		x: 5.0
17:03:47		x: 5.0
17:03:47		x: 5.0
17:03:47		x: 5.0
17:03:48		x: 5.0
17:03:48		x: 5.0
17:03:48		x: 5.0
17:03:48		x: 5.0
17:03:48		x: 5.0
17:03:48		x: 5.0
17:03:49		x: 5.0
17:03:49		x: 4.0
17:03:49		x: 5.0
17:03:49		x: 2.0
17:03:49		x: 1.0
17:03:50		x: 2.0
17:03:50		x: 2.0
17:03:50		x: 4.0
17:03:50		x: 6.0
17:03:50		x: 7.0
17:03:50		x: 9.0
17:03:51		x: 10.0
17:03:51		x: 5.0
17:03:51		x: 2.0
17:03:51		x: 2.0
17:03:51		x: 1.0
17:03:52		x: 2.0
17:03:52		x: 1.0
17:03:52		x: 1.0
17:03:52		x: 1.0
17:03:52		x: 2.0
17:03:52		x: 2.0
17:03:53		x: 2.0
17:03:53		x: 5.0
17:03:53		x: 4.0
17:03:53		x: 1.0
17:03:53		x: 0.0
17:03:54		x: 0.0
17:03:54		x: 1.0
17:03:54		x: 1.0
17:03:54		x: 1.0
17:03:54		x: 1.0
17:03:54		x: 1.0
17:03:55		x: 1.0
17:03:55		x: 1.0
17:03:55		x: 1.0
17:03:55		x: 1.0
17:03:55		x: 1.0
