14 1:38.0954187359 2:19.6701301561 3:25.7530580547 4:6.30651948881 5:39.7721880627 6:5.68035414269 7:-7.37567847969 8:-2.4583509831e-16 9:3.86186315751 10:14.9139870474 11:2.90459034743 12:-2.6130183029 13:0.191374095532 14:1.65246593615 15:2.73064367014 16:3.87963315981 17:-3.60061488779 18:0.260241808472 19:2.13637417757 20:4.56409462658 21:2.16128651611 22:-7.8296996095 23:-1.22382042494 24:2.64306806782 25:6.98580881114 26:6.52805641216 27:-7.32816587789 28:-0.0326314444945 29:4.96316569711 30:24.633013737 
14 1:34.020830055 2:21.1792440743 3:25.4096337172 4:4.40175910829 5:19.3754832474 6:3.85238855103 7:-4.94850416825 8:-7.69225952776e-16 9:2.64974142505 10:7.02112961962 11:2.05711605416 12:-1.84126425197 13:0.206645045343 14:1.19676525237 15:1.43224706928 16:1.01217552286 17:-1.20110445214 18:0.0980643680556 19:0.740133655376 20:0.547797827821 21:3.05815160291 22:-7.90977660774 23:-1.22933436141 24:2.88582888591 25:8.32800835878 26:7.53762560816 27:-6.24441084415 28:0.565723605292 29:4.29347213852 30:18.4339030042 
14 1:34.8819042197 2:18.9391895738 3:24.3709066138 4:5.43402532256 5:29.5286312062 6:3.60455521436 7:-3.28104122595 8:5.55111512313e-17 9:1.89085788159 10:3.57534352839 11:2.06023662769 12:-2.3443204033 13:-5.70971841236e-16 14:1.41593417315 15:2.0048695827 16:2.45836997507 17:-3.48094239213 18:-1.26882631386e-16 19:1.65781515935 20:2.74835110258 21:4.67467729148 22:-7.28250864171 23:-0.91891828726 24:3.34855748855 25:11.2128372541 26:8.11477981919 27:-7.41166752361 28:0.0761234134863 29:4.81644018638 30:23.198096069 
