19:08:58		x: -0.02107485	y: -0.09987647	z: -0.10170906
19:08:58		x: -0.37812558	y: -0.07086037	z: -0.64996064
19:08:58		x: -1.1603385	y: -1.0125091	z: -1.1933253
19:08:58		x: -1.3133603	y: -1.5149459	z: -0.42180246
19:08:59		x: 0.06811147	y: -0.91904676	z: -2.21683
19:08:59		x: -1.509448	y: -3.0360003	z: -2.1591032
19:08:59		x: -3.1123583	y: -5.226563	z: 1.2861768
19:08:59		x: -2.185065	y: -2.185065	z: 0.48502702
19:08:59		x: -0.6942484	y: -0.40958515	z: 2.64749
19:08:59		x: 0.782213	y: 0.52534413	z: 0.66553766
19:09:00		x: -0.43463063	y: 0.2910773	z: 0.3680463
19:09:00		x: 0.50579643	y: -0.49632803	z: -0.88361657
19:09:00		x: 1.6844609	y: -0.9398162	z: -2.1933117
19:09:00		x: -3.1050282	y: -0.46853364	z: -0.95417154
19:09:00		x: -0.9166033	y: -4.350277	z: -0.77824235
19:09:00		x: -0.19272798	y: 0.26939157	z: 0.49266282
19:09:01		x: -0.33383787	y: -0.14721853	z: 0.12675454
19:09:01		x: -0.012217305	y: 0.070249505	z: 0.21777347
19:09:01		x: -0.50854534	y: -0.41630468	z: -0.3136793
19:09:01		x: 0.23457226	y: -1.8255708	z: -0.32925636
19:09:01		x: 0.79901177	y: -0.8191703	z: -0.48349985
19:09:02		x: 1.1664472	y: 1.6575829	z: -0.67347896
19:09:02		x: -0.6398814	y: 2.098933	z: 1.0705414
19:09:02		x: -0.33261612	y: 0.7302894	z: 0.49663344
19:09:02		x: -0.03573562	y: 1.502423	z: -0.20433442
19:09:02		x: -0.12797627	y: -0.41722095	z: 0.05497787
19:09:02		x: -0.20555615	y: -1.4877623	z: 0.028099801
19:09:03		x: -0.3191771	y: -1.8756617	z: -0.08368854
19:09:03		x: -0.58551437	y: -1.4877623	z: -0.4718934
19:09:03		x: -0.59986967	y: -1.5909985	z: -0.06780604
19:09:03		x: -0.42485678	y: -0.95325524	z: -0.34300083
19:09:03		x: 0.10170906	y: -1.459968	z: -0.53878313
19:09:04		x: 0.33292156	y: 0.1853976	z: 0.025961773
19:09:04		x: -0.084910266	y: -0.036651913	z: 0.6398814
19:09:04		x: 0.51343226	y: 0.16982053	z: -0.23640485
19:09:04		x: 0.7648033	y: -0.6957755	z: -1.636508
19:09:04		x: -0.6068946	y: -2.6395488	z: -1.1951579
19:09:04		x: -3.6679404	y: -2.5289822	z: -1.91323
19:09:05		x: -2.1163425	y: -1.9639318	z: -5.021923
19:09:05		x: -1.1133019	y: -5.054299	z: -0.15821409
19:09:05		x: 0.5891795	y: -1.4321736	z: 0.043982297
19:09:05		x: -0.014660766	y: 0.086132	z: 0.07513642
19:09:05		x: 9.162979E-4	y: -0.017715093	z: 0.09407325
19:09:06		x: 0.21471913	y: -0.06994407	z: 0.106901415
19:09:06		x: -0.026267206	y: 0.02076942	z: -0.049785517
19:09:06		x: 0.098043874	y: -0.12797627	z: -0.016493361
19:09:06		x: 0.016798794	y: -0.08735373	z: -0.0143553335
19:09:06		x: -0.013439035	y: 0.043982297	z: 0.013133603
19:09:06		x: 0.004886922	y: 0.043982297	z: -0.016187929
19:09:07		x: 0.023823744	y: 0.014966198	z: -0.013133603
19:09:07		x: -0.07696902	y: 0.004581489	z: 0.019242255
19:09:07		x: 0.1826487	y: -0.080634214	z: 0.009162978
19:09:07		x: -0.023518313	y: 0.090713486	z: 0.0106901415
19:09:07		x: 0.054367006	y: -0.023823744	z: 0.07391469
