18:18:29		x: -30.126	y: 24.183	z: 50.65
18:18:29		x: -30.126	y: 26.409	z: 50.65
18:18:29		x: -30.126	y: 28.224	z: 50.65
18:18:29		x: -30.126	y: 29.171	z: 50.65
18:18:29		x: -30.126	y: 30.665	z: 50.305
18:18:29		x: -30.126	y: 31.082	z: 50.305
18:18:30		x: -33.149	y: 26.797	z: 50.305
18:18:30		x: -37.084	y: 23.619	z: 50.305
18:18:30		x: -40.608	y: 22.531	z: 51.922
18:18:30		x: -40.919	y: 21.4	z: 51.197
18:18:30		x: -45.317	y: 25.056	z: 51.727
18:18:31		x: -47.265	y: 27.703	z: 51.727
18:18:31		x: -45.381	y: 25.834	z: 50.785
18:18:31		x: -46.244	y: 26.864	z: 51.675
18:18:31		x: -47.3	y: 25.189	z: 53.852
18:18:31		x: -48.007	y: 25.189	z: 55.456
18:18:31		x: -46.536	y: 26.203	z: 54.942
18:18:32		x: -41.011	y: 26.786	z: 49.511
18:18:32		x: -43.061	y: 30.274	z: 50.66
18:18:32		x: -43.061	y: 36.613	z: 51.466
18:18:32		x: -38.816	y: 37.86	z: 50.619
18:18:32		x: -42.022	y: 33.605	z: 53.869
18:18:33		x: -45.184	y: 30.509	z: 55.598
18:18:33		x: -45.646	y: 26.245	z: 55.598
18:18:33		x: -47.277	y: 28.35	z: 57.012
18:18:33		x: -47.787	y: 33.288	z: 57.733
18:18:33		x: -45.904	y: 37.413	z: 55.867
18:18:33		x: -45.123	y: 35.563	z: 54.824
18:18:34		x: -44.215	y: 25.437	z: 56.559
18:18:34		x: -42.953	y: 17.219	z: 61.499
18:18:34		x: -43.85	y: 11.271	z: 69.624
18:18:34		x: -43.325	y: 10.301	z: 73.025
18:18:34		x: -39.122	y: 12.753	z: 72.497
18:18:35		x: -37.075	y: 11.514	z: 73.139
18:18:35		x: -36.334	y: 10.417	z: 73.855
18:18:35		x: -35.165	y: 10.025	z: 74.725
18:18:35		x: -31.097	y: 6.616	z: 77.032
18:18:35		x: -27.09	y: 3.495	z: 78.742
18:18:35		x: -24.851	y: 2.331	z: 81.417
18:18:36		x: -23.104	y: 1.721	z: 80.308
18:18:36		x: -22.146	y: 2.372	z: 78.157
18:18:36		x: -21.119	y: 2.372	z: 77.191
18:18:36		x: -22.14	y: 2.372	z: 78.182
18:18:36		x: -19.749	y: 1.93	z: 79.112
18:18:36		x: -12.583	y: -1.866	z: 79.112
18:18:37		x: -7.937	y: -1.521	z: 81.112
18:18:37		x: -7.545	y: -0.424	z: 81.594
18:18:37		x: -5.519	y: 2.395	z: 81.594
18:18:37		x: -4.89	y: 3.218	z: 80.091
18:18:37		x: -5.677	y: 4.336	z: 81.503
18:18:38		x: -4.522	y: 5.534	z: 81.503
18:18:38		x: -1.191	y: 6.994	z: 81.503
18:18:38		x: 1.715	y: 7.463	z: 81.503
18:18:38		x: 2.845	y: 7.949	z: 81.503
