18:12:05		x: 0.2773328	y: -0.089186326	z: -0.84482664
18:12:05		x: 0.321926	y: 0.0729984	z: -3.041498
18:12:05		x: 0.027488936	y: -0.87995136	z: -0.58459806
18:12:05		x: -0.7290677	y: -0.47952923	z: -0.77213365
18:12:05		x: -5.3255234	y: -0.16401732	z: -3.1004465
18:12:06		x: -2.9733865	y: -4.5481973	z: -2.8108964
18:12:06		x: -1.7983873	y: -2.3606887	z: -2.0011945
18:12:06		x: 0.7870999	y: -1.5671748	z: -0.9108001
18:12:06		x: -1.3399329	y: 0.1695151	z: -0.8026769
18:12:06		x: 0.051923547	y: 0.08307768	z: -0.118202426
18:12:07		x: 0.41233405	y: 0.66614854	z: 0.2312125
18:12:07		x: 0.3811799	y: 0.07574729	z: -0.44135013
18:12:07		x: -0.025961773	y: -0.75961095	z: -0.28924468
18:12:07		x: 1.2324207	y: -1.8359555	z: 0.86620694
18:12:07		x: -0.38728857	y: -0.24862215	z: -1.1725558
18:12:07		x: 0.14049901	y: -0.61269784	z: -1.4978416
18:12:08		x: -0.16493362	y: 0.26542094	z: -1.7424932
18:12:08		x: -0.20219639	y: 0.95722586	z: -2.307849
18:12:08		x: 0.47800204	y: 0.7150178	z: -0.2510656
18:12:08		x: -0.25717425	y: 0.09621128	z: -0.33567044
18:12:08		x: -1.5066991	y: -0.25625798	z: 1.3267993
18:12:09		x: -0.053145275	y: -0.43890667	z: 1.8493946
18:12:09		x: 0.6041457	y: 2.1792617	z: 0.3136793
18:12:09		x: 0.36926803	y: -0.16676621	z: -1.9773707
18:12:09		x: 1.1270463	y: -1.6337591	z: -0.98715824
18:12:09		x: -2.8683178	y: 0.09285152	z: 2.9929342
18:12:09		x: 1.6649132	y: -1.7968601	z: -1.9581286
18:12:10		x: 0.93828905	y: -0.990518	z: -2.313652
18:12:10		x: 1.3344351	y: -0.79045963	z: -0.35124752
18:12:10		x: -2.919936	y: 2.5372288	z: 4.476726
18:12:10		x: 2.7620273	y: 0.7480045	z: -1.7962493
18:12:10		x: 2.2348504	y: -3.723529	z: -6.3019915
18:12:11		x: -1.3713925	y: -0.84635377	z: 0.73731434
18:12:11		x: -2.1526892	y: 0.13622294	z: 4.9171596
18:12:11		x: 1.5152513	y: 0.14996742	z: -1.7464638
18:12:11		x: 1.2421945	y: -0.92271197	z: -6.8786483
18:12:11		x: -2.8322768	y: 2.9651399	z: 0.8912524
18:12:11		x: -2.3063216	y: -0.22815818	z: 0.6221663
18:12:12		x: -0.9761627	y: 3.8557813	z: 0.3368922
18:12:12		x: 3.6453383	y: -1.2641857	z: -4.220468
18:12:12		x: -3.7568212	y: 0.48747048	z: 1.5815301
18:12:12		x: -0.47739118	y: 0.77518797	z: -0.18417588
18:12:12		x: 0.004886922	y: 3.0912836	z: 1.5393804
18:12:12		x: 3.4605515	y: -8.315708	z: -2.3817637
18:12:13		x: -4.5097127	y: 1.2098186	z: 2.705522
18:12:13		x: 0.75136423	y: 0.22204952	z: -1.9984456
18:12:13		x: -1.0115929	y: 0.5314528	z: 1.3805555
18:12:13		x: 2.8136454	y: -2.9498682	z: -1.8698585
18:12:13		x: -5.3777523	y: 1.6337591	z: 3.1942143
18:12:14		x: 0.9388999	y: 1.6087136	z: -2.1966715
18:12:14		x: -4.3863177	y: -0.70952	z: -0.067500606
18:12:14		x: 1.3274102	y: 4.4608436	z: -1.1487321
18:12:14		x: -5.292842	y: 1.3051136	z: 4.2216897
18:12:14		x: 2.2806654	y: 1.0958922	z: -1.9999728
18:12:14		x: 1.7562376	y: -2.4306328	z: 0.5112942
18:12:15		x: 0.8677341	y: -2.0857995	z: -0.7687739
18:12:15		x: -4.252538	y: 1.1050552	z: 4.9403725
18:12:15		x: 2.5277603	y: 0.39675698	z: -1.8432859
18:12:15		x: 2.9043589	y: -1.9984456	z: -0.14049901
18:12:15		x: 0.7867944	y: -1.7959439	z: -0.3839288
18:12:16		x: -4.4559565	y: 1.3768903	z: 3.6279287
18:12:16		x: 1.9651535	y: 0.52778757	z: -1.8994855
18:12:16		x: 2.8554895	y: -1.559539	z: 1.1337659
18:12:16		x: 1.6588045	y: -2.807842	z: -1.5909985
18:12:16		x: -4.3951755	y: 0.9193522	z: 3.4150422
18:12:16		x: 1.1560625	y: 0.98471475	z: -2.2342396
18:12:17		x: -3.0066788	y: -0.5216789	z: 0.12370021
18:12:17		x: 2.1591032	y: 1.4422529	z: -1.3582588
18:12:17		x: -4.8591275	y: 1.3332134	z: 2.4620924
18:12:17		x: 1.0882565	y: 1.207986	z: -1.8176296
18:12:17		x: -4.8096476	y: 0.79473567	z: -0.72418076
18:12:18		x: 2.529593	y: 4.5032988	z: -1.8686367
18:12:18		x: -3.6737435	y: 1.4358387	z: 1.8515326
18:12:18		x: 0.116980694	y: -0.12064589	z: -0.44348818
18:12:18		x: -2.982855	y: 1.6777414	z: 0.22082779
18:12:18		x: 2.0696115	y: 3.9251146	z: -2.521041
18:12:18		x: -4.3316455	y: 0.46089783	z: 1.3182472
18:12:19		x: 1.593442	y: 1.5888605	z: -0.69913524
18:12:19		x: 0.7031059	y: -1.6988163	z: 3.1199942
18:12:19		x: 1.3536774	y: 1.6783522	z: -1.1386528
18:12:19		x: -1.5180001	y: -1.0228939	z: 0.6585127
18:12:19		x: 1.0537425	y: -2.044566	z: -1.3301591
18:12:20		x: 1.2556335	y: 0.1133155	z: -1.613906
18:12:20		x: 1.0231993	y: -0.77763146	z: 0.40958515
18:12:20		x: 0.41050145	y: -1.7012597	z: 0.1966986
18:12:20		x: -0.8536842	y: -1.8020525	z: 1.3497068
18:12:20		x: -0.269697	y: -1.992337	z: 0.9230174
18:12:20		x: 0.57940567	y: -1.2907583	z: 1.3976597
18:12:21		x: 1.2965615	y: 1.632232	z: 1.9663752
18:12:21		x: -0.25992316	y: 5.4400606	z: 0.06383542
18:12:21		x: -1.9367483	y: 3.803247	z: 2.771801
18:12:21		x: -0.54153204	y: 3.8221838	z: 4.0775256
18:12:21		x: 0.04886922	y: 2.3689353	z: -0.32834008
18:12:22		x: 0.017104227	y: -0.032070424	z: 0.24373524
18:12:22		x: -0.5571091	y: -0.16126843	z: -0.106595986
18:12:22		x: -0.099265605	y: 0.6252206	z: 0.1337795
18:12:22		x: 0.20708331	y: -0.2098322	z: -0.067500606
18:12:22		x: 0.4972443	y: -0.041233405	z: 0.105068825
18:12:22		x: -0.6960809	y: 0.85062987	z: -0.5412266
18:12:23		x: -0.13194689	y: -1.1481212	z: 0.059253927
18:12:23		x: 0.22021692	y: -0.4166101	z: 0.005192355
18:12:23		x: -0.19120082	y: 0.27183503	z: 0.09162979
18:12:23		x: -0.09773844	y: -0.21563543	z: 0.0842994
18:12:23		x: -0.043982297	y: -0.01863139	z: 0.07819075
18:12:23		x: -0.047647487	y: -0.045814894	z: 0.1151481
18:12:24		x: -0.06536258	y: -0.025045475	z: 0.13561209
18:12:24		x: -0.23793201	y: 0.14110987	z: 0.0870483
