21:03:27		x: -0.18417588	y: -0.17989981	z: 0.28496864
21:03:28		x: -0.08735373	y: -0.15393804	z: 0.2593123
21:03:28		x: -0.09590584	y: 0.16065755	z: 0.14049901
21:03:28		x: -0.28802297	y: -0.16768251	z: 0.0693332
21:03:28		x: -0.15974127	y: -0.43310347	z: 0.24495697
21:03:28		x: -0.077579886	y: 0.06291912	z: 0.074830994
21:03:29		x: 0.065973446	y: -0.11301007	z: 0.027488936
21:03:29		x: -0.060170226	y: 0.028710667	z: 0.03848451
21:03:29		x: 0.025045475	y: -0.15821409	z: 0.021380283
21:03:29		x: -0.7654142	y: -0.03176499	z: -3.0543262E-4
21:03:29		x: 0.093767814	y: -0.48655418	z: 0.09712757
21:03:29		x: 0.102319926	y: 0.090713486	z: 0.004581489
21:03:30		x: -0.022907447	y: 0.025350908	z: -0.002443461
21:03:30		x: 0.08093964	y: -0.056505036	z: 0.0143553335
21:03:30		x: 0.03176499	y: 0.00580322	z: 0.0125227375
21:03:30		x: 0.11484267	y: -0.025961773	z: -0.017104227
21:03:30		x: 0.058337633	y: 0.10567969	z: -0.01740966
21:03:30		x: 0.1957823	y: 0.03756821	z: 0.032986723
21:03:31		x: -0.1255328	y: 0.27275133	z: -0.1414153
21:03:31		x: -0.29443705	y: -0.28038713	z: -0.009162978
21:03:31		x: -0.8029824	y: -0.2828306	z: 0.7629707
21:03:31		x: -0.1282817	y: 1.0726794	z: -0.14049901
21:03:31		x: 0.3707952	y: 0.32589662	z: -0.2012801
21:03:32		x: 0.21930063	y: 0.13805555	z: -0.28313604
21:03:32		x: 0.42760566	y: -0.4089743	z: -0.2874121
21:03:32		x: 0.10995574	y: -0.16401732	z: -0.064751714
21:03:32		x: -0.06780604	y: -0.26908615	z: 0.12797627
21:03:32		x: 0.018020526	y: -0.22632557	z: 0.11881329
21:03:32		x: 0.106595986	y: -0.10476339	z: 0.08674286
21:03:33		x: 0.02687807	y: 0.009468411	z: 0.16798794
21:03:33		x: 0.052839845	y: -0.05375614	z: -0.047647487
21:03:33		x: -0.84971356	y: 0.032375857	z: -0.21685717
21:03:33		x: 0.10354166	y: -0.91629785	z: 0.015271631
21:03:33		x: 0.0870483	y: -6.1086525E-4	z: 0.046731193
21:03:34		x: 0.10781772	y: 0.058948494	z: -0.043982297
21:03:34		x: -0.043982297	y: 0.14935656	z: 0.0076358155
21:03:34		x: 0.086437434	y: -0.0720821	z: -0.0143553335
21:03:34		x: -0.02321288	y: 0.05222898	z: -0.004581489
21:03:34		x: 0.027183503	y: 0.026267206	z: -0.03604105
21:03:34		x: 0.09987647	y: 0.024740042	z: -0.051618114
21:03:35		x: 0.12492194	y: -0.007941248	z: -0.0036651916
21:03:35		x: 0.080634214	y: -0.16920967	z: -0.024740042
21:03:35		x: 0.015577064	y: -0.029932396	z: 0.015882496
21:03:35		x: 0.13255776	y: -0.042455133	z: -0.022602014
21:03:35		x: -0.10048734	y: 0.11759156	z: 0.008246681
21:03:35		x: -0.007941248	y: -0.1441642	z: 0.0
21:03:36		x: 0.12308934	y: -0.06261369	z: -0.045814894
21:03:36		x: 0.008246681	y: 0.03390302	z: 0.038179077
21:03:36		x: 0.04520403	y: -0.10903945	z: -0.01038471
21:03:36		x: 0.064751714	y: 0.027488936	z: 0.0012217305
21:03:36		x: 0.043066	y: 0.018325957	z: -0.004581489
21:03:37		x: 0.06291912	y: -0.06505715	z: 0.013439035
21:03:37		x: 0.055588737	y: -0.01985312	z: -0.023518313
21:03:37		x: 0.08002335	y: 0.07849618	z: 0.027183503
21:03:37		x: 0.025350908	y: 0.027794369	z: -0.0143553335
21:03:37		x: 0.15607607	y: 0.11942416	z: 0.01038471
21:03:38		x: -0.11026118	y: 0.15363261	z: 0.07819075
21:03:38		x: 0.027183503	y: -0.015882496	z: -0.029321533
21:03:38		x: -0.0036651916	y: 0.043982297	z: -0.00580322
21:03:38		x: 0.07544186	y: 0.0018325958	z: 0.016798794
21:03:38		x: 0.06078109	y: 0.06505715	z: 0.004886922
21:03:38		x: -0.034208454	y: -0.013439035	z: -0.02565634
21:03:39		x: 0.14110987	y: -0.040927973	z: -3.0543262E-4
21:03:39		x: -1.4871514	y: 0.21838433	z: 0.7788532
21:03:39		x: -0.6740898	y: 1.8606955	z: 0.38881573
21:03:39		x: -0.25686884	y: 0.7348709	z: 0.13652839
21:03:39		x: 0.3894266	y: 0.23396139	z: -0.34666604
21:03:39		x: 0.07360926	y: -0.13530666	z: -0.18478674
21:03:40		x: 0.08827003	y: -0.11789699	z: -0.060170226
21:03:40		x: 0.102319926	y: -0.1160644	z: -0.21930063
21:03:40		x: 0.2828306	y: -0.24190263	z: -0.15424347
21:03:40		x: -0.03390302	y: -0.1160644	z: -0.19517145
21:03:40		x: 0.29016098	y: -0.21227567	z: -0.058643065
21:03:41		x: 0.27397305	y: 0.021685716	z: 0.017104227
21:03:41		x: 0.5198463	y: 0.13255776	z: -0.10903945
21:03:41		x: 0.15882497	y: 0.113926366	z: -0.0015271631
21:03:41		x: 0.12889257	y: 0.050701816	z: -0.070249505
21:03:41		x: 0.09896017	y: -0.002443461	z: 0.05467244
21:03:41		x: 0.0842994	y: -0.0012217305	z: -0.047647487
21:03:42		x: 0.14996742	y: -0.02076942	z: -0.01740966
21:03:42		x: -0.0012217305	y: 0.042760566	z: 0.051923547
21:03:42		x: -0.030543262	y: -0.005192355	z: -0.05589417
21:03:42		x: 0.21991149	y: -0.12064589	z: 0.18997909
21:03:42		x: 0.03481932	y: 0.18936823	z: -0.045814894
21:03:43		x: 0.03970624	y: -0.09987647	z: -0.019242255
21:03:43		x: 0.06352998	y: -0.051923547	z: -0.0036651916
21:03:43		x: 0.20830505	y: -0.06627888	z: -0.056505036
21:03:43		x: 0.4251622	y: -0.1685988	z: -0.17745635
21:03:43		x: -0.014966198	y: -0.19425514	z: -0.23243423
21:03:43		x: 0.058337633	y: 0.12583824	z: -0.082161374
21:03:44		x: -0.5510005	y: 0.027183503	z: 0.16157386
21:03:44		x: -0.5662721	y: -0.8258898	z: 0.2837469
21:03:44		x: 0.2959642	y: -0.550695	z: 0.01985312
21:03:44		x: -0.1563815	y: 0.062002823	z: 0.07880162
21:03:44		x: -0.019242255	y: -0.40500367	z: 0.21380283
21:03:45		x: 0.10873401	y: 0.019547688	z: 0.2406809
21:03:45		x: -0.033292156	y: -0.03268129	z: 0.034513887
21:03:45		x: 0.29260445	y: -0.2125811	z: -0.11636983
21:03:45		x: -0.07971791	y: 0.08002335	z: 0.0106901415
21:03:45		x: 0.15149458	y: -0.056505036	z: 0.038179077
21:03:45		x: -0.12064589	y: 0.08124508	z: -0.12156218
21:03:46		x: 0.0125227375	y: -0.053450707	z: -0.025045475
21:03:46		x: -0.004886922	y: -0.035430185	z: -0.0106901415
21:03:46		x: 0.022907447	y: -6.1086525E-4	z: 0.008857546
21:03:46		x: 0.08277224	y: -0.0033597588	z: -0.0067195175
21:03:46		x: 0.06261369	y: 0.059864793	z: 0.09865474
21:03:47		x: -0.032375857	y: 0.03023783	z: -0.024129177
21:03:47		x: -0.02321288	y: -0.03145956	z: 0.15241088
21:03:47		x: 0.005192355	y: 0.051923547	z: 0.016187929
21:03:47		x: -0.029321533	y: -0.044593163	z: 0.062308256
21:03:47		x: 0.0888809	y: 0.019547688	z: -0.05131268
21:03:47		x: 0.0580322	y: 0.06627888	z: 0.06291912
21:03:48		x: 0.028099801	y: 0.07727446	z: -0.06536258
21:03:48		x: 0.102319926	y: -0.01863139	z: 0.006414085
21:03:48		x: 0.003970624	y: -0.0012217305	z: -0.0018325958
21:03:48		x: -0.0027488936	y: 0.032375857	z: 0.012217305
21:03:48		x: 0.0061086523	y: 0.01282817	z: -0.0021380284
21:03:48		x: 0.0693332	y: 0.030848695	z: 0.016493361
21:03:49		x: 0.10476339	y: 0.032986723	z: 0.02076942
21:03:49		x: 0.07819075	y: 0.054367006	z: -0.06261369
21:03:49		x: 0.14446963	y: 0.0580322	z: 0.033292156
21:03:49		x: -0.15577064	y: 0.11881329	z: 0.053450707
21:03:49		x: 0.0711658	y: -0.05131268	z: -0.046120327
21:03:50		x: 0.029321533	y: 0.036651913	z: 0.1142318
21:03:50		x: 0.12186762	y: 0.053145275	z: -0.054061573
21:03:50		x: -0.3811799	y: 0.037873644	z: 0.03634648
21:03:50		x: 1.2690725	y: -0.31887165	z: -0.9737192
21:03:50		x: 0.24678956	y: 0.88422745	z: -0.39828414
21:03:51		x: -0.34422258	y: 0.20586158	z: 0.025350908
21:03:51		x: -0.2919936	y: -0.20891592	z: 0.1423316
21:03:51		x: -0.25473082	y: -0.0033597588	z: 0.1160644
21:03:51		x: -0.26939157	y: -0.03604105	z: 0.35918877
21:03:51		x: -0.019547688	y: 0.003970624	z: 0.021685716
21:03:51		x: -0.016187929	y: -0.10873401	z: 0.023518313
21:03:52		x: 0.030848695	y: -0.063224554	z: -0.0076358155
21:03:52		x: 0.044593163	y: -0.3539964	z: 0.09193522
21:03:52		x: -0.1133155	y: 0.03176499	z: 0.03359759
21:03:52		x: 0.009162978	y: -0.11362094	z: 0.053450707
21:03:52		x: -0.0027488936	y: -0.016798794	z: 0.070249505
21:03:52		x: 0.0015271631	y: -0.014660766	z: 0.04184427
21:03:53		x: -0.006414085	y: -0.07422013	z: 0.08582657
21:03:53		x: 0.040011674	y: -0.00580322	z: 0.026572637
21:03:53		x: 0.08827003	y: 0.009468411	z: 0.04550946
21:03:53		x: 0.09987647	y: -0.06658431	z: -0.028405234
21:03:53		x: -0.0015271631	y: 0.05009095	z: -0.061086524
21:03:54		x: 0.025045475	y: 0.022296581	z: -0.0021380284
21:03:54		x: 0.014660766	y: -0.018936822	z: 0.0421497
21:03:54		x: 0.101098195	y: -0.0076358155	z: 0.08735373
21:03:54		x: 0.15485434	y: -0.01863139	z: 0.014049901
21:03:54		x: 0.021685716	y: 0.12064589	z: -0.034208454
21:03:54		x: -0.04337143	y: -0.02107485	z: -0.03390302
21:03:55		x: -0.062002823	y: -0.06352998	z: 0.059864793
21:03:55		x: 0.07971791	y: 0.01863139	z: -0.06994407
21:03:55		x: 0.01282817	y: -0.002443461	z: 0.05497787
21:03:55		x: 0.082161374	y: -0.024129177	z: -0.07880162
21:03:55		x: 0.0421497	y: 0.03604105	z: -0.0033597588
21:03:56		x: 0.15363261	y: -0.03756821	z: -0.025045475
21:03:56		x: -0.092240654	y: 0.12522738	z: -0.021380283
21:03:56		x: 0.073303826	y: -0.16493362	z: -0.0012217305
21:03:56		x: 0.076358154	y: 0.015271631	z: 0.0061086523
21:03:56		x: 0.03359759	y: -0.029932396	z: 0.05681047
21:03:56		x: 0.025961773	y: 0.12156218	z: 0.028405234
21:03:57		x: 0.049480084	y: 0.01985312	z: 0.025961773
21:03:57		x: 0.30176744	y: -0.03359759	z: 0.15241088
21:03:57		x: -0.24648413	y: 0.47433686	z: 0.07086037
21:03:57		x: 0.03390302	y: 0.27885997	z: 0.01863139
21:03:57		x: -0.015577064	y: -0.028710667	z: -0.002443461
21:03:57		x: 0.0012217305	y: -0.058643065	z: -0.01740966
21:03:58		x: 0.11575896	y: -0.01985312	z: -0.01160644
21:03:58		x: 0.038179077	y: 0.3484986	z: -0.067500606
21:03:58		x: 0.004886922	y: 0.027488936	z: -0.07422013
21:03:58		x: -0.006414085	y: -0.004276057	z: 0.24862215
21:03:58		x: 0.106595986	y: -0.027183503	z: -0.11911872
21:03:59		x: -0.027183503	y: 0.015271631	z: -9.162979E-4
21:03:59		x: 0.13164146	y: 3.0543262E-4	z: 0.022602014
21:03:59		x: 0.10323623	y: 0.118202426	z: 0.003970624
21:03:59		x: -0.008246681	y: 0.25289822	z: 0.004886922
21:03:59		x: 0.12095132	y: 0.25289822	z: -0.0290161
21:03:59		x: -0.007941248	y: 0.10873401	z: 0.051618114
21:04:00		x: 0.09468412	y: -0.03634648	z: -0.004886922
21:04:00		x: 0.049785517	y: 0.043982297	z: 0.02076942
21:04:00		x: 0.053145275	y: -0.004886922	z: 0.025045475
21:04:00		x: 0.01863139	y: 0.09407325	z: 0.029932396
21:04:00		x: -0.021685716	y: 0.0012217305	z: -0.024740042
21:04:01		x: -0.0290161	y: 0.010995574	z: -0.029626964
21:04:01		x: 0.010079277	y: -0.06536258	z: 0.014660766
21:04:01		x: -0.0076358155	y: -0.0033597588	z: -0.04153884
21:04:01		x: 0.06352998	y: -0.04642576	z: 0.008857546
21:04:01		x: -0.06994407	y: 0.011301007	z: -0.0106901415
21:04:01		x: 0.012217305	y: -0.039095376	z: 0.028710667
21:04:02		x: -0.0070249503	y: 0.040927973	z: -0.028710667
21:04:02		x: -0.08552113	y: -0.08155051	z: 0.029626964
21:04:02		x: 0.06994407	y: -0.089186326	z: -0.014049901
21:04:02		x: 0.23243423	y: 0.034513887	z: 0.0027488936
21:04:02		x: -0.03970624	y: 0.08827003	z: -0.025350908
21:04:03		x: 0.034208454	y: -0.12370021	z: 0.19181168
21:04:03		x: -0.17531833	y: -0.0720821	z: 0.086437434
21:04:03		x: 0.1160644	y: -0.03359759	z: -0.0030543262
21:04:03		x: 0.21563543	y: -0.09315695	z: -0.01038471
21:04:03		x: 0.021991149	y: -0.045814894	z: -0.054061573
21:04:03		x: 0.043676864	y: -0.046120327	z: 0.0033597588
21:04:04		x: 0.12217305	y: -0.031154128	z: -0.013133603
21:04:04		x: 0.099265605	y: 0.070554934	z: -0.065973446
21:04:04		x: -0.13744467	y: 0.12186762	z: -0.094989546
21:04:04		x: 0.08155051	y: -0.12705997	z: -0.008552114
21:04:04		x: 0.30573806	y: 0.032070424	z: 0.040927973
21:04:04		x: 0.1001819	y: 0.34422258	z: -0.10842858
21:04:05		x: 0.069027774	y: 0.11178834	z: -0.046731193
21:04:05		x: -0.028710667	y: 0.070249505	z: -0.06536258
21:04:05		x: 0.20647246	y: -0.05681047	z: 0.002443461
21:04:05		x: 0.034513887	y: 0.35979962	z: 0.021380283
21:04:05		x: 0.06627888	y: -0.076358154	z: -0.04734206
21:04:06		x: -0.059864793	y: 0.08582657	z: 0.01282817
21:04:06		x: 0.015882496	y: -0.17592919	z: -0.0061086523
21:04:06		x: -0.061391957	y: -0.0027488936	z: -0.02076942
21:04:06		x: 0.06261369	y: 0.06352998	z: 0.01740966
21:04:06		x: 0.14996742	y: -0.034513887	z: -0.02687807
21:04:06		x: -0.00580322	y: 0.102319926	z: 0.014049901
21:04:07		x: 0.34513888	y: 0.0	z: 0.080634214
21:04:07		x: 0.28160888	y: 0.16890424	z: 0.09193522
21:04:07		x: -0.027183503	y: 0.19028452	z: -0.0027488936
21:04:07		x: -0.14080444	y: -0.056199603	z: 0.06047566
21:04:07		x: 0.20219639	y: -0.17898351	z: 0.12614368
21:04:08		x: 0.01740966	y: 0.35918877	z: 0.009773844
21:04:08		x: 0.039095376	y: -0.08399397	z: 3.0543262E-4
21:04:08		x: -0.0143553335	y: 0.09254608	z: -0.01863139
21:04:08		x: 0.073303826	y: -0.0021380284	z: -0.008246681
21:04:08		x: 1.0531317	y: 0.051618114	z: 0.047036625
21:04:09		x: -0.22602014	y: 0.8155051	z: -0.13805555
21:04:09		x: 0.034513887	y: -0.23487769	z: 0.019547688
21:04:09		x: 0.043066	y: 0.03604105	z: -0.018020526
21:04:09		x: -0.040927973	y: 0.027794369	z: -0.028710667
21:04:09		x: 0.08674286	y: -0.08002335	z: -0.06414085
21:04:09		x: 0.08552113	y: 0.004886922	z: 0.11759156
21:04:10		x: 0.25961772	y: -0.027794369	z: 0.36254853
21:04:10		x: 0.1908954	y: -0.47158796	z: -0.07666359
21:04:10		x: -0.06811147	y: 0.004276057	z: 0.19333886
21:04:10		x: 0.044593163	y: -0.10751228	z: -0.11942416
21:04:10		x: 0.04550946	y: -0.023518313	z: -0.008857546
21:04:11		x: -0.077579886	y: 0.3998113	z: 0.31031954
21:04:11		x: 0.15088372	y: 0.5161811	z: 0.32834008
21:04:11		x: 0.77579886	y: 0.29657507	z: 0.16615535
21:04:11		x: 1.4437801	y: -0.34788775	z: 0.30695978
21:04:11		x: 0.42546764	y: 0.62888575	z: 0.19425514
21:04:11		x: 0.22907446	y: -0.5109888	z: -0.09468412
21:04:12		x: 0.3475823	y: -3.0818152	z: -0.19150625
21:04:12		x: 1.258077	y: 0.93431836	z: -0.04886922
21:04:12		x: -1.6221527	y: 0.15699236	z: -3.4886515
21:04:12		x: -0.7861836	y: -0.6600399	z: 0.31856623
21:04:12		x: -1.0506883	y: 0.06963864	z: 0.6264423
21:04:12		x: -1.1542299	y: -0.8020661	z: 0.1423316
21:04:13		x: -2.4825563	y: 1.320996	z: -0.5910121
21:04:13		x: 2.2562308	y: 0.97066486	z: 0.977079
21:04:13		x: 4.7332892	y: -0.6765333	z: 0.9960158
21:04:13		x: -0.49877146	y: -2.495079	z: -0.13836098
21:04:13		x: 1.1664472	y: 0.21563543	z: -1.210735
21:04:14		x: 0.226631	y: -0.5714644	z: -0.4361578
21:04:14		x: 0.26939157	y: 0.68936145	z: 0.11636983
21:04:14		x: -0.12950343	y: -0.07147124	z: -0.10140363
21:04:14		x: 0.15241088	y: -0.025961773	z: 0.084910266
21:04:14		x: 0.10262536	y: -0.026572637	z: -0.03176499
21:04:14		x: -0.113926366	y: -0.0290161	z: -0.15790866
21:04:15		x: -0.01863139	y: 3.0543262E-4	z: -0.018020526
21:04:15		x: 0.0	y: -0.0027488936	z: 0.0290161
21:04:15		x: 0.052534413	y: -0.026267206	z: 0.009162978
21:04:15		x: -0.0067195175	y: 0.0021380284	z: -0.018020526
21:04:15		x: -0.08368854	y: 0.03390302	z: -0.050396383
21:04:15		x: -0.0021380284	y: 0.022296581	z: 0.03145956
21:04:17		x: -0.064751714	y: -0.038179077	z: -0.0571159
21:04:17		x: 0.015882496	y: 0.03756821	z: -0.05009095
21:04:17		x: -0.032986723	y: 0.057421334	z: 0.07086037
21:04:17		x: -0.19303341	y: -0.0067195175	z: 0.028099801
21:04:17		x: -1.3054191	y: -0.061391957	z: 0.043982297
21:04:17		x: -3.2461379	y: -0.06688975	z: -0.54153204
21:04:18		x: 0.72143185	y: 0.66523224	z: 0.63071835
21:04:18		x: 0.50335294	y: -0.0012217305	z: 2.7614164
21:04:18		x: 1.0192287	y: 0.36346483	z: 0.79076505
21:04:18		x: 1.1939361	y: -0.22937989	z: 0.21074851
21:04:18		x: -0.09712757	y: 0.4908302	z: 0.1740966
21:04:18		x: 0.6954701	y: -0.5543602	z: 0.8927795
21:04:18		x: -2.737898	y: 0.048563786	z: 1.1337659
21:04:19		x: -1.1029172	y: 3.1645875	z: -0.5296202
21:04:19		x: 0.79351395	y: -0.13805555	z: 0.49388456
21:04:19		x: 2.1380284	y: -1.0662653	z: -0.15821409
21:04:19		x: -1.1120802	y: 0.09010262	z: -0.089186326
21:04:19		x: -0.79137594	y: -0.9282097	z: 0.8915578
21:04:20		x: -0.36193767	y: 2.1789563	z: 0.060170226
21:04:20		x: 0.064751714	y: -0.20097467	z: 0.2180789
21:04:20		x: 0.40469822	y: -0.41325033	z: -0.09285152
21:04:20		x: 0.56505036	y: 0.32803464	z: -0.28344148
21:04:20		x: -0.30909783	y: 0.21624629	z: -0.024129177
21:04:20		x: 0.08032878	y: 0.4025602	z: -0.113926366
21:04:21		x: 0.03145956	y: 0.09468412	z: -0.057726767
21:04:21		x: 0.032986723	y: 0.109650314	z: -0.036957346
21:04:21		x: -0.099265605	y: 0.009773844	z: -0.009468411
21:04:21		x: 6.1086525E-4	y: -0.025045475	z: -0.0076358155
21:04:21		x: -0.016493361	y: 0.09560041	z: -0.08399397
21:04:21		x: 0.18692477	y: 0.044898596	z: -0.093767814
21:04:22		x: 0.419359	y: 0.07849618	z: -0.06414085
21:04:22		x: 0.10140363	y: 0.2275473	z: 0.14172074
21:04:22		x: 0.0983493	y: 0.11453723	z: 0.01985312
21:04:22		x: 0.025350908	y: -0.2657264	z: 0.05