21:03:27		x: 1.7435774	y: 4.633379	z: 8.902241
21:03:28		x: 2.0003555	y: 3.6445735	z: 9.211691
21:03:28		x: 2.6850972	y: 3.1346085	z: 9.409213
21:03:28		x: 2.8263552	y: 3.2196028	z: 9.589376
21:03:28		x: 3.0669725	y: 2.8191724	z: 9.3661175
21:03:28		x: 3.3105824	y: 2.2768857	z: 9.821614
21:03:28		x: 3.2363622	y: 2.3307555	z: 9.673772
21:03:29		x: 3.4249055	y: 2.2529438	z: 9.703699
21:03:29		x: 3.365649	y: 2.3582888	z: 9.377489
21:03:29		x: 3.3782187	y: 2.0159178	z: 10.614694
21:03:29		x: 3.4051533	y: 2.1140802	z: 9.397242
21:03:29		x: 3.232771	y: 2.1709423	z: 9.200318
21:03:30		x: 3.493739	y: 1.9692309	z: 9.607333
21:03:30		x: 3.6828809	y: 2.011728	z: 9.420585
21:03:30		x: 3.7989995	y: 2.019509	z: 9.694721
21:03:30		x: 3.4835634	y: 2.3397336	z: 9.0476885
21:03:30		x: 3.6098576	y: 2.1769278	z: 9.533113
21:03:30		x: 3.4859576	y: 2.4199393	z: 9.32362
21:03:31		x: 3.3093853	y: 2.484583	z: 9.944317
21:03:31		x: 3.044826	y: 2.7036524	z: 9.251195
21:03:31		x: 3.0969	y: 1.5801731	z: 8.9124155
21:03:31		x: 1.4341269	y: -0.051475335	z: 10.223241
21:03:31		x: 1.0755951	y: -0.3633201	z: 10.651205
21:03:32		x: 2.2649148	y: 0.095169514	z: 10.681132
21:03:32		x: 1.9153614	y: 1.074398	z: 9.759963
21:03:32		x: 2.6090813	y: 1.7495629	z: 9.745
21:03:32		x: 2.8006175	y: 1.572392	z: 9.743802
21:03:32		x: 3.1010897	y: 1.3257892	z: 9.93474
21:03:32		x: 2.8646624	y: 1.4215573	z: 9.755175
21:03:33		x: 3.5535939	y: 1.2503718	z: 9.762956
21:03:33		x: 3.4871547	y: 1.3796587	z: 9.536105
21:03:33		x: 3.6649241	y: 0.5883751	z: 11.501745
21:03:33		x: 3.2130187	y: 1.5328877	z: 9.7084875
21:03:33		x: 3.3877954	y: 1.6759412	z: 9.656414
21:03:34		x: 3.3249476	y: 1.5472529	z: 9.698911
21:03:34		x: 3.2674868	y: 1.5131354	z: 9.974843
21:03:34		x: 3.283049	y: 1.5580268	z: 9.833585
21:03:34		x: 3.1998506	y: 1.6059108	z: 9.883863
21:03:34		x: 3.1717186	y: 1.650802	z: 9.648034
21:03:34		x: 3.0256724	y: 1.7489643	z: 9.589975
21:03:35		x: 3.503914	y: 1.769315	z: 9.834782
21:03:35		x: 3.5110967	y: 1.965041	z: 9.499594
21:03:35		x: 3.596091	y: 1.9255368	z: 9.584588
21:03:35		x: 3.5458126	y: 2.0829554	z: 9.52593
21:03:35		x: 3.5637693	y: 1.8980033	z: 9.883863
21:03:35		x: 3.6828809	y: 1.8902222	z: 9.689334
21:03:36		x: 3.5003228	y: 2.0787656	z: 9.643845
21:03:36		x: 3.6523547	y: 2.1452048	z: 9.632472
21:03:36		x: 3.7193923	y: 2.0775685	z: 9.539697
21:03:36		x: 3.5811272	y: 2.160767	z: 9.390059
21:03:36		x: 3.7942111	y: 2.0572178	z: 9.630676
21:03:37		x: 3.9546227	y: 2.1452048	z: 9.369708
21:03:37		x: 3.6882677	y: 2.2349873	z: 9.270947
21:03:37		x: 3.9444473	y: 2.2798786	z: 9.281721
21:03:37		x: 3.9414546	y: 2.1936872	z: 9.378088
21:03:37		x: 3.8911762	y: 2.2583308	z: 9.39365
21:03:38		x: 3.8594532	y: 2.0296845	z: 10.032902
21:03:38		x: 3.9869444	y: 2.1559787	z: 9.171588
21:03:38		x: 3.8175547	y: 2.2373815	z: 9.295488
21:03:38		x: 3.8031895	y: 2.1996727	z: 9.391854
21:03:38		x: 3.8337154	y: 2.1829133	z: 9.548077
21:03:38		x: 3.5613751	y: 2.1853075	z: 9.873089
21:03:39		x: 3.4045548	y: 2.4540567	z: 9.515755
21:03:39		x: 1.5759833	y: 1.1899183	z: 9.294889
21:03:39		x: -0.33039984	y: -1.2737153	z: 10.988189
21:03:39		x: -0.30885202	y: -1.5412674	z: 10.122087
21:03:39		x: -0.29508537	y: -1.608305	z: 10.305841
21:03:39		x: 0.061650693	y: -1.3916297	z: 10.344747
21:03:40		x: -0.15981296	y: -1.0857705	z: 10.107122
21:03:40		x: 0.24480712	y: -1.1294646	z: 10.287885
21:03:40		x: 0.88944596	y: -0.18854338	z: 10.323199
21:03:40		x: 0.92296475	y: -0.11492168	z: 10.630256
21:03:40		x: 1.1019313	y: 0.6015432	z: 9.89763
21:03:41		x: 0.97862995	y: 0.35673606	z: 10.023325
21:03:41		x: 0.96306765	y: 1.2090719	z: 10.406398
21:03:41		x: 0.3764882	y: 1.9728222	z: 10.142437
21:03:41		x: 0.6913257	y: 1.881244	z: 10.175357
21:03:41		x: 0.439336	y: 2.144606	z: 9.849746
21:03:41		x: 0.6464345	y: 1.8357542	z: 10.34355
21:03:42		x: 0.2765303	y: 2.3133974	z: 9.658808
21:03:42		x: 0.78170687	y: 1.9877859	z: 10.1699705
21:03:42		x: 0.5847838	y: 2.0141222	z: 10.3226
21:03:42		x: 0.9744401	y: 2.0763714	z: 9.720459
21:03:42		x: 1.0253168	y: 1.8405426	z: 10.077793
21:03:43		x: 1.1695676	y: 1.7824832	z: 10.19092
21:03:43		x: 1.4454993	y: 1.7651252	z: 10.195109
21:03:43		x: 1.5466543	y: 1.882441	z: 10.380061
21:03:43		x: 1.8381484	y: 2.8000188	z: 9.835381
21:03:43		x: 1.1671734	y: 3.4314895	z: 9.965864
21:03:43		x: 1.1025299	y: 3.5164838	z: 9.87668
21:03:44		x: 0.581791	y: 4.1880574	z: 9.042301
21:03:44		x: 2.4797945	y: 2.4301147	z: 10.044873
21:03:44		x: 2.1092918	y: 2.7341783	z: 9.464279
21:03:44		x: 2.5971103	y: 2.7988217	z: 9.965864
21:03:44		x: 2.6437972	y: 2.4073699	z: 10.1460285
21:03:45		x: 3.0969	y: 2.3373394	z: 9.519944
21:03:45		x: 3.2243912	y: 1.7950528	z: 10.236409
21:03:45		x: 3.1118636	y: 2.19668	z: 9.514558
21:03:45		x: 3.413533	y: 2.171541	z: 9.660604
21:03:45		x: 2.9963434	y: 2.5288756	z: 9.522937
21:03:45		x: 3.1783028	y: 2.4899697	z: 9.55047
21:03:46		x: 3.2620997	y: 2.44029	z: 9.449316
21:03:46		x: 3.292626	y: 2.296638	z: 9.598953
21:03:46		x: 3.2638955	y: 2.2152352	z: 9.818622
21:03:46		x: 3.1573534	y: 2.457648	z: 9.403826
21:03:46		x: 3.177704	y: 2.4588451	z: 9.269751
21:03:46		x: 3.235165	y: 2.1362264	z: 9.74859
21:03:47		x: 3.301604	y: 2.1649568	z: 9.760562
21:03:47		x: 3.341707	y: 2.2559366	z: 9.582193
21:03:47		x: 3.1896753	y: 2.3415294	z: 9.633669
21:03:47		x: 3.3913867	y: 2.208651	z: 9.510367
21:03:47		x: 3.4003649	y: 2.2930467	z: 9.4457245
21:03:48		x: 3.5344403	y: 2.1266496	z: 9.470264
21:03:48		x: 3.5338416	y: 2.0979192	z: 9.400833
21:03:48		x: 3.4290953	y: 2.1003134	z: 9.66659
21:03:48		x: 3.5655649	y: 2.1493945	z: 9.6528225
21:03:48		x: 3.4512417	y: 2.083554	z: 9.51755
21:03:48		x: 3.2848446	y: 2.183512	z: 9.702502
21:03:49		x: 3.3584664	y: 2.348712	z: 9.349358
21:03:49		x: 3.2848446	y: 2.3026235	z: 9.590573
21:03:49		x: 3.2573113	y: 2.384625	z: 9.175778
21:03:49		x: 3.3249476	y: 2.248754	z: 9.759963
21:03:49		x: 3.3494883	y: 2.3540988	z: 9.593566
21:03:50		x: 3.354875	y: 2.202067	z: 9.7863
21:03:50		x: 3.1082723	y: 2.5127146	z: 9.51755
21:03:50		x: 3.0963013	y: 2.3852234	z: 9.790489
21:03:50		x: 4.1371803	y: 1.352724	z: 11.836334
21:03:50		x: -0.8230068	y: 6.558317	z: 7.4256167
21:03:51		x: 0.91219085	y: 5.255273	z: 8.381501
21:03:51		x: 1.5269021	y: 4.4879313	z: 9.339781
21:03:51		x: 1.2228385	y: 4.2042184	z: 9.675568
21:03:51		x: 2.1134815	y: 3.6391866	z: 9.406818
21:03:51		x: 2.2900538	y: 3.429694	z: 9.300875
21:03:51		x: 2.3630772	y: 3.2333694	z: 9.713276
21:03:52		x: 2.6449943	y: 3.21661	z: 9.248801
21:03:52		x: 2.5366566	y: 3.0819361	z: 9.767744
21:03:52		x: 2.6964695	y: 2.9891608	z: 9.674371
21:03:52		x: 2.7234044	y: 3.0310593	z: 9.625289
21:03:52		x: 2.6497827	y: 3.1896753	z: 8.820838
21:03:52		x: 3.0585926	y: 2.3918076	z: 9.983821
21:03:53		x: 3.1986535	y: 2.3702598	z: 9.324219
21:03:53		x: 2.4791958	y: 2.5276785	z: 10.146626
21:03:53		x: 3.1064768	y: 2.5540147	z: 9.476251
21:03:53		x: 3.280655	y: 2.9352913	z: 9.613318
21:03:53		x: 2.9921536	y: 2.719813	z: 9.479243
21:03:54		x: 3.1609447	y: 2.545635	z: 10.120291
21:03:54		x: 2.883816	y: 2.7886465	z: 9.564836
21:03:54		x: 3.0891187	y: 2.5187001	z: 9.464279
21:03:54		x: 3.2028434	y: 2.6390088	z: 9.294889
21:03:54		x: 2.9167361	y: 2.6874914	z: 9.654019
21:03:54		x: 2.973	y: 2.7509377	z: 9.321824
21:03:55		x: 2.9454668	y: 2.6366146	z: 9.777321
21:03:55		x: 2.930503	y: 2.5959132	z: 9.731832
21:03:55		x: 2.9616275	y: 2.5582044	z: 9.541492
21:03:55		x: 2.823961	y: 2.665345	z: 9.508572
21:03:55		x: 2.9999347	y: 2.6737247	z: 9.487024
21:03:55		x: 3.1106665	y: 2.6755204	z: 9.427169
21:03:56		x: 3.1118636	y: 2.5605986	z: 9.683948
21:03:56		x: 2.996942	y: 2.6797101	z: 9.639654
21:03:56		x: 3.084929	y: 2.6809072	z: 9.479243
21:03:56		x: 2.8191724	y: 2.801216	z: 9.637859
21:03:56		x: 2.902371	y: 2.8820202	z: 9.2547865
21:03:57		x: 3.1370027	y: 2.697667	z: 9.353547
21:03:57		x: 2.7401638	y: 3.0963013	z: 8.683171
21:03:57		x: 2.5737667	y: 2.7473464	z: 9.992201
21:03:57		x: 2.9658175	y: 2.6689363	z: 9.422979
21:03:57		x: 2.9514523	y: 2.5797524	z: 9.803658
21:03:57		x: 2.8790276	y: 2.6515784	z: 9.578004
21:03:58		x: 2.6557682	y: 2.6479871	z: 9.896433
21:03:58		x: 2.9640217	y: 2.4971523	z: 9.834782
21:03:58		x: 2.2918496	y: 2.9029696	z: 9.830592
21:03:58		x: 3.1064768	y: 2.5306711	z: 9.635465
21:03:58		x: 2.4911668	y: 2.767697	z: 9.433753
21:03:59		x: 2.6659436	y: 2.509722	z: 10.19451
21:03:59		x: 2.666542	y: 2.682703	z: 9.515755
21:03:59		x: 2.1452048	y: 2.9867666	z: 9.399636
21:03:59		x: 2.5360582	y: 2.7569232	z: 9.627085
21:03:59		x: 2.4732103	y: 2.8443117	z: 9.500791
21:03:59		x: 2.6982653	y: 2.5785553	z: 9.870096
21:04:00		x: 2.6659436	y: 2.7617116	z: 9.433753
21:04:00		x: 2.621651	y: 2.8461072	z: 9.564238
21:04:00		x: 2.705448	y: 2.895787	z: 9.648633
21:04:00		x: 2.4941597	y: 2.9095535	z: 9.648034
21:04:00		x: 2.5246856	y: 2.8778305	z: 9.730635
21:04:01		x: 2.565387	y: 2.765303	z: 9.907207
21:04:01		x: 2.585738	y: 2.7341783	z: 9.833585
21:04:01		x: 2.6156654	y: 2.8395233	z: 9.696517
21:04:01		x: 2.558803	y: 2.895787	z: 9.7479925
21:04:01		x: 2.4157495	y: 2.8832173	z: 9.682152
21:04:01		x: 2.712032	y: 2.9071593	z: 9.56723
21:04:02		x: 2.8299465	y: 2.80361	z: 9.507375
21:04:02		x: 3.0131028	y: 2.52289	z: 9.873089
21:04:02		x: 2.9083564	y: 2.6683378	z: 9.643845
21:04:02		x: 2.854487	y: 2.8700492	z: 9.339182
21:04:02		x: 3.056797	y: 2.6060886	z: 9.801263
21:04:03		x: 2.5384524	y: 2.9442697	z: 9.136872
21:04:03		x: 3.9432502	y: 2.2152352	z: 9.715072
21:04:03		x: 3.532046	y: 2.2768857	z: 9.791088
21:04:03		x: 3.8750155	y: 2.654571	z: 9.150639
21:04:03		x: 3.739743	y: 2.7192147	z: 9.415796
21:04:03		x: 3.9013517	y: 2.8401217	z: 9.361927
21:04:04		x: 3.8145618	y: 2.9652188	z: 9.017162
21:04:04		x: 3.6332011	y: 3.0986955	z: 8.93576
21:04:04		x: 4.0019083	y: 2.6569653	z: 9.831789
21:04:04		x: 3.9857473	y: 2.8491	z: 8.93576
21:04:04		x: 3.6864722	y: 3.0466216	z: 9.168595
21:04:04		x: 3.2956185	y: 3.321955	z: 9.157822
21:04:05		x: 2.902371	y: 3.5104983	z: 9.181764
21:04:05		x: 3.389591	y: 3.180697	z: 9.515755
21:04:05		x: 2.7742813	y: 3.8055837	z: 9.006389
21:04:05		x: 3.2369606	y: 3.4572272	z: 8.971074
21:04:05		x: 2.9502552	y: 3.53863	z: 9.340978
21:04:06		x: 2.8215668	y: 3.4620156	z: 9.72824
21:04:06		x: 3.1866825	y: 3.3303347	z: 9.388862
21:04:06		x: 2.9855695	y: 3.3602622	z: 9.750386
21:04:06		x: 3.0544028	y: 3.5583823	z: 9.032125
21:04:06		x: 3.1441853	y: 3.2920272	z: 9.598354
21:04:06		x: 2.9538465	y: 3.4464533	z: 9.303269
21:04:07		x: 3.2866404	y: 3.25791	z: 9.469068
21:04:07		x: 3.1794999	y: 3.6296098	z: 8.740033
21:04:07		x: 3.3387144	y: 3.0921116	z: 9.474455
21:04:07		x: 3.292626	y: 3.301604	z: 9.572617
21:04:07		x: 2.8089972	y: 4.0940847	z: 8.171411
21:04:08		x: 3.1693244	y: 3.2202013	z: 9.647436
21:04:08		x: 3.120842	y: 3.2531216	z: 9.438541
21:04:08		x: 3.1591492	y: 3.2585084	z: 9.51336
21:04:08		x: 3.0538042	y: 3.3261447	z: 9.384073
21:04:08		x: 2.565387	y: 4.048595	z: 6.8719573
21:04:09		x: 3.0801406	y: 3.0579941	z: 9.927557
21:04:09		x: 3.1142578	y: 3.329736	z: 9.356541
21:04:09		x: 3.12982	y: 3.2333694	z: 9.455301
21:04:09		x: 3.196858	y: 3.2261868	z: 9.48044
21:04:09		x: 3.039439	y: 3.4889505	z: 9.254189
21:04:09		x: 3.117849	y: 3.445855	z: 9.301474
21:04:10		x: 3.9594111	y: 3.4572272	z: 9.654618
21:04:10		x: 3.8863878	y: 3.9097314	z: 8.444349
21:04:10		x: 4.3544545	y: 3.9677908	z: 8.300697
21:04:10		x: 5.1840453	y: 3.376423	z: 8.535329
21:04:10		x: 4.3167458	y: 3.7714663	z: 7.3849154
21:04:10		x: 5.9920883	y: 2.782661	z: 8.474875
21:04:11		x: 3.0160956	y: 2.3068132	z: 9.746197
21:04:11		x: 4.2371383	y: 3.0699651	z: 8.5299425
21:04:11		x: 2.2469583	y: 4.809353	z: 8.546103
21:04:11		x: 3.9378633	y: 5.3157263	z: 8.234259
21:04:11		x: 4.177882	y: 4.663306	z: 8.157045
21:04:12		x: 5.386954	y: 5.7843914	z: 6.4966664
21:04:12		x: 6.634333	y: 6.495469	z: 3.572149
21:04:12		x: 3.9498343	y: 9.643845	z: 6.6588736
21:04:12		x: 2.5887306	y: 9.465476	z: 6.9826894
21:04:12		x: 3.1501708	y: 4.5555673	z: 8.417415
21:04:12		x: 0.86011696	y: 2.8502972	z: 8.41921
21:04:13		x: 2.7090392	y: 0.8086416	z: 13.396755
21:04:13		x: 4.0174704	y: 0.5979519	z: 10.022727
21:04:13		x: 5.4671597	y: 3.506907	z: 4.1760864
21:04:13		x: 5.1864395	y: 8.282741	z: 8.741829
21:04:13		x: 3.4524388	y: 4.5543704	z: 6.513426
21:04:13		x: 2.4624364	y: 6.9168487	z: 3.3674448
21:04:14		x: 4.009091	y: 8.195353	z: 4.9386396
21:04:14		x: 3.3979707	y: 7.8709383	z: 4.410718
21:04:14		x: 4.408324	y: 8.483853	z: 4.325125
21:04:14		x: 4.104859	y: 8.382699	z: 4.1533413
21:04:14		x: 3.2932243	y: 7.9463553	z: 4.8799815
21:04:15		x: 3.952827	y: 8.233061	z: 4.2676644
21:04:15		x: 3.6661212	y: 8.037335	z: 4.570531
21:04:15		x: 3.7612908	y: 8.173804	z: 4.5633483
21:04:15		x: 3.6296098	y: 8.072051	z: 4.4340615
21:04:15		x: 3.5529952	y: 8.0445175	z: 4.4639893
21:04:15		x: 3.7972038	y: 8.108562	z: 4.6662993
21:04:17		x: 3.7708676	y: 7.803302	z: 4.370615
21:04:17		x: 3.879804	y: 8.05589	z: 4.2197804
21:04:17		x: 3.7972038	y: 7.9667063	z: 4.027047
21:04:17		x: 3.709217	y: 7.8446016	z: 4.359243
21:04:17		x: 4.759074	y: 8.178593	z: 3.4153287
21:04:17		x: 0.9995792	y: 2.3582888	z: 9.14226
21:04:18		x: 2.955642	y: 3.6164417	z: 9.865308
21:04:18		x: 5.5922565	y: 3.1381998	z: 12.353482
21:04:18		x: 4.1946416	y: 2.2768857	z: 7.280169
21:04:18		x: 5.3648076	y: 2.023699	z: 6.2219315
21:04:18		x: 7.1909847	y: 3.502717	z: 9.425373
21:04:18		x: 4.2119994	y: 3.493739	z: 10.676943
21:04:18		x: 1.1043255	y: -1.1785458	z: 7.1604586
21:04:19		x: -3.3608606	y: 0.7422025	z: 8.794501
21:04:19		x: -0.090979666	y: 2.8173769	z: 11.783064
21:04:19		x: -1.6220716	y: 3.301604	z: 4.743512
21:04:19		x: -1.417966	y: 3.0029275	z: 12.717999
21:04:19		x: 1.1007342	y: 3.1902738	z: 10.110714
21:04:20		x: 1.9285295	y: 3.7241807	z: 12.2002535
21:04:20		x: -0.39803603	y: 3.3650506	z: 9.835381
21:04:20		x: 0.36870706	y: 3.1896753	z: 7.719505
21:04:20		x: -1.8070238	y: 3.6954503	z: 7.2448545
21:04:20		x: 0.36750996	y: 3.4512417	z: 11.133038
21:04:20		x: 0.065242	y: 3.7828386	z: 10.435727
21:04:21		x: 0.10354923	y: 3.9378633	z: 9.985018
21:04:21		x: 0.024540568	y: 4.0773253	z: 9.3822775
21:04:21		x: 0.15682021	y: 3.8965633	z: 10.207081
21:04:21		x: -0.12808979	y: 3.810372	z: 9.49301
21:04:21		x: -0.40222588	y: 3.7762547	z: 9.040505
21:04:21		x: -0.2148796	y: 3.9306808	z: 8.215703
21:04:22		x: -0.78170687	y: 3.7553053	z: 8.108562
21:04:22		x: -0.032920275	y: 3.4243069	z: 9.378687
21:04:22		x: -0.04309563	y: 3.7301662	z: 10.727221
21:04:22		x: 0.23762453	y: 3.731962	z: 9.55047
21:04:22		x: 0.2621651	y: 3.764882	z: 9.77792
21:04:23		x: 0.5105635	y: 3.9863458	z: 8.972271
21:04:23		x: -0.23582886	y: 3.8947675	z: 9.631275
21:04:23		x: -0.42197806	y: 3.0765493	z: 9.141062
21:04:23		x: 0.38486794	y: 4.3795934	z: 9.924564
21:04:23		x: 2.420538	y: 5.4408236	z: 7.422025
21:04:23		x: 1.1007342	y: 4.0934863	z: 9.333197
21:04:24		x: 0.8888474	y: 3.8474822	z: 10.104729
21:04:24		x: 1.7914615	y: 4.4220905	z: 8.875306
21:04:24		x: 0.7745243	y: 4.9542017	z: 8.459313
21:04:24		x: 1.7369933	y: 2.2002714	z: 10.175956
21:04:24		x: 1.5969325	y: 3.304597	z: 8.589797
21:04:25		x: -0.5117606	y: 3.6152446	z: 9.855133
21:04:25		x: 1.2198458	y: 4.0467997	z: 9.411008
21:04:25		x: -0.5279215	y: 2.9460652	z: 9.758167
21:04:25		x: -0.2112883	y: 2.9520507	z: 10.466252
21:04:25		x: 0.8607155	y: 3.1794999	z: 9.302073
21:04:25		x: 0.3238158	y: 3.4320881	z: 9.438541
21:04:26		x: 0.39205053	y: 3.4213142	z: 9.962872
21:04:26		x: 0.62728083	y: 3.457826	z: 9.9473095
21:04:26		x: 0.9600749	y: 3.5110967	z: 9.248801
21:04:26		x: 0.81163436	y: 3.4225113	z: 9.838373
21:04:26		x: -0.09935937	y: 3.7696705	z: 9.916783
21:04:27		x: 1.283292	y: 3.7924154	z: 9.582193
21:04:27		x: 0.682946	y: 4.703409	z: 9.293693
21:04:27		x: 0.8846575	y: 4.559159	z: 9.217078
21:04:27		x: -0.17597382	y: 5.0236335	z: 10.117298
21:04:27		x: -0.029927522	y: 4.9374423	z: 9.70789
21:04:27		x: 0.27353755	y: 4.9284644	z: 9.496002
21:04:28		x: 0.25318682	y: 4.903325	z: 8.6496525
21:04:28		x: 0.12988544	y: 4.9015293	z: 9.132683
21:04:28		x: 0.55605334	y: 4.8386817	z: 8.670602
21:04:28		x: -0.31364042	y: 4.7058034	z: 9.511565
21:04:28		x: -0.093373865	y: 4.9775453	z: 8.836999
21:04:28		x: -0.019752163	y: 4.8763905	z: 9.630676
21:04:29		x: -0.10295067	y: 4.8722005	z: 9.294291
21:04:29		x: -0.36152446	y: 4.917092	z: 8.429984
21:04:29		x: 0.05626374	y: 5.0242324	z: 9.316438
21:04:29		x: -0.06703765	y: 4.9972973	z: 9.350554
