19:36:40		x: 941.31
19:36:40		x: 941.27
19:36:40		x: 941.31
19:36:40		x: 941.29
19:36:41		x: 941.28
19:36:41		x: 941.24
19:36:41		x: 941.26
19:36:41		x: 941.27
19:36:41		x: 941.26
19:36:42		x: 941.26
19:36:42		x: 941.27
19:36:42		x: 941.34
19:36:42		x: 941.26
19:36:42		x: 941.29
19:36:42		x: 941.32
19:36:43		x: 941.28
19:36:43		x: 941.3
19:36:43		x: 941.3
19:36:43		x: 941.32
19:36:43		x: 941.29
19:36:44		x: 941.31
19:36:44		x: 941.34
19:36:44		x: 941.28
19:36:44		x: 941.26
19:36:44		x: 941.28
19:36:44		x: 941.32
19:36:45		x: 941.31
19:36:45		x: 941.28
19:36:45		x: 941.28
19:36:45		x: 941.31
19:36:45		x: 941.23
19:36:46		x: 941.45
19:36:46		x: 941.3
19:36:46		x: 941.35
19:36:46		x: 941.24
19:36:46		x: 941.28
19:36:46		x: 941.4
19:36:47		x: 941.26
19:36:47		x: 941.28
19:36:47		x: 941.22
19:36:47		x: 941.34
19:36:47		x: 941.27
19:36:47		x: 941.3
19:36:48		x: 941.19
19:36:48		x: 941.44
19:36:48		x: 941.28
19:36:48		x: 941.43
19:36:48		x: 941.27
19:36:49		x: 941.37
19:36:49		x: 941.16
19:36:49		x: 941.38
19:36:49		x: 941.18
19:36:49		x: 941.32
19:36:49		x: 941.2
19:36:50		x: 941.39
19:36:50		x: 941.42
19:36:50		x: 941.28
19:36:50		x: 941.15
19:36:50		x: 941.27
19:36:51		x: 941.3
19:36:51		x: 941.28
19:36:51		x: 941.31
19:36:51		x: 941.31
19:36:51		x: 941.37
19:36:51		x: 941.29
19:36:52		x: 941.27
19:36:52		x: 941.13
19:36:52		x: 941.29
19:36:52		x: 941.08
19:36:52		x: 941.38
19:36:53		x: 941.27
19:36:53		x: 941.36
19:36:53		x: 941.18
19:36:53		x: 941.2
19:36:53		x: 941.38
19:36:53		x: 941.31
19:36:54		x: 941.08
19:36:54		x: 941.28
19:36:54		x: 941.36
19:36:54		x: 941.26
19:36:54		x: 941.29
19:36:54		x: 941.34
19:36:55		x: 941.42
19:36:55		x: 941.23
19:36:55		x: 941.37
19:36:55		x: 941.18
19:36:55		x: 941.36
19:36:56		x: 940.92
19:36:56		x: 941.35
19:36:56		x: 941.27
19:36:56		x: 941.36
19:36:56		x: 941.33
19:36:56		x: 941.35
19:36:57		x: 941.34
19:36:57		x: 941.26
19:36:57		x: 941.41
19:36:57		x: 941.32
19:36:57		x: 941.33
19:36:58		x: 941.3
19:36:58		x: 941.3
19:36:58		x: 941.33
19:36:58		x: 941.26
19:36:58		x: 941.3
19:36:58		x: 941.34
19:36:59		x: 941.24
19:36:59		x: 941.4
19:36:59		x: 941.2
19:36:59		x: 941.29
19:36:59		x: 941.2
19:37:00		x: 941.35
19:37:00		x: 941.36
19:37:00		x: 941.31
19:37:00		x: 941.05
19:37:00		x: 941.27
19:37:00		x: 941.3
19:37:01		x: 941.3
19:37:01		x: 941.35
19:37:01		x: 941.31
19:37:01		x: 941.45
19:37:01		x: 941.28
19:37:02		x: 941.34
19:37:02		x: 941.16
19:37:02		x: 941.29
19:37:02		x: 940.99
19:37:02		x: 941.48
19:37:02		x: 941.4
19:37:03		x: 941.35
19:37:03		x: 941.2
19:37:03		x: 941.27
19:37:03		x: 941.46
19:37:03		x: 941.24
19:37:04		x: 941.12
19:37:04		x: 941.31
19:37:04		x: 941.36
19:37:04		x: 941.28
19:37:04		x: 941.24
19:37:04		x: 941.31
19:37:05		x: 941.39
19:37:05		x: 941.2
19:37:05		x: 941.43
19:37:05		x: 941.27
19:37:05		x: 941.32
19:37:06		x: 941.03
19:37:06		x: 941.42
19:37:06		x: 941.23
19:37:06		x: 941.32
19:37:06		x: 941.37
19:37:06		x: 941.34
19:37:07		x: 941.4
19:37:07		x: 941.22
19:37:07		x: 941.35
19:37:07		x: 941.4
19:37:07		x: 941.39
19:37:08		x: 941.28
19:37:08		x: 941.3
19:37:08		x: 941.45
19:37:08		x: 941.34
19:37:08		x: 941.26
19:37:08		x: 941.25
19:37:09		x: 941.41
19:37:09		x: 941.28
19:37:09		x: 941.33
19:37:09		x: 941.16
19:37:09		x: 941.28
19:37:09		x: 941.35
19:37:10		x: 941.29
19:37:10		x: 941.25
19:37:10		x: 941.26
19:37:10		x: 941.3
19:37:10		x: 941.25
19:37:11		x: 941.43
19:37:11		x: 941.31
19:37:15		x: 941.25
19:37:15		x: 941.25
19:37:16		x: 941.26
19:37:16		x: 941.32
19:37:16		x: 941.21
19:37:16		x: 941.25
19:37:16		x: 941.18
19:37:16		x: 941.25
19:37:17		x: 941.25
19:37:17		x: 941.3
19:37:17		x: 941.28
19:37:17		x: 941.19
19:37:17		x: 941.31
19:37:18		x: 941.28
19:37:18		x: 941.24
19:37:18		x: 941.17
19:37:18		x: 941.29
19:37:18		x: 941.26
19:37:18		x: 941.29
19:37:19		x: 941.29
19:37:19		x: 941.35
19:37:19		x: 941.19
19:37:19		x: 941.27
19:37:19		x: 941.3
19:37:20		x: 941.25
19:37:20		x: 941.23
19:37:20		x: 941.21
19:37:20		x: 941.24
19:37:20		x: 941.3
19:37:20		x: 941.3
19:37:21		x: 941.3
19:37:21		x: 941.25
19:37:21		x: 941.29
19:37:21		x: 941.28
19:37:21		x: 941.23
19:37:22		x: 941.27
19:37:22		x: 941.23
19:37:22		x: 941.25
19:37:22		x: 941.22
19:37:22		x: 941.24
19:37:22		x: 941.27
19:37:23		x: 941.27
19:37:23		x: 941.23
19:37:23		x: 941.27
19:37:23		x: 941.29
19:37:23		x: 941.27
19:37:24		x: 941.28
19:37:24		x: 941.28
19:37:24		x: 941.3
19:37:24		x: 941.25
19:37:24		x: 941.34
19:37:24		x: 941.29
19:37:25		x: 941.26
19:37:25		x: 941.22
19:37:25		x: 941.2
19:37:25		x: 941.28
19:37:25		x: 941.23
