19:36:40		x: -84.046	y: 3.694	z: -173.89
19:36:40		x: -83.691	y: 3.112	z: -174.418
19:36:40		x: -83.691	y: 3.112	z: -174.418
19:36:40		x: -83.361	y: 3.112	z: -174.418
19:36:41		x: -83.361	y: 3.112	z: -174.418
19:36:41		x: -83.361	y: 4.052	z: -174.099
19:36:41		x: -83.361	y: 4.052	z: -173.785
19:36:41		x: -83.361	y: 4.052	z: -173.785
19:36:41		x: -83.361	y: 4.052	z: -173.785
19:36:42		x: -83.361	y: 4.052	z: -173.785
19:36:42		x: -83.361	y: 4.052	z: -173.785
19:36:42		x: -83.361	y: 4.052	z: -174.136
19:36:42		x: -64.66	y: 3.617	z: -174.136
19:36:42		x: -49.534	y: 3.617	z: -167.961
19:36:42		x: -47.351	y: 4.776	z: -165.476
19:36:43		x: -60.296	y: 3.851	z: -171.435
19:36:43		x: -70.951	y: 12.307	z: -158.569
19:36:43		x: -67.697	y: 28.816	z: -156.488
19:36:43		x: -19.116	y: 58.738	z: -116.651
19:36:43		x: 84.129	y: 144.589	z: -104.046
19:36:44		x: 76.771	y: 193.865	z: -111.302
19:36:44		x: 36.131	y: 172.601	z: -29.743
19:36:44		x: 2.581	y: 165.229	z: 33.322
19:36:44		x: 1.414	y: 162.898	z: 29.536
19:36:44		x: -3.762	y: 162.58	z: 30.032
19:36:44		x: -6.059	y: 162.58	z: 34.283
19:36:45		x: -13.745	y: 144.741	z: 42.007
19:36:45		x: -8.216	y: 143.902	z: 36.096
19:36:45		x: -5.926	y: 143.595	z: 36.738
19:36:45		x: -5.926	y: 143.595	z: 37.452
19:36:45		x: -2.174	y: 143.078	z: 36.05
19:36:45		x: -5.308	y: 143.078	z: 43.408
19:36:46		x: -10.893	y: 136.917	z: 41.284
19:36:46		x: -14.471	y: 130.294	z: 40.531
19:36:46		x: -12.756	y: 127.377	z: 42.802
19:36:46		x: -21.482	y: 120.613	z: 48.941
19:36:46		x: -29.396	y: 127.832	z: 60.928
19:36:47		x: -17.134	y: 149.165	z: 55.975
19:36:47		x: -10.102	y: 162.477	z: 40.502
19:36:47		x: -22.167	y: 157.212	z: 49.447
19:36:47		x: -27.214	y: 147.212	z: 38.191
19:36:47		x: -19.915	y: 149.13	z: 39.849
19:36:47		x: -22.891	y: 149.626	z: 32.22
19:36:48		x: -36.846	y: 143.087	z: 42.89
19:36:48		x: -44.488	y: 137.406	z: 43.565
19:36:48		x: -33.77	y: 139.385	z: 54.722
19:36:48		x: -35.006	y: 140.365	z: 51.286
19:36:48		x: -41.68	y: 135.351	z: 60.916
19:36:49		x: -31.457	y: 151.62	z: 53.764
19:36:49		x: -24.111	y: 152.809	z: 48.774
19:36:49		x: -18.208	y: 151.141	z: 42.762
19:36:49		x: -21.606	y: 148.809	z: 51.124
19:36:49		x: -24.394	y: 142.022	z: 39.303
19:36:49		x: -20.513	y: 138.591	z: 45.231
19:36:50		x: -17.465	y: 134.564	z: 50.413
19:36:50		x: -20.158	y: 132.542	z: 52.073
19:36:50		x: -26.155	y: 136.076	z: 52.737
19:36:50		x: -20.755	y: 140.887	z: 48.641
19:36:50		x: -19.091	y: 138.729	z: 55.123
19:36:51		x: -18.623	y: 143.331	z: 48.542
19:36:51		x: -23.139	y: 146.138	z: 50.411
19:36:51		x: -28.094	y: 155.769	z: 50.411
19:36:51		x: -34.24	y: 150.54	z: 62.55
19:36:51		x: -40.171	y: 163.899	z: 50.82
19:36:51		x: -33.848	y: 159.371	z: 42.422
19:36:52		x: -27.789	y: 158.537	z: 35.546
19:36:52		x: -20.935	y: 145.379	z: 41.593
19:36:52		x: -24.201	y: 129.563	z: 41.2
19:36:52		x: -26.943	y: 133.334	z: 49.105
19:36:52		x: -27.729	y: 135.314	z: 44.282
19:36:53		x: -27.729	y: 128.707	z: 38.937
19:36:53		x: -33.946	y: 126.722	z: 50.593
19:36:53		x: -30.227	y: 134.89	z: 47.897
19:36:53		x: -30.227	y: 132.637	z: 53.952
19:36:53		x: -28.211	y: 142.654	z: 47.972
19:36:53		x: -29.13	y: 146.214	z: 37.831
19:36:54		x: -26.376	y: 143.498	z: 33.847
19:36:54		x: -26.068	y: 133.534	z: 42.465
19:36:54		x: -29.258	y: 127.551	z: 52.499
19:36:54		x: -30.636	y: 142.48	z: 62.232
19:36:54		x: -40.985	y: 144.288	z: 55.706
19:36:54		x: -41.464	y: 131.901	z: 61.967
19:36:55		x: -40.823	y: 148.5	z: 59.152
19:36:55		x: -29.924	y: 150.686	z: 58.488
19:36:55		x: -32.916	y: 147.129	z: 53.379
19:36:55		x: -32.24	y: 135.348	z: 55.05
19:36:55		x: -37.631	y: 133.566	z: 50.257
19:36:56		x: -33.868	y: 133.566	z: 54.763
19:36:56		x: -39.854	y: 132.485	z: 57.597
19:36:56		x: -34.487	y: 129.2	z: 55.157
19:36:56		x: -30.622	y: 135.456	z: 47.92
19:36:56		x: -26.521	y: 134.848	z: 45.008
19:36:56		x: -29.19	y: 131.974	z: 49.238
19:36:57		x: -26.333	y: 131.202	z: 45.623
19:36:57		x: -22.761	y: 135.441	z: 45.623
19:36:57		x: -21.52	y: 137.953	z: 46.098
19:36:57		x: -20.024	y: 140.4	z: 45.138
19:36:57		x: -20.445	y: 139.877	z: 47.25
19:36:58		x: -18.637	y: 143.133	z: 45.184
19:36:58		x: -7.899	y: 144.245	z: 50.085
19:36:58		x: -8.934	y: 144.725	z: 52.586
19:36:58		x: -6.448	y: 144.38	z: 52.072
19:36:58		x: -3.479	y: 144.38	z: 46.232
19:36:58		x: 0.657	y: 135.661	z: 36.674
19:36:59		x: 0.657	y: 131.129	z: 33.99
19:36:59		x: 3.266	y: 134.222	z: 47.329
19:36:59		x: 6.379	y: 132.583	z: 51.858
19:36:59		x: 5.381	y: 130.29	z: 35.737
19:36:59		x: 5.381	y: 127.557	z: 34.053
19:37:00		x: 6.929	y: 132.734	z: 47.528
19:37:00		x: 7.902	y: 132.096	z: 42.764
19:37:00		x: 4.479	y: 124.749	z: 30.351
19:37:00		x: 11.517	y: 124.061	z: 37.689
19:37:00		x: 13.267	y: 128.935	z: 50.16
19:37:00		x: 9.992	y: 135.575	z: 44.293
19:37:01		x: 2.403	y: 132.066	z: 26.083
19:37:01		x: 7.495	y: 137.962	z: 32.427
19:37:01		x: 6.571	y: 147.169	z: 45.376
19:37:01		x: 5.085	y: 144.441	z: 24.455
19:37:01		x: 6.044	y: 130.502	z: 14.12
19:37:02		x: 20.137	y: 134.274	z: 32.682
19:37:02		x: 15.834	y: 137.762	z: 43.687
19:37:02		x: 7.875	y: 123.87	z: 27.534
19:37:02		x: 8.813	y: 126.269	z: 36.52
19:37:02		x: 8.328	y: 136.503	z: 56.625
19:37:02		x: 5.897	y: 141.744	z: 56.933
19:37:03		x: 6.349	y: 141.09	z: 32.937
19:37:03		x: 11.657	y: 133.213	z: 33.598
19:37:03		x: 12.101	y: 129.714	z: 49.308
19:37:03		x: 13.4	y: 127.0	z: 48.767
19:37:03		x: 12.626	y: 121.185	z: 37.873
19:37:04		x: 14.299	y: 122.778	z: 48.341
19:37:04		x: 11.837	y: 126.158	z: 57.376
19:37:04		x: 8.312	y: 127.388	z: 44.169
19:37:04		x: 5.874	y: 125.775	z: 41.716
19:37:04		x: 4.672	y: 138.789	z: 56.636
19:37:04		x: 1.689	y: 142.201	z: 68.869
19:37:05		x: 2.795	y: 159.419	z: 38.768
19:37:05		x: 9.133	y: 150.486	z: 25.727
19:37:05		x: 14.738	y: 156.741	z: 40.644
19:37:05		x: 7.734	y: 151.565	z: 53.291
19:37:05		x: -0.828	y: 135.086	z: 29.545
19:37:05		x: 1.831	y: 133.146	z: 36.158
19:37:06		x: -1.017	y: 135.691	z: 50.094
19:37:06		x: -1.017	y: 133.065	z: 55.381
19:37:06		x: 0.466	y: 127.33	z: 37.669
19:37:06		x: 4.199	y: 124.418	z: 40.061
19:37:06		x: 6.28	y: 124.816	z: 49.253
19:37:07		x: 5.001	y: 125.602	z: 56.097
19:37:07		x: 1.838	y: 129.339	z: 46.754
19:37:07		x: 7.772	y: 132.235	z: 46.754
19:37:07		x: 5.163	y: 137.054	z: 64.324
19:37:07		x: 1.53	y: 143.305	z: 64.724
19:37:07		x: 7.908	y: 141.477	z: 37.715
19:37:08		x: 13.479	y: 138.836	z: 36.535
19:37:08		x: 14.245	y: 145.909	z: 54.518
19:37:08		x: 13.775	y: 144.848	z: 53.009
19:37:08		x: 13.775	y: 124.9	z: 24.143
19:37:08		x: 16.627	y: 118.354	z: 32.286
19:37:09		x: 20.704	y: 121.638	z: 48.129
19:37:09		x: 22.114	y: 125.706	z: 61.184
19:37:09		x: 33.367	y: 126.422	z: 36.126
19:37:09		x: 33.367	y: 127.095	z: 40.48
19:37:09		x: 29.484	y: 132.275	z: 58.45
19:37:09		x: 22.071	y: 137.623	z: 49.52
19:37:10		x: 23.526	y: 134.494	z: 29.635
19:37:10		x: 29.882	y: 133.627	z: 28.726
19:37:10		x: 15.919	y: 145.542	z: 57.563
19:37:10		x: 17.97	y: 150.637	z: 40.345
19:37:10		x: 13.824	y: 138.406	z: 24.206
19:37:11		x: 11.354	y: 127.943	z: 20.152
19:37:11		x: 9.619	y: 123.097	z: 26.162
19:37:15		x: -110.633	y: -37.454	z: -89.765
19:37:15		x: -114.3	y: -40.171	z: -88.101
19:37:15		x: -134.666	y: -53.604	z: -89.787
19:37:15		x: -113.896	y: -44.464	z: -85.806
19:37:16		x: -111.547	y: -45.26	z: -85.806
19:37:16		x: -110.951	y: -45.26	z: -85.444
19:37:16		x: -110.951	y: -45.26	z: -85.444
19:37:16		x: -111.579	y: -45.869	z: -85.444
19:37:16		x: -109.602	y: -44.129	z: -84.823
19:37:16		x: -113.166	y: -38.154	z: -86.404
19:37:17		x: -112.281	y: -36.776	z: -89.91
19:37:17		x: -113.198	y: -37.413	z: -89.549
19:37:17		x: -113.198	y: -37.013	z: -89.549
19:37:17		x: -113.198	y: -37.013	z: -89.849
19:37:17		x: -113.198	y: -37.013	z: -88.65
19:37:18		x: -115.165	y: -37.326	z: -88.186
19:37:18		x: -114.555	y: -37.326	z: -87.113
19:37:18		x: -114.555	y: -38.114	z: -87.113
19:37:18		x: -115.061	y: -38.114	z: -86.579
19:37:18		x: -114.27	y: -38.49	z: -86.579
19:37:18		x: -114.27	y: -39.054	z: -86.579
19:37:19		x: -114.27	y: -39.054	z: -86.579
19:37:19		x: -113.655	y: -39.054	z: -86.074
19:37:19		x: -113.655	y: -39.054	z: -86.074
19:37:19		x: -113.655	y: -39.054	z: -86.43
19:37:19		x: -113.655	y: -39.054	z: -86.43
19:37:20		x: -113.655	y: -39.054	z: -86.43
19:37:20		x: -113.655	y: -38.423	z: -86.43
19:37:20		x: -113.655	y: -38.096	z: -86.43
19:37:20		x: -113.655	y: -38.096	z: -86.07
19:37:20		x: -113.989	y: -38.096	z: -86.07
19:37:20		x: -113.989	y: -38.096	z: -86.07
19:37:21		x: -113.989	y: -38.449	z: -86.07
19:37:21		x: -113.989	y: -38.449	z: -86.07
19:37:21		x: -113.989	y: -38.449	z: -86.07
19:37:21		x: -113.989	y: -38.761	z: -85.74
19:37:21		x: -113.989	y: -38.761	z: -85.74
19:37:22		x: -113.989	y: -38.761	z: -85.74
19:37:22		x: -113.989	y: -38.761	z: -85.356
19:37:22		x: -113.682	y: -38.761	z: -85.356
19:37:22		x: -113.682	y: -38.761	z: -85.356
19:37:22		x: -113.682	y: -38.761	z: -85.356
19:37:22		x: -113.352	y: -38.761	z: -85.356
19:37:23		x: -113.352	y: -38.761	z: -85.356
19:37:23		x: -113.352	y: -38.761	z: -84.982
19:37:23		x: -113.015	y: -38.761	z: -84.982
19:37:23		x: -113.015	y: -38.761	z: -84.982
19:37:23		x: -113.015	y: -38.761	z: -85.317
19:37:24		x: -112.577	y: -38.458	z: -87.362
19:37:24		x: -112.152	y: -37.316	z: -92.39
19:37:24		x: -111.351	y: -35.832	z: -94.486
19:37:24		x: -110.317	y: -35.333	z: -94.486
19:37:24		x: -109.62	y: -34.701	z: -94.486
19:37:24		x: -109.62	y: -35.231	z: -95.524
19:37:25		x: -110.972	y: -34.518	z: -95.93
19:37:25		x: -112.458	y: -34.024	z: -96.968
19:37:25		x: -111.227	y: -35.221	z: -95.845
19:37:25		x: -109.623	y: -35.751	z: -93.957
19:37:25		x: -108.482	y: -36.058	z: -94.569
