18:32:36		x: -0.92416185	y: 3.3087866	z: 8.971672
18:32:36		x: -0.29328972	y: 3.127426	z: 10.456078
18:32:36		x: -0.492607	y: 2.8927941	z: 9.320627
18:32:36		x: 1.809418	y: 3.1998506	z: 10.693104
18:32:36		x: 1.8686744	y: 4.2503066	z: 8.346188
18:32:37		x: 4.7901993	y: 4.549582	z: 6.4846954
18:32:37		x: 5.485116	y: 4.124611	z: 5.1888337
18:32:37		x: 11.218631	y: 3.4823663	z: 6.0238113
18:32:37		x: 10.611102	y: 3.4201171	z: 3.669114
18:32:37		x: 10.906786	y: 2.8233624	z: 1.7046716
18:32:37		x: 9.121908	y: 2.3558946	z: 0.52852005
18:32:38		x: 10.510546	y: 3.3913867	z: -3.0885203
18:32:38		x: 8.808268	y: 3.5464113	z: -2.6539726
18:32:38		x: 9.609129	y: 9.563639	z: 1.7238252
18:32:38		x: 5.3528366	y: 10.552444	z: -4.280234
18:32:38		x: 3.2890346	y: 7.404069	z: 2.9317
18:32:39		x: 1.9081788	y: 6.8085113	z: 7.097611
18:32:39		x: 4.1461587	y: 11.765107	z: 2.9484594
18:32:39		x: 4.495114	y: 0.07182605	z: 7.390302
18:32:39		x: 2.8287494	y: 10.41358	z: 1.4574703
18:32:39		x: 2.3774424	y: 9.287707	z: 1.4951789
18:32:39		x: 5.8221	y: 7.501034	z: 1.8908207
18:32:40		x: -0.39145198	y: 7.9152308	z: 0.6584055
18:32:40		x: 4.506486	y: 13.998898	z: 8.631696
18:32:40		x: -1.7172412	y: -0.09696517	z: -0.05805939
18:32:40		x: 6.979098	y: 9.301474	z: 5.0092683
18:32:40		x: -0.15322891	y: 8.124723	z: 0.9139865
18:32:41		x: 3.6343982	y: 8.399458	z: 6.727707
18:32:41		x: 1.3144168	y: 16.886305	z: 2.653374
18:32:41		x: 6.0561333	y: 6.2315083	z: 5.0781016
18:32:41		x: 0.1592144	y: 10.532692	z: 1.541866
18:32:41		x: 2.8167782	y: 7.776367	z: 5.861604
18:32:41		x: 0.03232172	y: 5.494693	z: 3.0346506
18:32:42		x: 6.528988	y: 9.097368	z: 2.8844144
18:32:42		x: 2.6246436	y: 10.688315	z: 1.3066356
18:32:42		x: 1.407192	y: 13.009494	z: 3.393781
18:32:42		x: 6.5008564	y: 6.3901243	z: 6.5164185
18:32:42		x: 0.37828386	y: 4.7907977	z: 0.24779987
18:32:43		x: 4.709395	y: 8.062474	z: 2.3241713
18:32:43		x: 4.0294414	y: 10.694301	z: -0.4297592
18:32:43		x: 1.3491327	y: 10.75655	z: 3.2315738
18:32:43		x: 3.9085343	y: 3.3800142	z: 5.8705826
18:32:43		x: 2.8072014	y: 8.306683	z: 1.9985598
18:32:43		x: 3.815759	y: 9.67018	z: 1.816002
18:32:44		x: 2.5797524	y: 7.7943234	z: 1.1821371
18:32:44		x: 6.113594	y: 13.241731	z: 0.91219085
18:32:44		x: 1.4694413	y: 8.584411	z: -0.29628247
18:32:44		x: -1.2850877	y: 4.985925	z: 1.4323312
18:32:44		x: 7.5447283	y: 6.521207	z: 6.8049197
18:32:45		x: 1.1575965	y: 8.1079645	z: 2.9460652
18:32:45		x: 0.7667431	y: 7.5824366	z: 1.5280992
18:32:45		x: 3.6140475	y: 9.42238	z: 2.463035
18:32:45		x: -1.1713632	y: 8.26658	z: -0.44592008
18:32:45		x: 6.0184245	y: 7.877522	z: 6.625355
18:32:45		x: 1.2743138	y: 3.2752678	z: 5.7107697
18:32:46		x: 2.095525	y: 7.301118	z: 3.693056
18:32:46		x: 5.0906715	y: 10.589554	z: 4.331111
18:32:46		x: -0.33638534	y: 4.0707417	z: 0.7194576
18:32:46		x: 0.46267948	y: 10.581175	z: 7.192182
18:32:46		x: -1.091756	y: 1.1121067	z: 0.9475053
18:32:46		x: 5.6257753	y: 12.448053	z: 4.24492
18:32:47		x: 0.40102878	y: 10.081385	z: 0.29927522
18:32:47		x: 10.5123415	y: 18.398842	z: 7.623737
18:32:47		x: 8.262989	y: 7.881712	z: 6.054936
18:32:47		x: -3.9109285	y: 11.164163	z: -3.9396589
18:32:47		x: 7.301717	y: 12.215217	z: 3.0202854
18:32:48		x: -0.20649989	y: 6.5008564	z: 0.54767364
18:32:48		x: 3.9121256	y: 10.0825815	z: 4.292804
18:32:48		x: 4.5016975	y: 4.365228	z: 4.3580456
18:32:48		x: -1.5987282	y: 4.4538136	z: -3.072958
18:32:48		x: 5.779603	y: 11.812392	z: 2.083554
18:32:48		x: -0.85054016	y: 8.02716	z: -0.5434838
18:32:49		x: 3.655946	y: 8.772355	z: 3.7720647
18:32:49		x: 2.1888988	y: 3.9510314	z: 5.327099
18:32:49		x: -0.3537433	y: 5.0625396	z: 2.2709002
18:32:49		x: 3.3740287	y: 9.363723	z: 1.5245079
18:32:49		x: 4.0043025	y: 10.666767	z: 2.421735
18:32:50		x: -0.7404069	y: 8.880095	z: 0.39863458
18:32:50		x: 2.730587	y: 10.070012	z: 4.2862196
18:32:50		x: 1.401805	y: 5.403115	z: 4.525041
18:32:50		x: 4.526837	y: 15.578472	z: 10.436924
18:32:50		x: 0.36631286	y: 9.0842	z: 1.2204443
18:32:50		x: 2.2960393	y: 7.465121	z: 1.1941081
18:32:51		x: 3.020884	y: 8.377911	z: 1.6041151
18:32:51		x: 1.9913772	y: 8.611943	z: 2.3247697
18:32:51		x: -1.9542671	y: 12.299613	z: 1.4957775
18:32:51		x: 1.614889	y: 7.9355817	z: 4.5423994
18:32:51		x: 0.32800564	y: 5.935226	z: 5.1319714
18:32:52		x: 1.2401965	y: 13.78342	z: 3.293823
18:32:52		x: 1.2431892	y: 9.532514	z: 0.008379706
18:32:52		x: 2.6420016	y: 8.629301	z: 1.8375498
18:32:52		x: 1.4449008	y: 9.074623	z: -1.3790601
18:32:52		x: 0.7918822	y: 11.325771	z: 1.5861586
18:32:52		x: 5.4144874	y: 6.8731546	z: 1.5981296
18:32:53		x: 10.5123415	y: 5.7945666	z: 6.1159883
18:32:53		x: 11.393407	y: 1.0456676	z: 0.5883751
18:32:53		x: 3.4129345	y: 0.56922144	z: 4.5202527
18:32:53		x: -2.397793	y: 4.2317514	z: 10.07121
18:32:53		x: -4.300585	y: 3.7511156	z: 10.369886
18:32:54		x: 1.7465701	y: 4.159327	z: 6.953959
18:32:54		x: -2.3469162	y: 5.6485205	z: 9.700109
18:32:54		x: -1.9093759	y: 4.859032	z: 9.929952
18:32:54		x: -0.89782566	y: 4.5022964	z: 8.0367365
18:32:54		x: 0.50876784	y: 6.125565	z: 7.8625584
18:32:54		x: 0.5422867	y: 6.3392477	z: 9.24102
18:32:55		x: 1.5245079	y: 4.44723	z: 8.618527
18:32:55		x: 0.6955156	y: 5.099051	z: 7.9768815
