20:13:34		x: 62.903355
20:13:35		x: 62.903355
20:13:36		x: 62.903355
20:13:37		x: 62.903355
20:13:38		x: 62.54067
20:13:39		x: 62.54067
20:13:40		x: 62.54067
20:13:41		x: 62.281075
20:13:42		x: 62.281075
20:13:43		x: 62.281075
20:13:44		x: 62.27169
20:13:45		x: 62.27169
20:13:46		x: 62.27169
20:13:47		x: 62.27169
20:13:48		x: 62.27169
20:13:50		x: 62.27169
20:13:50		x: 61.7901
20:13:51		x: 61.7901
20:13:52		x: 61.7901
20:13:53		x: 60.76999
20:13:54		x: 60.76999
20:13:54		x: 60.76999
20:13:55		x: 60.549557
20:13:56		x: 60.549557
20:13:57		x: 60.549557
20:13:58		x: 59.58189
20:13:59		x: 59.58189
20:14:00		x: 59.58189
20:14:01		x: 59.098454
20:14:02		x: 59.098454
20:14:03		x: 59.098454
20:14:04		x: 58.4596
20:14:05		x: 58.4596
20:14:06		x: 58.4596
20:14:07		x: 57.869976
20:14:08		x: 57.869976
20:14:09		x: 57.869976
20:14:10		x: 56.96729
20:14:11		x: 56.96729
20:14:12		x: 56.96729
20:14:13		x: 56.5677
20:14:14		x: 56.5677
20:14:15		x: 56.5677
20:14:16		x: 56.193478
20:14:17		x: 56.193478
20:14:18		x: 56.193478
20:14:19		x: 55.47897
20:14:19		x: 55.47897
20:14:20		x: 55.47897
