9 1:5308.45574607 2:5308.41988908 3:5308.43207889 4:0.0111506962664 5:0.000124338027227 6:0.00704841147056 7:-0.0103015793487 8:-1.04212934578e-13 9:0.00577731417109 10:3.33773590315e-05 11:0.00770876615906 12:-0.00757459408141 13:-1.18423789293e-13 14:0.00525814561307 15:2.76480952883e-05 16:0.0107984047141 17:-0.0114131644839 18:-4.61852778244e-14 19:0.00699398899111 20:4.89158820078e-05 21:0.0486672431135 22:-0.0466978855756 23:-5.59552404411e-14 24:0.0291217580343 25:0.000848076791007 26:0.0311828588637 27:-0.0348965294105 28:0.00209083726156 29:0.020589897142 30:0.000423943864318 
9 1:5308.28252806 2:5308.26053016 3:5308.27536774 4:0.00694899504365 5:4.82885321166e-05 6:0.00695439378149 7:-0.00738413433353 8:-1.42108547152e-14 9:0.00513855519696 10:2.64047495122e-05 11:0.00902337030317 12:-0.00650206011271 13:-3.96719694133e-14 14:0.00503233752289 15:2.53244209442e-05 16:0.0254376283774 17:-0.0268518603592 18:-7.40148683083e-14 19:0.0160920879363 20:0.00025895529415 21:0.0399382428528 22:-0.0401929306894 23:-4.50010399315e-14 24:0.0241353740686 25:0.000582516281431 26:0.00859491775118 27:-0.00982378034315 28:0.000611174320503 29:0.00647419563649 30:4.19152091395e-05 
9 1:5308.4510668 2:5308.35322591 3:5308.38581759 4:0.0306172976769 5:0.000937418917034 6:0.0257192883979 7:-0.0293058651615 8:-8.28966525053e-14 9:0.0168129047497 10:0.000282673766122 11:0.025603607055 12:-0.0304097605692 13:-8.881784197e-14 14:0.0169095142171 15:0.000285931671057 16:0.0523537980709 17:-0.0526152412463 18:5.92118946467e-16 19:0.0317287158563 20:0.00100671140989 21:0.0245439678948 22:-0.0213505094067 23:7.69754630407e-15 24:0.0155282845608 25:0.000241127621402 26:0.00798624994053 27:-0.0125305385767 28:-0.000134161086735 29:0.00633074864331 30:4.00783783847e-05 
9 1:5308.6034961 2:5308.41732801 3:5308.54101831 4:0.0581126359933 5:0.00337707846209 6:0.0546767936971 7:-0.0445234944943 8:-1.43292785045e-13 9:0.0299594383944 10:0.000897567948906 11:0.0520813745876 12:-0.0470902307734 13:-1.01844458792e-13 14:0.0306199437992 15:0.000937580958267 16:0.0638235191483 17:-0.0592536208179 18:1.95399252334e-14 19:0.0402203505943 20:0.00161767660193 21:0.047122949768 22:-0.0539268867001 23:-7.13503330492e-14 24:0.0342967953519 25:0.00117627017141 26:0.0194879722175 27:-0.0149047247759 28:-0.000206707436394 29:0.0101917443795 30:0.000103871653497 
9 1:5309.03113801 2:5308.9141017 3:5308.95226687 4:0.0369023445116 5:0.00136178303045 6:0.0384592955821 7:-0.0374009111878 8:-4.50010399315e-14 9:0.0262057850009 10:0.000686743167515 11:0.0309827533376 12:-0.0450334674364 13:-9.88838640599e-14 14:0.0256847768111 15:0.000659707759838 16:0.125992564117 17:-0.119150507823 18:-1.23160740865e-13 19:0.0755151304556 20:0.00570253492773 21:0.177162995489 22:-0.173242696743 23:-2.51650552248e-14 24:0.105780965203 25:0.0111896125992 26:0.107162011167 27:-0.096583872961 28:0.00495172898822 29:0.0629066160994 30:0.00395724234908 
9 1:5308.94075134 2:5308.87869335 3:5308.89955854 4:0.0193548586444 5:0.000374610553144 6:0.0143888442835 7:-0.0184323585642 8:-8.05281767195e-14 9:0.0100037363013 10:0.000100074739987 11:0.013793438173 12:-0.0157744279705 13:4.67773967709e-14 14:0.00900980010237 15:8.11764978846e-05 16:0.0107219085898 17:-0.0130504949784 18:-6.15803704325e-14 19:0.00934031214644 20:8.72414309929e-05 21:0.0383794160014 22:-0.0344675456162 23:-2.48689957516e-14 24:0.0235961693585 25:0.000556779208396 26:0.0648234429112 27:-0.0789823691757 28:0.00449309119563 29:0.0456489733817 30:0.00208382877081 
9 1:5309.058811 2:5308.93779568 3:5308.97825134 4:0.0378257385946 5:0.00143078650023 6:0.0304587603761 7:-0.0358301924649 8:-1.98951966013e-13 9:0.0200689258545 10:0.000402761784954 11:0.0316306487592 12:-0.036105374647 13:-2.42768768051e-14 14:0.0206129472973 15:0.000424893596281 16:0.0536892885132 17:-0.0552665563377 18:-9.47390314347e-15 19:0.0334592961023 20:0.00111952449566 21:0.0175791216388 22:-0.0139994682659 23:-8.26005930321e-14 24:0.00989825844762 25:9.79755202959e-05 26:0.0205773079099 27:-0.0216397963257 28:-0.000945465486564 29:0.013154597847 30:0.000173043444518 
9 1:5308.81677142 2:5308.71687974 3:5308.78373573 4:0.0313342531084 5:0.000981835417859 6:0.0306242345963 7:-0.0284940803986 8:-3.90798504668e-14 9:0.0186513927637 10:0.000347874452027 11:0.0334915826263 12:-0.026118833151 13:-1.20200146133e-13 14:0.0182702334944 15:0.000333801431939 16:0.0696928207417 17:-0.0715159171556 18:-1.14871075615e-13 19:0.0426393470236 20:0.0018181139146 21:0.0657431506885 22:-0.0700091662256 23:-1.56911520814e-14 24:0.0417526495568 25:0.00174328374501 26:0.0374116366723 27:-0.0300979153705 28:-0.0019931985458 29:0.0245920814627 30:0.00060477047067 
9 1:5309.3955155 2:5309.03488105 3:5309.15531332 4:0.112755943207 5:0.0127139027286 6:0.0919293333821 7:-0.107304722812 8:-1.48029736617e-13 9:0.0604173355552 10:0.00365025443559 11:0.0933665165269 12:-0.108358404013 13:-1.16055313507e-13 14:0.0611059340781 15:0.00373393517955 16:0.166866672573 17:-0.170495179701 18:-1.05397172471e-13 19:0.102962140755 20:0.0106012024288 21:0.0471520732416 22:-0.0334293229678 23:-1.71714494475e-14 24:0.0273623082305 25:0.000748695911698 26:0.0847895024518 27:-0.120540114823 28:-0.000986194583182 29:0.0615814099403 30:0.00379227005023 
9 1:5309.53284212 2:5309.42606408 3:5309.46222903 4:0.0332376396581 5:0.00110474069004 6:0.02233770098 7:-0.0307705506368 8:-1.2908193033e-13 9:0.0168261461929 10:0.000283119195705 11:0.0247516837004 12:-0.0250654519686 13:-4.73695157173e-14 14:0.016542047053 15:0.000273639320704 16:0.0239178087402 17:-0.0307384643678 18:-5.92118946467e-14 19:0.0167995034498 20:0.000282223316161 21:0.104810986278 22:-0.0987893911685 23:-3.90798504668e-14 24:0.0628371264973 25:0.00394850446644 26:0.0330870440851 27:-0.0544284629002 28:0.00340569908085 29:0.0331730876386 30:0.00110045374348 
9 1:5309.55511727 2:5309.36796815 3:5309.49226189 4:0.0584030554257 5:0.00341091688305 6:0.0549099806315 7:-0.0442802424376 8:-2.03688917585e-13 9:0.0299886493904 10:0.00089931909226 11:0.0515326466079 12:-0.0468164703245 13:-2.78295904839e-14 14:0.0304540327374 15:0.000927448109969 16:0.0592382696169 17:-0.054231300228 18:2.30926389122e-14 19:0.0380721318591 20:0.00144948722429 21:0.052891701294 22:-0.0622186508011 23:2.96059473233e-16 24:0.0400787115966 25:0.00160630312324 26:0.0570295313383 27:-0.0771386376243 28:-0.0019300086167 29:0.0412805087506 30:0.00170408040271 
9 1:5309.53010717 2:5309.48640368 3:5309.51535663 4:0.0136268475948 5:0.000185690975371 6:0.0123538926473 7:-0.00973650598055 8:2.36847578587e-15 9:0.00670840164579 10:4.50026526413e-05 11:0.0122448320739 12:-0.0124608902157 13:3.25665420557e-14 14:0.00840360984736 15:7.06206584667e-05 16:0.0138386201628 17:-0.0120743913181 18:-1.66385423957e-13 19:0.00955261725904 20:9.12524964976e-05 21:0.0134030161423 22:-0.0149351533938 23:-2.1612341546e-14 24:0.00909812050057 25:8.2775796643e-05 26:0.0737391558527 27:-0.0675603277055 28:0.00357849476385 29:0.0454253024894 30:0.00206345810625 
9 1:5309.95426081 2:5309.66862302 3:5309.7641207 4:0.0892740688513 5:0.00796985936926 6:0.0717728701529 7:-0.084693121393 8:-2.20268248086e-13 9:0.0473420631958 10:0.00224127094763 11:0.0737896757095 12:-0.0845913393154 13:-9.00020798629e-14 14:0.0481361933478 15:0.00231709311002 16:0.123298839102 17:-0.127118947874 18:-1.48029736617e-14 19:0.0770277100487 20:0.00593326811534 21:0.0404446735927 22:-0.0353809137501 23:-1.53950926081e-14 24:0.0229666170077 25:0.000527465496778 26:0.0166905345632 27:-0.0136392711778 28:-0.000462670335144 29:0.00989484507663 30:9.79079590904e-05 
9 1:5310.04050213 2:5309.86504667 3:5309.98216217 4:0.0549147160908 5:0.00301562604333 6:0.0535006547283 7:-0.0469294424844 8:-1.51582450295e-13 9:0.0306703816009 10:0.000940672307548 11:0.0532496633611 12:-0.0421200786313 13:-1.95399252334e-14 14:0.029035600576 15:0.000843066100809 16:0.0893778867363 17:-0.0897430858341 18:2.48689957516e-14 19:0.0540182893677 20:0.00291797558621 21:0.0264031411915 22:-0.034296703989 23:-4.97379915032e-14 24:0.0246259453621 25:0.000606437184976 26:0.166389832871 27:-0.171479887149 28:-0.00925758118385 29:0.105782997244 30:0.0111900425059 
9 1:5310.13779124 2:5310.11166416 3:5310.12855143 4:0.00806747251115 5:6.50841127182e-05 6:0.0101157175171 7:-0.00942316805627 8:2.84217094304e-14 9:0.0064681553495 10:4.18370336253e-05 11:0.0121062012652 12:-0.0116984318845 13:-8.70414851306e-14 14:0.00743119280531 15:5.52226265096e-05 16:0.0310605732094 17:-0.0262822669538 18:-6.09882514861e-14 19:0.0216489557932 20:0.000468677286936 21:0.100077055596 22:-0.100886861154 23:-5.00340509764e-14 24:0.0605882099964 25:0.00367093119057 26:0.0218739409258 27:-0.02382609918 28:0.000966704722367 29:0.0185000668781 30:0.000342252474494 
9 1:5310.4137933 2:5310.27040172 3:5310.31830668 4:0.0448399921494 5:0.00201062489596 6:0.03646011981 7:-0.0422752278974 8:-1.2908193033e-13 9:0.0239215886709 10:0.000572242404541 11:0.0390992403494 12:-0.0441137841828 13:-1.89478062869e-14 14:0.0254200279993 15:0.000646177823483 16:0.0711677393359 17:-0.0727428828693 18:-4.79616346638e-14 19:0.0439044752524 20:0.00192760294719 21:0.0198199739449 22:-0.0169725276793 23:-2.13162820728e-14 24:0.0131366487971 25:0.000172571541618 26:0.100039816611 27:-0.0740528306511 28:-0.00526068506908 29:0.0608747445061 30:0.00370573451869 
9 1:5310.43941759 2:5310.41262201 3:5310.4218308 4:0.00831425529836 5:6.91268411663e-05 6:0.00455184670872 7:-0.00750717173746 8:-6.03961325396e-14 9:0.00477252945634 10:2.27770374116e-05 11:0.00516263911056 12:-0.00534623782158 13:-5.26985862355e-14 14:0.00407041132234 15:1.65682483331e-05 16:0.0135623441012 17:-0.0130449030607 18:-3.5527136788e-14 19:0.010145271686 20:0.000102926537583 21:0.0586810102189 22:-0.0569561475537 23:-3.96719694133e-14 24:0.0350970036757 25:0.00123179966701 26:0.0327733692867 27:-0.0372003075436 28:0.00223078026586 29:0.0218065039286 30:0.000475523613587 
9 1:5310.38712435 2:5310.36179257 3:5310.3787542 4:0.00794699383025 5:6.31547109381e-05 6:0.00782264828716 7:-0.00728609351005 8:-2.6645352591e-13 9:0.00476917049293 10:2.27449871907e-05 11:0.00844249269311 12:-0.00641980273059 13:-9.47390314347e-14 14:0.00461352683259 15:2.1284629835e-05 16:0.0175342568778 17:-0.018044343154 18:-3.61192557345e-14 19:0.0107540409705 20:0.000115649397196 21:0.0134267543032 22:-0.0131918095595 23:-6.86857977901e-14 24:0.00802764946069 25:6.44431558637e-05 26:0.0593971159061 27:-0.0374656602451 28:-0.000491097726452 29:0.0310644289166 30:0.000964998743917 
9 1:5310.69944161 2:5310.375223 3:5310.48367874 4:0.101317554989 5:0.0102652469489 6:0.0809343427655 7:-0.095882662902 8:-1.70530256582e-13 9:0.0534665161783 10:0.00285866835225 11:0.0842093591471 12:-0.0956907929897 13:-6.51330841113e-15 14:0.0548368933477 15:0.00300708487202 16:0.136910866683 17:-0.141750887884 18:-3.37507799486e-14 19:0.0860701096556 20:0.00740806377613 21:0.0446561867362 22:-0.0414096811397 23:-5.77315972805e-14 24:0.0262887766029 25:0.000691099775277 26:0.0447784556824 27:-0.0440988343791 28:-0.00191698773292 29:0.0266391017027 30:0.000709641739529 
9 1:5310.68907558 2:5310.21327977 3:5310.37309865 4:0.148466829144 5:0.022042399356 6:0.112303982852 7:-0.139859783349 8:-1.89478062869e-14 9:0.076289521137 10:0.00582009103532 11:0.117143260871 12:-0.129638767525 13:-7.46069872548e-14 14:0.0762084877651 15:0.00580773360745 16:0.130363494968 17:-0.143341503642 18:-2.07241631263e-14 19:0.093088944975 20:0.00866555167656 21:0.185216780474 22:-0.164783507468 23:-5.92118946467e-15 24:0.115287069194 25:0.0132911083234 26:0.0938622513895 27:-0.115878010484 28:0.00753574228109 29:0.0663053017448 30:0.00439639303947 
9 1:5310.67306923 2:5310.62422759 3:5310.64067879 4:0.0152307662322 5:0.000231976240021 6:0.0111327914096 7:-0.0141221436095 8:-6.98700356831e-14 9:0.00767107134038 10:5.88453355092e-05 11:0.0126309552354 12:-0.0132198992439 13:-3.84877315203e-14 14:0.00829361074985 15:6.87839792701e-05 16:0.0118840219193 17:-0.0135959870405 18:-8.23045335589e-14 19:0.00941130971796 20:8.85727506074e-05 21:0.021787431148 22:-0.0197921888805 23:-2.33886983854e-14 24:0.0132877917059 25:0.000176565408418 26:0.0186356772805 27:-0.0228686589175 28:-0.000883771755613 29:0.0140052008489 30:0.000196145650817 
9 1:5310.44973927 2:5310.31620944 3:5310.40512012 4:0.0417517307178 5:0.00174320701793 6:0.0393822717311 7:-0.0338578572847 8:-2.16715534407e-13 9:0.022232354957 10:0.000494277606934 11:0.0408369408842 12:-0.0361671936086 13:-4.55931588779e-14 14:0.0235180253401 15:0.000553097515897 16:0.0663663301192 17:-0.0648242648072 18:-3.19744231092e-14 19:0.0400784005895 20:0.00160627819382 21:0.0140468899839 22:-0.0176488258399 23:-3.01980662698e-14 24:0.0125568634708 25:0.000157674820224 26:0.0668715472309 27:-0.0779892637715 28:0.00407927311987 29:0.045069181977 30:0.00203123116408 
9 1:5310.19696975 2:5310.10792589 3:5310.13786307 4:0.0277785097797 5:0.000771645605582 6:0.0207699548758 7:-0.0260577865098 8:-9.82917451135e-14 9:0.0141868288024 10:0.000201266111468 11:0.0221351716372 12:-0.0241112302199 13:-1.83556873405e-14 14:0.0144141746756 15:0.000207768431578 16:0.0229925575167 17:-0.0256489035189 18:-2.13162820728e-14 19:0.0170384953601 20:0.000290310324135 21:0.0361162089535 22:-0.0315749816363 23:-1.21384384026e-14 24:0.0226315665722 25:0.000512187805514 26:0.0385163318032 27:-0.0285249738183 28:0.00103497581051 29:0.0207855993295 30:0.000432041139485 
9 1:5310.12369784 2:5310.11419442 3:5310.12043757 4:0.00294939434092 5:8.69892697823e-06 6:0.00254952717887 7:-0.00161938813563 8:-4.06193597276e-13 9:0.00149325739705 10:2.22981765384e-06 11:0.00285582934471 12:-0.00260777278195 13:-8.94099609165e-14 14:0.00209744782873 15:4.39928739424e-06 16:0.00418699083645 17:-0.00395360507128 18:-7.63833440942e-14 19:0.0025525749612 20:6.51563893255e-06 21:0.0178748199082 22:-0.0166549558813 23:-5.7139478334e-14 24:0.0105202357173 25:0.000110675359549 26:0.0611981067211 27:-0.0484021506015 28:0.00152846559279 29:0.0345770705601 30:0.00119557380852 
9 1:5310.51679483 2:5310.23493817 3:5310.32893659 4:0.0881672054481 5:0.00777345611653 6:0.0730612764141 7:-0.0841246428608 8:-2.43953005944e-13 9:0.0478505734833 10:0.00228967738268 11:0.0736264520226 12:-0.0863964936274 13:7.69754630407e-14 14:0.0483707833331 15:0.00233973268026 16:0.142100771876 17:-0.143808432611 18:-1.59872115546e-13 19:0.0867057911739 20:0.00751789422309 21:0.0508488071878 22:-0.0414666797297 23:-2.96059473233e-16 24:0.0347582336771 25:0.00120813480835 26:0.0207082010201 27:-0.0271182157451 28:-0.000813522272567 29:0.0166537593928 30:0.000277347701912 
9 1:5310.27025439 2:5310.25605987 3:5310.26130643 4:0.00440889202709 5:1.94383289065e-05 6:0.0105023444022 7:-0.0106355337773 8:-8.28966525053e-14 9:0.00641436260623 10:4.11440476442e-05 11:0.0101743038124 12:-0.00977855384902 13:-1.06581410364e-13 14:0.00602586851311 15:3.63110913373e-05 16:0.0345547845463 17:-0.0391463899028 18:-8.881784197e-14 19:0.0253938314324 20:0.000644846674818 21:0.104063996696 22:-0.101312662042 23:-1.24344978758e-14 24:0.0621668886624 25:0.00386472204597 26:0.0533819728744 27:-0.0398213831583 28:0.00213844649988 29:0.0314581137563 30:0.000989612921105 
9 1:5310.2523794 2:5310.19086782 3:5310.2112817 4:0.0192695305136 5:0.000371314806215 6:0.016861776599 7:-0.0187165441327 8:-6.51330841113e-14 9:0.011001187795 10:0.000121026132902 11:0.0156817270888 12:-0.0196419749724 13:-1.36187357687e-13 14:0.0107290482997 15:0.000115112477418 16:0.0373645027289 17:-0.0368579263753 18:-4.32246830921e-14 19:0.0223622625067 20:0.00050007078442 21:0.0316899698809 22:-0.0275447575479 23:6.2172489379e-15 24:0.0194919390338 25:0.000379935687298 26:0.0710865288129 27:-0.0581988738828 28:0.00216118716288 29:0.041899033375 30:0.00175552899776 
9 1:5310.29362781 2:5310.2385072 3:5310.25661603 4:0.0173331760617 5:0.000300438992386 6:0.0168633476552 7:-0.0172044161321 8:-1.39740071366e-13 9:0.0112174044319 10:0.000125830162189 11:0.0146964259713 12:-0.0198956531067 13:-1.09542005096e-13 14:0.0109620330457 15:0.000120166168496 16:0.0494973358788 17:-0.0474524731644 18:-2.07241631263e-14 19:0.0295267910871 20:0.000871831391899 21:0.056491430013 22:-0.0560391370052 23:-8.3784830925e-14 24:0.0339277156994 25:0.00115108989258 26:0.041811921324 27:-0.0696585678555 28:0.000622250729881 29:0.0367814811392 30:0.0013528773548 
9 1:5310.2663549 2:5310.0845854 3:5310.20571823 4:0.056855431503 5:0.00323254009139 6:0.0541636616761 7:-0.0469686063138 8:-1.31450406116e-13 9:0.0307722586848 10:0.000946931904562 11:0.0556839392475 12:-0.047708876832 13:-1.172395514e-13 14:0.0312801464091 15:0.000978447559377 16:0.0923166756246 17:-0.0910789040479 18:-8.23045335589e-14 19:0.0556646200913 20:0.00309854992991 21:0.0271256825141 22:-0.0338259727875 23:-4.97379915032e-14 24:0.0233308311949 25:0.000544327684243 26:0.0228206858846 27:-0.0197315087928 28:0.000883289558668 29:0.0153800614415 30:0.000236546289944 
9 1:5310.26163739 2:5310.24437856 3:5310.25004556 4:0.00544036522994 5:2.95975738351e-05 6:0.00535690517641 7:-0.00522578875369 8:-1.04212934578e-13 9:0.00365200929988 10:1.33371719264e-05 11:0.00561122014883 12:-0.00689190540336 13:-8.94099609165e-14 14:0.00378534688742 15:1.43288510581e-05 16:0.018970749567 17:-0.0182677557793 18:-2.48689957516e-14 19:0.0113168630657 20:0.000128071389648 21:0.0303819477398 22:-0.0292238367492 23:-1.48029736617e-14 24:0.0180207339545 25:0.00032474685226 26:0.0529035364874 27:-0.0400505987724 28:-0.00155393973755 29:0.0322790639867 30:0.00104193797186 
9 1:5310.27224088 2:5310.24589938 3:5310.2635566 4:0.00826453419108 5:6.83025253955e-05 6:0.0082835811922 7:-0.00753563273709 8:-2.27373675443e-13 9:0.00491312801802 10:2.41388269214e-05 11:0.00789014699882 12:-0.0048349480479 13:-7.81597009336e-14 14:0.00485845311087 15:2.36045666305e-05 16:0.0255386864672 17:-0.0265557008399 18:-4.91458725567e-14 19:0.015957982588 20:0.00025465720828 21:0.037266561157 22:-0.0341034658065 23:-0.00156403174816 24:0.025181565233 25:0.000634111227583 26:0.0577381055568 27:-0.0528226551893 28:-0.00414195184294 29:0.0378031516004 30:0.00142907827092 
