9 1:-0.0130965132309 2:-0.754385803591 3:-0.515297344643 4:0.2528892168 5:0.0639529559737 6:0.41617155378 7:-0.580090136043 8:7.93016446161e-18 9:0.277450637792 10:0.0769788564111 11:0.180303484349 12:-0.22706830863 13:-0.00461233114534 14:0.121381959226 15:0.0147335800256 16:0.587224149945 17:-0.509197461154 18:-0.0275970184582 19:0.301127864032 20:0.0906779904963 21:0.56892880585 22:-0.479510379492 23:0.0299229404462 24:0.275295352637 25:0.0757875311838 26:0.710870460172 27:-0.80428917707 28:0.0288629669552 29:0.376108333565 30:0.141457478577 
9 1:0.555435104806 2:-0.570831607573 3:0.173042465321 4:0.38254472522 5:0.146340466793 6:0.183083407708 7:-0.225365786403 8:-7.93016446161e-18 9:0.137464029698 10:0.0188963594609 11:0.120150443489 12:-0.12796880486 13:-0.00700512239799 14:0.0715296462605 15:0.00511649029415 16:0.199214531806 17:-0.27415624058 18:0.00921784587395 19:0.153111071848 20:0.0234430003223 21:0.245098753725 22:-0.100542512147 23:0.0161703790155 24:0.102450809322 25:0.0104961683308 26:0.499862233641 27:-0.506667365301 28:-0.0198339714739 29:0.283922070827 30:0.0806117423024 
9 1:7.82098966318 2:-2.41291499419 3:0.863425460109 4:3.50950856686 5:12.3166503808 6:5.85257440394 7:-8.15555816772 8:-2.85485920618e-16 9:3.87548756412 10:15.0194038597 11:2.97219937056 12:-3.55796907048 13:0.00496611262973 14:1.89687487469 15:3.59813429022 16:3.22250840877 17:-3.18506994026 18:-0.109219608013 19:1.67148973336 20:2.79387792872 21:1.56752097383 22:-1.02730234096 23:-0.00454142248466 24:0.720366606624 25:0.518928047939 26:5.14784744163 27:-5.7799242165 28:0.00800155078286 29:3.18241895524 30:10.1277904067 
9 1:8.33768025134 2:1.1570037051 3:3.3963596974 4:2.49101282946 5:6.20514491655 6:5.02811461072 7:-7.1024671213 8:-2.29974769387e-16 9:3.38279403448 10:11.4432954797 11:2.86098885036 12:-3.32205921184 13:0.0628398161882 14:1.77684251221 15:3.1571693132 16:3.10874765345 17:-2.66837127683 18:0.338933206443 19:1.63216142711 20:2.66395092416 21:2.11394650042 22:-4.19286127526 23:-0.444612117773 24:1.88501118837 25:3.55326718029 26:5.34609744908 27:-3.20015839949 28:0.502820073539 29:2.0912262981 30:4.37322742985 
9 1:7.37177005841 2:-0.1777821212 3:4.8430498393 4:2.57297520305 5:6.6202013955 6:2.36235047246 7:-1.86556886491 8:-7.93016446161e-17 9:1.30090492217 10:1.69235361651 11:1.10225993988 12:-1.2433208363 13:0.0286443151181 14:0.725877775161 15:0.526898544473 16:1.9455315687 17:-1.70148625547 18:-0.0776993923009 19:1.00052479507 20:1.00104986555 21:0.772499353997 22:-1.17337657547 23:-0.238383058064 24:0.653970752146 25:0.427677744663 26:1.25558271534 27:-0.833458517322 28:0.28409258693 29:0.693420018043 30:0.480831321422 
9 1:0.286705537424 2:-2.04832625284 3:-1.22408309648 4:0.794469481605 5:0.631181757202 6:0.940575475039 7:-0.824806978309 8:5.6502421789e-17 9:0.562823627884 10:0.316770436105 11:0.541600491164 12:-0.802254802719 13:0.036075246285 14:0.425035985599 15:0.180655589054 16:0.821858144833 17:-0.818180501828 18:0.063147609436 19:0.473216507008 20:0.223933862505 21:0.801953273971 22:-1.34018151014 23:-0.206928325305 24:0.604479503994 25:0.365395470749 26:1.29563843364 27:-1.30481287942 28:-0.0950806259609 29:0.611898150363 30:0.374419346418 
9 1:-0.764528353067 2:-2.55315753406 3:-1.3926571346 4:0.62600110752 5:0.391877386616 6:0.549008100984 7:-0.521083507029 8:1.58603289232e-17 9:0.447949609555 10:0.2006588527 11:0.968438468887 12:-0.848992834457 13:0.00177931048736 14:0.521008064429 15:0.2714494032 16:1.08266810471 17:-3.5305086473 18:-0.432527278361 19:1.31600624916 20:1.73187244784 21:1.8258903884 22:-1.36690588104 23:0.150133907284 24:0.894109739662 25:0.799432226558 26:0.806908568523 27:-1.03310874606 28:-0.0956900733521 29:0.573411737161 30:0.328801020314 
9 1:-1.09695648887 2:-2.29913769883 3:-1.479413812 4:0.412378587594 5:0.170056099506 6:1.0310009603 7:-0.746676476974 8:1.58603289232e-17 9:0.507109417143 10:0.257159960955 11:0.633273050711 12:-0.550892391487 13:-0.00199461693041 14:0.384842373496 15:0.148103652438 16:1.88402764813 17:-1.32531046294 18:0.234649903573 19:1.03627453384 20:1.07386490948 21:1.56397920801 22:-1.2894543277 23:-0.0596335691881 24:0.896292425741 25:0.803340112441 26:1.73622906753 27:-1.26728403812 28:0.104163824288 29:0.776801389465 30:0.603420398675 
9 1:0.846145423357 2:-2.45975535753 3:-1.34090089296 4:1.12776053467 5:1.27184382357 6:0.732846196984 7:-0.527574867001 8:4.4854992736e-17 9:0.418848161234 10:0.175433782169 11:0.400925067918 12:-0.332064198993 13:0.0189884251212 14:0.256703800604 15:0.0658968412444 16:1.03613670388 17:-1.18858334193 18:0.0500207355635 19:0.613251253378 20:0.37607709977 21:0.510659062288 22:-0.812279687328 23:-0.104783181879 24:0.407369366028 25:0.165949800378 26:0.869248676658 27:-2.12314184612 28:-0.206044445909 29:0.836971007567 30:0.700520467508 
9 1:0.423187443114 2:-0.818554972497 3:-0.439960385079 4:0.431949632567 5:0.186580485075 6:1.1403125276 7:-1.61124221714 8:-9.51619735393e-17 9:0.785099388164 10:0.616381049295 11:0.80932913121 12:-0.844105940288 13:0.0153008631006 14:0.535755392474 15:0.287033840565 16:0.774594446823 17:-2.55767812535 18:-0.311015730388 19:0.940284154942 20:0.884134292036 21:1.32133466316 22:-1.41021492273 23:0.107440215521 24:0.71034011904 25:0.504583084718 26:0.923830410916 27:-0.617410734936 28:0.0973701931232 29:0.467824133619 30:0.218859419997 
9 1:2.5678660692 2:0.877715043338 3:1.95364379775 4:0.567199658969 5:0.321715453135 6:0.825681138131 7:-1.24778068023 8:-7.93016446161e-17 9:0.661269098882 10:0.437276821136 11:0.583232964649 12:-0.650728922297 13:-0.0412308218116 14:0.386809989723 15:0.149621968149 16:1.30519479253 17:-0.997513258204 18:0.143968982577 19:0.682514284595 20:0.465825748676 21:1.68497601576 22:-1.59192309352 23:0.0786019379979 24:1.10387807256 25:1.21854679908 26:1.37774394194 27:-1.32057769384 28:-0.206123315389 29:0.839363132754 30:0.704530468626 
9 1:-1.32466297626 2:-1.84936807964 3:-1.60443357244 4:0.172152213345 5:0.0296363845595 6:0.626347517257 7:-0.542332344454 8:1.58603289232e-17 9:0.425482433768 10:0.181035301445 11:0.416703411867 12:-0.379601737795 13:0.0465386493248 14:0.253904747645 15:0.0644676208765 16:1.53907310518 17:-3.56906199567 18:-0.426299203918 19:1.48969666016 20:2.21919613929 21:1.7282735522 22:-2.20334473825 23:-0.0340975431841 24:1.14600260101 25:1.31332196152 26:1.68867193208 27:-1.82114207654 28:0.0295339515114 29:1.15872418093 30:1.34264172747 
9 1:1.67853952274 2:-4.49256710227 3:-2.36060268061 4:2.09382630717 5:4.38410860458 6:1.32713307574 7:-1.50039775168 8:7.93016446161e-18 9:0.798250119468 10:0.63720325323 11:0.88937870978 12:-1.10748839013 13:0.054222455361 14:0.566600220825 15:0.321035810239 16:1.26275625488 17:-1.15142886529 18:-0.0262907375863 19:0.744223102552 20:0.553868026373 21:0.689436004126 22:-0.888394191231 23:-0.0874288254387 24:0.422174909359 25:0.178231654092 26:1.74790830878 27:-1.58551323681 28:0.326504381008 29:0.968854224187 30:0.938678507725 
9 1:2.05397363711 2:-1.14799791022 3:-0.123313727364 4:1.09738226082 5:1.20424782635 6:1.76304475375 7:-2.42313369938 8:-7.93016446161e-18 9:1.16868259239 10:1.36581900174 11:0.994360828408 12:-1.27891824288 13:0.026568707993 14:0.731031005593 15:0.534406331139 16:1.21361920144 17:-2.42553835309 18:-0.302059214078 19:1.17022293472 20:1.36942171695 21:0.833865442653 22:-0.882239994325 23:0.000849659756235 24:0.530979821146 25:0.281939570464 26:1.05031772976 27:-1.43836363963 28:-0.125263332142 29:0.784405192263 30:0.615291505649 
9 1:1.72912264161 2:-0.357157821062 3:0.97126822215 4:0.701857872352 5:0.492604472983 6:0.858390019281 7:-1.2760437606 8:-7.93016446161e-17 9:0.674238326606 10:0.454597321064 11:0.783020265273 12:-0.669391755275 13:0.00453387451793 14:0.466650590883 15:0.217762773971 16:0.811761739803 17:-0.977637225828 18:-0.0150446828768 19:0.51553147737 20:0.265772704159 21:1.77296650427 22:-1.93330423124 23:-0.128631187756 24:0.974472975121 25:0.949597579242 26:0.534495860639 27:-1.45051629979 28:-0.0999591438657 29:0.548366035454 30:0.300705308839 
9 1:3.72845993181 2:-2.55610826358 3:-0.447517336687 4:2.13655372317 5:4.56486181198 6:1.39155028962 7:-1.69765433407 8:7.93016446161e-18 9:1.00771345291 10:1.01548640317 11:0.697372951384 12:-0.592402826621 13:0.0297069144308 14:0.400577711524 15:0.16046250297 16:0.70869771698 17:-1.20898819343 18:-0.13636088974 19:0.580768471872 20:0.337292017921 21:1.22564723494 22:-1.4361854445 23:-0.000584334973828 24:0.760590899267 25:0.578498516047 26:2.12313081214 27:-2.27118548121 28:0.245245178803 29:1.28590965147 30:1.65356363175 
9 1:2.41362060891 2:-0.913936978842 3:0.206990987673 4:1.13448233487 5:1.28705016814 6:0.751996336739 7:-0.678988056095 8:2.37904933848e-17 9:0.432347972597 10:0.186924769409 11:0.588046533204 12:-0.156972374825 13:0.0868024850962 14:0.252740215418 15:0.0638776164896 16:1.51691299129 17:-1.88660411587 18:-0.227562362873 19:1.12389181834 20:1.26313281934 21:0.701462361118 22:-2.03601020584 23:-0.396245202298 24:0.815735600065 25:0.665424569214 26:2.45805716765 27:-2.16823797209 28:-0.126851626442 29:1.11937882622 30:1.25300895659 
9 1:4.26160358174 2:-4.55556141495 3:1.2682148877 4:2.99830657866 5:8.98984233964 6:1.46936398679 7:-1.82721884887 8:-1.58603289232e-17 9:1.06103323199 10:1.12579151939 11:0.959743403248 12:-1.01972520961 13:-0.0603843767932 14:0.588594582265 15:0.346443582271 16:0.840125289882 17:-0.787819169654 18:0.00272013235486 19:0.451610278926 20:0.203951844032 21:1.14382259857 22:-1.05218152495 23:0.126711713416 24:0.570868311347 25:0.325890628901 26:1.04892361547 27:-0.875791371239 28:-0.000733819531219 29:0.580669452272 30:0.337177012802 
9 1:1.88012901462 2:-7.19714764084 3:-4.11717851003 4:3.08689520086 5:9.52892198108 6:1.88992108724 7:-1.55340533095 8:8.72318090777e-17 9:1.09487839776 10:1.19875870588 11:0.9974968854 12:-1.03298653734 13:0.0892577450744 14:0.595604869429 15:0.354745160487 16:1.30604336966 17:-1.08344552971 18:-0.0232900371365 19:0.754179667569 20:0.568786970974 21:1.89494240605 22:-1.8693114404 23:-0.269132148027 24:1.2494045814 25:1.56101180802 26:2.00854742135 27:-2.40455145146 28:-0.114903120438 29:1.15930750596 30:1.34399389338 
9 1:-0.536314875655 2:-0.674831258864 3:-0.59177786525 4:0.0429792417971 5:0.00184721522545 6:0.403134001407 7:-0.24896504339 8:-1.09039761347e-17 9:0.20202227816 10:0.0408130008731 11:0.400893689962 12:-0.126963186087 13:0.0558412975187 14:0.179166823369 15:0.0321007505963 16:0.368020833483 17:-0.873996896464 18:-0.10610271815 19:0.416846931473 20:0.173761364278 21:1.96227499227 22:-2.21555845235 23:-0.346466699635 24:1.24533768019 25:1.55086593769 26:1.63025660997 27:-1.72090242375 28:-0.400439272445 29:0.989337051789 30:0.978787802042 
9 1:4.00515142459 2:-5.12640936486 3:0.958835231856 4:3.11886601948 5:9.72732524749 6:2.71680595919 7:-2.18451770527 8:1.18952466924e-17 9:1.55559725789 10:2.41988282876 11:0.965049778175 12:-1.21777458339 13:-0.0757935273739 14:0.717465458242 15:0.51475668377 16:0.334743136989 17:-1.04217027692 18:-0.130117315605 19:0.420830486363 20:0.177098298253 21:2.80547099753 22:-2.50929486749 23:0.424137028175 24:1.63822573222 25:2.68378354971 26:2.90688976272 27:-4.16516227868 28:-0.276090513033 29:2.10191759888 30:4.41805759248 
9 1:1.86366368324 2:-0.464371582572 3:1.16531705784 4:0.816896020851 5:0.667319108882 6:2.80203343345 7:-2.00263602526 8:-3.17206578464e-17 9:1.3279332222 10:1.76340664263 11:1.2866615678 12:-1.01619776776 13:-0.116067688328 14:0.848033048526 15:0.719160051393 16:2.71633239851 17:-0.61261815073 18:0.34779836676 19:1.03754521649 20:1.07650007625 21:3.31537935214 22:-1.124280939 23:0.64082444199 24:1.34261043523 25:1.8026027808 26:4.36296231743 27:-1.70686098242 28:0.613634750221 29:1.74108583153 30:3.03137987275 
9 1:-0.577581100813 2:-0.893419588131 3:-0.783423410323 4:0.106848974952 5:0.0114167034482 6:0.0630415672926 7:-0.0883957231253 8:9.91270557701e-19 9:0.0506268096218 10:0.00256307385249 11:0.0963677685487 12:-0.109675670991 13:0.00851455148429 14:0.0658539748751 15:0.00433674600685 16:0.514982027611 17:-0.401938864152 18:0.0188631720007 19:0.26518213332 20:0.0703215638324 21:1.15133137846 22:-1.00865368664 23:0.0101725355787 24:0.542142229009 25:0.293918196475 26:1.11295785849 27:-0.989167172798 28:0.0403301851397 29:0.557911632879 30:0.311265390102 
9 1:2.24230773391 2:0.232190930152 3:0.962563642012 4:0.688513377913 5:0.474050671565 6:1.26615288005 7:-0.79997223571 8:1.9825411154e-17 9:0.677965650274 10:0.459637422951 11:0.909414825834 12:-1.15684243773 13:-0.00904705646382 14:0.661523228586 15:0.437612981959 16:2.31124593131 17:-0.747846236895 18:0.293758777004 19:0.904899302499 20:0.818842747664 21:0.699548533448 22:-0.379818455117 23:-0.0107848946071 24:0.283049960847 25:0.0801172803356 26:1.59325476945 27:-1.73555569091 28:-0.00916178541983 29:0.820021707617 30:0.672435600963 
9 1:1.47122861679 2:-2.47667354479 3:-1.1595321263 4:1.34273095054 5:1.80292640554 6:0.906633083958 7:-1.0815558416 8:-7.93016446161e-17 9:0.68936420122 10:0.475223001923 11:0.495045975617 12:-0.436709492808 13:0.0694873633058 14:0.307566068863 15:0.0945968867156 16:1.23081133982 17:-3.04094609467 18:-0.363218396944 19:1.15430593875 20:1.33242220024 21:0.509694993749 22:-1.97763498315 23:-0.154892961626 24:0.717937684186 25:0.515434518375 26:1.09920249673 27:-0.606883187262 28:0.112722200808 29:0.465152420233 30:0.216366774048 
9 1:1.0851009404 2:0.224337934122 3:0.831482398824 4:0.29974666604 5:0.0898480638023 6:1.45289540957 7:-1.00602371589 8:-1.58603289232e-17 9:0.682362023523 10:0.465617931146 11:0.810564811166 12:-0.61355231412 13:0.00890739936658 14:0.462532862214 15:0.213936648628 16:0.905453532729 17:-0.650864123145 18:0.0797985063949 19:0.50711483118 20:0.257165452002 21:0.844096311172 22:-0.80105318068 23:-0.138444690192 24:0.476344242071 25:0.226903836954 26:1.09276228621 27:-1.36630196872 28:0.0364156039116 29:0.677978914255 30:0.459655408174 
9 1:0.765172614638 2:-0.809034019822 3:0.246955641673 4:0.536560971719 5:0.287897676372 6:0.720615295619 7:-0.550192564178 8:-3.56857400772e-17 9:0.37024282745 10:0.137079751278 11:0.338808227956 12:-0.29291880689 13:-0.0136666545491 14:0.188933652452 15:0.0356959250289 16:0.865357959658 17:-0.320636574516 18:0.103580721039 19:0.33884167188 20:0.114813678602 21:0.483203538329 22:-0.214425129013 23:0.015449482307 24:0.180594909123 25:0.0326145212012 26:0.55511931353 27:-0.261495650465 28:0.0876204593337 29:0.222363431972 30:0.0494454958783 
9 1:-0.304539973206 2:-0.771268996371 3:-0.455844866407 4:0.159927895063 5:0.0255769316194 6:0.265377027943 7:-0.198334140008 8:-9.91270557701e-19 9:0.131048110053 10:0.0171736071483 11:0.110989328617 12:-0.0957972874133 13:-0.00816202352471 14:0.0635575625106 15:0.00403956375229 16:0.195870606928 17:-0.0707774173719 18:0.0246150741995 19:0.0792408733501 20:0.00627911600928 21:0.22334157949 22:-0.201700677632 23:0.0445424032125 24:0.112393373908 25:0.0126322704984 26:0.272609968661 27:-0.267399577006 28:0.0399319821092 29:0.162863499163 30:0.0265245193595 
9 1:0.0631525747498 2:-0.626960477626 3:-0.390239441661 4:0.234339495517 5:0.054914999159 6:0.142055250221 7:-0.131907983694 8:1.9825411154e-17 9:0.0760313293849 10:0.00578076304804 11:0.0995543641924 12:-0.0914337679906 13:0.00034225314717 14:0.0546765968045 15:0.00298953023812 16:0.158466392072 17:-0.156649351421 18:0.00665724516708 19:0.0896155144 20:0.00803094042118 21:0.154410822917 22:-0.147722249374 23:0.0245053129537 24:0.0883305701019 25:0.00780228961452 26:0.227533622265 27:-0.299088145217 28:0.0115302761384 29:0.162105194104 30:0.0262780939555 
9 1:0.493012213055 2:0.432292438449 3:0.475767292874 4:0.021243267365 5:0.000451276408342 6:0.164909055444 7:-0.1132124586 8:-1.8524368547e-17 9:0.0774073030381 10:0.00599189056364 11:0.0802201089537 12:-0.0614206968141 13:-0.00197914434649 14:0.0467814636328 15:0.00218850533963 16:0.0517621762636 17:-0.0484094154917 18:0.00757971351077 19:0.0298633360871 20:0.000891818842254 21:0.11450564266 22:-0.0807113222479 23:0.0190218763763 24:0.0500240048114 25:0.00250240105737 26:0.197170183882 27:-0.342995924639 28:-0.0300715543434 29:0.142588515903 30:0.0203314848673 
9 1:1.78663251544 2:0.785375031098 3:1.13068117001 4:0.338899407596 5:0.114852808469 6:0.216180719666 7:-0.218216844997 8:-6.34413156929e-17 9:0.12041718027 10:0.0145002973041 11:0.410078841225 12:-0.298365298396 13:-2.27992228271e-17 14:0.222394152673 15:0.0494591591433 16:0.251348106221 17:-0.292489629532 18:0.0171036018734 19:0.169350028527 20:0.0286794321622 21:0.415165041676 22:-0.350276723002 23:0.0142954912276 24:0.243720235656 25:0.059399553268 26:0.922973275364 27:-0.612242185123 28:0.0606963782148 29:0.511530715385 30:0.261663672782 
