13:04:06		x: 943.54
13:04:06		x: 943.6
13:04:06		x: 943.58
13:04:06		x: 943.61
13:04:07		x: 943.6
13:04:07		x: 943.56
13:04:07		x: 943.6
13:04:07		x: 943.6
13:04:07		x: 943.61
13:04:07		x: 943.58
13:04:08		x: 943.58
13:04:08		x: 943.58
13:04:08		x: 943.62
13:04:08		x: 943.63
13:04:08		x: 943.62
13:04:08		x: 943.65
