19:38:11		x: 941.22
19:38:11		x: 941.32
19:38:11		x: 941.24
19:38:11		x: 941.29
19:38:11		x: 941.18
19:38:11		x: 941.21
19:38:12		x: 941.25
19:38:12		x: 941.23
19:38:12		x: 941.27
19:38:12		x: 941.31
19:38:12		x: 941.26
19:38:13		x: 941.21
19:38:13		x: 941.24
19:38:13		x: 941.31
19:38:13		x: 941.23
19:38:13		x: 941.25
19:38:13		x: 941.29
19:38:14		x: 941.25
19:38:14		x: 941.23
19:38:14		x: 941.25
19:38:14		x: 941.24
19:38:14		x: 941.27
19:38:15		x: 941.26
19:38:15		x: 941.26
19:38:15		x: 941.27
19:38:15		x: 941.3
19:38:15		x: 941.27
19:38:15		x: 941.3
19:38:16		x: 941.35
19:38:16		x: 941.3
19:38:16		x: 941.24
19:38:16		x: 941.3
19:38:16		x: 941.27
19:38:16		x: 941.31
19:38:17		x: 941.31
19:38:17		x: 941.26
19:38:17		x: 941.29
19:38:17		x: 941.3
19:38:17		x: 941.27
19:38:18		x: 941.26
19:38:18		x: 941.3
19:38:18		x: 941.37
19:38:18		x: 941.26
19:38:18		x: 941.33
19:38:18		x: 941.29
19:38:19		x: 941.26
19:38:19		x: 941.36
19:38:19		x: 941.27
19:38:19		x: 941.25
19:38:19		x: 941.28
19:38:20		x: 941.3
19:38:20		x: 941.36
19:38:20		x: 941.3
19:38:20		x: 941.23
19:38:20		x: 941.18
19:38:20		x: 941.24
19:38:21		x: 941.28
19:38:21		x: 941.31
19:38:21		x: 941.27
19:38:21		x: 941.2
19:38:21		x: 941.3
19:38:22		x: 941.3
19:38:22		x: 941.28
19:38:22		x: 941.28
19:38:22		x: 941.24
19:38:22		x: 941.29
