3 1:-1.31379063135 2:-2.38781603151 3:-2.0152762689 4:0.364951413844 5:0.133189534467 6:0.279501546843 7:-0.348381998835 8:6.14587745775e-17 9:0.202989863044 10:0.0412048844986 11:0.197074162009 12:-0.245991382143 13:0.0329395716489 14:0.143914062146 15:0.0207112572833 16:0.263867727078 17:-0.381867514111 18:-0.0431652895122 19:0.200564396863 20:0.0402260772891 21:0.506358942947 22:-0.875059753771 23:-0.168656166887 24:0.401958205431 25:0.161570398914 26:0.865137382372 27:-0.705507622127 28:0.0106526746257 29:0.433580315732 30:0.18799189019 
3 1:-1.40190298939 2:-3.13825140654 3:-1.97653031846 4:0.593754731907 5:0.352544681661 6:0.756781716962 7:-0.570888246657 8:6.2945680414e-17 9:0.384285881099 10:0.147675638412 11:0.32406700471 12:-0.340065888944 13:0.00315223476296 14:0.194796237113 15:0.0379455739935 16:0.140476053559 17:-0.403394241038 18:-0.0501172821243 19:0.154175328278 20:0.0237700318498 21:0.241521182621 22:-0.226714666244 23:-0.0233691259851 24:0.16667023164 25:0.0277789661151 26:1.12491266961 27:-1.60094212536 28:-0.067192901755 29:0.731665382947 30:0.535334232602 
3 1:-0.498311765872 2:-1.69994335512 3:-1.36693279035 4:0.41726209724 5:0.174107657794 6:2.84633465546 7:-4.22545379548 8:1.9825411154e-18 9:1.98894163254 10:3.95588881767 11:1.20655672142 12:-1.66354908289 13:-0.0425261027959 14:0.893220437301 15:0.797842749612 16:5.24328307861 17:-4.7967582535 18:0.228237371046 19:2.79525693399 20:7.81346132704 21:1.96297514123 22:-2.76663483762 23:0.134637364476 24:1.61046774841 25:2.59360636867 26:3.33236289369 27:-3.91111019269 28:-0.0935499569599 29:2.1533480816 30:4.63690796055 
3 1:12.8181359222 2:0.511658326423 3:4.53370305343 4:4.21345529276 5:17.7532055041 6:5.0937699607 7:-6.91041909513 8:-3.37031989618e-16 9:3.3772442248 10:11.4057785539 11:2.82643191515 12:-2.99649576645 13:0.00951003803376 14:1.63676324749 15:2.67899392833 16:1.46123011798 17:-1.05597033351 18:0.16991495547 19:0.812130721761 20:0.659556309228 21:1.44673468245 22:-0.946666087299 23:-0.0372161691261 24:0.672108490542 25:0.451729823058 26:1.98871819419 27:-2.79145266437 28:-0.502235399966 29:1.3533219617 30:1.83148033202 
3 1:14.5995501811 2:-0.7642604164 3:9.43564816254 4:5.22920457682 5:27.3445805063 6:3.83121731258 7:-3.17376898202 8:9.51619735393e-17 9:2.33443396575 10:5.44958194044 11:1.44456977752 12:-1.83792231254 13:-0.0472575709647 14:1.09139648424 15:1.1911462858 16:0.658700909911 17:-0.957991805435 18:0.0544918299388 19:0.592647803205 20:0.351231418644 21:1.42899325168 22:-1.5934730462 23:-0.0705482123211 24:0.80506330936 25:0.648126932078 26:3.6666190494 27:-1.37350053797 28:0.145469995262 29:1.373803593 30:1.88733631215 
3 1:-0.729008695632 2:-1.77266674448 3:-1.07503416465 4:0.361655952984 5:0.130795028329 6:0.35613211774 7:-0.274777496884 8:3.56857400772e-17 9:0.227951006948 10:0.0519616615685 11:0.165488030249 12:-0.230308830254 13:-0.000730357236002 14:0.146762251651 15:0.0215391585096 16:0.640060191719 17:-1.10561415822 18:-0.128122029645 19:0.541371973087 20:0.293083613244 21:1.26498002618 22:-1.13275997428 23:0.0609920903534 24:0.693386973314 25:0.480785494762 26:1.71215601825 27:-1.80035713397 28:0.0527223577586 29:1.1740969665 30:1.37850368676 
3 1:1.6985635979 2:-4.9686237342 3:-0.461348933062 4:2.27817772901 5:5.19009376497 6:4.39527285097 7:-3.21667550407 8:-2.53765262771e-16 9:2.12886645009 10:4.5320723623 11:2.08041168543 12:-1.70523007215 13:-0.0203780873419 14:1.13418003492 15:1.2863643516 16:2.93021961777 17:-0.661634818013 18:0.363770537159 19:1.09658086084 20:1.20248958435 21:1.97930624948 22:-1.85458109794 23:-0.0495211306074 24:1.22395288853 25:1.49806067333 26:4.01728185113 27:-2.69917107105 28:-0.155069639032 29:1.8568004951 30:3.4477080786 
3 1:2.36471803775 2:-0.371599802869 3:1.52794114243 4:0.952983158908 5:0.908176901163 6:2.95839943759 7:-2.12101663169 8:-8.72318090777e-17 9:1.40481517215 10:1.9735056679 11:1.56102456628 12:-1.20672506163 13:-0.0884926054887 14:0.968664428258 15:0.938310774573 16:3.04114976701 17:-1.58571996979 18:0.395319763166 19:1.49603592514 20:2.23812348932 21:2.19700064624 22:-1.73621278303 23:0.406339774969 24:1.46677699466 25:2.15143475208 26:3.93675428102 27:-3.24730815006 28:-0.148857243768 29:1.82293637642 30:3.32309703249 
3 1:-0.976006044475 2:-1.26442290025 3:-1.10081246809 4:0.112809831633 5:0.012726058113 6:1.71730198771 7:-1.11639224236 8:1.58603289232e-17 9:0.889268243505 10:0.790798008906 11:0.940236441524 12:-0.800535567338 13:0.0299954889028 14:0.503600882938 15:0.253613849296 16:2.02566702363 17:-3.46408306192 18:-0.396301074645 19:1.58524056719 20:2.51298765587 21:1.80123074572 22:-2.6359109311 23:0.0633227934547 24:1.23255916322 25:1.51920209085 26:1.55919974927 27:-1.16084285864 28:-0.0171666794518 29:0.896778195068 30:0.80421113115 
3 1:0.489650770307 2:-0.854911457951 3:-0.342043841175 4:0.447904490785 5:0.200618432865 6:1.62181311273 7:-1.02882327141 8:-3.9650822308e-17 9:0.806645864712 10:0.650677551058 11:0.972927004749 12:-0.883249600997 13:0.00836996871733 14:0.590213837053 15:0.348352373448 16:1.45661285021 17:-1.41176068732 18:-0.0552792540734 19:0.921322654954 20:0.848835434532 21:2.51039047079 22:-3.07147248979 23:0.0690158111559 24:1.55477986818 25:2.4173404385 26:2.48132722555 27:-2.12976518829 28:0.0579701783992 29:1.46760222299 30:2.15385628493 
3 1:-0.710969682704 2:-1.88963501686 3:-1.44552047839 4:0.402433108277 5:0.161952406637 6:1.30364131975 7:-0.926075167405 8:6.34413156929e-17 9:0.813056762656 10:0.661061299301 11:0.521639799983 12:-0.507998096567 13:0.0396160762861 14:0.337461068456 15:0.113879972724 16:2.83956384733 17:-5.61841165016 18:-0.656923668748 19:2.3144579376 20:5.35671554491 21:2.9114851468 22:-3.38250416186 23:0.178869320981 24:1.6078278112 25:2.58511027046 26:3.21683371742 27:-1.4306808044 28:0.0092435662877 29:1.30016280218 30:1.69042331217 
3 1:0.876652554626 2:-4.51757286359 3:-2.68611179032 4:1.8261411563 5:3.33479152275 6:0.981315313608 7:-0.983671102293 8:0.0 9:0.751606639969 10:0.564912541245 11:0.414514878001 12:-0.247254301447 13:0.0608612282811 14:0.221492981554 15:0.0490591408779 16:2.23441849996 17:-4.37380894296 18:-0.508402070699 19:1.78933900931 20:3.20173409022 21:1.64970784475 22:-2.97940386954 23:0.0398226233869 24:1.25748336758 25:1.58126441974 26:2.48460945902 27:-1.82752814187 28:0.0782187333079 29:1.0805948671 30:1.16768526681 
3 1:1.141374347 2:-3.30136659839 3:-1.81596281678 4:1.50972650024 5:2.27927410552 6:0.962255334476 7:-1.12125273266 8:3.17206578464e-17 9:0.783256081918 10:0.613490089861 11:0.613947251564 12:-0.51129465722 13:0.0808252672449 14:0.384637043158 15:0.147945654969 16:2.04600950883 17:-4.68770357479 18:-0.554611381012 19:1.82075245393 20:3.31513949848 21:1.46655367027 22:-3.27115559176 23:-0.149623938758 24:1.30281477739 25:1.69732634419 26:1.76412832171 27:-1.55664370739 28:-0.0669727079798 29:1.10466792958 30:1.22029123463 
3 1:-0.28232393689 2:-2.66763560825 3:-1.87667080836 4:0.816378735913 5:0.666474240451 6:0.731026681557 7:-0.841771579294 8:0.0 9:0.602581080703 10:0.363103958821 11:0.67782930846 12:-0.641938409459 13:0.0668498664003 14:0.473989572097 15:0.224666114456 16:2.20529243982 17:-5.4650367762 18:-0.653496844944 19:2.18342162441 20:4.76732998993 21:1.31499001268 22:-3.23410661267 23:-0.0241364746986 24:1.2567813633 25:1.57949939513 26:1.47687455652 27:-1.11155718668 28:-0.0208934391544 29:0.846009090188 30:0.71573138068 
3 1:-0.275754320795 2:-5.80698187115 3:-3.93758198041 4:1.87701801521 5:3.52319662943 6:1.06810959491 7:-1.0257037957 8:4.75809867696e-17 9:0.777240079927 10:0.604102141845 11:0.67417185509 12:-0.349130390345 13:0.0945828195677 14:0.329027089614 15:0.1082588257 16:2.14427220049 17:-4.6711968517 18:-0.552064427889 19:2.03808470629 20:4.15378927 21:1.07747271632 22:-3.01298520954 23:-0.175733682902 24:1.06291289364 25:1.12978381946 26:1.21479077479 27:-1.24052007489 28:-0.051701816669 29:0.711483879823 30:0.506209311247 
3 1:-4.09010031896 2:-5.1574856236 3:-4.71010909968 4:0.361420890693 5:0.13062506023 6:3.1434235181 7:-2.01571000615 8:2.22044604925e-16 9:1.5449530313 10:2.38687986892 11:1.52268100606 12:-1.13557042418 13:0.110088882113 14:0.855387970498 15:0.731688580072 16:2.31499135255 17:-3.91167648068 18:-0.451598314955 19:1.78957458497 20:3.20257719516 21:1.5535216467 22:-3.51923450782 23:-0.320154387694 24:1.3188127683 25:1.73926711783 26:1.40025644008 27:-2.28171191168 28:-0.337804842356 29:1.0000345459 30:1.00006909298 
3 1:-2.7959227522 2:-9.26541956509 3:-6.99304672834 4:2.18260536596 5:4.76376618353 6:1.89566929351 7:-2.0806640697 8:1.11022302463e-16 9:1.28133394427 10:1.64181667674 11:1.12236978529 12:-1.37242187453 13:0.089574512785 14:0.778971551958 15:0.606796678759 16:2.48568358195 17:-3.24505159133 18:-0.356375766005 19:1.5988207961 20:2.55622793805 21:1.03796064368 22:-2.84450668888 23:-0.0570637443373 24:1.07841323429 25:1.1629751039 26:1.73596349973 27:-2.47961849084 28:0.100272451876 29:1.14229891736 30:1.3048468166 
3 1:-1.31609095085 2:-4.37714473048 3:-2.25117882767 4:1.06233481921 5:1.12855526811 6:3.79256682629 7:-2.6556594192 8:1.28865172501e-16 9:1.78412374463 10:3.18309753615 11:1.75753505347 12:-1.40590151001 13:-0.0149913922639 14:0.948264820404 15:0.899206169616 16:1.01868820766 17:-0.776441900146 18:-0.0286129268885 19:0.614939944793 20:0.378151135702 21:1.37229073287 22:-0.341506486583 23:0.160053640003 24:0.525050414774 25:0.275677938054 26:1.73633721383 27:-2.39899123586 28:0.032880728883 29:0.988158100864 30:0.976456432303 
3 1:-2.99277756807 2:-3.88633561581 3:-3.31340959354 4:0.28565517932 5:0.0815988814722 6:4.56674559537 7:-3.08897614082 8:-1.42742960309e-16 9:2.15246960509 10:4.63312540082 11:2.23850163162 12:-1.89311757473 13:-0.0175415144439 14:1.32432522528 15:1.75383730231 16:1.67357697095 17:-1.30807635843 18:0.228149568296 19:1.00360312674 20:1.007219236 21:1.02610985747 22:-0.690958291551 23:0.17642635298 24:0.601928979573 25:0.36231849645 26:1.99496317313 27:-2.36322286001 28:0.116262300905 29:1.30164513615 30:1.69428006047 
3 1:-1.31302515819 2:-4.85648195211 3:-3.57295124141 4:1.19761591971 5:1.43428389114 6:2.1684169522 7:-1.45937317318 8:1.82393782617e-16 9:1.14651534472 10:1.31449743569 11:1.24057914871 12:-1.53126026295 13:0.00679304387569 14:0.888579932643 15:0.789574296696 16:0.756046962018 17:-0.868611700001 18:0.114477440639 19:0.55145272801 20:0.30410011123 21:1.7997482929 22:-1.95604971044 23:0.055769622911 24:0.935481955442 25:0.875126488958 26:1.9133650019 27:-2.30184696992 28:0.285317441356 29:1.251924634 30:1.56731528922 
3 1:1.67830240207 2:-5.54540632079 3:-3.05084246528 4:2.44169008122 5:5.96185045275 6:1.41648394741 7:-1.80771180959 8:1.11022302463e-16 9:0.995955747179 10:0.991927850339 11:0.543050146256 12:-0.841661828754 13:0.0875204553265 14:0.453262385243 15:0.205446789876 16:2.3480156753 17:-3.92732303523 18:-0.451026215707 19:1.79279181128 20:3.21410247858 21:2.81374955512 22:-2.9060330553 23:-0.0603030169493 24:1.70393176933 25:2.90338347453 26:2.01336127619 27:-2.69898419732 28:-0.0960543715634 29:1.30802376492 30:1.71092616959 
3 1:-0.505673331003 2:-2.5674418872 3:-1.10263523174 4:0.721697739655 5:0.520847627423 6:3.89141004209 7:-2.67096976531 8:-1.18952466924e-17 9:1.82523808761 10:3.33149407645 11:1.92163787829 12:-1.46914977115 13:0.038251612731 14:1.05108340993 15:1.10477633463 16:0.739734249521 17:-0.656180095007 18:-0.0172535952699 19:0.467572318396 20:0.21862387293 21:2.26979100376 22:-2.04274365255 23:-0.156186311558 24:1.1493797772 25:1.32107387224 26:2.1123572682 27:-2.883489705 28:-0.00348800306549 29:1.31027326846 30:1.71681603803 
3 1:-1.60417788875 2:-4.84148710174 3:-3.63802911986 4:1.09764340427 5:1.20482104294 6:3.18946114588 7:-2.00439121607 8:1.64550912578e-16 9:1.60454987866 10:2.57458031312 11:1.8022080531 12:-2.02726772159 13:0.0397421649995 14:1.20057741864 15:1.44138613815 16:1.69640064931 17:-1.09057661401 18:0.231898728733 19:0.746694246845 20:0.557552298271 21:1.17111669492 22:-0.970204679475 23:-0.100699506216 24:0.62360425664 25:0.388882268899 26:2.6827737429 27:-1.51795006382 28:0.201829760732 29:1.17281936973 30:1.37550527401 
3 1:-2.62375052938 2:-3.91074735733 3:-2.96077097126 4:0.460078479635 5:0.211672207424 6:4.06361006929 7:-2.75224859339 8:1.74463618155e-16 9:1.91446845357 10:3.6651894597 11:1.93287103188 12:-1.45957333893 13:0.0253127392583 14:1.05259116287 15:1.10794815616 16:1.56343945673 17:-1.40301664067 18:-0.150046402412 19:1.04026912861 20:1.08215985995 21:0.986110545917 22:-1.05023319234 23:-0.0184140999367 24:0.778293111415 25:0.605740167276 26:1.61237244666 27:-2.48082489233 28:-0.175479371311 29:1.21742194613 30:1.48211619491 
3 1:-5.4048382599 2:-7.3182906294 3:-6.5685028237 4:0.635967522635 5:0.404454689846 6:3.24723532895 7:-2.071132343 8:6.34413156929e-17 9:1.59977934616 10:2.5592939564 11:1.59872539264 12:-1.27091335818 13:0.0541125785997 14:0.906760122146 15:0.822213919114 16:1.9193421205 17:-2.42870621583 18:-0.270448526915 19:1.43961106026 20:2.07248000482 21:1.18017833433 22:-1.60295855266 23:-0.0614188437601 24:1.02964564696 25:1.06017015831 26:2.13353255762 27:-1.80432433397 28:0.0490192202934 29:1.21036078207 30:1.46497322277 
3 1:-3.84435103609 2:-4.83826395839 3:-4.1127623219 4:0.353083858618 5:0.124668211217 6:2.65587787531 7:-1.8183940098 8:1.60585830348e-16 9:1.24656498842 10:1.55392427035 11:1.12013881583 12:-0.811092580597 13:-0.0312344211099 14:0.636340453606 15:0.404929172895 16:2.60148599133 17:-2.69011384323 18:0.0231048630076 19:1.35743395624 20:1.84262694554 21:2.17665626433 22:-3.25787892341 23:0.194578699159 24:1.66058365372 25:2.75753807101 26:1.38724639805 27:-2.06975176017 28:-0.197053676514 29:1.14442615265 30:1.30971121887 
3 1:4.50991234798 2:-3.15630525306 3:-0.675443294193 4:2.63172601578 5:6.92598182214 6:3.88014973302 7:-5.3935532947 8:-4.36159045388e-17 9:2.58313384049 10:6.6725804379 11:2.33152414594 12:-2.57331825985 13:-0.0599582860129 14:1.40149311757 15:1.9641829586 16:2.51730031307 17:-1.56048730135 18:0.290265836682 19:1.26911329957 20:1.61064856714 21:2.91783568353 22:-1.44678548183 23:0.311043230352 24:1.27293763055 25:1.62037021127 26:1.40153551738 27:-1.21717587979 28:0.158718155909 29:0.935026624524 30:0.874274788569 
3 1:2.10312736342 2:1.76158510531 3:1.91063767484 4:0.121324459545 5:0.0147196244838 6:2.0897093128 7:-3.10833849039 8:1.78428700386e-17 9:1.47015244461 10:2.16134821039 11:1.68530575055 12:-1.86082321888 13:0.003730655411 14:1.14053173458 15:1.30081263758 16:2.28517869698 17:-3.10542163234 18:-0.276684088341 19:1.73637595986 20:3.01500147398 21:1.82495257549 22:-2.07281619276 23:-0.0550495115204 24:1.25782536486 25:1.58212464848 26:1.24559800962 27:-1.03762990505 28:-0.0670541680098 29:0.66376242584 30:0.440580557957 
3 1:5.21065288549 2:1.91669497579 3:2.89827675881 4:1.14899231811 5:1.32018334708 6:3.54592752873 7:-5.1324158385 8:2.37904933848e-17 9:2.41159128461 10:5.81577252399 11:2.14619575163 12:-2.70923002836 13:-0.044877256993 14:1.47632525978 15:2.17953627266 16:2.09810562644 17:-2.37137156004 18:0.107370348281 19:1.44556978475 20:2.08967200259 21:2.1684786679 22:-1.6061642428 23:0.194125816171 24:1.2169424903 25:1.48094902469 26:2.33015705374 27:-2.56536897505 28:0.200946030564 29:1.24164885945 30:1.54169189017 
3 1:3.18108866813 2:2.78369585508 3:2.97605752048 4:0.138401439192 5:0.0191549583705 6:1.71043429308 7:-2.52412002921 8:-4.75809867696e-17 9:1.19677086674 10:1.43226050749 11:1.50545458852 12:-1.58442051245 13:0.00401345736949 14:0.994988657741 15:0.990002429033 16:2.54592219015 17:-3.28847283921 18:-0.330008452317 19:1.86551823348 20:3.48015827943 21:2.5771569487 22:-2.38580863819 23:0.0426467925481 24:1.2389711071 25:1.53504940423 26:1.7325757665 27:-2.53206687092 28:-0.112052284744 29:1.42370677745 30:2.02694098816 
3 1:3.76046227175 2:1.15895434531 3:1.95373036389 4:0.899941050057 5:0.809893893578 6:2.32913087091 7:-3.32191032972 8:-2.37904933848e-17 9:1.56182062917 10:2.43928367771 11:1.36798699556 12:-1.79886324067 13:-0.00798487536737 14:1.01113063638 15:1.02238516382 16:1.56806986915 17:-2.12888902012 18:-0.200237385092 19:1.20661113693 20:1.45591043577 21:1.56200830593 22:-1.7165929935 23:0.0452343059782 24:0.980122399726 25:0.960639918445 26:2.06610462403 27:-2.02471866198 28:-0.0677250329497 29:1.14459276532 30:1.31009259841 
3 1:1.1673570391 2:-0.102946968883 3:0.735616404997 4:0.445492452234 5:0.198463524998 6:0.436124117829 7:-0.313775172614 8:0.0 9:0.267224867484 10:0.0714091298017 11:0.574215984095 12:-0.692287741175 13:0.0438255251614 14:0.389481864951 15:0.151696123125 16:2.86497275495 17:-3.4247481786 18:-0.395080765833 19:2.06178352239 20:4.25095129319 21:0.908486869486 22:-1.39498257678 23:-0.0633307447576 24:0.648441892015 25:0.42047688732 26:1.67840675146 27:-1.89434775056 28:-0.285237385136 29:0.980013196191 30:0.960425864708 
3 1:-2.0586161171 2:-2.84507227652 3:-2.5089729997 4:0.259848104726 5:0.0675210375296 6:0.75686429866 7:-0.688721635012 8:3.17206578464e-17 9:0.529757009023 10:0.280642488609 11:0.494272715583 12:-0.475476165415 13:0.0536199158252 14:0.301941022723 15:0.0911683812031 16:2.22080280267 17:-4.84055373565 18:-0.572723583343 19:2.06211469183 20:4.25231700228 21:1.54157343675 22:-2.94392351573 23:0.0238376246246 24:1.32345865879 25:1.75154282153 26:1.25849149739 27:-2.46498339246 28:-0.340980095404 29:0.95843738065 30:0.918602212627 
3 1:1.25754244584 2:-0.0808402023898 3:0.400262499785 4:0.451091296872 5:0.203483358113 6:0.542231090909 7:-0.431677985963 8:-4.95635278851e-17 9:0.305599298357 10:0.0933909311565 11:0.399584249719 12:-0.445760516505 13:-0.0224140687622 14:0.276213750045 15:0.076294035714 16:0.359771273406 17:-0.332690218411 18:0.0528698164631 19:0.216999981651 20:0.0470889920363 21:1.16453785454 22:-0.796365283836 23:0.188330924737 24:0.616009150665 25:0.379467273703 26:1.67524894589 27:-1.19241460673 28:-0.151331343991 29:0.743543953885 30:0.552857611359 
3 1:1.18338702162 2:0.631035007962 3:1.02230250624 4:0.191261778413 5:0.0365810678816 6:1.33344739692 7:-0.914402531403 8:0.0 9:0.63145740546 10:0.39873845491 11:0.580953847582 12:-0.499834544831 13:0.000264712065336 14:0.340521178819 15:0.115954673225 16:1.09544674311 17:-1.19005050857 18:0.0876451696898 19:0.643049867857 20:0.413513132551 21:0.446313147728 22:-0.466524409103 23:-0.0364751728062 24:0.308093300736 25:0.0949214819582 26:1.39668348147 27:-1.115914362 28:-0.0581096590866 29:0.818914640431 30:0.670621188312 
3 1:4.18018133036 2:2.75409926714 3:3.70174665499 4:0.487953451625 5:0.238098570953 6:0.336037785796 7:-0.347354523612 8:-1.03092138001e-16 9:0.194635796808 10:0.037883093399 11:0.0930806150881 12:-0.42431695358 13:-0.059062215701 14:0.170520758744 15:0.0290773291625 16:1.42242419192 17:-1.20912896249 18:0.126083914476 19:0.793859678047 20:0.630213188428 21:1.74846118684 22:-2.03735423102 23:0.271281020206 24:1.27343483526 25:1.62163627967 26:2.35868007821 27:-2.12835417831 28:-0.180993517475 29:1.30643673653 30:1.70677694655 
3 1:3.55780354053 2:3.30988937166 3:3.41561104363 4:0.0833486232798 5:0.00694699300263 6:1.73281995185 7:-2.62166567969 8:2.37904933848e-17 9:1.24740737989 10:1.5560251714 11:0.921848172799 12:-1.22018511341 13:-0.0303239746458 14:0.682170657702 15:0.46535680623 16:1.56113770009 17:-1.62204917094 18:0.0905536275655 19:0.958482055389 20:0.918687850504 21:1.14122703611 22:-1.0406687222 23:0.027550039399 24:0.622487211204 25:0.387490328113 26:1.11449733119 27:-1.24213885199 28:0.052733927054 29:0.625381111935 30:0.391101535165 
3 1:4.56600192205 2:2.12141564135 3:2.89616663691 4:0.843947241199 5:0.712246945928 6:1.45781985273 7:-2.03516281325 8:-1.64550912578e-16 9:0.972391933303 10:0.945546071953 11:0.804917294111 12:-0.919973323408 13:0.0205324406283 14:0.492460922576 15:0.242517760265 16:0.837315034538 17:-0.893458633851 18:0.0834665552531 19:0.526767694138 20:0.277484203588 21:3.63340671322 22:-3.41354816585 23:-0.226024113794 24:1.89672081822 25:3.59754986227 26:1.30381358408 27:-1.01445624898 28:-0.116468193728 29:0.675216417002 30:0.455917209789 
3 1:5.47062180545 2:2.14160817895 3:3.14393804814 4:1.15889442234 5:1.34303628212 6:3.19046598343 7:-4.57549622889 8:-1.07057220232e-16 9:2.14991761805 10:4.62214576439 11:1.58646007334 12:-2.01628270505 13:0.0282499189476 14:1.08846076297 15:1.18474683253 16:1.95373511086 17:-2.05540658157 18:0.0680886141957 19:1.21888534941 20:1.485681495 21:3.10515959287 22:-2.86132251938 23:-0.32670248473 24:1.67434139033 25:2.80341909136 26:2.44101593169 27:-2.25483998272 28:-0.0122566690766 29:1.25731647158 30:1.58084470972 
3 1:5.37153819496 2:3.29386787113 3:3.84547432001 4:0.745096563731 5:0.555168889284 6:3.56682161975 7:-5.21516268931 8:-7.93016446161e-17 9:2.45143036056 10:6.00951081269 11:1.69874230475 12:-2.26870354331 13:0.0342339224386 14:1.24217002088 15:1.54298636077 16:3.30284756438 17:-3.3528989118 18:0.134122966985 19:1.94220601215 20:3.77216419363 21:3.009966398 22:-3.40076940648 23:-0.446270515885 24:1.78040926485 25:3.16985715037 26:2.60135445088 27:-2.03191300839 28:-0.0193967780551 29:1.21320751807 30:1.4718724819 
3 1:8.63522357873 2:2.60740880619 3:4.48882731771 4:2.08369548414 5:4.34178687061 6:4.31136495681 7:-6.09162066955 8:-1.01109596886e-16 9:2.87826430458 10:8.28440540704 11:2.23949376602 12:-2.70394979765 13:0.0419870226161 14:1.4459230918 15:2.0906935874 16:1.59722805228 17:-1.84737327112 18:0.101595967135 19:1.22091325434 20:1.49062917462 21:3.4224563117 22:-3.64511594724 23:-0.471949327566 24:2.05009139199 25:4.20287471552 26:4.44900715033 27:-3.26938853548 28:-0.0612273273478 29:2.0772289306 30:4.31488003013 
3 1:5.95767351456 2:2.69158373057 3:4.72566630386 4:1.09633725585 5:1.20195537857 6:2.07416989177 7:-3.27211665424 8:-9.51619735393e-17 9:1.62732151832 10:2.64817532399 11:1.94601264715 12:-1.84386146985 13:0.0391338819153 14:1.23646638484 15:1.52884912085 16:2.14878156328 17:-1.4550478599 18:-0.125517297232 19:1.01553166145 20:1.03130455542 21:4.15539264507 22:-4.10024963306 23:-0.573053353433 24:2.30175499001 25:5.29807603403 26:1.95573143816 27:-3.52683900008 28:-0.191852775063 29:1.54507426878 30:2.38725449604 
3 1:2.01218828536 2:-2.26480958168 3:0.524728615736 4:1.4415108774 5:2.07795360966 6:1.0238114194 7:-0.773728038968 8:0.0 9:0.574909458867 10:0.330520885895 11:0.546213414607 12:-0.501701094255 13:0.00273385374674 14:0.304553196985 15:0.0927526497937 16:2.00666494329 17:-1.65014245621 18:0.214279422931 19:1.01007339613 20:1.02024826558 21:2.26471567465 22:-3.04498027383 23:-0.349385241046 24:1.52612720856 25:2.3290642567 26:1.3187920261 27:-1.54946504696 28:-0.035526977786 29:0.970485416374 30:0.941841943395 
3 1:-1.25137920309 2:-1.61629607072 3:-1.42910362887 4:0.133160852698 5:0.0177318126911 6:0.480204904051 7:-0.491558165919 8:5.55111512313e-17 9:0.278099378635 10:0.077339264397 11:0.481029875102 12:-0.487988009625 13:-0.00537710967735 14:0.271150197939 15:0.0735224298423 16:3.5161474813 17:-1.57455211818 18:0.415358749034 19:1.45794826087 20:2.12561313138 21:2.76611922997 22:-2.33020075448 23:-0.189739217 24:1.67190964123 25:2.79528184845 26:2.31499399096 27:-2.69526646761 28:0.0806305312332 29:1.38990854562 30:1.93184576519 
3 1:-0.771324150046 2:-3.92893110005 3:-1.7925823319 4:1.07858228152 5:1.16333973801 6:2.18621742609 7:-1.61267378421 8:6.34413156929e-17 9:1.12470157933 10:1.26495364254 11:1.31745631771 12:-1.20943424985 13:-0.014699789273 14:0.82375841649 15:0.678577928738 16:5.34906137213 17:-2.11374976216 18:0.637845606123 19:2.32218927785 20:5.39256304215 21:2.86754268805 22:-3.13747283224 23:-0.29519782712 24:1.99386715925 25:3.97550624872 26:2.32536604739 27:-1.77734493019 28:0.446023243949 29:1.40310987436 30:1.96871731951 
3 1:-4.092463902 2:-6.9142086632 3:-4.94998060551 4:0.977793795368 5:0.956080706261 6:3.88705257016 7:-2.72954230362 8:7.93016446161e-17 9:1.8614680319 10:3.46506323379 11:2.18675750634 12:-1.92140274525 13:0.00680566786127 14:1.31633039678 15:1.73272571348 16:4.90331334543 17:-1.53978494389 18:0.596663969982 19:2.07326751943 20:4.29843820713 21:2.26063725401 22:-3.34987146536 23:-0.377726483489 24:1.73199822742 25:2.99981785978 26:2.49124163581 27:-1.32625966433 28:0.41833573226 29:1.18013163014 30:1.39271066446 
3 1:-3.89845407409 2:-6.52456534774 3:-4.7121295175 4:0.909069125388 5:0.826406674734 6:2.85954388592 7:-2.04453391215 8:1.58603289232e-17 9:1.38690021452 10:1.92349220504 11:1.61949511347 12:-1.46114110793 13:-0.0354352289761 14:1.01225822797 15:1.0246667201 16:4.77231427428 17:-1.50251478211 18:0.581891948618 19:2.00389632556 20:4.01560048359 21:2.29006021373 22:-1.65483831522 23:-0.103123008292 24:1.22649645049 25:1.50429354307 26:1.3219709115 27:-1.32051390836 28:0.176746879926 29:0.839412370776 30:0.704613128211 
3 1:-1.85355225653 2:-3.94486799859 3:-2.508082939 4:0.727876848505 5:0.52980470659 6:1.93172483993 7:-1.41186406716 8:7.93016446161e-17 9:0.977107777545 10:0.954739608939 11:1.13214243896 12:-1.16204063212 13:-0.0639450578267 14:0.793914255802 15:0.630299845566 16:5.2521946815 17:-1.7865299758 18:0.636233547841 19:2.11504481432 20:4.47341456657 21:3.1137693165 22:-2.73586542261 23:0.0752141956437 24:1.78947823538 25:3.20223235488 26:2.20402175851 27:-2.02208134184 28:0.222691671585 29:0.991937387187 30:0.983939780099 
3 1:-2.88056033087 2:-3.46643955012 3:-3.08448885981 4:0.195970904834 5:0.0384045955416 6:1.00600295102 7:-0.704136029453 8:-3.9650822308e-17 9:0.515523776151 10:0.265764763777 11:0.546651574892 12:-0.63382725952 13:-0.000239538116185 14:0.377081305851 15:0.142190311222 16:2.60453215636 17:-1.05485508716 18:0.307992876528 19:1.00547452312 20:1.01097901665 21:4.00669528903 22:-3.39997513271 23:-0.212869649982 24:2.05025122172 25:4.20353007214 26:1.45939341588 27:-1.84744543799 28:-0.103219852637 29:1.076186414 30:1.15817719767 
3 1:-1.26798104643 2:-2.44178668134 3:-2.03867024879 4:0.422747467404 5:0.178715421196 6:0.652696564602 7:-0.693549487561 8:-4.75809867696e-17 9:0.508075182129 10:0.258140390696 11:0.695172268476 12:-0.555937928381 13:-0.0198353290376 14:0.380800191506 15:0.145008785851 16:4.86448679046 17:-2.17951891045 18:0.575315253183 19:1.96390152408 20:3.85690919627 21:2.8973571143 22:-2.70556829638 23:-0.20660533862 24:1.93077436116 25:3.72788963369 26:2.65446338698 27:-2.47027906742 28:0.159166291887 29:1.25740877949 30:1.58107683874 
3 1:-0.729903928017 2:-5.06116643943 3:-2.1504970335 4:1.47527583238 5:2.17643878159 6:2.41549483595 7:-1.78891571123 8:7.13714801545e-17 9:1.18955238459 10:1.41503487568 11:1.13255776711 12:-0.960346539544 13:0.00748587512027 14:0.611907824244 15:0.374431185371 16:1.89668159727 17:-0.889583316933 18:0.217425675905 19:0.769763899727 20:0.592536461323 21:3.76777555482 22:-3.45142898519 23:-0.304058841706 24:2.01364850107 25:4.05478028585 26:1.25749411989 27:-1.04518740063 28:-0.136280185828 29:0.63428371718 30:0.402315833879 
3 1:-2.91489872645 2:-6.00067297506 3:-3.89396136357 4:1.05782443901 5:1.11899254377 6:2.72936586524 7:-1.96218169613 8:7.93016446161e-17 9:1.31374050449 10:1.72591411315 11:1.41138848196 12:-1.07479294659 13:-0.0145721288461 14:0.817088312644 15:0.667633310659 16:3.25963580219 17:-1.10051867155 18:0.391098419951 19:1.24532943249 20:1.55084539543 21:3.36988652468 22:-3.14229820397 23:-0.191049950532 24:1.89440905927 25:3.58878568384 26:1.03351942318 27:-1.87492025091 28:-0.195725772798 29:0.74472830285 30:0.554620245066 
3 1:-3.27743774149 2:-6.57809400989 3:-5.41939886508 4:1.12549266797 5:1.26673374565 6:0.999823461757 7:-1.01690158244 8:7.33540212699e-17 9:0.660869757645 10:0.43674883657 11:0.960367301025 12:-1.30599552481 13:0.0405173484133 14:0.704889558781 15:0.496869290079 16:1.98135953147 17:-1.169507849 18:0.247753476886 19:1.08226062797 20:1.17128806685 21:1.58710946374 22:-2.58072761404 23:-0.376373567547 24:1.40635732839 25:1.97784093511 26:1.7049419401 27:-1.90357297263 28:-0.276606785501 29:1.08523970223 30:1.17774521129 
3 1:1.99900036918 2:-5.10364946912 3:-2.73582832525 4:2.42926451223 5:5.90132607037 6:1.77559470734 7:-2.24413671902 8:2.18079522694e-17 9:1.25763460135 10:1.58164479051 11:0.937551389459 12:-0.682527543156 13:0.0478327725671 14:0.590439036896 15:0.348618256291 16:2.87434896186 17:-2.42404858444 18:0.293089703276 19:1.69076015926 20:2.85866991613 21:2.29587130865 22:-3.12221659574 23:-0.428354623457 24:1.81999109734 25:3.3123675944 26:2.32077097161 27:-2.05521949838 28:-0.0455770795082 29:1.40952925439 30:1.98677271898 
3 1:6.53331006868 2:-1.34811673425 3:1.242951318 4:2.71026564656 5:7.34553987491 6:2.74814558526 7:-3.67479766068 8:0.0 9:1.89119853438 10:3.57663189644 11:1.40766207541 12:-1.17362121207 13:0.0403790797235 14:0.854936400782 15:0.730916249382 16:5.16545343006 17:-3.01119056967 18:0.609565108742 19:2.608242882 20:6.8029309315 21:3.20629328599 22:-4.38666942958 23:-0.486554468845 24:2.43954804468 25:5.95139466229 26:3.37674868493 27:-3.04325182758 28:0.536482567275 29:2.15944713848 30:4.66321194391 
3 1:-0.931207708929 2:-5.29911962293 3:-2.35769306829 4:1.48057210158 5:2.19209374798 6:3.28790961258 7:-2.35392152466 8:6.34413156929e-17 9:1.59769472456 10:2.55262843288 11:1.74432761167 12:-1.34002578487 13:0.111432521613 14:0.996077980331 15:0.992171342899 16:2.68193158538 17:-1.28672275939 18:0.307712979611 19:1.14780978843 20:1.31746731041 21:1.39653579022 22:-6.90269365475 23:-0.999076760504 24:2.32130252494 25:5.38844541229 26:2.93924047343 27:-2.024398525 28:0.480715064737 29:1.5728986612 30:2.47401019839 
3 1:-1.77838209608 2:-2.29864938018 3:-2.04651754108 4:0.185335651495 5:0.0343493037152 6:0.334640524966 7:-0.342026666442 8:9.51619735393e-17 9:0.210871810846 10:0.0444669206093 11:0.796395231325 12:-0.829171807864 13:-0.041951042227 14:0.522468612376 15:0.272973450918 16:4.46634399334 17:-3.74188161785 18:0.464266942435 19:2.58931684144 20:6.70456170535 21:1.28797905854 22:-1.0415359619 23:0.0519321028008 24:0.648124269716 25:0.420065068994 26:3.84893590941 27:-4.62944458176 28:0.340332253907 29:2.22714857363 30:4.960190769 
3 1:2.38277042332 2:-7.48150394241 3:-0.842558176561 4:3.36552137944 5:11.3267341555 6:5.38880372025 7:-4.02233379552 8:2.22044604925e-16 9:2.67379331677 10:7.14917070082 11:2.57480462957 12:-2.16581230435 13:-0.0565488128055 14:1.4138928234 15:1.99909291606 16:4.82454833288 17:-1.51730296625 18:0.584778122268 19:1.89919050719 20:3.60692458259 21:2.06129718303 22:-1.50392919532 23:-0.0675155729542 24:1.02372952876 25:1.04802214805 26:1.75627165501 27:-1.12873821947 28:0.343824766004 29:0.727134799907 30:0.528725017236 
3 1:-2.64283057886 2:-2.96589315314 3:-2.76863841188 4:0.120844979599 5:0.0146035090943 6:1.74536865096 7:-1.17987728062 8:9.91270557701e-18 9:0.825967533001 10:0.682222365572 11:1.07597412373 12:-1.06838909941 13:-0.0452694372865 14:0.726047128504 15:0.527144432809 16:2.43110009637 17:-1.8380188875 18:0.258723338941 19:1.41100784487 20:1.99094313829 21:2.83063382771 22:-2.56792157902 23:0.319065611268 24:1.7851199369 25:3.18665318912 26:2.2082293379 27:-2.42219675518 28:0.145177994279 29:1.22431101472 30:1.49893746077 
3 1:0.586329416969 2:-0.137517389299 3:0.0677141993974 4:0.249805728105 5:0.0624029017942 6:1.46270702108 7:-2.16608511456 8:-1.11022302463e-16 9:1.01949066287 10:1.03936121168 11:0.704827783802 12:-0.976954416495 13:-0.0417698116073 14:0.543821398179 15:0.295741713117 16:1.63249561628 17:-1.5277850344 18:0.0364401266373 19:0.838773475875 20:0.703540943831 21:1.22359997143 22:-1.13422045044 23:0.203999079494 24:0.719456208235 25:0.517617235568 26:1.65230173471 27:-2.31179575155 28:0.103305782901 29:1.38136915791 30:1.90818075042 
3 1:-2.40504023381 2:-6.64973714791 3:-5.11796592837 4:1.43030543009 5:2.04577362334 6:2.94198139465 7:-2.00827302055 8:1.74463618155e-16 9:1.56215462636 10:2.44032707665 11:1.82618994462 12:-1.77981669604 13:0.131273345924 14:1.13228152256 15:1.28206144633 16:2.03793194629 17:-2.20021743292 18:-0.23136214952 19:1.45628420784 20:2.12076369401 21:2.33776181462 22:-3.47089014755 23:-0.427801482957 24:1.80812152922 25:3.26930346443 26:3.15538289237 27:-2.94910859847 28:0.192414468084 29:1.87270606011 30:3.50702798758 
3 1:1.75889075644 2:-5.53134608268 3:-3.06051781725 4:2.47069539322 5:6.10433572607 6:1.37228812417 7:-1.22147316575 8:1.74463618155e-16 9:0.978744726381 10:0.957941239419 11:0.529219470718 12:-0.394228927608 13:0.0610776196084 14:0.318332591072 15:0.101335638538 16:2.14819615727 17:-4.09005160723 18:-0.474538830144 19:1.72640196931 20:2.98046375965 21:1.45139751511 22:-2.31473677929 23:0.0291222276217 24:0.993151609036 25:0.98635011853 26:3.42861422727 27:-2.6423966547 28:0.0200376547977 29:1.63916731445 30:2.68686948475 
3 1:4.89886545563 2:-1.70645590949 3:2.69568927892 4:2.25626045882 5:5.09071125802 6:1.84925145536 7:-1.5104812346 8:-1.26882631386e-16 9:1.09341202946 10:1.19554986617 11:0.615152748408 12:-0.808008132536 13:-0.0774150802079 14:0.490686294959 15:0.240773040061 16:0.4504094118 17:-0.499007340513 18:-0.0215879825453 19:0.248066994662 20:0.0615372338408 21:2.85761555615 22:-0.245577318934 23:0.463147100279 24:0.913637093608 25:0.834732738817 26:1.91793255594 27:-0.242232518516 28:0.415700769902 29:0.653911906691 30:0.427600781712 
3 1:0.770257583517 2:-0.609825563168 3:-0.133368837763 4:0.470381562001 5:0.221258813871 6:0.286496288353 7:-0.245036388891 8:1.68515994809e-17 9:0.14840806994 10:0.0220249552233 11:0.342215037996 12:-0.301416229772 13:-0.0149682420602 14:0.189115357367 15:0.035764618392 16:0.88675565492 17:-0.1873942373 18:0.112866544223 19:0.321088668067 20:0.103097932761 21:0.522076054777 22:-0.547277126611 23:0.0873531586144 24:0.330607825569 25:0.109301534327 26:0.271204155613 27:-0.339656832862 28:-0.0290055184641 29:0.198138690409 30:0.0392589406369 
3 1:0.36663027982 2:0.310284861259 3:0.327285328885 4:0.0209144322598 5:0.000437413476749 6:0.040112974563 7:-0.045781994186 8:-6.93889390391e-18 9:0.0282008521807 10:0.000795288063718 11:0.0623562920633 12:-0.0733606506098 13:-9.91270557701e-18 14:0.0424209036099 15:0.00179953306308 16:0.198969952985 17:-0.159610118563 18:-3.9650822308e-18 19:0.137296674016 20:0.0188503766958 21:0.194964443944 22:-0.553454848387 23:-0.0770880153543 24:0.22018104903 25:0.0484796943521 26:0.244348420306 27:-0.194240549791 28:-0.0041943587078 29:0.137240857636 30:0.0188350530046 
