3 1:129.249451205 2:128.633367198 3:129.044096516 4:0.192754355942 5:0.0371542417345 6:0.184059085777 7:-0.160744207967 8:-3.05311331772e-15 9:0.105165038127 10:0.0110596852442 11:0.19046261727 12:-0.161749730687 13:-4.62592926927e-15 14:0.106412147749 15:0.0113235451886 16:0.324170771058 17:-0.321380802799 18:4.62592926927e-17 19:0.195432183512 20:0.0381937383523 21:0.113038187203 22:-0.131700567048 23:-5.7361522939e-16 24:0.084961785851 25:0.00721850505499 26:0.121475352085 27:-0.0908046690489 28:0.00346376382135 29:0.0707804689925 30:0.0050098747908 
3 1:127.85100708 2:127.148883233 3:127.616156371 4:0.219409553711 5:0.0481405522598 6:0.207938232305 7:-0.175386358792 8:-1.09171930755e-15 9:0.115896630547 10:0.0134320289721 11:0.206541661961 12:-0.180942243953 13:-3.70074341542e-16 14:0.117934258291 15:0.0139084892786 16:0.303768477956 17:-0.293434375942 18:-7.95659834315e-16 19:0.184463344357 20:0.0340267254114 21:0.0956515157274 22:-0.101093515062 23:-9.25185853854e-16 24:0.0604742295542 25:0.00365713244018 26:0.0423887452111 27:-0.0427478781065 28:0.000370544809401 29:0.0290383176006 30:0.000843223889075 
3 1:126.764765217 2:126.401724287 3:126.643828643 4:0.113594514901 5:0.0129037138156 6:0.10899318828 7:-0.0953146034728 8:-1.22124532709e-15 9:0.0623391083977 10:0.00388616443582 11:0.111799431389 12:-0.0934157479568 13:-3.1456319031e-15 14:0.0619338868195 15:0.00383580633657 16:0.18987461678 17:-0.188843607051 18:-1.45254179055e-15 19:0.114509182895 20:0.0131123529672 21:0.0688958753866 22:-0.082978578186 23:-1.63757896132e-15 24:0.0549144646754 25:0.00301559843059 26:0.0619659763953 27:-0.0564046141127 28:-0.00371768204234 29:0.0375542935197 30:0.00141032496176 
3 1:126.366394574 2:126.195076146 3:126.309078285 4:0.0535318988774 5:0.00286566419742 6:0.0507123847221 7:-0.0426728498783 8:-2.09092002971e-15 9:0.0282256230268 10:0.00079668579525 11:0.0502215937707 12:-0.0440784812609 13:-1.49880108324e-15 14:0.02872003726 15:0.000824840540213 16:0.0730513073942 17:-0.0704072281988 18:-8.14163551392e-16 19:0.0444162400631 20:0.00197280238134 21:0.0215797512716 22:-0.0206382718501 23:-4.81096644004e-16 24:0.0142152137464 25:0.000202072301855 26:0.0439765724097 27:-0.032336351671 28:0.000483690612711 29:0.0231174539373 30:0.000534416676543 
3 1:127.256099925 2:126.385678702 3:126.676822554 4:0.27200148926 5:0.0739848101596 6:0.217426041758 7:-0.257780520057 8:-3.7932620008e-15 9:0.143676770568 10:0.0206430144008 11:0.224313659058 12:-0.256049195203 13:-2.49800180541e-15 14:0.146202812718 15:0.0213752624468 16:0.363769881056 17:-0.37658104215 18:-1.97064586871e-15 19:0.228678758652 20:0.0522939746584 21:0.125325384362 22:-0.118578951043 23:-1.33226762955e-15 24:0.0749697550648 25:0.00562046417447 26:0.0529944403559 27:-0.0525492241803 28:-0.000459363497578 29:0.0359987315929 30:0.0012959086763 
3 1:127.759275251 2:127.517934848 3:127.598330415 4:0.0755147524568 5:0.00570247783862 6:0.0633627309651 7:-0.0724559072209 8:-1.33226762955e-15 9:0.0414414581825 10:0.0017173944563 11:0.0621004199779 12:-0.0743214264664 13:-1.01770443924e-15 14:0.0411720771548 15:0.00169513993724 16:0.125538440407 17:-0.126223829526 18:-2.4239869371e-15 19:0.0761228005408 20:0.00579468076218 21:0.0551620542277 22:-0.0458002305803 23:-9.34437712393e-16 24:0.036505743344 25:0.0013326692971 26:0.0374963568959 27:-0.0411934094909 28:0.00247142073176 29:0.0249651418584 30:0.000623258308008 
3 1:129.258496967 2:128.757433935 3:128.924006017 4:0.156917766019 5:0.0246231852924 6:0.134973110666 7:-0.15067934945 8:-7.41999054791e-15 9:0.0880856804475 10:0.00775908709989 11:0.133435116259 12:-0.160639576464 13:-9.43689570931e-16 14:0.0887571347888 15:0.00787782897592 16:0.301049456813 17:-0.299409897172 18:-9.89948863624e-16 19:0.180980681977 20:0.0327540072489 21:0.200908986951 22:-0.186068893067 23:-7.40148683083e-16 24:0.121002227304 25:0.0146415390125 26:0.0748136737798 27:-0.0774624365306 28:-0.0038202714822 29:0.0534857585617 30:0.00286072636892 
3 1:130.534433279 2:129.885540004 3:130.102585823 4:0.202775314728 5:0.0411178282632 6:0.162089678875 7:-0.192173676062 8:-3.53420996172e-15 9:0.10711008403 10:0.011472570101 11:0.167224352106 12:-0.190882984812 13:-2.1834386151e-15 14:0.108993231779 15:0.0118795245736 16:0.271188045038 17:-0.280738681066 18:-1.2952601954e-15 19:0.170478505038 20:0.0290629206801 21:0.0934292467534 22:-0.0883998252482 23:-1.05471187339e-15 24:0.0558894575163 25:0.00312363146147 26:0.0395070054626 27:-0.0391750997426 28:-0.000342452455131 29:0.0268368167705 30:0.000720214734374 
3 1:130.54485469 2:130.54485469 3:130.54485469 4:2.84217094304e-14 5:8.07793566946e-28 6:1.88737914186e-15 7:1.88737914186e-15 8:1.88737914186e-15 9:0.0 10:0.0 11:-4.4408920985e-15 12:-4.4408920985e-15 13:-4.4408920985e-15 14:0.0 15:0.0 16:4.49640324973e-15 17:4.49640324973e-15 18:4.49640324973e-15 19:0.0 20:0.0 21:-3.21964677141e-15 22:-3.21964677141e-15 23:-3.21964677141e-15 24:0.0 25:0.0 26:-6.38378239159e-16 27:-6.38378239159e-16 28:-6.38378239159e-16 29:0.0 30:0.0 
3 1:132.807108888 2:132.090395331 3:132.328527605 4:0.224497973899 5:0.0503993402849 6:0.194307234913 7:-0.215818145221 8:-7.67904258699e-15 9:0.126803949035 10:0.016079241491 11:0.19141625423 12:-0.231459145167 13:-3.71924713249e-15 14:0.127659763024 15:0.0162970150954 16:0.442253703057 17:-0.438761923697 18:-1.50805294178e-15 19:0.265465507429 20:0.0704719356348 21:0.314891984032 22:-0.29376409398 23:-2.31296463464e-16 24:0.188991418293 25:0.0357177561884 26:0.110961356411 27:-0.104543045914 28:-0.00575873953797 29:0.0758754534301 30:0.00575708443322 
3 1:133.319796257 2:133.319796257 3:133.319796257 4:2.84217094304e-14 5:8.07793566946e-28 6:-1.08801856413e-14 7:-1.08801856413e-14 8:-1.08801856413e-14 9:0.0 10:0.0 11:-4.55191440096e-15 12:-4.55191440096e-15 13:-4.55191440096e-15 14:0.0 15:0.0 16:1.94289029309e-15 17:1.94289029309e-15 18:1.94289029309e-15 19:0.0 20:0.0 21:2.22044604925e-16 22:2.22044604925e-16 23:2.22044604925e-16 24:0.0 25:0.0 26:8.32667268469e-16 27:8.32667268469e-16 28:8.32667268469e-16 29:0.0 30:0.0 
3 1:134.676459949 2:134.007162397 3:134.230119497 4:0.209421375174 5:0.0438573123799 6:0.175720767423 7:-0.200938429062 8:-3.92278802034e-15 9:0.114927572156 10:0.0132083468417 11:0.172220062009 12:-0.206111982482 13:-1.44328993201e-15 14:0.114180510907 15:0.013037189071 16:0.348149626027 17:-0.350050382198 18:6.47630097698e-16 19:0.211107645231 20:0.0445664378751 21:0.152978231113 22:-0.127015542783 23:-3.05311331772e-16 24:0.101239595233 25:0.010249455643 26:0.103986815419 27:-0.114239670833 28:0.0068538704219 29:0.0692346087262 30:0.00479343104547 
