17:25:01		x: 938.76
17:25:01		x: 938.78
17:25:01		x: 938.71
17:25:02		x: 938.77
17:25:02		x: 938.69
17:25:02		x: 938.7
17:25:02		x: 938.77
17:25:02		x: 938.73
17:25:03		x: 938.79
17:25:03		x: 938.73
17:25:03		x: 938.7
17:25:03		x: 938.78
17:25:03		x: 938.85
17:25:03		x: 938.8
17:25:04		x: 938.82
17:25:04		x: 938.81
17:25:04		x: 938.81
17:25:04		x: 938.77
17:25:04		x: 938.77
17:25:05		x: 938.74
17:25:05		x: 938.74
17:25:05		x: 938.77
17:25:05		x: 938.77
17:25:05		x: 938.83
17:25:05		x: 938.84
17:25:06		x: 938.75
17:25:06		x: 938.8
17:25:06		x: 938.78
17:25:06		x: 938.67
17:25:06		x: 938.96
17:25:06		x: 938.47
17:25:07		x: 938.56
17:25:07		x: 938.7
17:25:07		x: 938.83
17:25:07		x: 938.75
17:25:07		x: 938.74
17:25:08		x: 938.79
17:25:08		x: 938.75
17:25:08		x: 938.75
17:25:08		x: 938.71
17:25:08		x: 938.98
17:25:09		x: 939.25
17:25:09		x: 938.66
17:25:09		x: 938.62
17:25:09		x: 938.77
17:25:09		x: 938.7
17:25:09		x: 938.77
17:25:10		x: 938.77
17:25:10		x: 938.79
17:25:10		x: 938.9
17:25:10		x: 939.24
17:25:10		x: 938.71
17:25:10		x: 938.5
17:25:11		x: 938.75
17:25:11		x: 938.78
17:25:11		x: 938.8
17:25:12		x: 938.8
17:25:12		x: 938.83
17:25:12		x: 938.86
17:25:12		x: 938.73
17:25:12		x: 938.75
17:25:12		x: 938.77
17:25:12		x: 938.78
17:25:12		x: 938.69
17:25:13		x: 938.8
17:25:13		x: 938.82
17:25:13		x: 939.02
17:25:13		x: 938.6
17:25:14		x: 938.7
17:25:14		x: 938.67
17:25:14		x: 938.84
17:25:14		x: 938.78
17:25:14		x: 938.84
17:25:14		x: 938.81
17:25:15		x: 938.82
17:25:15		x: 938.71
17:25:15		x: 938.67
17:25:15		x: 938.62
17:25:15		x: 938.79
17:25:16		x: 938.8
17:25:16		x: 938.8
17:25:16		x: 938.95
17:25:16		x: 938.78
17:25:16		x: 938.78
17:25:16		x: 938.63
17:25:17		x: 938.85
17:25:17		x: 938.87
17:25:17		x: 938.94
17:25:17		x: 939.12
17:25:17		x: 938.56
17:25:17		x: 938.69
17:25:18		x: 938.76
17:25:18		x: 938.84
17:25:18		x: 938.9
17:25:18		x: 938.59
17:25:18		x: 938.72
17:25:19		x: 938.8
17:25:19		x: 939.05
17:25:19		x: 938.79
17:25:19		x: 938.68
17:25:19		x: 938.68
17:25:19		x: 938.86
17:25:20		x: 938.85
17:25:20		x: 938.79
17:25:20		x: 938.87
17:25:20		x: 938.85
17:25:20		x: 938.84
17:25:21		x: 938.85
17:25:21		x: 938.77
17:25:21		x: 938.75
17:25:21		x: 938.85
17:25:21		x: 938.86
17:25:21		x: 938.8
17:25:22		x: 938.86
17:25:22		x: 938.83
17:25:22		x: 938.88
17:25:22		x: 938.76
17:25:22		x: 938.81
17:25:23		x: 938.79
17:25:23		x: 938.8
17:25:23		x: 938.85
17:25:23		x: 938.84
17:25:23		x: 938.76
17:25:23		x: 938.77
17:25:24		x: 938.8
17:25:24		x: 938.79
17:25:24		x: 938.8
17:25:24		x: 938.81
17:25:24		x: 938.8
17:25:24		x: 938.8
17:25:25		x: 938.74
17:25:25		x: 938.8
17:25:25		x: 938.78
17:25:25		x: 938.79
17:25:25		x: 938.82
17:25:26		x: 938.79
17:25:26		x: 938.82
17:25:26		x: 938.77
17:25:26		x: 938.77
17:25:26		x: 938.82
17:25:26		x: 938.77
17:25:27		x: 938.74
17:25:27		x: 938.72
