17:25:01		x: 2.0
17:25:01		x: 3.0
17:25:01		x: 3.0
17:25:02		x: 3.0
17:25:02		x: 3.0
17:25:02		x: 2.0
17:25:02		x: 2.0
17:25:02		x: 3.0
17:25:03		x: 4.0
17:25:03		x: 0.0
17:25:03		x: 0.0
17:25:03		x: 0.0
17:25:03		x: 0.0
17:25:03		x: 0.0
17:25:04		x: 0.0
17:25:04		x: 0.0
17:25:04		x: 0.0
17:25:04		x: 0.0
17:25:04		x: 0.0
17:25:05		x: 0.0
17:25:05		x: 0.0
17:25:05		x: 0.0
17:25:05		x: 0.0
17:25:05		x: 0.0
17:25:05		x: 0.0
17:25:06		x: 0.0
17:25:06		x: 0.0
17:25:06		x: 0.0
17:25:06		x: 0.0
17:25:06		x: 0.0
17:25:07		x: 0.0
17:25:07		x: 0.0
17:25:07		x: 0.0
17:25:07		x: 0.0
17:25:07		x: 0.0
17:25:07		x: 0.0
17:25:08		x: 0.0
17:25:08		x: 0.0
17:25:08		x: 0.0
17:25:08		x: 0.0
17:25:08		x: 0.0
17:25:09		x: 0.0
17:25:09		x: 0.0
17:25:09		x: 0.0
17:25:09		x: 0.0
17:25:09		x: 0.0
17:25:09		x: 0.0
17:25:10		x: 0.0
17:25:10		x: 0.0
17:25:10		x: 0.0
17:25:10		x: 0.0
17:25:10		x: 0.0
17:25:10		x: 0.0
17:25:11		x: 0.0
17:25:11		x: 0.0
17:25:11		x: 0.0
17:25:12		x: 0.0
17:25:12		x: 0.0
17:25:12		x: 0.0
17:25:12		x: 0.0
17:25:12		x: 0.0
17:25:12		x: 0.0
17:25:12		x: 0.0
17:25:12		x: 0.0
17:25:13		x: 0.0
17:25:13		x: 0.0
17:25:13		x: 0.0
17:25:13		x: 0.0
17:25:14		x: 0.0
17:25:14		x: 0.0
17:25:14		x: 0.0
17:25:14		x: 0.0
17:25:14		x: 0.0
17:25:14		x: 0.0
17:25:15		x: 0.0
17:25:15		x: 0.0
17:25:15		x: 0.0
17:25:15		x: 0.0
17:25:15		x: 0.0
17:25:16		x: 0.0
17:25:16		x: 0.0
17:25:16		x: 0.0
17:25:16		x: 0.0
17:25:16		x: 0.0
17:25:16		x: 0.0
17:25:17		x: 0.0
17:25:17		x: 0.0
17:25:17		x: 0.0
17:25:17		x: 0.0
17:25:17		x: 0.0
17:25:18		x: 0.0
17:25:18		x: 0.0
17:25:18		x: 0.0
17:25:18		x: 0.0
17:25:18		x: 0.0
17:25:18		x: 0.0
17:25:19		x: 0.0
17:25:19		x: 0.0
17:25:19		x: 0.0
17:25:19		x: 0.0
17:25:19		x: 0.0
17:25:19		x: 0.0
17:25:20		x: 0.0
17:25:20		x: 0.0
17:25:20		x: 0.0
17:25:20		x: 0.0
17:25:20		x: 0.0
17:25:21		x: 0.0
17:25:21		x: 0.0
17:25:21		x: 0.0
17:25:21		x: 0.0
17:25:21		x: 0.0
17:25:22		x: 0.0
17:25:22		x: 1.0
17:25:22		x: 0.0
17:25:22		x: 0.0
17:25:22		x: 0.0
17:25:22		x: 0.0
17:25:23		x: 0.0
17:25:23		x: 0.0
17:25:23		x: 3.0
17:25:23		x: 8.0
17:25:23		x: 7.0
17:25:23		x: 7.0
17:25:24		x: 6.0
17:25:24		x: 6.0
17:25:24		x: 6.0
17:25:24		x: 5.0
17:25:24		x: 5.0
17:25:24		x: 10.0
17:25:25		x: 9.0
17:25:25		x: 9.0
17:25:25		x: 9.0
17:25:25		x: 9.0
17:25:25		x: 9.0
17:25:26		x: 9.0
17:25:26		x: 9.0
17:25:26		x: 9.0
17:25:26		x: 9.0
17:25:26		x: 9.0
17:25:26		x: 8.0
17:25:27		x: 8.0
17:25:27		x: 5.0
