17:21:36		x: -0.741604	y: 9.097966	z: -1.9165585
17:21:37		x: -2.0087352	y: 9.549872	z: -1.8818425
17:21:37		x: -0.688333	y: 8.861539	z: -4.6417584
17:21:37		x: -5.3648076	y: 8.121132	z: 4.3101616
17:21:37		x: -6.82946	y: 6.39192	z: 9.454104
17:21:37		x: 0.40761283	y: 9.184756	z: -0.40222588
17:21:38		x: -0.6434417	y: 9.051878	z: -1.2210429
17:21:38		x: 2.9987376	y: 7.915829	z: -2.681506
17:21:38		x: 1.6765398	y: 3.5583823	z: -8.193557
17:21:38		x: 4.072537	y: 4.819528	z: -6.581062
17:21:38		x: 4.8039656	y: 5.517438	z: -8.455722
17:21:38		x: -1.8662802	y: 3.781043	z: -3.9863458
17:21:39		x: 3.716998	y: 4.7937903	z: -8.513782
17:21:39		x: 2.2110453	y: 4.964976	z: -5.5707088
17:21:39		x: 3.3638535	y: 7.0263834	z: -7.038953
17:21:39		x: 2.6168625	y: 6.3099184	z: -6.345233
17:21:39		x: 0.3752911	y: 9.580399	z: 0.040102877
17:21:40		x: 8.707113	y: 8.887876	z: -5.769428
17:21:40		x: -3.083732	y: 10.313622	z: 9.535507
17:21:40		x: -10.1621895	y: 6.6056023	z: -1.5502456
17:21:40		x: 7.727885	y: -1.18094	z: -2.2709002
17:21:40		x: -9.390657	y: 3.615843	z: -6.655881
17:21:40		x: 2.7994204	y: 5.731719	z: -6.0285997
17:21:41		x: -2.9861681	y: 2.9334955	z: -8.793304
17:21:41		x: 0.022146367	y: 4.7614684	z: -10.462063
17:21:41		x: -6.191406	y: -0.37110126	z: -11.4915695
17:21:41		x: 5.4402246	y: 9.664794	z: -16.915634
17:21:41		x: -8.232463	y: 3.288436	z: -19.292477
17:21:42		x: 2.3582888	y: 2.1799207	z: -10.263943
17:21:42		x: -5.08289	y: 3.008913	z: -10.076596
17:21:42		x: -2.2613235	y: 6.551733	z: -6.0806737
17:21:42		x: -3.2148144	y: -4.0360255	z: -6.871359
17:21:42		x: -4.2742486	y: -5.3259015	z: -8.444948
17:21:42		x: -3.028665	y: -1.168969	z: -7.756615
17:21:43		x: -3.311181	y: -0.7517793	z: -8.224682
17:21:43		x: -2.9550436	y: -0.6548142	z: -8.438962
17:21:43		x: -2.7790697	y: -0.6063316	z: -8.396465
17:21:43		x: -2.9873652	y: -0.7020996	z: -8.531737
17:21:43		x: -3.093907	y: -0.6063316	z: -8.437765
17:21:44		x: -2.9753942	y: -0.6206968	z: -8.392874
17:21:44		x: -3.032855	y: -0.5351041	z: -8.508394
17:21:44		x: -3.0992942	y: -0.6135142	z: -8.345589
17:21:44		x: -3.1112652	y: -0.6512229	z: -8.500014
17:21:44		x: -3.1292217	y: -0.59735334	z: -8.482059
17:21:46		x: -3.05141	y: -0.6865373	z: -8.359355
17:21:46		x: -3.1094694	y: -0.5141548	z: -8.409035
17:21:47		x: -3.1705215	y: -0.5710171	z: -8.367136
17:21:47		x: -3.1866825	y: -0.61530983	z: -8.322245
17:21:47		x: -3.2728736	y: -0.5674258	z: -8.3408
17:21:47		x: -3.3500867	y: -0.635062	z: -8.304289
17:21:47		x: -3.2668881	y: -0.49919105	z: -8.422203
17:21:47		x: -3.389591	y: -0.5847838	z: -8.228871
17:21:47		x: -3.9564183	y: -0.7697359	z: -7.716512
17:21:47		x: -3.892972	y: -0.8086416	z: -8.127118
17:21:47		x: -4.2119994	y: -0.8050503	z: -7.876325
17:21:48		x: -3.9947255	y: -0.7266402	z: -7.9026613
17:21:48		x: -4.1545386	y: -0.80445176	z: -7.914034
17:21:48		x: -4.1060557	y: -0.7541735	z: -7.929596
17:21:48		x: -4.06296	y: -0.76434886	z: -8.011598
17:21:48		x: -4.015076	y: -0.7954735	z: -7.8906903
17:21:48		x: -3.8612487	y: -0.9540894	z: -8.00621
17:21:48		x: -3.719991	y: -1.0821792	z: -8.081029
17:21:49		x: -3.6415808	y: -1.0390835	z: -8.199542
17:21:49		x: -3.4811692	y: -0.91937345	z: -7.928399
17:21:49		x: -3.5523968	y: -1.0720038	z: -8.34499
17:21:50		x: -3.241749	y: -0.6781576	z: -7.9930425
17:21:50		x: -3.4422636	y: -0.7110779	z: -8.640674
17:21:50		x: -3.5535939	y: -0.29328972	z: -7.6692266
17:21:50		x: -4.4155064	y: 1.0977415	z: -6.6229606
17:21:50		x: -5.637148	y: 0.0011971008	z: -9.013571
17:21:50		x: -3.3979707	y: 1.5304934	z: -7.928399
17:21:51		x: -7.430405	y: 4.642956	z: -5.6239796
17:21:51		x: -8.126519	y: 3.470994	z: -3.6511576
17:21:51		x: -7.877522	y: 1.632247	z: -4.9164934
17:21:51		x: -6.9647326	y: 2.042254	z: -5.627571
17:21:51		x: -8.554482	y: 2.12246	z: -5.551555
17:21:52		x: -5.2804117	y: 2.0087352	z: -4.821324
17:21:52		x: -7.4082584	y: 1.8938135	z: -4.754286
17:21:52		x: -9.594165	y: 1.5101427	z: -2.9867666
17:21:52		x: -7.529764	y: 0.9900024	z: -6.555923
17:21:52		x: -7.3208704	y: 1.4646529	z: -4.033033
17:21:52		x: -7.1466923	y: 2.4109612	z: -4.284424
17:21:53		x: -6.7827735	y: 1.5586253	z: -4.7399206
17:21:53		x: -9.337985	y: 0.15442601	z: -4.107253
17:21:52		x: -9.870096	y: -0.7517793	z: -4.2419267
17:21:52		x: -9.83957	y: -2.0242975	z: -4.4568067
17:21:52		x: -7.349002	y: -0.30585927	z: -3.9935284
17:21:52		x: -3.7666779	y: 0.7140707	z: -8.438364
17:21:52		x: -0.76195467	y: -3.394978	z: -9.562442
17:21:53		x: -0.43634325	y: -1.448492	z: -8.808268
17:21:53		x: -3.5853171	y: -0.65421563	z: -8.928576
17:21:53		x: -2.3475149	y: -3.043629	z: -9.392453
17:21:53		x: -1.8423382	y: -3.3476925	z: -7.37055
17:21:53		x: -2.9029696	y: -1.8369513	z: -8.828619
17:21:53		x: -5.29777	y: -2.6563668	z: -7.478289
17:21:54		x: -4.284424	y: -4.684854	z: -6.3141084
17:21:54		x: -3.8654387	y: -4.673482	z: -7.2328835
17:21:54		x: -2.4169466	y: -4.9943047	z: -7.294534
17:21:54		x: -2.6701334	y: -4.160524	z: -8.0924015
17:21:54		x: -0.14724341	y: -3.7702692	z: -8.207922
17:21:55		x: 0.12030864	y: -3.867833	z: -8.02716
17:21:55		x: -1.3251907	y: -5.0374002	z: -5.763442
17:21:55		x: 2.486977	y: -8.109759	z: -6.5152216
17:21:55		x: 0.60932434	y: -8.583213	z: -1.8339585
17:21:55		x: 3.5093012	y: -11.249157	z: -1.4766239
17:21:56		x: 4.747103	y: -9.498995	z: -6.8982935
17:21:56		x: 0.95468795	y: -10.10413	z: 0.736217
17:21:56		x: 0.24899697	y: -10.296863	z: 2.0859482
17:21:56		x: 1.0127473	y: -8.863934	z: 1.8890251
17:21:56		x: 1.9776106	y: -9.427768	z: 0.3890578
17:21:56		x: 1.335366	y: -9.154829	z: 1.9213469
17:21:57		x: -1.0085574	y: -15.866375	z: -1.365892
17:21:57		x: -2.3529017	y: -10.406398	z: 3.8498764
17:21:57		x: -5.9543796	y: -8.702923	z: 3.132813
17:21:57		x: 4.9799395	y: -2.7311857	z: 1.395221
17:21:57		x: -2.9628246	y: -0.4961983	z: 10.1939125
17:21:57		x: -1.4383167	y: -2.653374	z: 9.919776
17:21:58		x: -4.624999	y: -3.2716765	z: 6.679823
17:21:58		x: -3.1860838	y: -1.7770962	z: 10.632649
17:21:58		x: -4.5962687	y: -2.585738	z: 9.68275
17:21:58		x: 0.8655039	y: 1.6208745	z: 11.151593
17:21:58		x: 1.1773487	y: 2.3169887	z: 10.242394
17:21:58		x: -1.8854338	y: 3.8444893	z: 12.501324
17:21:59		x: 3.7684734	y: 3.4302924	z: 7.2352777
17:21:59		x: 7.5692687	y: 3.4123359	z: 5.6999955
17:21:59		x: 8.393473	y: 3.5859156	z: 4.1718965
17:21:59		x: 8.4425535	y: 3.2267854	z: 5.0763063
17:21:59		x: 6.4068837	y: 2.8365304	z: 6.791153
17:22:00		x: 3.6475663	y: 3.068768	z: 7.7494326
17:22:00		x: -1.086369	y: 0.142455	z: 11.697471
17:22:00		x: 3.6894648	y: -0.29269117	z: 10.852917
17:22:00		x: -1.1558008	y: 2.2655134	z: 7.047931
17:22:00		x: 0.36272156	y: 3.0777464	z: 9.485229
17:22:00		x: 1.7932571	y: 2.8502972	z: 9.749788
17:22:01		x: 0.53330845	y: 3.2800562	z: 10.939706
17:22:01		x: -2.3008277	y: 2.4762032	z: 9.825804
17:22:01		x: -1.9542671	y: 3.1902738	z: 7.023391
17:22:01		x: 0.3333926	y: 2.949058	z: 11.27669
17:22:01		x: -0.009576807	y: 3.306991	z: 9.843162
17:22:02		x: 0.05267244	y: 3.2064347	z: 9.593566
17:22:02		x: -0.01436521	y: 3.0801406	z: 10.168773
17:22:02		x: 0.01436521	y: 3.043629	z: 9.239224
17:22:02		x: 0.048482586	y: 3.5990837	z: 9.8276
17:22:02		x: 0.7589619	y: 3.933075	z: 10.199898
17:22:02		x: 0.4770447	y: 4.2383356	z: 9.840169
17:22:03		x: -2.7180176	y: 5.161899	z: 8.34499
17:22:03		x: -3.1501708	y: 5.2199583	z: 9.090784
