17:21:36		x: 0.08032878	y: -0.18112154	z: 0.0021380284
17:21:37		x: 0.6533204	y: -0.11575896	z: -0.6795876
17:21:37		x: 1.7266107	y: -2.307238	z: -0.45814893
17:21:37		x: -0.124005646	y: -3.850589	z: -0.5589417
17:21:37		x: 1.4034629	y: -3.7394116	z: -0.6123924
17:21:37		x: 2.0916026	y: -7.6718564	z: -0.5992588
17:21:38		x: 0.6740898	y: -8.412226	z: 1.7867808
17:21:38		x: 2.1945333	y: -3.6010506	z: 3.2259793
17:21:38		x: -0.33414328	y: -6.9186597	z: -0.04062254
17:21:38		x: -0.4728097	y: 0.33536503	z: -0.5879578
17:21:38		x: 0.12980886	y: 1.9242256	z: -0.42363504
17:21:38		x: -0.43066	y: -0.22968534	z: 0.007941248
17:21:39		x: 0.5656612	y: -0.49113566	z: 0.42913285
17:21:39		x: -0.34422258	y: -0.31764993	z: 0.19822577
17:21:39		x: -0.46395215	y: 0.14446963	z: 0.03726278
17:21:39		x: -1.6676621	y: -0.04062254	z: -0.5158757
17:21:39		x: -2.065641	y: 0.926988	z: -0.6927212
17:21:40		x: -0.65484756	y: 1.6096299	z: -3.4565809
17:21:40		x: -2.3026567	y: 1.6087136	z: 0.57757306
17:21:40		x: -0.45112398	y: 0.3744604	z: 0.24098633
17:21:40		x: 5.387526	y: 1.5693128	z: -2.2000313
17:21:40		x: -1.138042	y: 7.888408	z: 0.9978484
17:21:40		x: 0.50701815	y: -1.5818355	z: 1.2315043
17:21:41		x: 0.31398472	y: 0.2959642	z: 0.7125743
17:21:41		x: -1.1795808	y: 1.0198395	z: -2.488054
17:21:41		x: 1.6994271	y: 1.5338826	z: -0.35521814
17:21:41		x: -0.4700608	y: 0.03268129	z: 2.919325
17:21:41		x: -1.1258247	y: 1.5625933	z: -1.0873401
17:21:42		x: -0.06627888	y: 5.41868	z: -0.36682457
17:21:42		x: 0.9602802	y: -2.1111503	z: -0.37659842
17:21:42		x: 0.9993755	y: 0.9468411	z: -0.70829827
17:21:42		x: 1.2431108	y: 1.1893547	z: -2.6196957
17:21:42		x: -0.03268129	y: 0.8903361	z: -0.25686884
17:21:42		x: 0.3631594	y: -0.2275473	z: -0.025045475
17:21:43		x: -0.017715093	y: 0.115453534	z: -0.043982297
17:21:43		x: -0.01282817	y: 9.162979E-4	z: -0.056199603
17:21:43		x: 0.008857546	y: 0.089491755	z: -0.018936822
17:21:43		x: 0.01863139	y: -0.029321533	z: -0.04795292
17:21:43		x: 0.013744468	y: -0.029932396	z: -0.028710667
17:21:44		x: 0.03023783	y: 0.0021380284	z: -0.0076358155
17:21:44		x: 0.017715093	y: 0.020463986	z: -0.013439035
17:21:44		x: 0.021380283	y: -0.028710667	z: -0.005192355
17:21:44		x: 0.029932396	y: -3.0543262E-4	z: -0.01160644
17:21:44		x: 0.035124753	y: -0.017715093	z: -0.016493361
17:21:46		x: 0.02321288	y: 0.013744468	z: 0.0036651916
17:21:47		x: 0.028099801	y: -0.004886922	z: 0.008246681
17:21:47		x: 0.02107485	y: -0.012217305	z: -0.013439035
17:21:47		x: 0.03145956	y: -0.008246681	z: 0.0030543262
17:21:47		x: 0.020158553	y: -0.028710667	z: -0.009773844
17:21:47		x: 0.034513887	y: -0.017104227	z: -0.017104227
17:21:47		x: 0.043982297	y: 0.013744468	z: -0.016187929
17:21:47		x: 0.23060162	y: 0.019547688	z: 0.016493361
17:21:47		x: -0.021380283	y: -0.15790866	z: 0.119729586
17:21:47		x: -0.01985312	y: -0.28221974	z: -0.04428773
17:21:47		x: 0.028405234	y: 0.09162979	z: 0.0030543262
17:21:48		x: 0.02565634	y: -0.04886922	z: -0.005192355
17:21:48		x: 0.024740042	y: 0.028099801	z: -0.008552114
17:21:48		x: 0.019242255	y: 0.008246681	z: 0.004886922
17:21:48		x: 0.043066	y: 6.1086525E-4	z: -0.011911872
17:21:48		x: 0.0571159	y: 0.015882496	z: -0.033292156
17:21:48		x: 0.06536258	y: 0.026267206	z: -0.036957346
17:21:48		x: 0.08368854	y: 0.13530666	z: -0.01985312
17:21:49		x: -0.01985312	y: 0.10903945	z: 0.008552114
17:21:49		x: -0.04062254	y: 0.0290161	z: 0.009468411
17:21:49		x: 0.0027488936	y: -0.06688975	z: -0.01160644
17:21:50		x: -0.116980694	y: 0.029626964	z: -0.028710667
17:21:50		x: -0.021380283	y: 0.14172074	z: 0.03848451
17:21:50		x: 0.027183503	y: 0.002443461	z: 0.2049453
17:21:50		x: -0.80939645	y: -0.79779	z: -0.1151481
17:21:50		x: -0.8775079	y: -0.0571159	z: -0.2415972
17:21:50		x: -1.2027937	y: -0.03176499	z: -0.3200934
17:21:51		x: -1.2330315	y: -0.3286455	z: -0.8906415
17:21:51		x: -0.08735373	y: -0.8081747	z: -0.8677341
17:21:51		x: 0.42394048	y: -0.63071835	z: -0.6401868
17:21:51		x: 0.25778514	y: 0.20647246	z: 0.15241088
17:21:51		x: 0.29168814	y: 0.48258355	z: 0.20586158
17:21:52		x: -0.5018258	y: 0.59742624	z: 0.26053402
17:21:52		x: -0.46181414	y: 0.02107485	z: -0.4251622
17:21:52		x: 0.28130344	y: -0.8564331	z: -0.106901415
17:21:52		x: 0.09743301	y: 0.017715093	z: 0.32436943
17:21:52		x: 0.04795292	y: 0.321926	z: 0.4456262
17:21:52		x: 0.07971791	y: -0.27580565	z: 0.32711834
17:21:53		x: -0.28496864	y: 0.05681047	z: -0.8732319
17:21:52		x: -0.4990769	y: -0.37690386	z: -1.1896601
17:21:52		x: -0.4382958	y: -0.070554934	z: -0.36285394
17:21:52		x: -0.33383787	y: -0.5925393	z: -0.7797695
17:21:52		x: -0.41325033	y: 0.8436049	z: -0.021380283
17:21:52		x: 0.13591751	y: 1.5601498	z: -0.43951756
17:21:52		x: -0.15760323	y: 1.8164078	z: -0.9117164
17:21:53		x: -0.7104363	y: 0.82986045	z: -1.0454959
17:21:53		x: 0.31673363	y: 0.86254174	z: -0.5561928
17:21:53		x: 1.1603385	y: -0.26175576	z: 0.21655174
17:21:53		x: -0.34025195	y: -0.37384954	z: 0.43493605
17:21:53		x: 0.45753807	y: 0.01863139	z: 0.15454891
17:21:53		x: 0.6270532	y: -0.046731193	z: -0.37384954
17:21:54		x: 0.72295904	y: -0.59498274	z: -0.25137106
17:21:54		x: 0.064751714	y: -0.17837265	z: -0.4428773
17:21:54		x: -0.5693264	y: 0.41325033	z: -1.2030991
17:21:54		x: -0.97158116	y: -0.48563787	z: -1.5289958
17:21:54		x: 0.05955936	y: 0.4859433	z: -0.44073927
17:21:55		x: 0.7257079	y: 0.45937067	z: 0.022907447
17:21:55		x: 1.3897184	y: 0.66675943	z: -0.20097467
17:21:55		x: 1.3271047	y: -1.0009027	z: -0.65240407
17:21:55		x: 1.0030408	y: -0.30818152	z: 0.32284227
17:21:55		x: 1.4407257	y: 0.7165449	z: 0.70249504
17:21:56		x: 2.0992384	y: 2.644741	z: 0.40775254
17:21:56		x: 0.8179486	y: 4.1413608	z: 0.25625798
17:21:56		x: 1.0571023	y: -0.528093	z: -0.19211712
17:21:56		x: -0.12217305	y: 0.41080686	z: -0.33200526
17:21:56		x: 0.29077184	y: -1.3927728	z: -0.07422013
17:21:56		x: -0.04734206	y: 0.30787608	z: 0.05681047
17:21:57		x: -0.25320363	y: -0.11209377	z: -0.38973203
17:21:57		x: 1.421178	y: 0.8081747	z: 0.4098906
17:21:57		x: 0.110872045	y: -0.8530733	z: 0.926988
17:21:57		x: 3.4953709	y: -0.75991637	z: 1.817935
17:21:57		x: 1.4874569	y: -0.15515977	z: -0.7825184
17:21:57		x: -0.44868052	y: -2.3054054	z: -0.80756384
17:21:58		x: -0.4529566	y: 0.1872302	z: 0.40866885
17:21:58		x: -0.63041294	y: -0.15699236	z: 2.2971587
17:21:58		x: 0.10445796	y: -0.8194757	z: 1.9666806
17:21:58		x: 0.44348818	y: -1.9645426	z: 2.133447
17:21:58		x: 0.8029824	y: -1.9874501	z: 0.0711658
17:21:59		x: 0.29840767	y: 0.37873647	z: -0.14966199
17:21:59		x: 0.6398814	y: -1.9669861	z: 0.75136423
17:21:59		x: 1.0512991	y: -1.4908166	z: 0.18234327
17:21:59		x: 0.34483343	y: -1.3542882	z: 0.7626653
17:21:59		x: 0.87964594	y: -0.7339546	z: 1.8127426
17:21:59		x: 1.2770138	y: 1.8997909	z: 0.61422503
17:22:00		x: 0.32834008	y: 1.3096951	z: 0.3827071
17:22:00		x: -0.06414085	y: 1.3252722	z: -0.5479461
17:22:00		x: 0.70188415	y: -0.3295618	z: 0.5149594
17:22:00		x: -0.2003638	y: 0.95142263	z: 0.30695978
17:22:00		x: 0.364992	y: 0.8356637	z: 1.0503827
17:22:00		x: -0.096516706	y: 0.069027774	z: -0.3417791
17:22:01		x: 0.16646078	y: -0.056199603	z: 0.0143553335
17:22:01		x: 0.29840767	y: 0.047647487	z: -0.22418754
17:22:01		x: 0.35246924	y: 1.1010846	z: -0.15118915
17:22:01		x: -0.021685716	y: 0.84635377	z: 0.042455133
17:22:01		x: 0.19517145	y: 0.84635377	z: 0.002443461
17:22:02		x: -0.08155051	y: -0.03940081	z: 0.036651913
17:22:02		x: -0.069027774	y: -0.14996742	z: -0.047036625
17:22:02		x: 0.20769419	y: 0.16218472	z: 0.14172074
17:22:02		x: 0.052839845	y: -0.22693644	z: 0.06383542
17:22:02		x: 0.06963864	y: -0.23335053	z: 0.071776666
17:22:02		x: 0.5186246	y: -0.01863139	z: 0.12492194
17:22:03		x: 0.15363261	y: -0.5626069	z: -0.12064589
17:22:03		x: 0.52656585	y: 0.7993172	z: -0.10567969
