13 1:229.778608158 2:229.778608158 3:229.778608158 4:0.0 5:0.0 6:5.99520433298e-15 7:5.99520433298e-15 8:5.99520433298e-15 9:0.0 10:0.0 11:5.99520433298e-15 12:5.99520433298e-15 13:5.99520433298e-15 14:0.0 15:0.0 16:-7.77156117238e-16 17:-7.77156117238e-16 18:-7.77156117238e-16 19:0.0 20:0.0 21:-7.77156117238e-16 22:-7.77156117238e-16 23:-7.77156117238e-16 24:0.0 25:0.0 26:-6.10622663544e-16 27:-6.10622663544e-16 28:-6.10622663544e-16 29:0.0 30:0.0 
13 1:228.941398295 2:226.854461342 3:228.243346769 4:0.652155467552 5:0.425306753858 6:0.618059026224 7:-0.521304432217 8:-9.62193288008e-16 9:0.344481906114 10:0.11866778364 11:0.613907971858 12:-0.53781830239 13:-2.73855012741e-15 14:0.350538388393 15:0.122877161737 16:0.902897209434 17:-0.872180948373 18:-1.22124532709e-15 19:0.548284140552 20:0.30061549878 21:0.284306940633 22:-0.300482305655 23:-1.60982338571e-15 24:0.179748779316 25:0.0323096236655 26:0.125992927311 27:-0.127060385302 28:0.00110137785405 29:0.0863111804907 30:0.0074496198777 
13 1:226.820944541 2:226.820944541 3:226.820944541 4:0.0 5:0.0 6:1.11022302463e-15 7:1.11022302463e-15 8:1.11022302463e-15 9:0.0 10:0.0 11:7.9936057773e-15 12:7.9936057773e-15 13:7.9936057773e-15 14:0.0 15:0.0 16:-6.99440505514e-15 17:-6.99440505514e-15 18:-6.99440505514e-15 19:0.0 20:0.0 21:-5.21804821574e-15 22:-5.21804821574e-15 23:-5.21804821574e-15 24:0.0 25:0.0 26:-9.99200722163e-16 27:-9.99200722163e-16 28:-9.99200722163e-16 29:0.0 30:0.0 
