19:39:55		x: 53.089172
19:39:56		x: 53.089172
19:39:57		x: 53.669266
19:39:58		x: 53.669266
19:39:59		x: 53.669266
19:39:59		x: 53.825336
19:40:01		x: 53.825336
19:40:01		x: 53.825336
19:40:02		x: 53.825336
19:40:03		x: 53.825336
19:40:04		x: 53.825336
19:40:05		x: 52.996822
19:40:06		x: 52.996822
19:40:07		x: 52.996822
19:40:08		x: 52.207718
19:40:09		x: 52.207718
