19:40:56		x: -134.298	y: -222.317	z: -225.44
19:40:57		x: -134.298	y: -221.784	z: -225.44
19:40:57		x: -136.941	y: -221.267	z: -225.07
19:40:57		x: -135.76	y: -221.267	z: -226.925
19:40:57		x: -129.652	y: -219.192	z: -228.91
19:40:57		x: -124.522	y: -217.547	z: -232.678
19:40:58		x: -117.416	y: -196.675	z: -229.478
19:40:58		x: -202.749	y: -240.872	z: -191.732
19:40:58		x: -165.606	y: -218.196	z: -210.867
19:40:58		x: 51.321	y: 31.872	z: -77.992
19:40:58		x: 18.278	y: 33.314	z: -25.567
19:40:58		x: 22.143	y: 30.255	z: -25.965
19:40:59		x: -20.141	y: 0.981	z: -10.96
19:40:59		x: -37.438	y: 3.073	z: -3.431
19:40:59		x: -41.197	y: 0.112	z: -5.839
19:40:59		x: -41.952	y: 0.112	z: -8.831
19:40:59		x: -42.98	y: 0.643	z: -11.796
19:41:00		x: -40.422	y: 1.403	z: -15.127
19:41:00		x: -36.735	y: -1.397	z: -9.132
19:41:00		x: -36.195	y: -4.287	z: -5.857
19:41:00		x: -35.169	y: -2.22	z: -8.952
19:41:00		x: 5.242	y: 35.595	z: -11.154
19:41:00		x: 6.404	y: 35.595	z: -8.285
19:41:01		x: 14.804	y: 43.704	z: -29.133
19:41:01		x: -1.808	y: 53.434	z: -18.598
19:41:01		x: -5.624	y: 56.277	z: -16.136
19:41:01		x: -5.978	y: 57.038	z: -15.589
19:41:01		x: -5.551	y: 57.038	z: -14.5
19:41:02		x: -7.083	y: 58.776	z: -14.872
19:41:02		x: -8.367	y: 58.776	z: -18.884
19:41:02		x: -10.972	y: 57.896	z: -22.537
19:41:02		x: -12.333	y: 55.953	z: -26.318
19:41:02		x: -14.277	y: 53.579	z: -29.393
19:41:02		x: -15.567	y: 52.401	z: -32.078
19:41:03		x: -16.635	y: 52.851	z: -32.078
19:41:03		x: -15.31	y: 52.851	z: -30.992
19:41:03		x: -15.847	y: 52.2	z: -32.199
19:41:03		x: -15.847	y: 51.792	z: -31.718
19:41:03		x: -16.249	y: 51.411	z: -32.626
19:41:04		x: -16.249	y: 51.411	z: -33.209
19:41:04		x: -15.777	y: 51.411	z: -32.672
19:41:04		x: -14.886	y: 50.086	z: -33.863
19:41:04		x: -14.208	y: 51.927	z: -32.586
19:41:04		x: -14.849	y: 55.514	z: -28.512
19:41:04		x: -14.457	y: 58.062	z: -23.76
19:41:05		x: -16.444	y: 60.951	z: -20.123
19:41:05		x: -17.852	y: 61.454	z: -20.825
19:41:05		x: -16.532	y: 60.739	z: -21.585
19:41:05		x: -12.812	y: 57.925	z: -23.611
19:41:05		x: -10.876	y: 56.35	z: -24.847
19:41:05		x: -10.876	y: 57.525	z: -22.024
19:41:06		x: -9.184	y: 57.525	z: -20.034
19:41:06		x: -7.992	y: 57.525	z: -18.751
19:41:06		x: -8.505	y: 57.525	z: -19.129
19:41:06		x: -8.505	y: 57.525	z: -20.556
19:41:06		x: -12.431	y: 54.174	z: -28.379
19:41:07		x: -15.27	y: 51.722	z: -32.574
19:41:07		x: -16.445	y: 51.722	z: -33.078
19:41:07		x: -16.107	y: 51.411	z: -33.078
19:41:07		x: -15.42	y: 52.227	z: -32.273
19:41:07		x: -15.093	y: 51.625	z: -32.798
19:41:07		x: -13.433	y: 53.912	z: -29.849
19:41:08		x: -10.128	y: 55.924	z: -25.106
19:41:08		x: -9.519	y: 57.385	z: -21.82
19:41:08		x: -9.519	y: 56.849	z: -21.444
19:41:08		x: -9.519	y: 56.849	z: -20.761
19:41:08		x: -9.184	y: 56.849	z: -20.761
19:41:09		x: -8.744	y: 56.335	z: -20.761
19:41:09		x: -8.016	y: 57.348	z: -19.079
19:41:09		x: -8.95	y: 58.973	z: -17.375
19:41:09		x: -9.918	y: 60.571	z: -17.375
19:41:09		x: -14.596	y: 62.307	z: -16.622
19:41:09		x: -17.324	y: 63.098	z: -16.622
19:41:10		x: -18.585	y: 63.098	z: -18.165
19:41:10		x: -19.697	y: 62.274	z: -19.866
19:41:10		x: -19.697	y: 61.273	z: -22.622
19:41:10		x: -19.697	y: 58.207	z: -27.76
19:41:10		x: -17.544	y: 53.446	z: -32.299
19:41:11		x: -14.953	y: 51.512	z: -33.605
19:41:11		x: -10.844	y: 53.956	z: -28.773
19:41:11		x: -10.244	y: 55.32	z: -25.738
19:41:11		x: -10.244	y: 54.118	z: -27.951
19:41:11		x: -16.308	y: 55.523	z: -31.518
19:41:11		x: -15.931	y: 54.653	z: -33.306
19:41:12		x: -74.948	y: -90.925	z: -227.215
19:41:12		x: -274.261	y: -264.248	z: -191.835
19:41:12		x: -166.281	y: -219.059	z: -218.168
19:41:12		x: -136.154	y: -201.612	z: -253.924
19:41:12		x: -120.619	y: -174.177	z: -293.513
19:41:13		x: -133.781	y: -189.309	z: -281.506
19:41:13		x: -156.356	y: -204.141	z: -200.7
19:41:13		x: -155.439	y: -204.141	z: -199.143
19:41:13		x: -152.357	y: -204.708	z: -198.463
19:41:13		x: -150.726	y: -204.708	z: -195.944
19:41:13		x: -149.063	y: -205.599	z: -195.944
19:41:14		x: -148.573	y: -205.599	z: -195.944
19:41:14		x: -147.753	y: -205.253	z: -195.944
