18:49:09		x: 941.51
18:49:10		x: 941.48
18:49:10		x: 941.52
18:49:10		x: 941.54
18:49:10		x: 941.45
18:49:10		x: 941.55
18:49:10		x: 941.48
18:49:11		x: 941.47
18:49:11		x: 941.5
18:49:11		x: 941.51
18:49:11		x: 941.48
18:49:11		x: 941.47
18:49:12		x: 941.49
18:49:12		x: 941.5
18:49:12		x: 941.56
18:49:12		x: 941.49
18:49:12		x: 941.51
18:49:12		x: 941.52
18:49:13		x: 941.42
18:49:13		x: 941.57
18:49:13		x: 941.48
18:49:13		x: 941.51
18:49:13		x: 941.5
18:49:14		x: 941.5
18:49:14		x: 941.51
18:49:14		x: 941.56
18:49:14		x: 941.53
18:49:14		x: 941.5
18:49:14		x: 941.54
18:49:15		x: 941.53
18:49:15		x: 941.49
18:49:15		x: 941.46
18:49:15		x: 941.47
18:49:15		x: 941.53
18:49:16		x: 941.5
18:49:16		x: 941.52
18:49:16		x: 941.54
18:49:16		x: 941.51
18:49:16		x: 941.47
18:49:16		x: 941.5
18:49:17		x: 941.48
18:49:17		x: 941.45
18:49:17		x: 941.53
18:49:17		x: 941.47
18:49:17		x: 941.48
18:49:17		x: 941.47
18:49:18		x: 941.53
18:49:18		x: 941.53
18:49:18		x: 941.54
18:49:18		x: 941.49
18:49:18		x: 941.5
18:49:19		x: 941.5
18:49:19		x: 941.53
18:49:19		x: 941.43
18:49:19		x: 941.48
18:49:19		x: 941.54
18:49:19		x: 941.46
18:49:20		x: 941.51
18:49:20		x: 941.51
18:49:20		x: 941.51
18:49:20		x: 941.47
18:49:20		x: 941.51
18:49:21		x: 941.48
18:49:21		x: 941.51
18:49:21		x: 941.5
18:49:21		x: 941.46
18:49:21		x: 941.45
18:49:21		x: 941.47
18:49:22		x: 941.49
18:49:22		x: 941.43
18:49:22		x: 941.43
18:49:22		x: 941.43
18:49:22		x: 941.43
18:49:23		x: 941.44
18:49:23		x: 941.45
18:49:23		x: 941.4
18:49:23		x: 941.37
18:49:23		x: 941.35
18:49:23		x: 941.27
18:49:24		x: 941.32
18:49:24		x: 941.26
18:49:24		x: 941.26
18:49:24		x: 941.28
18:49:24		x: 941.25
18:49:24		x: 941.23
18:49:25		x: 941.15
18:49:25		x: 941.19
18:49:25		x: 941.14
18:49:25		x: 941.12
18:49:25		x: 941.06
18:49:26		x: 941.08
18:49:26		x: 941.11
18:49:26		x: 941.13
18:49:26		x: 941.06
18:49:26		x: 941.1
18:49:26		x: 941.01
18:49:27		x: 941.07
18:49:27		x: 941.09
18:49:27		x: 941.11
18:49:27		x: 941.06
18:49:27		x: 941.04
18:49:28		x: 941.04
18:49:28		x: 941.04
18:49:28		x: 941.06
18:49:28		x: 941.05
18:49:28		x: 941.09
18:49:28		x: 941.02
18:49:29		x: 941.07
18:49:29		x: 941.03
18:49:29		x: 941.05
18:49:29		x: 941.04
18:49:29		x: 941.09
18:49:30		x: 941.05
18:49:30		x: 941.05
18:49:30		x: 941.07
18:49:30		x: 941.03
18:49:30		x: 940.99
18:49:30		x: 941.04
18:49:31		x: 941.04
18:49:31		x: 941.01
18:49:31		x: 941.03
18:49:31		x: 940.96
18:49:31		x: 940.99
18:49:32		x: 941.03
18:49:32		x: 940.99
18:49:32		x: 941.0
18:49:32		x: 941.01
18:49:32		x: 940.98
18:49:32		x: 941.06
18:49:33		x: 941.05
18:49:33		x: 941.06
18:49:33		x: 941.06
18:49:33		x: 941.06
18:49:33		x: 941.02
18:49:33		x: 941.01
18:49:34		x: 941.02
18:49:34		x: 940.98
