19:38:33		x: 941.25
19:38:33		x: 941.24
19:38:33		x: 941.3
19:38:33		x: 941.23
19:38:33		x: 941.27
19:38:33		x: 941.23
19:38:34		x: 941.21
19:38:34		x: 941.32
19:38:34		x: 941.22
19:38:34		x: 941.24
19:38:34		x: 941.31
19:38:35		x: 941.26
19:38:35		x: 941.26
19:38:35		x: 941.27
19:38:35		x: 941.27
19:38:35		x: 941.3
19:38:35		x: 941.26
19:38:36		x: 941.31
19:38:36		x: 941.27
19:38:36		x: 941.23
19:38:36		x: 941.3
19:38:36		x: 941.28
19:38:37		x: 941.28
19:38:37		x: 941.22
19:38:37		x: 941.25
19:38:37		x: 941.28
19:38:37		x: 941.29
19:38:37		x: 941.29
19:38:38		x: 941.25
19:38:38		x: 941.29
19:38:38		x: 941.29
19:38:38		x: 941.22
19:38:38		x: 941.29
19:38:38		x: 941.21
19:38:39		x: 941.2
19:38:39		x: 941.22
19:38:39		x: 941.22
19:38:39		x: 941.32
19:38:39		x: 941.27
19:38:40		x: 941.26
19:38:40		x: 941.22
19:38:40		x: 941.19
19:38:40		x: 941.23
19:38:40		x: 941.26
