13:22:47		x: 45.629417
13:22:48		x: 45.182407
13:22:49		x: 45.182407
13:22:50		x: 45.182407
13:22:51		x: 44.78814
13:22:52		x: 44.78814
13:22:53		x: 44.78814
13:22:54		x: 44.7597
13:22:55		x: 44.7597
13:22:56		x: 44.7597
