18:18:26		x: 41.897274
18:18:27		x: 42.01561
18:18:28		x: 42.01561
18:18:29		x: 42.01561
18:18:30		x: 42.01561
18:18:31		x: 42.01561
18:18:31		x: 42.01561
18:18:32		x: 41.905964
18:18:33		x: 41.905964
18:18:34		x: 41.905964
18:18:35		x: 41.905964
18:18:36		x: 41.905964
18:18:37		x: 41.905964
18:18:38		x: 41.97676
18:18:39		x: 41.97676
18:18:40		x: 41.97676
18:18:41		x: 41.97676
18:18:42		x: 41.97676
18:18:43		x: 41.97676
18:18:44		x: 42.213734
